digraph "pip._vendor.distlib.compat.OrderedDict.__reduce__"
{
 // LATEX_PDF_SIZE
  edge [fontname="Helvetica",fontsize="10",labelfontname="Helvetica",labelfontsize="10"];
  node [fontname="Helvetica",fontsize="10",shape=record];
  rankdir="LR";
  Node1 [label="pip._vendor.distlib.compat.\lOrderedDict.__reduce__",height=0.2,width=0.4,color="black", fillcolor="grey75", style="filled", fontcolor="black",tooltip=" "];
  Node1 -> Node2 [color="midnightblue",fontsize="10",style="solid",fontname="Helvetica"];
  Node2 [label="pip._vendor.distlib.compat.\lOrderedDict.copy",height=0.2,width=0.4,color="black", fillcolor="white", style="filled",URL="$d8/dae/classpip_1_1__vendor_1_1distlib_1_1compat_1_1_ordered_dict.html#aeb6f65561b7f0b7502e895d21754dc87",tooltip=" "];
}
