digraph "pip._internal.network.lazy_wheel.LazyZipOverHTTP._stream_response"
{
 // LATEX_PDF_SIZE
  edge [fontname="Helvetica",fontsize="10",labelfontname="Helvetica",labelfontsize="10"];
  node [fontname="Helvetica",fontsize="10",shape=record];
  rankdir="RL";
  Node1 [label="pip._internal.network.lazy\l_wheel.LazyZipOverHTTP.\l_stream_response",height=0.2,width=0.4,color="black", fillcolor="grey75", style="filled", fontcolor="black",tooltip=" "];
  Node1 -> Node2 [dir="back",color="midnightblue",fontsize="10",style="solid"];
  Node2 [label="pip._internal.network.lazy\l_wheel.LazyZipOverHTTP.\l_download",height=0.2,width=0.4,color="black", fillcolor="white", style="filled",URL="$df/d67/classpip_1_1__internal_1_1network_1_1lazy__wheel_1_1_lazy_zip_over_h_t_t_p.html#a1a5f83a3d67455b2a4e1f8fd165fbacd",tooltip=" "];
  Node2 -> Node3 [dir="back",color="midnightblue",fontsize="10",style="solid"];
  Node3 [label="pip._internal.network.lazy\l_wheel.LazyZipOverHTTP.\l_check_zip",height=0.2,width=0.4,color="black", fillcolor="white", style="filled",URL="$df/d67/classpip_1_1__internal_1_1network_1_1lazy__wheel_1_1_lazy_zip_over_h_t_t_p.html#a9fba50276620211939b2dcc6fc5b97b2",tooltip=" "];
  Node2 -> Node4 [dir="back",color="midnightblue",fontsize="10",style="solid"];
  Node4 [label="pip._internal.network.lazy\l_wheel.LazyZipOverHTTP.read",height=0.2,width=0.4,color="black", fillcolor="white", style="filled",URL="$df/d67/classpip_1_1__internal_1_1network_1_1lazy__wheel_1_1_lazy_zip_over_h_t_t_p.html#a077c4b5f9a3b7df8cc9a0c14d61d92c3",tooltip=" "];
  Node4 -> Node5 [dir="back",color="midnightblue",fontsize="10",style="solid"];
  Node5 [label="setuptools.package\l_index.PyPIConfig._\l_init__",height=0.2,width=0.4,color="black", fillcolor="white", style="filled",URL="$d3/d47/classsetuptools_1_1package__index_1_1_py_p_i_config.html#a32593240a32dc851f55b82f1abebbc86",tooltip=" "];
  Node4 -> Node6 [dir="back",color="midnightblue",fontsize="10",style="solid"];
  Node6 [label="pip._vendor.distlib.\l_backport.tarfile._Stream.\l_init_read_gz",height=0.2,width=0.4,color="black", fillcolor="white", style="filled",URL="$de/d60/classpip_1_1__vendor_1_1distlib_1_1__backport_1_1tarfile_1_1___stream.html#ac97a073a9115fa067ef5e786bc9002da",tooltip=" "];
  Node4 -> Node7 [dir="back",color="midnightblue",fontsize="10",style="solid"];
  Node7 [label="pip._vendor.urllib3.response.\lHTTPResponse.data",height=0.2,width=0.4,color="black", fillcolor="white", style="filled",URL="$dd/d5a/classpip_1_1__vendor_1_1urllib3_1_1response_1_1_h_t_t_p_response.html#a6e7ac6d6d58cacbce67ec13daeedeb7c",tooltip=" "];
  Node7 -> Node8 [dir="back",color="midnightblue",fontsize="10",style="solid"];
  Node8 [label="stick_percentage.PlotStick\lPersentage.calculate_stick\l_persentage_all",height=0.2,width=0.4,color="black", fillcolor="white", style="filled",URL="$d5/dde/classstick__percentage_1_1_plot_stick_persentage.html#af48bb274179e15b55b3fc1b826e5e5fe",tooltip=" "];
  Node8 -> Node9 [dir="back",color="midnightblue",fontsize="10",style="solid"];
  Node9 [label="stick_percentage.PlotStick\lPersentage.plot_runs",height=0.2,width=0.4,color="black", fillcolor="white", style="filled",URL="$d5/dde/classstick__percentage_1_1_plot_stick_persentage.html#a4f9b36324dfe277d0206486a13484781",tooltip=" "];
  Node4 -> Node10 [dir="back",color="midnightblue",fontsize="10",style="solid"];
  Node10 [label="pip._vendor.urllib3.response.\lHTTPResponse.drain_conn",height=0.2,width=0.4,color="black", fillcolor="white", style="filled",URL="$dd/d5a/classpip_1_1__vendor_1_1urllib3_1_1response_1_1_h_t_t_p_response.html#a7f5a270331ea4e54ce293b04be44cce6",tooltip=" "];
  Node4 -> Node11 [dir="back",color="midnightblue",fontsize="10",style="solid"];
  Node11 [label="pip._vendor.urllib3.response.\lHTTPResponse.readinto",height=0.2,width=0.4,color="black", fillcolor="white", style="filled",URL="$dd/d5a/classpip_1_1__vendor_1_1urllib3_1_1response_1_1_h_t_t_p_response.html#a3b25c326d49b1d81c2b177e01f46b210",tooltip=" "];
  Node4 -> Node12 [dir="back",color="midnightblue",fontsize="10",style="solid"];
  Node12 [label="pip._vendor.distlib.\l_backport.tarfile._BZ2Proxy.seek",height=0.2,width=0.4,color="black", fillcolor="white", style="filled",URL="$dc/df3/classpip_1_1__vendor_1_1distlib_1_1__backport_1_1tarfile_1_1___b_z2_proxy.html#ac20281fcdccbb8ea0d73a5037fb307c1",tooltip=" "];
  Node4 -> Node13 [dir="back",color="midnightblue",fontsize="10",style="solid"];
  Node13 [label="pip._vendor.distlib.\l_backport.tarfile._Stream.seek",height=0.2,width=0.4,color="black", fillcolor="white", style="filled",URL="$de/d60/classpip_1_1__vendor_1_1distlib_1_1__backport_1_1tarfile_1_1___stream.html#a6a3fe71df75c4dde3115d48570341ef1",tooltip=" "];
  Node4 -> Node14 [dir="back",color="midnightblue",fontsize="10",style="solid"];
  Node14 [label="pip._vendor.urllib3.response.\lHTTPResponse.stream",height=0.2,width=0.4,color="black", fillcolor="white", style="filled",URL="$dd/d5a/classpip_1_1__vendor_1_1urllib3_1_1response_1_1_h_t_t_p_response.html#aad7ca8755c86a2cfe56f28e64b7f9e77",tooltip=" "];
  Node14 -> Node15 [dir="back",color="midnightblue",fontsize="10",style="solid"];
  Node15 [label="pip._vendor.urllib3.response.\lHTTPResponse.__iter__",height=0.2,width=0.4,color="black", fillcolor="white", style="filled",URL="$dd/d5a/classpip_1_1__vendor_1_1urllib3_1_1response_1_1_h_t_t_p_response.html#a6c8b3fa3d2feed5623f67b3cf07755dd",tooltip=" "];
}
