digraph "pip._vendor.pyparsing.Each"
{
 // LATEX_PDF_SIZE
  edge [fontname="Helvetica",fontsize="10",labelfontname="Helvetica",labelfontsize="10"];
  node [fontname="Helvetica",fontsize="10",shape=record];
  Node1 [label="{pip._vendor.pyparsing.Each\n|+ mayReturnEmpty\l+ skipWhitespace\l+ initExprGroups\l+ saveAsList\l+ opt1map\l+ optionals\l+ multioptionals\l+ multirequired\l+ required\l+ strRepr\l|+ __init__()\l+ streamline()\l+ parseImpl()\l+ __str__()\l+ checkRecursion()\l}",height=0.2,width=0.4,color="black", fillcolor="grey75", style="filled", fontcolor="black",tooltip=" "];
  Node2 -> Node1 [dir="back",color="midnightblue",fontsize="10",style="solid",arrowtail="onormal"];
  Node2 [label="{pip._vendor.pyparsing.Parse\lExpression\n|+ exprs\l+ callPreparse\l+ strRepr\l+ skipWhitespace\l+ errmsg\l|+ __init__()\l+ append()\l+ leaveWhitespace()\l+ ignore()\l+ __str__()\l+ streamline()\l+ validate()\l+ copy()\l- _setResultsName()\l}",height=0.2,width=0.4,color="black", fillcolor="white", style="filled",URL="$d3/d90/classpip_1_1__vendor_1_1pyparsing_1_1_parse_expression.html",tooltip=" "];
  Node3 -> Node2 [dir="back",color="midnightblue",fontsize="10",style="solid",arrowtail="onormal"];
  Node3 [label="{pip._vendor.pyparsing.Parser\lElement\n|+ parseAction\l+ failAction\l+ strRepr\l+ resultsName\l+ saveAsList\l+ skipWhitespace\l+ whiteChars\l+ copyDefaultWhiteChars\l+ mayReturnEmpty\l+ keepTabs\land 11 more...\l+ DEFAULT_WHITE_CHARS\l+ verbose_stacktrace\l+ packrat_cache\l+ packrat_cache_lock\l+ packrat_cache_stats\l- _parse\l- _parse\l- _packratEnabled\l|+ __init__()\l+ copy()\l+ setName()\l+ setResultsName()\l+ setBreak()\l+ setParseAction()\l+ addParseAction()\l+ addCondition()\l+ setFailAction()\l+ preParse()\land 45 more...\l+ setDefaultWhitespaceChars()\l+ inlineLiteralsUsing()\l+ resetCache()\l+ enablePackrat()\l- _trim_traceback()\l- _setResultsName()\l- _skipIgnorables()\l- _parseNoCache()\l- _parseCache()\l}",height=0.2,width=0.4,color="black", fillcolor="white", style="filled",URL="$df/d7f/classpip_1_1__vendor_1_1pyparsing_1_1_parser_element.html",tooltip=" "];
  Node4 -> Node3 [dir="back",color="midnightblue",fontsize="10",style="solid",arrowtail="onormal"];
  Node4 [label="{object\n||}",height=0.2,width=0.4,color="grey75", fillcolor="white", style="filled",tooltip=" "];
}
