digraph "pip._internal.resolution.legacy.resolver.Resolver._populate_link"
{
 // LATEX_PDF_SIZE
  edge [fontname="Helvetica",fontsize="10",labelfontname="Helvetica",labelfontsize="10"];
  node [fontname="Helvetica",fontsize="10",shape=record];
  rankdir="LR";
  Node1 [label="pip._internal.resolution.legacy.resolver.\lResolver._populate_link",height=0.2,width=0.4,color="black", fillcolor="grey75", style="filled", fontcolor="black",tooltip=" "];
  Node1 -> Node2 [color="midnightblue",fontsize="10",style="solid"];
  Node2 [label="pip._internal.resolution.legacy.resolver.\lResolver._find_requirement_link",height=0.2,width=0.4,color="black", fillcolor="white", style="filled",URL="$db/d5b/classpip_1_1__internal_1_1resolution_1_1legacy_1_1resolver_1_1_resolver.html#ad60df1edbbae9077fc2f13e93d54e048",tooltip=" "];
  Node2 -> Node3 [color="midnightblue",fontsize="10",style="solid"];
  Node3 [label="pip._internal.resolution.legacy.resolver.\lResolver._is_upgrade_allowed",height=0.2,width=0.4,color="black", fillcolor="white", style="filled",URL="$db/d5b/classpip_1_1__internal_1_1resolution_1_1legacy_1_1resolver_1_1_resolver.html#a828b323ff096e1cdcd34b64422ce6ad1",tooltip=" "];
  Node1 -> Node4 [color="midnightblue",fontsize="10",style="solid"];
  Node4 [label="pip._internal.utils.compatibility\l_tags.get_supported",height=0.2,width=0.4,color="black", fillcolor="white", style="filled",URL="$d8/d94/namespacepip_1_1__internal_1_1utils_1_1compatibility__tags.html#a39be260d2d9d634f84765647432312be",tooltip=" "];
  Node4 -> Node5 [color="midnightblue",fontsize="10",style="solid"];
  Node5 [label="pip._internal.utils.compatibility\l_tags._get_custom_interpreter",height=0.2,width=0.4,color="black", fillcolor="white", style="filled",URL="$d8/d94/namespacepip_1_1__internal_1_1utils_1_1compatibility__tags.html#ac2b7bb84f3d92916afeb89e9cabfdb6a",tooltip=" "];
  Node5 -> Node6 [color="midnightblue",fontsize="10",style="solid"];
  Node6 [label="pip._vendor.packaging.tags.interpreter_name",height=0.2,width=0.4,color="black", fillcolor="white", style="filled",URL="$da/df2/namespacepip_1_1__vendor_1_1packaging_1_1tags.html#ac61b060acc6cd20bcbf8ccd0efff665d",tooltip=" "];
  Node5 -> Node7 [color="midnightblue",fontsize="10",style="solid"];
  Node7 [label="pip._vendor.packaging.tags.interpreter\l_version",height=0.2,width=0.4,color="black", fillcolor="white", style="filled",URL="$da/df2/namespacepip_1_1__vendor_1_1packaging_1_1tags.html#abb01d4d13f8d0d205bbe9d793a83f6f5",tooltip=" "];
  Node7 -> Node8 [color="midnightblue",fontsize="10",style="solid"];
  Node8 [label="pip._vendor.packaging.tags.\l_get_config_var",height=0.2,width=0.4,color="black", fillcolor="white", style="filled",URL="$da/df2/namespacepip_1_1__vendor_1_1packaging_1_1tags.html#a66188d55f57ebf4f78be82c79d842f0a",tooltip=" "];
  Node7 -> Node9 [color="midnightblue",fontsize="10",style="solid"];
  Node9 [label="pip._vendor.packaging.tags.\l_version_nodot",height=0.2,width=0.4,color="black", fillcolor="white", style="filled",URL="$da/df2/namespacepip_1_1__vendor_1_1packaging_1_1tags.html#a7d38202293a612e1821ef7dbccdc9f24",tooltip=" "];
  Node7 -> Node10 [color="midnightblue",fontsize="10",style="solid"];
  Node10 [label="pip._vendor.packaging.tags.\l_warn_keyword_parameter",height=0.2,width=0.4,color="black", fillcolor="white", style="filled",URL="$da/df2/namespacepip_1_1__vendor_1_1packaging_1_1tags.html#a5aafabe33891ce10e3790faa3632832c",tooltip=" "];
  Node4 -> Node11 [color="midnightblue",fontsize="10",style="solid"];
  Node11 [label="pip._internal.utils.compatibility\l_tags._get_custom_platforms",height=0.2,width=0.4,color="black", fillcolor="white", style="filled",URL="$d8/d94/namespacepip_1_1__internal_1_1utils_1_1compatibility__tags.html#a346caaca8fe95689296a5005487fc28a",tooltip=" "];
  Node11 -> Node12 [color="midnightblue",fontsize="10",style="solid"];
  Node12 [label="pip._internal.utils.compatibility\l_tags._custom_manylinux_platforms",height=0.2,width=0.4,color="black", fillcolor="white", style="filled",URL="$d8/d94/namespacepip_1_1__internal_1_1utils_1_1compatibility__tags.html#a82116625feb7276d6ffc1522766b17da",tooltip=" "];
  Node11 -> Node13 [color="midnightblue",fontsize="10",style="solid"];
  Node13 [label="pip._internal.utils.compatibility\l_tags._mac_platforms",height=0.2,width=0.4,color="black", fillcolor="white", style="filled",URL="$d8/d94/namespacepip_1_1__internal_1_1utils_1_1compatibility__tags.html#ab58ebe67e1fad2e42676b9229cb5733f",tooltip=" "];
  Node13 -> Node14 [color="midnightblue",fontsize="10",style="solid"];
  Node14 [label="pip._vendor.packaging.tags.mac\l_platforms",height=0.2,width=0.4,color="black", fillcolor="white", style="filled",URL="$da/df2/namespacepip_1_1__vendor_1_1packaging_1_1tags.html#acaa07c3ca8eebd49665c746b97e9f555",tooltip=" "];
  Node14 -> Node15 [color="midnightblue",fontsize="10",style="solid"];
  Node15 [label="pip._vendor.packaging.tags.\l_mac_arch",height=0.2,width=0.4,color="black", fillcolor="white", style="filled",URL="$da/df2/namespacepip_1_1__vendor_1_1packaging_1_1tags.html#ac3ec96310feb13a3e57c90617398c977",tooltip=" "];
  Node14 -> Node16 [color="midnightblue",fontsize="10",style="solid"];
  Node16 [label="pip._vendor.packaging.tags.\l_mac_binary_formats",height=0.2,width=0.4,color="black", fillcolor="white", style="filled",URL="$da/df2/namespacepip_1_1__vendor_1_1packaging_1_1tags.html#ae6d2b8268480bb7bc3b5b72046a9c456",tooltip=" "];
  Node14 -> Node17 [color="midnightblue",fontsize="10",style="solid"];
  Node17 [label="pip._internal.utils.typing.cast",height=0.2,width=0.4,color="black", fillcolor="white", style="filled",URL="$d9/d56/namespacepip_1_1__internal_1_1utils_1_1typing.html#ab37e3e9039b01929d8ac2bd74d7c37db",tooltip=" "];
  Node4 -> Node18 [color="midnightblue",fontsize="10",style="solid"];
  Node18 [label="pip._internal.utils.compatibility\l_tags._get_python_version",height=0.2,width=0.4,color="black", fillcolor="white", style="filled",URL="$d8/d94/namespacepip_1_1__internal_1_1utils_1_1compatibility__tags.html#accfbac3c409cb3581760fe08a08f41f5",tooltip=" "];
  Node4 -> Node19 [color="midnightblue",fontsize="10",style="solid"];
  Node19 [label="pip._vendor.distlib.wheel.compatible_tags",height=0.2,width=0.4,color="black", fillcolor="white", style="filled",URL="$d6/dc4/namespacepip_1_1__vendor_1_1distlib_1_1wheel.html#a70ee54953b1ad8e03574d7ea87fb46ef",tooltip=" "];
  Node4 -> Node20 [color="midnightblue",fontsize="10",style="solid"];
  Node20 [label="pip._vendor.packaging.tags.cpython_tags",height=0.2,width=0.4,color="black", fillcolor="white", style="filled",URL="$da/df2/namespacepip_1_1__vendor_1_1packaging_1_1tags.html#ac0d9e648748bbcb11e042ab23c7344b2",tooltip=" "];
  Node20 -> Node21 [color="midnightblue",fontsize="10",style="solid"];
  Node21 [label="pip._vendor.packaging.tags.\l_abi3_applies",height=0.2,width=0.4,color="black", fillcolor="white", style="filled",URL="$da/df2/namespacepip_1_1__vendor_1_1packaging_1_1tags.html#a899c4648c9b8bb45a65a71e4ede9c146",tooltip=" "];
  Node20 -> Node22 [color="midnightblue",fontsize="10",style="solid"];
  Node22 [label="pip._vendor.packaging.tags.\l_cpython_abis",height=0.2,width=0.4,color="black", fillcolor="white", style="filled",URL="$da/df2/namespacepip_1_1__vendor_1_1packaging_1_1tags.html#a6e166c74568421224fdc2f7b99364a2a",tooltip=" "];
  Node22 -> Node8 [color="midnightblue",fontsize="10",style="solid"];
  Node22 -> Node9 [color="midnightblue",fontsize="10",style="solid"];
  Node20 -> Node23 [color="midnightblue",fontsize="10",style="solid"];
  Node23 [label="pip._vendor.packaging.tags.\l_platform_tags",height=0.2,width=0.4,color="black", fillcolor="white", style="filled",URL="$da/df2/namespacepip_1_1__vendor_1_1packaging_1_1tags.html#adfedb043f1898437784481a14863fa0b",tooltip=" "];
  Node23 -> Node24 [color="midnightblue",fontsize="10",style="solid"];
  Node24 [label="pip._vendor.packaging.tags.\l_generic_platforms",height=0.2,width=0.4,color="black", fillcolor="white", style="filled",URL="$da/df2/namespacepip_1_1__vendor_1_1packaging_1_1tags.html#a473ced9ec96ba0ad10143f59e925499e",tooltip=" "];
  Node24 -> Node25 [color="midnightblue",fontsize="10",style="solid"];
  Node25 [label="pip._vendor.packaging.tags.\l_normalize_string",height=0.2,width=0.4,color="black", fillcolor="white", style="filled",URL="$da/df2/namespacepip_1_1__vendor_1_1packaging_1_1tags.html#af1386fcb5bdaf65eaf488ba6cc42467c",tooltip=" "];
  Node23 -> Node26 [color="midnightblue",fontsize="10",style="solid"];
  Node26 [label="pip._vendor.packaging.tags.\l_linux_platforms",height=0.2,width=0.4,color="black", fillcolor="white", style="filled",URL="$da/df2/namespacepip_1_1__vendor_1_1packaging_1_1tags.html#a932f561db86675d4981fbcb1bd8d875b",tooltip=" "];
  Node26 -> Node27 [color="midnightblue",fontsize="10",style="solid"];
  Node27 [label="pip._vendor.packaging.tags.\l_have_compatible_manylinux_abi",height=0.2,width=0.4,color="black", fillcolor="white", style="filled",URL="$da/df2/namespacepip_1_1__vendor_1_1packaging_1_1tags.html#a78798a95f385cfc1aa7e3a4298348884",tooltip=" "];
  Node27 -> Node28 [color="midnightblue",fontsize="10",style="solid"];
  Node28 [label="pip._vendor.packaging.tags.\l_is_linux_armhf",height=0.2,width=0.4,color="black", fillcolor="white", style="filled",URL="$da/df2/namespacepip_1_1__vendor_1_1packaging_1_1tags.html#a545be21c8d2a3da883b3ea8b41f47020",tooltip=" "];
  Node28 -> Node29 [color="midnightblue",fontsize="10",style="solid"];
  Node29 [label="pip._vendor.packaging.tags.\l_get_elf_header",height=0.2,width=0.4,color="black", fillcolor="white", style="filled",URL="$da/df2/namespacepip_1_1__vendor_1_1packaging_1_1tags.html#a5fb05260451aa58920868e08dc9972ab",tooltip=" "];
  Node27 -> Node30 [color="midnightblue",fontsize="10",style="solid"];
  Node30 [label="pip._vendor.packaging.tags.\l_is_linux_i686",height=0.2,width=0.4,color="black", fillcolor="white", style="filled",URL="$da/df2/namespacepip_1_1__vendor_1_1packaging_1_1tags.html#a5034f3a4f328ff16904d192f9d50e90a",tooltip=" "];
  Node30 -> Node29 [color="midnightblue",fontsize="10",style="solid"];
  Node26 -> Node31 [color="midnightblue",fontsize="10",style="solid"];
  Node31 [label="pip._vendor.packaging.tags.\l_is_manylinux_compatible",height=0.2,width=0.4,color="black", fillcolor="white", style="filled",URL="$da/df2/namespacepip_1_1__vendor_1_1packaging_1_1tags.html#ab1436cd8e19a5f18719caaf67dfa396b",tooltip=" "];
  Node31 -> Node32 [color="midnightblue",fontsize="10",style="solid"];
  Node32 [label="pip._vendor.packaging.tags.\l_have_compatible_glibc",height=0.2,width=0.4,color="black", fillcolor="white", style="filled",URL="$da/df2/namespacepip_1_1__vendor_1_1packaging_1_1tags.html#aadfb560a8d90c4853f6739b96e24615f",tooltip=" "];
  Node32 -> Node33 [color="midnightblue",fontsize="10",style="solid"];
  Node33 [label="pip._vendor.packaging.tags.\l_check_glibc_version",height=0.2,width=0.4,color="black", fillcolor="white", style="filled",URL="$da/df2/namespacepip_1_1__vendor_1_1packaging_1_1tags.html#a57ad29788cc28e7489f66e96b97a7ac2",tooltip=" "];
  Node32 -> Node34 [color="midnightblue",fontsize="10",style="solid"];
  Node34 [label="pip._vendor.packaging.tags.\l_glibc_version_string",height=0.2,width=0.4,color="black", fillcolor="white", style="filled",URL="$da/df2/namespacepip_1_1__vendor_1_1packaging_1_1tags.html#a89f570512c743bb130813ba1bc4baedf",tooltip=" "];
  Node34 -> Node35 [color="midnightblue",fontsize="10",style="solid"];
  Node35 [label="pip._vendor.packaging.tags.\l_glibc_version_string_confstr",height=0.2,width=0.4,color="black", fillcolor="white", style="filled",URL="$da/df2/namespacepip_1_1__vendor_1_1packaging_1_1tags.html#a6f676f97df4c85ff055ea289102002b7",tooltip=" "];
  Node34 -> Node36 [color="midnightblue",fontsize="10",style="solid"];
  Node36 [label="pip._vendor.packaging.tags.\l_glibc_version_string_ctypes",height=0.2,width=0.4,color="black", fillcolor="white", style="filled",URL="$da/df2/namespacepip_1_1__vendor_1_1packaging_1_1tags.html#ad4dc6727db85fd6ad1b5e71b5220f066",tooltip=" "];
  Node26 -> Node25 [color="midnightblue",fontsize="10",style="solid"];
  Node23 -> Node14 [color="midnightblue",fontsize="10",style="solid"];
  Node20 -> Node9 [color="midnightblue",fontsize="10",style="solid"];
  Node20 -> Node10 [color="midnightblue",fontsize="10",style="solid"];
  Node4 -> Node37 [color="midnightblue",fontsize="10",style="solid"];
  Node37 [label="pip._vendor.packaging.tags.generic_tags",height=0.2,width=0.4,color="black", fillcolor="white", style="filled",URL="$da/df2/namespacepip_1_1__vendor_1_1packaging_1_1tags.html#aa250d83af846ba22a8c2259a8968f84f",tooltip=" "];
  Node37 -> Node38 [color="midnightblue",fontsize="10",style="solid"];
  Node38 [label="pip._vendor.packaging.tags.\l_generic_abi",height=0.2,width=0.4,color="black", fillcolor="white", style="filled",URL="$da/df2/namespacepip_1_1__vendor_1_1packaging_1_1tags.html#a8909b21f193da56e115e9055cab3c16a",tooltip=" "];
  Node38 -> Node25 [color="midnightblue",fontsize="10",style="solid"];
  Node37 -> Node23 [color="midnightblue",fontsize="10",style="solid"];
  Node37 -> Node10 [color="midnightblue",fontsize="10",style="solid"];
  Node37 -> Node6 [color="midnightblue",fontsize="10",style="solid"];
  Node37 -> Node7 [color="midnightblue",fontsize="10",style="solid"];
  Node4 -> Node6 [color="midnightblue",fontsize="10",style="solid"];
}
