digraph "pip._internal.resolution.legacy.resolver.Resolver._resolve_one"
{
 // LATEX_PDF_SIZE
  edge [fontname="Helvetica",fontsize="10",labelfontname="Helvetica",labelfontsize="10"];
  node [fontname="Helvetica",fontsize="10",shape=record];
  rankdir="RL";
  Node1 [label="pip._internal.resolution.legacy.resolver.\lResolver._resolve_one",height=0.2,width=0.4,color="black", fillcolor="grey75", style="filled", fontcolor="black",tooltip=" "];
  Node1 -> Node2 [dir="back",color="midnightblue",fontsize="10",style="solid"];
  Node2 [label="pip._internal.resolution.legacy.resolver.\lResolver.resolve",height=0.2,width=0.4,color="black", fillcolor="white", style="filled",URL="$db/d5b/classpip_1_1__internal_1_1resolution_1_1legacy_1_1resolver_1_1_resolver.html#a1321882f40c26aa4b44a693b4be74ae2",tooltip=" "];
  Node2 -> Node3 [dir="back",color="midnightblue",fontsize="10",style="solid"];
  Node3 [label="pip._vendor.distlib.compat.\lBaseConfigurator.configure_custom",height=0.2,width=0.4,color="black", fillcolor="white", style="filled",URL="$dc/d1f/classpip_1_1__vendor_1_1distlib_1_1compat_1_1_base_configurator.html#a413001393d55f20868bf168573a1ff1d",tooltip=" "];
  Node3 -> Node4 [dir="back",color="midnightblue",fontsize="10",style="solid"];
  Node4 [label="pip._vendor.distlib.util.\lConfigurator.__getitem__",height=0.2,width=0.4,color="black", fillcolor="white", style="filled",URL="$db/d94/classpip_1_1__vendor_1_1distlib_1_1util_1_1_configurator.html#a3ff695c0521e0edb863bb8e6737adc75",tooltip=" "];
  Node3 -> Node5 [dir="back",color="midnightblue",fontsize="10",style="solid"];
  Node5 [label="pip._vendor.distlib.util.\lConfigurator.configure_custom",height=0.2,width=0.4,color="black", fillcolor="white", style="filled",URL="$db/d94/classpip_1_1__vendor_1_1distlib_1_1util_1_1_configurator.html#a0d009327a85c6a6843254c1f00907b99",tooltip=" "];
  Node2 -> Node5 [dir="back",color="midnightblue",fontsize="10",style="solid"];
  Node2 -> Node6 [dir="back",color="midnightblue",fontsize="10",style="solid"];
  Node6 [label="pip._vendor.distlib.compat.\lBaseConfigurator.ext_convert",height=0.2,width=0.4,color="black", fillcolor="white", style="filled",URL="$dc/d1f/classpip_1_1__vendor_1_1distlib_1_1compat_1_1_base_configurator.html#a99583d9b1713e0e7ed6f5e6024f6146c",tooltip=" "];
  Node2 -> Node7 [dir="back",color="midnightblue",fontsize="10",style="solid"];
  Node7 [label="pip._vendor.pkg_resources.\lEntryPoint.load",height=0.2,width=0.4,color="black", fillcolor="white", style="filled",URL="$dc/d51/classpip_1_1__vendor_1_1pkg__resources_1_1_entry_point.html#a1dc35c835e4f04102cf03311a85282cf",tooltip=" "];
  Node2 -> Node8 [dir="back",color="midnightblue",fontsize="10",style="solid"];
  Node8 [label="pkg_resources.EntryPoint.load",height=0.2,width=0.4,color="black", fillcolor="white", style="filled",URL="$de/dfa/classpkg__resources_1_1_entry_point.html#aca40d6504feabd38a326c0d6f51ecb6a",tooltip=" "];
  Node2 -> Node9 [dir="back",color="midnightblue",fontsize="10",style="solid"];
  Node9 [label="pip._vendor.pkg_resources.\lWorkingSet.require",height=0.2,width=0.4,color="black", fillcolor="white", style="filled",URL="$da/d4f/classpip_1_1__vendor_1_1pkg__resources_1_1_working_set.html#a3e06498f30579d47e25fffe036206a80",tooltip=" "];
  Node9 -> Node7 [dir="back",color="midnightblue",fontsize="10",style="solid"];
  Node9 -> Node8 [dir="back",color="midnightblue",fontsize="10",style="solid"];
  Node9 -> Node10 [dir="back",color="midnightblue",fontsize="10",style="solid"];
  Node10 [label="pip._vendor.pkg_resources.\lWorkingSet.run_script",height=0.2,width=0.4,color="black", fillcolor="white", style="filled",URL="$da/d4f/classpip_1_1__vendor_1_1pkg__resources_1_1_working_set.html#a64f8503c4eb0c05db9faf1bc62c1a21f",tooltip=" "];
  Node9 -> Node11 [dir="back",color="midnightblue",fontsize="10",style="solid"];
  Node11 [label="pkg_resources.WorkingSet.run\l_script",height=0.2,width=0.4,color="black", fillcolor="white", style="filled",URL="$d5/d96/classpkg__resources_1_1_working_set.html#ab2b93a4b8818042f319d7f9d7d2884bf",tooltip=" "];
  Node2 -> Node12 [dir="back",color="midnightblue",fontsize="10",style="solid"];
  Node12 [label="pkg_resources.WorkingSet.require",height=0.2,width=0.4,color="black", fillcolor="white", style="filled",URL="$d5/d96/classpkg__resources_1_1_working_set.html#a335262cb577b8fa37a8fa92cff024cf9",tooltip=" "];
  Node12 -> Node8 [dir="back",color="midnightblue",fontsize="10",style="solid"];
  Node12 -> Node11 [dir="back",color="midnightblue",fontsize="10",style="solid"];
}
