digraph "pip._vendor.distlib.resources.ResourceContainer"
{
 // LATEX_PDF_SIZE
  edge [fontname="Helvetica",fontsize="10",labelfontname="Helvetica",labelfontsize="10"];
  node [fontname="Helvetica",fontsize="10",shape=record];
  Node1 [label="{pip._vendor.distlib.resources.\lResourceContainer\n|+ is_container\l|+ resources()\l}",height=0.2,width=0.4,color="black", fillcolor="grey75", style="filled", fontcolor="black",tooltip=" "];
  Node2 -> Node1 [dir="back",color="midnightblue",fontsize="10",style="solid",arrowtail="onormal"];
  Node2 [label="{pip._vendor.distlib.resources.\lResourceBase\n|+ finder\l+ name\l|+ __init__()\l}",height=0.2,width=0.4,color="black", fillcolor="white", style="filled",URL="$d4/d30/classpip_1_1__vendor_1_1distlib_1_1resources_1_1_resource_base.html",tooltip=" "];
  Node3 -> Node2 [dir="back",color="midnightblue",fontsize="10",style="solid",arrowtail="onormal"];
  Node3 [label="{object\n||}",height=0.2,width=0.4,color="grey75", fillcolor="white", style="filled",tooltip=" "];
}
