digraph "pip._vendor.colorama.winterm.WinTerm"
{
 // LATEX_PDF_SIZE
  edge [fontname="Helvetica",fontsize="10",labelfontname="Helvetica",labelfontsize="10"];
  node [fontname="Helvetica",fontsize="10",shape=record];
  Node1 [label="{pip._vendor.colorama.winterm.\lWinTerm\n|- _default\l- _default_fore\l- _default_back\l- _default_style\l- _light\l- _fore\l- _back\l- _style\l|+ __init__()\l+ get_attrs()\l+ set_attrs()\l+ reset_all()\l+ fore()\l+ back()\l+ style()\l+ set_console()\l+ get_position()\l+ set_cursor_position()\l+ cursor_adjust()\l+ erase_screen()\l+ erase_line()\l+ set_title()\l}",height=0.2,width=0.4,color="black", fillcolor="grey75", style="filled", fontcolor="black",tooltip=" "];
  Node2 -> Node1 [dir="back",color="midnightblue",fontsize="10",style="solid",arrowtail="onormal",fontname="Helvetica"];
  Node2 [label="{object\n||}",height=0.2,width=0.4,color="grey75", fillcolor="white", style="filled",tooltip=" "];
}
