digraph "pip._vendor.distlib.metadata.Metadata.dictionary"
{
 // LATEX_PDF_SIZE
  edge [fontname="Helvetica",fontsize="10",labelfontname="Helvetica",labelfontsize="10"];
  node [fontname="Helvetica",fontsize="10",shape=record];
  rankdir="LR";
  Node1 [label="pip._vendor.distlib.metadata.\lMetadata.dictionary",height=0.2,width=0.4,color="black", fillcolor="grey75", style="filled", fontcolor="black",tooltip=" "];
  Node1 -> Node2 [color="midnightblue",fontsize="10",style="solid",fontname="Helvetica"];
  Node2 [label="pip._vendor.distlib.metadata.\lMetadata._from_legacy",height=0.2,width=0.4,color="black", fillcolor="white", style="filled",URL="$d3/df6/classpip_1_1__vendor_1_1distlib_1_1metadata_1_1_metadata.html#a78ae3c1cd2c31e4376d991cba08ba678",tooltip=" "];
  Node2 -> Node3 [color="midnightblue",fontsize="10",style="solid",fontname="Helvetica"];
  Node3 [label="pip._vendor.distlib.database.\lDistribution.provides",height=0.2,width=0.4,color="black", fillcolor="white", style="filled",URL="$d8/da9/classpip_1_1__vendor_1_1distlib_1_1database_1_1_distribution.html#ad0360a56aa60642fe4faaad96b04d31c",tooltip=" "];
  Node2 -> Node4 [color="midnightblue",fontsize="10",style="solid",fontname="Helvetica"];
  Node4 [label="pip._vendor.distlib.metadata.\lMetadata.provides",height=0.2,width=0.4,color="black", fillcolor="white", style="filled",URL="$d3/df6/classpip_1_1__vendor_1_1distlib_1_1metadata_1_1_metadata.html#a700307186309aa299c50bbe7515cb58d",tooltip=" "];
  Node4 -> Node5 [color="midnightblue",fontsize="10",style="solid",fontname="Helvetica"];
  Node5 [label="pip._internal.network.lazy\l_wheel.LazyZipOverHTTP.name",height=0.2,width=0.4,color="black", fillcolor="white", style="filled",URL="$df/d67/classpip_1_1__internal_1_1network_1_1lazy__wheel_1_1_lazy_zip_over_h_t_t_p.html#a31eea23b50360a3d64d5330d6314d390",tooltip=" "];
  Node4 -> Node6 [color="midnightblue",fontsize="10",style="solid",fontname="Helvetica"];
  Node6 [label="pip._internal.req.req\l_install.InstallRequirement.name",height=0.2,width=0.4,color="black", fillcolor="white", style="filled",URL="$d2/daa/classpip_1_1__internal_1_1req_1_1req__install_1_1_install_requirement.html#ae25bc5c04323ecc6d32fb29cfdb473cd",tooltip=" "];
  Node6 -> Node7 [color="midnightblue",fontsize="10",style="solid",fontname="Helvetica"];
  Node7 [label="pkg_resources.safe_name",height=0.2,width=0.4,color="black", fillcolor="white", style="filled",URL="$d0/de1/namespacepkg__resources.html#a9635d106e0984b74bbcd80646e7a7384",tooltip=" "];
  Node4 -> Node8 [color="midnightblue",fontsize="10",style="solid",fontname="Helvetica"];
  Node8 [label="pip._internal.resolution.resolvelib.base.\lRequirement.name",height=0.2,width=0.4,color="black", fillcolor="white", style="filled",URL="$d7/d6d/classpip_1_1__internal_1_1resolution_1_1resolvelib_1_1base_1_1_requirement.html#a21e4edd1c8aa5ce147a3399bf3c8d7b0",tooltip=" "];
  Node4 -> Node9 [color="midnightblue",fontsize="10",style="solid",fontname="Helvetica"];
  Node9 [label="pip._internal.resolution.resolvelib.base.\lCandidate.name",height=0.2,width=0.4,color="black", fillcolor="white", style="filled",URL="$db/d18/classpip_1_1__internal_1_1resolution_1_1resolvelib_1_1base_1_1_candidate.html#a8b39f3d3af882944335121c05d86da76",tooltip=" "];
  Node4 -> Node10 [color="midnightblue",fontsize="10",style="solid",fontname="Helvetica"];
  Node10 [label="pip._internal.resolution.resolvelib.candidates.\l_InstallRequirementBackedCandidate.name",height=0.2,width=0.4,color="black", fillcolor="white", style="filled",URL="$dc/d03/classpip_1_1__internal_1_1resolution_1_1resolvelib_1_1candidates_1_1___install_requirement_backed_candidate.html#a9fe3d0379250da42bc610a688f43ca84",tooltip=" "];
  Node10 -> Node11 [color="midnightblue",fontsize="10",style="solid",fontname="Helvetica"];
  Node11 [label="pip._vendor.packaging.utils.canonicalize_name",height=0.2,width=0.4,color="black", fillcolor="white", style="filled",URL="$dc/da8/namespacepip_1_1__vendor_1_1packaging_1_1utils.html#af20daae928523ea0ae9d2c4215887232",tooltip=" "];
  Node11 -> Node12 [color="midnightblue",fontsize="10",style="solid",fontname="Helvetica"];
  Node12 [label="pip._internal.utils.typing.cast",height=0.2,width=0.4,color="black", fillcolor="white", style="filled",URL="$d9/d56/namespacepip_1_1__internal_1_1utils_1_1typing.html#ab37e3e9039b01929d8ac2bd74d7c37db",tooltip=" "];
  Node10 -> Node13 [color="midnightblue",fontsize="10",style="solid",fontname="Helvetica"];
  Node13 [label="pip._internal.resolution.resolvelib.candidates.\l_InstallRequirementBackedCandidate.dist",height=0.2,width=0.4,color="red", fillcolor="white", style="filled",URL="$dc/d03/classpip_1_1__internal_1_1resolution_1_1resolvelib_1_1candidates_1_1___install_requirement_backed_candidate.html#aa6d5af80d994f28e44534ad4a73dbb23",tooltip=" "];
  Node4 -> Node21 [color="midnightblue",fontsize="10",style="solid",fontname="Helvetica"];
  Node21 [label="pip._internal.resolution.resolvelib.candidates.\lExtrasCandidate.name",height=0.2,width=0.4,color="black", fillcolor="white", style="filled",URL="$d8/df7/classpip_1_1__internal_1_1resolution_1_1resolvelib_1_1candidates_1_1_extras_candidate.html#ab104c8ed5e2140f11c0fb3710df3d894",tooltip=" "];
  Node21 -> Node22 [color="midnightblue",fontsize="10",style="solid",fontname="Helvetica"];
  Node22 [label="pip._internal.resolution.resolvelib.base.format_name",height=0.2,width=0.4,color="black", fillcolor="white", style="filled",URL="$d3/d4e/namespacepip_1_1__internal_1_1resolution_1_1resolvelib_1_1base.html#a03d5f77c5d1f6d77e233b12048de5090",tooltip=" "];
  Node22 -> Node11 [color="midnightblue",fontsize="10",style="solid",fontname="Helvetica"];
  Node4 -> Node23 [color="midnightblue",fontsize="10",style="solid",fontname="Helvetica"];
  Node23 [label="pip._internal.resolution.resolvelib.candidates.\lRequiresPythonCandidate.name",height=0.2,width=0.4,color="black", fillcolor="white", style="filled",URL="$db/d0a/classpip_1_1__internal_1_1resolution_1_1resolvelib_1_1candidates_1_1_requires_python_candidate.html#a87ea7115222bbaecd819bb1489001390",tooltip=" "];
  Node4 -> Node24 [color="midnightblue",fontsize="10",style="solid",fontname="Helvetica"];
  Node24 [label="pip._internal.resolution.resolvelib.requirements.\lExplicitRequirement.name",height=0.2,width=0.4,color="black", fillcolor="white", style="filled",URL="$d3/d28/classpip_1_1__internal_1_1resolution_1_1resolvelib_1_1requirements_1_1_explicit_requirement.html#a7250c5e2ac7d7b9c99a42010a3dd1672",tooltip=" "];
  Node4 -> Node25 [color="midnightblue",fontsize="10",style="solid",fontname="Helvetica"];
  Node25 [label="pip._internal.resolution.resolvelib.requirements.\lSpecifierRequirement.name",height=0.2,width=0.4,color="black", fillcolor="white", style="filled",URL="$d5/dce/classpip_1_1__internal_1_1resolution_1_1resolvelib_1_1requirements_1_1_specifier_requirement.html#aaaa3c28411b40380615948c7514a571f",tooltip=" "];
  Node25 -> Node11 [color="midnightblue",fontsize="10",style="solid",fontname="Helvetica"];
  Node25 -> Node22 [color="midnightblue",fontsize="10",style="solid",fontname="Helvetica"];
  Node4 -> Node26 [color="midnightblue",fontsize="10",style="solid",fontname="Helvetica"];
  Node26 [label="pip._internal.resolution.resolvelib.requirements.\lRequiresPythonRequirement.name",height=0.2,width=0.4,color="black", fillcolor="white", style="filled",URL="$d1/de6/classpip_1_1__internal_1_1resolution_1_1resolvelib_1_1requirements_1_1_requires_python_requirement.html#ae36a1400c3104266be475185164c30e2",tooltip=" "];
  Node4 -> Node27 [color="midnightblue",fontsize="10",style="solid",fontname="Helvetica"];
  Node27 [label="pip._vendor.distro.Linux\lDistribution.name",height=0.2,width=0.4,color="black", fillcolor="white", style="filled",URL="$db/dc1/classpip_1_1__vendor_1_1distro_1_1_linux_distribution.html#a7bbcbb9f1bf561b231f594b5bb251dbc",tooltip=" "];
  Node27 -> Node28 [color="midnightblue",fontsize="10",style="solid",fontname="Helvetica"];
  Node28 [label="pip._vendor.distro.Linux\lDistribution.distro_release_attr",height=0.2,width=0.4,color="red", fillcolor="white", style="filled",URL="$db/dc1/classpip_1_1__vendor_1_1distro_1_1_linux_distribution.html#a783e432baf3c43e5c59d94715abe882d",tooltip=" "];
  Node28 -> Node32 [color="midnightblue",fontsize="10",style="solid",fontname="Helvetica"];
  Node32 [label="pip._vendor.requests.api.get",height=0.2,width=0.4,color="red", fillcolor="white", style="filled",URL="$de/db5/namespacepip_1_1__vendor_1_1requests_1_1api.html#af14e54be255a4489da5fa7e07a48cc63",tooltip=" "];
  Node27 -> Node34 [color="midnightblue",fontsize="10",style="solid",fontname="Helvetica"];
  Node34 [label="pip._vendor.distro.Linux\lDistribution.lsb_release_attr",height=0.2,width=0.4,color="red", fillcolor="white", style="filled",URL="$db/dc1/classpip_1_1__vendor_1_1distro_1_1_linux_distribution.html#a2fb20b28b68f25e4868e8d4b517bb710",tooltip=" "];
  Node34 -> Node32 [color="midnightblue",fontsize="10",style="solid",fontname="Helvetica"];
  Node27 -> Node38 [color="midnightblue",fontsize="10",style="solid",fontname="Helvetica"];
  Node38 [label="pip._vendor.distro.Linux\lDistribution.os_release_attr",height=0.2,width=0.4,color="red", fillcolor="white", style="filled",URL="$db/dc1/classpip_1_1__vendor_1_1distro_1_1_linux_distribution.html#a2c980e7f2faf33563d32e0a0b1309cfa",tooltip=" "];
  Node38 -> Node32 [color="midnightblue",fontsize="10",style="solid",fontname="Helvetica"];
  Node27 -> Node41 [color="midnightblue",fontsize="10",style="solid",fontname="Helvetica"];
  Node41 [label="pip._vendor.distro.Linux\lDistribution.uname_attr",height=0.2,width=0.4,color="red", fillcolor="white", style="filled",URL="$db/dc1/classpip_1_1__vendor_1_1distro_1_1_linux_distribution.html#a82939a6850962797338a64083a30a2ec",tooltip=" "];
  Node41 -> Node32 [color="midnightblue",fontsize="10",style="solid",fontname="Helvetica"];
  Node27 -> Node44 [color="midnightblue",fontsize="10",style="solid",fontname="Helvetica"];
  Node44 [label="pip._internal.resolution.resolvelib.base.\lCandidate.version",height=0.2,width=0.4,color="black", fillcolor="white", style="filled",URL="$db/d18/classpip_1_1__internal_1_1resolution_1_1resolvelib_1_1base_1_1_candidate.html#a3438563e0acd16869e50ac3b3f0e754c",tooltip=" "];
  Node27 -> Node45 [color="midnightblue",fontsize="10",style="solid",fontname="Helvetica"];
  Node45 [label="pip._internal.resolution.resolvelib.candidates.\l_InstallRequirementBackedCandidate.version",height=0.2,width=0.4,color="black", fillcolor="white", style="filled",URL="$dc/d03/classpip_1_1__internal_1_1resolution_1_1resolvelib_1_1candidates_1_1___install_requirement_backed_candidate.html#a84e4b295977cbe12099db867a3c182dd",tooltip=" "];
  Node45 -> Node13 [color="midnightblue",fontsize="10",style="solid",fontname="Helvetica"];
  Node27 -> Node46 [color="midnightblue",fontsize="10",style="solid",fontname="Helvetica"];
  Node46 [label="pip._internal.resolution.resolvelib.candidates.\lExtrasCandidate.version",height=0.2,width=0.4,color="black", fillcolor="white", style="filled",URL="$d8/df7/classpip_1_1__internal_1_1resolution_1_1resolvelib_1_1candidates_1_1_extras_candidate.html#a022f947eaaa0ed18ed6dc2d295117d01",tooltip=" "];
  Node27 -> Node47 [color="midnightblue",fontsize="10",style="solid",fontname="Helvetica"];
  Node47 [label="pip._internal.resolution.resolvelib.candidates.\lRequiresPythonCandidate.version",height=0.2,width=0.4,color="black", fillcolor="white", style="filled",URL="$db/d0a/classpip_1_1__internal_1_1resolution_1_1resolvelib_1_1candidates_1_1_requires_python_candidate.html#af16bb188496e6e10928c39b856dc7da1",tooltip=" "];
  Node27 -> Node48 [color="midnightblue",fontsize="10",style="solid",fontname="Helvetica"];
  Node48 [label="pip._vendor.distro.Linux\lDistribution.version",height=0.2,width=0.4,color="black", fillcolor="white", style="filled",URL="$db/dc1/classpip_1_1__vendor_1_1distro_1_1_linux_distribution.html#a0c37e11aca02766e25025a395c09dd8b",tooltip=" "];
  Node48 -> Node31 [color="midnightblue",fontsize="10",style="solid",fontname="Helvetica"];
  Node31 [label="pip._vendor.distro.Linux\lDistribution._parse_distro\l_release_content",height=0.2,width=0.4,color="black", fillcolor="white", style="filled",URL="$db/dc1/classpip_1_1__vendor_1_1distro_1_1_linux_distribution.html#aa74c8b8f216e13c0f0d81f2b952ed689",tooltip=" "];
  Node48 -> Node49 [color="midnightblue",fontsize="10",style="solid",fontname="Helvetica"];
  Node49 [label="pip._vendor.distro.Linux\lDistribution.codename",height=0.2,width=0.4,color="red", fillcolor="white", style="filled",URL="$db/dc1/classpip_1_1__vendor_1_1distro_1_1_linux_distribution.html#a8b01fa5c9b2883dab710ca528927a6d2",tooltip=" "];
  Node49 -> Node28 [color="midnightblue",fontsize="10",style="solid",fontname="Helvetica"];
  Node49 -> Node34 [color="midnightblue",fontsize="10",style="solid",fontname="Helvetica"];
  Node48 -> Node28 [color="midnightblue",fontsize="10",style="solid",fontname="Helvetica"];
  Node48 -> Node32 [color="midnightblue",fontsize="10",style="solid",fontname="Helvetica"];
  Node48 -> Node34 [color="midnightblue",fontsize="10",style="solid",fontname="Helvetica"];
  Node48 -> Node38 [color="midnightblue",fontsize="10",style="solid",fontname="Helvetica"];
  Node48 -> Node41 [color="midnightblue",fontsize="10",style="solid",fontname="Helvetica"];
  Node4 -> Node50 [color="midnightblue",fontsize="10",style="solid",fontname="Helvetica"];
  Node50 [label="setuptools.command.egg\l_info.InfoCommon.name",height=0.2,width=0.4,color="black", fillcolor="white", style="filled",URL="$d5/dfc/classsetuptools_1_1command_1_1egg__info_1_1_info_common.html#a13f1532df6e92fbd8ae68eb480808db2",tooltip=" "];
  Node4 -> Node44 [color="midnightblue",fontsize="10",style="solid",fontname="Helvetica"];
  Node4 -> Node45 [color="midnightblue",fontsize="10",style="solid",fontname="Helvetica"];
  Node4 -> Node46 [color="midnightblue",fontsize="10",style="solid",fontname="Helvetica"];
  Node4 -> Node47 [color="midnightblue",fontsize="10",style="solid",fontname="Helvetica"];
  Node4 -> Node51 [color="midnightblue",fontsize="10",style="solid",fontname="Helvetica"];
  Node51 [label="pip._vendor.ipaddress.\l_IPAddressBase.version",height=0.2,width=0.4,color="black", fillcolor="white", style="filled",URL="$d5/df6/classpip_1_1__vendor_1_1ipaddress_1_1___i_p_address_base.html#a7fd526613a418ef1714a19d3fdf42a7f",tooltip=" "];
  Node4 -> Node52 [color="midnightblue",fontsize="10",style="solid",fontname="Helvetica"];
  Node52 [label="pip._vendor.ipaddress.\l_BaseV4.version",height=0.2,width=0.4,color="black", fillcolor="white", style="filled",URL="$db/d56/classpip_1_1__vendor_1_1ipaddress_1_1___base_v4.html#aa5e069619ac5a0f7dfff65e492259a59",tooltip=" "];
  Node4 -> Node53 [color="midnightblue",fontsize="10",style="solid",fontname="Helvetica"];
  Node53 [label="pip._vendor.ipaddress.\l_BaseV6.version",height=0.2,width=0.4,color="black", fillcolor="white", style="filled",URL="$de/d9f/classpip_1_1__vendor_1_1ipaddress_1_1___base_v6.html#a016fff0b8a6095d6f3596a31e286d8c0",tooltip=" "];
  Node4 -> Node54 [color="midnightblue",fontsize="10",style="solid",fontname="Helvetica"];
  Node54 [label="pip._vendor.packaging.specifiers.\l_IndividualSpecifier.version",height=0.2,width=0.4,color="black", fillcolor="white", style="filled",URL="$d9/d98/classpip_1_1__vendor_1_1packaging_1_1specifiers_1_1___individual_specifier.html#a846a9d6b835dd92b19fb330eb1867b66",tooltip=" "];
  Node4 -> Node55 [color="midnightblue",fontsize="10",style="solid",fontname="Helvetica"];
  Node55 [label="pip._vendor.pkg_resources.\lDistribution.version",height=0.2,width=0.4,color="black", fillcolor="white", style="filled",URL="$d0/ddb/classpip_1_1__vendor_1_1pkg__resources_1_1_distribution.html#acd94a7f669ee4fc277245673ea39e748",tooltip=" "];
  Node55 -> Node56 [color="midnightblue",fontsize="10",style="solid",fontname="Helvetica"];
  Node56 [label="pip._vendor.pkg_resources.\lDistribution._get_metadata\l_path_for_display",height=0.2,width=0.4,color="black", fillcolor="white", style="filled",URL="$d0/ddb/classpip_1_1__vendor_1_1pkg__resources_1_1_distribution.html#aba4fc46b0e5cc93f732e1a91cca7cb21",tooltip=" "];
  Node55 -> Node57 [color="midnightblue",fontsize="10",style="solid",fontname="Helvetica"];
  Node57 [label="pip._vendor.pkg_resources.\lDistribution._get_version",height=0.2,width=0.4,color="red", fillcolor="white", style="filled",URL="$d0/ddb/classpip_1_1__vendor_1_1pkg__resources_1_1_distribution.html#acdafee5cecb6b52e9e73bfc4e3624322",tooltip=" "];
  Node4 -> Node141 [color="midnightblue",fontsize="10",style="solid",fontname="Helvetica"];
  Node141 [label="pip._vendor.urllib3.contrib.pyopenssl.\lWrappedSocket.version",height=0.2,width=0.4,color="black", fillcolor="white", style="filled",URL="$d3/d95/classpip_1_1__vendor_1_1urllib3_1_1contrib_1_1pyopenssl_1_1_wrapped_socket.html#a5feafd2bff784708293e180679101471",tooltip=" "];
  Node4 -> Node142 [color="midnightblue",fontsize="10",style="solid",fontname="Helvetica"];
  Node142 [label="pip._vendor.urllib3.contrib.securetransport.\lWrappedSocket.version",height=0.2,width=0.4,color="black", fillcolor="white", style="filled",URL="$da/dfd/classpip_1_1__vendor_1_1urllib3_1_1contrib_1_1securetransport_1_1_wrapped_socket.html#af0d3f6b340221cc6e658dab4137b8391",tooltip=" "];
  Node142 -> Node143 [color="midnightblue",fontsize="10",style="solid",fontname="Helvetica"];
  Node143 [label="pip._vendor.urllib3.contrib.\l_securetransport.low_level.\l_assert_no_error",height=0.2,width=0.4,color="red", fillcolor="white", style="filled",URL="$d4/d95/namespacepip_1_1__vendor_1_1urllib3_1_1contrib_1_1__securetransport_1_1low__level.html#a502abdd06a7eeff12891eb628ccfad39",tooltip=" "];
  Node4 -> Node145 [color="midnightblue",fontsize="10",style="solid",fontname="Helvetica"];
  Node145 [label="pkg_resources.Distribution.version",height=0.2,width=0.4,color="black", fillcolor="white", style="filled",URL="$d8/d25/classpkg__resources_1_1_distribution.html#a454a1c3eae52dee89980a24d7c67f036",tooltip=" "];
  Node145 -> Node56 [color="midnightblue",fontsize="10",style="solid",fontname="Helvetica"];
  Node145 -> Node146 [color="midnightblue",fontsize="10",style="solid",fontname="Helvetica"];
  Node146 [label="pkg_resources.Distribution.\l_get_metadata_path_for_display",height=0.2,width=0.4,color="black", fillcolor="white", style="filled",URL="$d8/d25/classpkg__resources_1_1_distribution.html#ae95dc33d81faec9fbe8badd55faa0bc9",tooltip=" "];
  Node145 -> Node57 [color="midnightblue",fontsize="10",style="solid",fontname="Helvetica"];
  Node145 -> Node147 [color="midnightblue",fontsize="10",style="solid",fontname="Helvetica"];
  Node147 [label="pkg_resources.Distribution.\l_get_version",height=0.2,width=0.4,color="red", fillcolor="white", style="filled",URL="$d8/d25/classpkg__resources_1_1_distribution.html#af5dae4847c9577a7d705d347cee0050c",tooltip=" "];
  Node4 -> Node151 [color="midnightblue",fontsize="10",style="solid",fontname="Helvetica"];
  Node151 [label="pkg_resources._vendor.packaging.specifiers.\l_IndividualSpecifier.version",height=0.2,width=0.4,color="black", fillcolor="white", style="filled",URL="$d7/d3d/classpkg__resources_1_1__vendor_1_1packaging_1_1specifiers_1_1___individual_specifier.html#a98ff7bb31634856e5dda863aacbcb98b",tooltip=" "];
  Node4 -> Node48 [color="midnightblue",fontsize="10",style="solid",fontname="Helvetica"];
  Node4 -> Node152 [color="midnightblue",fontsize="10",style="solid",fontname="Helvetica"];
  Node152 [label="setuptools._vendor.packaging.specifiers.\l_IndividualSpecifier.version",height=0.2,width=0.4,color="black", fillcolor="white", style="filled",URL="$d2/dfa/classsetuptools_1_1__vendor_1_1packaging_1_1specifiers_1_1___individual_specifier.html#adbeb1ca50221bae20afba44631b69ea1",tooltip=" "];
  Node2 -> Node153 [color="midnightblue",fontsize="10",style="solid",fontname="Helvetica"];
  Node153 [label="pip._vendor.distlib.metadata.\lMetadata.todict",height=0.2,width=0.4,color="black", fillcolor="white", style="filled",URL="$d3/df6/classpip_1_1__vendor_1_1distlib_1_1metadata_1_1_metadata.html#a4885b3e47d3f6ba4dfd5ea7d3af29244",tooltip=" "];
  Node153 -> Node154 [color="midnightblue",fontsize="10",style="solid",fontname="Helvetica"];
  Node154 [label="pip._vendor.distlib.util.extract\l_by_key",height=0.2,width=0.4,color="black", fillcolor="white", style="filled",URL="$d6/d99/namespacepip_1_1__vendor_1_1distlib_1_1util.html#aa65967e0833118a2cee1f74742b74cea",tooltip=" "];
}
