digraph "pip._vendor.html5lib.treebuilders.base.TreeBuilder.createElement"
{
 // LATEX_PDF_SIZE
  edge [fontname="Helvetica",fontsize="10",labelfontname="Helvetica",labelfontsize="10"];
  node [fontname="Helvetica",fontsize="10",shape=record];
  rankdir="RL";
  Node1 [label="pip._vendor.html5lib.treebuilders.base.\lTreeBuilder.createElement",height=0.2,width=0.4,color="black", fillcolor="grey75", style="filled", fontcolor="black",tooltip=" "];
  Node1 -> Node2 [dir="back",color="midnightblue",fontsize="10",style="solid"];
  Node2 [label="pip._vendor.html5lib.treebuilders.base.\lTreeBuilder.insertElementTable",height=0.2,width=0.4,color="black", fillcolor="white", style="filled",URL="$dc/d32/classpip_1_1__vendor_1_1html5lib_1_1treebuilders_1_1base_1_1_tree_builder.html#a8d8877473929a4e8674a5e85219c7da5",tooltip=" "];
  Node1 -> Node3 [dir="back",color="midnightblue",fontsize="10",style="solid"];
  Node3 [label="pip._vendor.html5lib.treebuilders.base.\lTreeBuilder.insertRoot",height=0.2,width=0.4,color="black", fillcolor="white", style="filled",URL="$dc/d32/classpip_1_1__vendor_1_1html5lib_1_1treebuilders_1_1base_1_1_tree_builder.html#af7229f269b71c198d4ec7ebe86bcc255",tooltip=" "];
}
