digraph "pip._vendor.distlib.wheel.Wheel"
{
 // LATEX_PDF_SIZE
  edge [fontname="Helvetica",fontsize="10",labelfontname="Helvetica",labelfontsize="10"];
  node [fontname="Helvetica",fontsize="10",shape=record];
  Node1 [label="{pip._vendor.distlib.wheel.\lWheel\n|+ sign\l+ should_verify\l+ buildver\l+ pyver\l+ abi\l+ arch\l+ dirname\l+ name\l+ version\l+ wheel_version\l+ hash_kind\l- _filename\l|+ __init__()\l+ filename()\l+ exists()\l+ tags()\l+ metadata()\l+ get_wheel_metadata()\l+ info()\l+ process_shebang()\l+ get_hash()\l+ write_record()\land 11 more...\l- _get_dylib_cache()\l- _get_extensions()\l}",height=0.2,width=0.4,color="black", fillcolor="grey75", style="filled", fontcolor="black",tooltip=" "];
  Node2 -> Node1 [dir="back",color="midnightblue",fontsize="10",style="solid",arrowtail="onormal"];
  Node2 [label="{object\n||}",height=0.2,width=0.4,color="grey75", fillcolor="white", style="filled",tooltip=" "];
}
