digraph "pip._vendor.distlib.manifest.Manifest._exclude_pattern"
{
 // LATEX_PDF_SIZE
  edge [fontname="Helvetica",fontsize="10",labelfontname="Helvetica",labelfontsize="10"];
  node [fontname="Helvetica",fontsize="10",shape=record];
  rankdir="RL";
  Node1 [label="pip._vendor.distlib.manifest.\lManifest._exclude_pattern",height=0.2,width=0.4,color="black", fillcolor="grey75", style="filled", fontcolor="black",tooltip=" "];
  Node1 -> Node2 [dir="back",color="midnightblue",fontsize="10",style="solid",fontname="Helvetica"];
  Node2 [label="pip._vendor.distlib.manifest.\lManifest.process_directive",height=0.2,width=0.4,color="black", fillcolor="white", style="filled",URL="$d2/d05/classpip_1_1__vendor_1_1distlib_1_1manifest_1_1_manifest.html#a2fa40995f2b5077d7aacd933325eba9f",tooltip=" "];
}
