digraph "pip._internal.index.package_finder._extract_version_from_fragment"
{
 // LATEX_PDF_SIZE
  edge [fontname="Helvetica",fontsize="10",labelfontname="Helvetica",labelfontsize="10"];
  node [fontname="Helvetica",fontsize="10",shape=record];
  rankdir="RL";
  Node1 [label="pip._internal.index.package\l_finder._extract_version\l_from_fragment",height=0.2,width=0.4,color="black", fillcolor="grey75", style="filled", fontcolor="black",tooltip=" "];
  Node1 -> Node2 [dir="back",color="midnightblue",fontsize="10",style="solid"];
  Node2 [label="pip._internal.index.package\l_finder.LinkEvaluator.evaluate_link",height=0.2,width=0.4,color="black", fillcolor="white", style="filled",URL="$d2/df3/classpip_1_1__internal_1_1index_1_1package__finder_1_1_link_evaluator.html#a12e4c644c8cfedf2ce00637726642c26",tooltip=" "];
}
