digraph "pip._vendor.distlib.locators.SimpleScrapingLocator"
{
 // LATEX_PDF_SIZE
  edge [fontname="Helvetica",fontsize="10",labelfontname="Helvetica",labelfontsize="10"];
  node [fontname="Helvetica",fontsize="10",shape=record];
  Node1 [label="{pip._vendor.distlib.locators.\lSimpleScrapingLocator\n|+ base_url\l+ timeout\l+ skip_externals\l+ num_workers\l+ platform_check\l+ result\l+ project_name\l+ decoders\l+ platform_dependent\l- _page_cache\l- _seen\l- _to_fetch\l- _bad_hosts\l- _lock\l- _gplock\l- _threads\l- _distname_re\l|+ __init__()\l+ get_page()\l+ get_distribution_names()\l- _prepare_threads()\l- _wait_threads()\l- _get_project()\l- _is_platform_dependent()\l- _process_download()\l- _should_queue()\l- _fetch()\l}",height=0.2,width=0.4,color="black", fillcolor="grey75", style="filled", fontcolor="black",tooltip=" "];
  Node2 -> Node1 [dir="back",color="midnightblue",fontsize="10",style="solid",arrowtail="onormal"];
  Node2 [label="{pip._vendor.distlib.locators.\lLocator\n|+ opener\l+ matcher\l+ errors\l+ source_extensions\l+ binary_extensions\l+ excluded_extensions\l+ wheel_tags\l+ downloadable_extensions\l+ scheme\l- _cache\l- _scheme\l|+ __init__()\l+ get_errors()\l+ clear_errors()\l+ clear_cache()\l+ get_distribution_names()\l+ get_project()\l+ score_url()\l+ prefer_url()\l+ split_filename()\l+ convert_url_to_download_info()\l+ locate()\l- _get_scheme()\l- _set_scheme()\l- _get_project()\l- _get_digest()\l- _update_version_data()\l}",height=0.2,width=0.4,color="black", fillcolor="white", style="filled",URL="$df/dda/classpip_1_1__vendor_1_1distlib_1_1locators_1_1_locator.html",tooltip=" "];
  Node3 -> Node2 [dir="back",color="midnightblue",fontsize="10",style="solid",arrowtail="onormal"];
  Node3 [label="{object\n||}",height=0.2,width=0.4,color="grey75", fillcolor="white", style="filled",tooltip=" "];
}
