digraph "pip._vendor.pkg_resources.DistInfoDistribution._compute_dependencies"
{
 // LATEX_PDF_SIZE
  edge [fontname="Helvetica",fontsize="10",labelfontname="Helvetica",labelfontsize="10"];
  node [fontname="Helvetica",fontsize="10",shape=record];
  rankdir="LR";
  Node1 [label="pip._vendor.pkg_resources.\lDistInfoDistribution._compute\l_dependencies",height=0.2,width=0.4,color="black", fillcolor="grey75", style="filled", fontcolor="black",tooltip=" "];
  Node1 -> Node2 [color="midnightblue",fontsize="10",style="solid",fontname="Helvetica"];
  Node2 [label="pip._vendor.pkg_resources.\lDistInfoDistribution._parsed\l_pkg_info",height=0.2,width=0.4,color="black", fillcolor="white", style="filled",URL="$d0/d07/classpip_1_1__vendor_1_1pkg__resources_1_1_dist_info_distribution.html#a008755182ca5d5b54f5fdda153cc4b33",tooltip=" "];
  Node2 -> Node3 [color="midnightblue",fontsize="10",style="solid",fontname="Helvetica"];
  Node3 [label="pip._vendor.pkg_resources.\lIMetadataProvider.get_metadata",height=0.2,width=0.4,color="black", fillcolor="white", style="filled",URL="$dd/db4/classpip_1_1__vendor_1_1pkg__resources_1_1_i_metadata_provider.html#aa3de5cdf5527ea8371939280569fcdff",tooltip=" "];
  Node2 -> Node4 [color="midnightblue",fontsize="10",style="solid",fontname="Helvetica"];
  Node4 [label="pkg_resources.IMetadataProvider.get\l_metadata",height=0.2,width=0.4,color="black", fillcolor="white", style="filled",URL="$dc/d79/classpkg__resources_1_1_i_metadata_provider.html#ab7afa403d1009b693464e103d5bd763f",tooltip=" "];
  Node2 -> Node5 [color="midnightblue",fontsize="10",style="solid",fontname="Helvetica"];
  Node5 [label="pip._internal.utils.pkg\l_resources.DictMetadata.get\l_metadata",height=0.2,width=0.4,color="black", fillcolor="white", style="filled",URL="$dd/d69/classpip_1_1__internal_1_1utils_1_1pkg__resources_1_1_dict_metadata.html#a786bc2457039886cd8a89039493526c3",tooltip=" "];
  Node5 -> Node6 [color="midnightblue",fontsize="10",style="solid",fontname="Helvetica"];
  Node6 [label="pip._vendor.html5lib.treewalkers.etree\l_lxml.ensure_str",height=0.2,width=0.4,color="black", fillcolor="white", style="filled",URL="$db/dd7/namespacepip_1_1__vendor_1_1html5lib_1_1treewalkers_1_1etree__lxml.html#a028cec52b33e2067b38382eb23c523b9",tooltip=" "];
  Node2 -> Node7 [color="midnightblue",fontsize="10",style="solid",fontname="Helvetica"];
  Node7 [label="pip._internal.utils.wheel.\lWheelMetadata.get_metadata",height=0.2,width=0.4,color="black", fillcolor="white", style="filled",URL="$d2/d49/classpip_1_1__internal_1_1utils_1_1wheel_1_1_wheel_metadata.html#afbb2b63eda7ab55b3df3b0f98469a5c5",tooltip=" "];
  Node2 -> Node8 [color="midnightblue",fontsize="10",style="solid",fontname="Helvetica"];
  Node8 [label="pip._vendor.pkg_resources.\lNullProvider.get_metadata",height=0.2,width=0.4,color="black", fillcolor="white", style="filled",URL="$dd/dc4/classpip_1_1__vendor_1_1pkg__resources_1_1_null_provider.html#afadc5fc87f103d3201d6cebffa6c0f18",tooltip=" "];
  Node8 -> Node9 [color="midnightblue",fontsize="10",style="solid",fontname="Helvetica"];
  Node9 [label="pip._vendor.pkg_resources.\lNullProvider._get",height=0.2,width=0.4,color="black", fillcolor="white", style="filled",URL="$dd/dc4/classpip_1_1__vendor_1_1pkg__resources_1_1_null_provider.html#a7659c4bfe93e91db05f2bf641c786ec2",tooltip=" "];
  Node9 -> Node10 [color="midnightblue",fontsize="10",style="solid",fontname="Helvetica"];
  Node10 [label="pip._vendor.pkg_resources.register\l_loader_type",height=0.2,width=0.4,color="black", fillcolor="white", style="filled",URL="$d7/dcc/namespacepip_1_1__vendor_1_1pkg__resources.html#ac15df9eeda704ffb4382ff13f2dfdc1a",tooltip=" "];
  Node8 -> Node11 [color="midnightblue",fontsize="10",style="solid",fontname="Helvetica"];
  Node11 [label="pip._vendor.pkg_resources.\lNullProvider._get_metadata_path",height=0.2,width=0.4,color="black", fillcolor="white", style="filled",URL="$dd/dc4/classpip_1_1__vendor_1_1pkg__resources_1_1_null_provider.html#af47cb33387840c8392ef709c84f9f3a8",tooltip=" "];
  Node11 -> Node12 [color="midnightblue",fontsize="10",style="solid",fontname="Helvetica"];
  Node12 [label="pip._vendor.pkg_resources.\lNullProvider._fn",height=0.2,width=0.4,color="black", fillcolor="white", style="filled",URL="$dd/dc4/classpip_1_1__vendor_1_1pkg__resources_1_1_null_provider.html#a8633d9e788b867f2ecc7e2b28f5e24f5",tooltip=" "];
  Node12 -> Node13 [color="midnightblue",fontsize="10",style="solid",fontname="Helvetica"];
  Node13 [label="pip._vendor.pkg_resources.\lNullProvider._validate\l_resource_path",height=0.2,width=0.4,color="black", fillcolor="white", style="filled",URL="$dd/dc4/classpip_1_1__vendor_1_1pkg__resources_1_1_null_provider.html#a4e4db1c4e925f729255e9d361b8cc29a",tooltip=" "];
  Node11 -> Node14 [color="midnightblue",fontsize="10",style="solid",fontname="Helvetica"];
  Node14 [label="pip._vendor.cachecontrol.caches.file\l_cache.FileCache._fn",height=0.2,width=0.4,color="black", fillcolor="white", style="filled",URL="$d4/d5e/classpip_1_1__vendor_1_1cachecontrol_1_1caches_1_1file__cache_1_1_file_cache.html#acc032338fee1e604f8e74c43b836a045",tooltip=" "];
  Node14 -> Node15 [color="midnightblue",fontsize="10",style="solid",fontname="Helvetica"];
  Node15 [label="pip._vendor.cachecontrol.caches.file\l_cache.FileCache.encode",height=0.2,width=0.4,color="black", fillcolor="white", style="filled",URL="$d4/d5e/classpip_1_1__vendor_1_1cachecontrol_1_1caches_1_1file__cache_1_1_file_cache.html#a332cb83da1e988931abc75e2634718de",tooltip=" "];
  Node2 -> Node16 [color="midnightblue",fontsize="10",style="solid",fontname="Helvetica"];
  Node16 [label="pip._vendor.pkg_resources.\lFileMetadata.get_metadata",height=0.2,width=0.4,color="black", fillcolor="white", style="filled",URL="$d8/d2b/classpip_1_1__vendor_1_1pkg__resources_1_1_file_metadata.html#a16b779585d24edd6c220c3a2b91826f5",tooltip=" "];
  Node16 -> Node17 [color="midnightblue",fontsize="10",style="solid",fontname="Helvetica"];
  Node17 [label="pip._vendor.pkg_resources.\lFileMetadata._warn_on_replacement",height=0.2,width=0.4,color="black", fillcolor="white", style="filled",URL="$d8/d2b/classpip_1_1__vendor_1_1pkg__resources_1_1_file_metadata.html#a592d2bd2e2f1443cd729d83432539a94",tooltip=" "];
  Node17 -> Node18 [color="midnightblue",fontsize="10",style="solid",fontname="Helvetica"];
  Node18 [label="pip._vendor.webencodings.decode",height=0.2,width=0.4,color="black", fillcolor="white", style="filled",URL="$da/d8d/namespacepip_1_1__vendor_1_1webencodings.html#a8de11e3f8c23c682f8e367d23462a5d0",tooltip=" "];
  Node18 -> Node19 [color="midnightblue",fontsize="10",style="solid",fontname="Helvetica"];
  Node19 [label="pip._vendor.webencodings.\l_detect_bom",height=0.2,width=0.4,color="black", fillcolor="white", style="filled",URL="$da/d8d/namespacepip_1_1__vendor_1_1webencodings.html#a7362d94d546ec6ed1d20b2f966fe36e5",tooltip=" "];
  Node18 -> Node20 [color="midnightblue",fontsize="10",style="solid",fontname="Helvetica"];
  Node20 [label="pip._vendor.webencodings.\l_get_encoding",height=0.2,width=0.4,color="black", fillcolor="white", style="filled",URL="$da/d8d/namespacepip_1_1__vendor_1_1webencodings.html#a43156339db9ccc708a50a641fe0d34b4",tooltip=" "];
  Node20 -> Node21 [color="midnightblue",fontsize="10",style="solid",fontname="Helvetica"];
  Node21 [label="pip._vendor.webencodings.lookup",height=0.2,width=0.4,color="black", fillcolor="white", style="filled",URL="$da/d8d/namespacepip_1_1__vendor_1_1webencodings.html#ae558e10f94082a6e5104e4a19de375eb",tooltip=" "];
  Node21 -> Node22 [color="midnightblue",fontsize="10",style="solid",fontname="Helvetica"];
  Node22 [label="pip._vendor.webencodings.ascii\l_lower",height=0.2,width=0.4,color="black", fillcolor="white", style="filled",URL="$da/d8d/namespacepip_1_1__vendor_1_1webencodings.html#afa97e391f2b68992094a339176eff233",tooltip=" "];
  Node22 -> Node18 [color="midnightblue",fontsize="10",style="solid",fontname="Helvetica"];
  Node2 -> Node23 [color="midnightblue",fontsize="10",style="solid",fontname="Helvetica"];
  Node23 [label="pkg_resources.NullProvider.get\l_metadata",height=0.2,width=0.4,color="black", fillcolor="white", style="filled",URL="$d3/da0/classpkg__resources_1_1_null_provider.html#ac8f8f36f17bcd8a5e9e0621446ec4e6b",tooltip=" "];
  Node23 -> Node24 [color="midnightblue",fontsize="10",style="solid",fontname="Helvetica"];
  Node24 [label="pip._vendor.urllib3.util.queue.\lLifoQueue._get",height=0.2,width=0.4,color="black", fillcolor="white", style="filled",URL="$dc/d92/classpip_1_1__vendor_1_1urllib3_1_1util_1_1queue_1_1_lifo_queue.html#a4174694783468a88c1725cb8fade78c4",tooltip=" "];
  Node24 -> Node25 [color="midnightblue",fontsize="10",style="solid",fontname="Helvetica"];
  Node25 [label="pip._vendor.distlib.compat.pop",height=0.2,width=0.4,color="black", fillcolor="white", style="filled",URL="$d1/d99/namespacepip_1_1__vendor_1_1distlib_1_1compat.html#af2de87d4eb4e5f0c5107ef23aeeb40fa",tooltip=" "];
  Node25 -> Node26 [color="midnightblue",fontsize="10",style="solid",fontname="Helvetica"];
  Node26 [label="wheel.cli.convert.convert",height=0.2,width=0.4,color="black", fillcolor="white", style="filled",URL="$d9/dd7/namespacewheel_1_1cli_1_1convert.html#af3bc802d1311c120a48e97d90de58fde",tooltip=" "];
  Node26 -> Node27 [color="midnightblue",fontsize="10",style="solid",fontname="Helvetica"];
  Node27 [label="pip._vendor.distlib.util.iglob",height=0.2,width=0.4,color="black", fillcolor="white", style="filled",URL="$d6/d99/namespacepip_1_1__vendor_1_1distlib_1_1util.html#a01e026ce674216cb9a30feec8d96f7cd",tooltip=" "];
  Node27 -> Node28 [color="midnightblue",fontsize="10",style="solid",fontname="Helvetica"];
  Node28 [label="pip._vendor.distlib.util.\l_iglob",height=0.2,width=0.4,color="black", fillcolor="white", style="filled",URL="$d6/d99/namespacepip_1_1__vendor_1_1distlib_1_1util.html#af493b4e69cabea8d54839c3255d12f1d",tooltip=" "];
  Node26 -> Node29 [color="midnightblue",fontsize="10",style="solid",fontname="Helvetica"];
  Node29 [label="wheel.cli.require_pkgresources",height=0.2,width=0.4,color="black", fillcolor="white", style="filled",URL="$d4/da6/namespacewheel_1_1cli.html#a0eedbfc56bb01006797f610f2e59d20b",tooltip=" "];
  Node23 -> Node9 [color="midnightblue",fontsize="10",style="solid",fontname="Helvetica"];
  Node23 -> Node30 [color="midnightblue",fontsize="10",style="solid",fontname="Helvetica"];
  Node30 [label="pip._vendor.pkg_resources.\lDefaultProvider._get",height=0.2,width=0.4,color="black", fillcolor="white", style="filled",URL="$d3/d98/classpip_1_1__vendor_1_1pkg__resources_1_1_default_provider.html#ac81adf267e47d639f49da897b4dc6c6a",tooltip=" "];
  Node23 -> Node31 [color="midnightblue",fontsize="10",style="solid",fontname="Helvetica"];
  Node31 [label="pip._vendor.pkg_resources.\lEmptyProvider._get",height=0.2,width=0.4,color="black", fillcolor="white", style="filled",URL="$d7/d94/classpip_1_1__vendor_1_1pkg__resources_1_1_empty_provider.html#a82c4bd88c5d601c4cf7b63acb167e146",tooltip=" "];
  Node23 -> Node32 [color="midnightblue",fontsize="10",style="solid",fontname="Helvetica"];
  Node32 [label="pkg_resources.NullProvider._get",height=0.2,width=0.4,color="black", fillcolor="white", style="filled",URL="$d3/da0/classpkg__resources_1_1_null_provider.html#a17e0de4cc7aa5ef158c233b1960ef186",tooltip=" "];
  Node32 -> Node33 [color="midnightblue",fontsize="10",style="solid",fontname="Helvetica"];
  Node33 [label="pkg_resources.register\l_loader_type",height=0.2,width=0.4,color="black", fillcolor="white", style="filled",URL="$d0/de1/namespacepkg__resources.html#aebea9035d439bfb9fd4ec75e1c2d2003",tooltip=" "];
  Node23 -> Node11 [color="midnightblue",fontsize="10",style="solid",fontname="Helvetica"];
  Node23 -> Node34 [color="midnightblue",fontsize="10",style="solid",fontname="Helvetica"];
  Node34 [label="pip._vendor.pkg_resources.\lFileMetadata._get_metadata_path",height=0.2,width=0.4,color="black", fillcolor="white", style="filled",URL="$d8/d2b/classpip_1_1__vendor_1_1pkg__resources_1_1_file_metadata.html#a7c2336ab166b53e265c4885936b6fe1f",tooltip=" "];
  Node23 -> Node35 [color="midnightblue",fontsize="10",style="solid",fontname="Helvetica"];
  Node35 [label="pkg_resources.NullProvider.\l_get_metadata_path",height=0.2,width=0.4,color="black", fillcolor="white", style="filled",URL="$d3/da0/classpkg__resources_1_1_null_provider.html#ae74e78ebcc88d33072ee6b0479bac0ad",tooltip=" "];
  Node35 -> Node12 [color="midnightblue",fontsize="10",style="solid",fontname="Helvetica"];
  Node35 -> Node36 [color="midnightblue",fontsize="10",style="solid",fontname="Helvetica"];
  Node36 [label="pkg_resources.NullProvider._fn",height=0.2,width=0.4,color="black", fillcolor="white", style="filled",URL="$d3/da0/classpkg__resources_1_1_null_provider.html#ac5589805a772a4cf6ed1e648c30aa703",tooltip=" "];
  Node36 -> Node13 [color="midnightblue",fontsize="10",style="solid",fontname="Helvetica"];
  Node36 -> Node37 [color="midnightblue",fontsize="10",style="solid",fontname="Helvetica"];
  Node37 [label="pkg_resources.NullProvider.\l_validate_resource_path",height=0.2,width=0.4,color="black", fillcolor="white", style="filled",URL="$d3/da0/classpkg__resources_1_1_null_provider.html#a86c0d42834fe643f9a2339534e5ebd88",tooltip=" "];
  Node35 -> Node14 [color="midnightblue",fontsize="10",style="solid",fontname="Helvetica"];
  Node2 -> Node38 [color="midnightblue",fontsize="10",style="solid",fontname="Helvetica"];
  Node38 [label="pkg_resources.FileMetadata.get\l_metadata",height=0.2,width=0.4,color="black", fillcolor="white", style="filled",URL="$dd/dda/classpkg__resources_1_1_file_metadata.html#a4a047f462c972090a3d31882f65bb957",tooltip=" "];
  Node38 -> Node17 [color="midnightblue",fontsize="10",style="solid",fontname="Helvetica"];
  Node38 -> Node39 [color="midnightblue",fontsize="10",style="solid",fontname="Helvetica"];
  Node39 [label="pkg_resources.FileMetadata.\l_warn_on_replacement",height=0.2,width=0.4,color="black", fillcolor="white", style="filled",URL="$dd/dda/classpkg__resources_1_1_file_metadata.html#abc25a4cbce1e8568f9e180f2e64c53ef",tooltip=" "];
  Node1 -> Node40 [color="midnightblue",fontsize="10",style="solid",fontname="Helvetica"];
  Node40 [label="pip._vendor.pkg_resources.parse\l_requirements",height=0.2,width=0.4,color="black", fillcolor="white", style="filled",URL="$d7/dcc/namespacepip_1_1__vendor_1_1pkg__resources.html#acfa8d95bd782ff75e70ae61c11441bc8",tooltip=" "];
  Node40 -> Node41 [color="midnightblue",fontsize="10",style="solid",fontname="Helvetica"];
  Node41 [label="pip._vendor.pkg_resources.yield\l_lines",height=0.2,width=0.4,color="black", fillcolor="white", style="filled",URL="$d7/dcc/namespacepip_1_1__vendor_1_1pkg__resources.html#a9154cf7836eab6cbeb1238fdc578e0fd",tooltip=" "];
  Node1 -> Node42 [color="midnightblue",fontsize="10",style="solid",fontname="Helvetica"];
  Node42 [label="pip._vendor.pkg_resources.safe\l_extra",height=0.2,width=0.4,color="black", fillcolor="white", style="filled",URL="$d7/dcc/namespacepip_1_1__vendor_1_1pkg__resources.html#a0fca90e72770561adb5c1feb0ebfd60d",tooltip=" "];
}
