digraph "pip._vendor.contextlib2._GeneratorContextManager"
{
 // LATEX_PDF_SIZE
  edge [fontname="Helvetica",fontsize="10",labelfontname="Helvetica",labelfontsize="10"];
  node [fontname="Helvetica",fontsize="10",shape=record];
  Node1 [label="{pip._vendor.contextlib2.\l_GeneratorContextManager\n|+ gen\l+ kwds\l- __doc__\l|+ __init__()\l+ __enter__()\l+ __exit__()\l- _recreate_cm()\l}",height=0.2,width=0.4,color="black", fillcolor="grey75", style="filled", fontcolor="black",tooltip=" "];
  Node2 -> Node1 [dir="back",color="midnightblue",fontsize="10",style="solid",arrowtail="onormal",fontname="Helvetica"];
  Node2 [label="{pip._vendor.contextlib2.\lContextDecorator\n||+ refresh_cm()\l+ __call__()\l- _recreate_cm()\l}",height=0.2,width=0.4,color="black", fillcolor="white", style="filled",URL="$d8/d42/classpip_1_1__vendor_1_1contextlib2_1_1_context_decorator.html",tooltip=" "];
  Node3 -> Node2 [dir="back",color="midnightblue",fontsize="10",style="solid",arrowtail="onormal",fontname="Helvetica"];
  Node3 [label="{object\n||}",height=0.2,width=0.4,color="grey75", fillcolor="white", style="filled",tooltip=" "];
}
