digraph "pip._vendor.distlib.locators.SimpleScrapingLocator.get_page"
{
 // LATEX_PDF_SIZE
  edge [fontname="Helvetica",fontsize="10",labelfontname="Helvetica",labelfontsize="10"];
  node [fontname="Helvetica",fontsize="10",shape=record];
  rankdir="LR";
  Node1 [label="pip._vendor.distlib.locators.\lSimpleScrapingLocator.get_page",height=0.2,width=0.4,color="black", fillcolor="grey75", style="filled", fontcolor="black",tooltip=" "];
  Node1 -> Node2 [color="midnightblue",fontsize="10",style="solid"];
  Node2 [label="pip._vendor.distlib.util.ensure\l_slash",height=0.2,width=0.4,color="black", fillcolor="white", style="filled",URL="$d6/d99/namespacepip_1_1__vendor_1_1distlib_1_1util.html#a4cd22029a8e2cbc2b4e596debb2e5a3f",tooltip=" "];
}
