digraph "pip._vendor.distlib.locators.SimpleScrapingLocator._process_download"
{
 // LATEX_PDF_SIZE
  edge [fontname="Helvetica",fontsize="10",labelfontname="Helvetica",labelfontsize="10"];
  node [fontname="Helvetica",fontsize="10",shape=record];
  rankdir="RL";
  Node1 [label="pip._vendor.distlib.locators.\lSimpleScrapingLocator._process\l_download",height=0.2,width=0.4,color="black", fillcolor="grey75", style="filled", fontcolor="black",tooltip=" "];
  Node1 -> Node2 [dir="back",color="midnightblue",fontsize="10",style="solid"];
  Node2 [label="pip._vendor.distlib.locators.\lSimpleScrapingLocator._fetch",height=0.2,width=0.4,color="black", fillcolor="white", style="filled",URL="$d6/d82/classpip_1_1__vendor_1_1distlib_1_1locators_1_1_simple_scraping_locator.html#a357911c208af723921441ca937fa06e1",tooltip=" "];
}
