digraph "pip._internal.utils.compat.has_tls"
{
 // LATEX_PDF_SIZE
  edge [fontname="Helvetica",fontsize="10",labelfontname="Helvetica",labelfontsize="10"];
  node [fontname="Helvetica",fontsize="10",shape=record];
  rankdir="RL";
  Node1 [label="pip._internal.utils.compat.has_tls",height=0.2,width=0.4,color="black", fillcolor="grey75", style="filled", fontcolor="black",tooltip=" "];
  Node1 -> Node2 [dir="back",color="midnightblue",fontsize="10",style="solid",fontname="Helvetica"];
  Node2 [label="pip._internal.models.search\l_scope.SearchScope.create",height=0.2,width=0.4,color="black", fillcolor="white", style="filled",URL="$df/dcd/classpip_1_1__internal_1_1models_1_1search__scope_1_1_search_scope.html#ae6643bb01b17da5f97ef70ea15655ffa",tooltip=" "];
}
