digraph "pip._internal.distributions.sdist.SourceDistribution._setup_isolation"
{
 // LATEX_PDF_SIZE
  edge [fontname="Helvetica",fontsize="10",labelfontname="Helvetica",labelfontsize="10"];
  node [fontname="Helvetica",fontsize="10",shape=record];
  rankdir="RL";
  Node1 [label="pip._internal.distributions.sdist.\lSourceDistribution._setup_isolation",height=0.2,width=0.4,color="black", fillcolor="grey75", style="filled", fontcolor="black",tooltip=" "];
  Node1 -> Node2 [dir="back",color="midnightblue",fontsize="10",style="solid"];
  Node2 [label="pip._internal.distributions.sdist.\lSourceDistribution.prepare\l_distribution_metadata",height=0.2,width=0.4,color="black", fillcolor="white", style="filled",URL="$db/d52/classpip_1_1__internal_1_1distributions_1_1sdist_1_1_source_distribution.html#ad72e8124f939c785230dff13c553907a",tooltip=" "];
}
