digraph "pip._vendor.cachecontrol.adapter.CacheControlAdapter.send"
{
 // LATEX_PDF_SIZE
  edge [fontname="Helvetica",fontsize="10",labelfontname="Helvetica",labelfontsize="10"];
  node [fontname="Helvetica",fontsize="10",shape=record];
  rankdir="LR";
  Node1 [label="pip._vendor.cachecontrol.adapter.\lCacheControlAdapter.send",height=0.2,width=0.4,color="black", fillcolor="grey75", style="filled", fontcolor="black",tooltip=" "];
  Node1 -> Node2 [color="midnightblue",fontsize="10",style="solid"];
  Node2 [label="pip._vendor.cachecontrol.adapter.\lCacheControlAdapter.build_response",height=0.2,width=0.4,color="black", fillcolor="white", style="filled",URL="$d6/def/classpip_1_1__vendor_1_1cachecontrol_1_1adapter_1_1_cache_control_adapter.html#a3989016f8c12cf716f18d8436eeb5416",tooltip=" "];
}
