digraph "pip._vendor.packaging.markers._format_marker"
{
 // LATEX_PDF_SIZE
  edge [fontname="Helvetica",fontsize="10",labelfontname="Helvetica",labelfontsize="10"];
  node [fontname="Helvetica",fontsize="10",shape=record];
  rankdir="RL";
  Node1 [label="pip._vendor.packaging.markers.\l_format_marker",height=0.2,width=0.4,color="black", fillcolor="grey75", style="filled", fontcolor="black",tooltip=" "];
  Node1 -> Node2 [dir="back",color="midnightblue",fontsize="10",style="solid",fontname="Helvetica"];
  Node2 [label="pip._vendor.packaging.markers.\lMarker.__str__",height=0.2,width=0.4,color="black", fillcolor="white", style="filled",URL="$d6/db5/classpip_1_1__vendor_1_1packaging_1_1markers_1_1_marker.html#a2364f9d4bf5479ad63d06eb9c40192b4",tooltip=" "];
}
