digraph "pip._vendor.pkg_resources.WorkingSet.add"
{
 // LATEX_PDF_SIZE
  edge [fontname="Helvetica",fontsize="10",labelfontname="Helvetica",labelfontsize="10"];
  node [fontname="Helvetica",fontsize="10",shape=record];
  rankdir="LR";
  Node1 [label="pip._vendor.pkg_resources.\lWorkingSet.add",height=0.2,width=0.4,color="black", fillcolor="grey75", style="filled", fontcolor="black",tooltip=" "];
  Node1 -> Node2 [color="midnightblue",fontsize="10",style="solid",fontname="Helvetica"];
  Node2 [label="pip._vendor.pkg_resources.\lWorkingSet._added_new",height=0.2,width=0.4,color="black", fillcolor="white", style="filled",URL="$da/d4f/classpip_1_1__vendor_1_1pkg__resources_1_1_working_set.html#a8bad467ae767e4e25b9e90d91aca5c65",tooltip=" "];
}
