digraph "pip._internal.utils.models.KeyBasedCompareMixin._compare"
{
 // LATEX_PDF_SIZE
  edge [fontname="Helvetica",fontsize="10",labelfontname="Helvetica",labelfontsize="10"];
  node [fontname="Helvetica",fontsize="10",shape=record];
  rankdir="RL";
  Node1 [label="pip._internal.utils.models.\lKeyBasedCompareMixin._compare",height=0.2,width=0.4,color="black", fillcolor="grey75", style="filled", fontcolor="black",tooltip=" "];
  Node1 -> Node2 [dir="back",color="midnightblue",fontsize="10",style="solid",fontname="Helvetica"];
  Node2 [label="pip._internal.utils.models.\lKeyBasedCompareMixin.__eq__",height=0.2,width=0.4,color="black", fillcolor="white", style="filled",URL="$d3/d62/classpip_1_1__internal_1_1utils_1_1models_1_1_key_based_compare_mixin.html#a004a091586eb35b2840278172a24904f",tooltip=" "];
  Node2 -> Node3 [dir="back",color="midnightblue",fontsize="10",style="solid",fontname="Helvetica"];
  Node3 [label="pip._vendor.distlib.version.\lVersion.__ge__",height=0.2,width=0.4,color="black", fillcolor="white", style="filled",URL="$da/d0e/classpip_1_1__vendor_1_1distlib_1_1version_1_1_version.html#a3b9dd76b307e2bfd1ced1dc0ea4fede7",tooltip=" "];
  Node2 -> Node4 [dir="back",color="midnightblue",fontsize="10",style="solid",fontname="Helvetica"];
  Node4 [label="pip._vendor.distlib.version.\lVersion.__gt__",height=0.2,width=0.4,color="black", fillcolor="white", style="filled",URL="$da/d0e/classpip_1_1__vendor_1_1distlib_1_1version_1_1_version.html#a98a7c7052778f3ed12f0321e740579a2",tooltip=" "];
  Node4 -> Node3 [dir="back",color="midnightblue",fontsize="10",style="solid",fontname="Helvetica"];
  Node2 -> Node5 [dir="back",color="midnightblue",fontsize="10",style="solid",fontname="Helvetica"];
  Node5 [label="pip._vendor.ipaddress.\l_TotalOrderingMixin.__gt__",height=0.2,width=0.4,color="black", fillcolor="white", style="filled",URL="$da/dbd/classpip_1_1__vendor_1_1ipaddress_1_1___total_ordering_mixin.html#ad04fa4f97feaabc13d69e16d1270dacb",tooltip=" "];
  Node2 -> Node6 [dir="back",color="midnightblue",fontsize="10",style="solid",fontname="Helvetica"];
  Node6 [label="pip._vendor.distlib.version.\lVersion.__le__",height=0.2,width=0.4,color="black", fillcolor="white", style="filled",URL="$da/d0e/classpip_1_1__vendor_1_1distlib_1_1version_1_1_version.html#aa0225a6f551bfccb3c669645895dfdb8",tooltip=" "];
  Node2 -> Node7 [dir="back",color="midnightblue",fontsize="10",style="solid",fontname="Helvetica"];
  Node7 [label="pip._vendor.ipaddress.\l_TotalOrderingMixin.__le__",height=0.2,width=0.4,color="black", fillcolor="white", style="filled",URL="$da/dbd/classpip_1_1__vendor_1_1ipaddress_1_1___total_ordering_mixin.html#a30664700c17bc47e84a6151fb4ae248d",tooltip=" "];
  Node2 -> Node8 [dir="back",color="midnightblue",fontsize="10",style="solid",fontname="Helvetica"];
  Node8 [label="pip._vendor.distlib.version.\lVersion.__ne__",height=0.2,width=0.4,color="black", fillcolor="white", style="filled",URL="$da/d0e/classpip_1_1__vendor_1_1distlib_1_1version_1_1_version.html#a1611bd1a9e639a33b671db6066c035c6",tooltip=" "];
  Node2 -> Node9 [dir="back",color="midnightblue",fontsize="10",style="solid",fontname="Helvetica"];
  Node9 [label="pip._vendor.distlib.version.\lMatcher.__ne__",height=0.2,width=0.4,color="black", fillcolor="white", style="filled",URL="$d3/d6b/classpip_1_1__vendor_1_1distlib_1_1version_1_1_matcher.html#a150a7ef82cfd81b9f1f83426a067bef5",tooltip=" "];
  Node2 -> Node10 [dir="back",color="midnightblue",fontsize="10",style="solid",fontname="Helvetica"];
  Node10 [label="pip._vendor.ipaddress.\l_TotalOrderingMixin.__ne__",height=0.2,width=0.4,color="black", fillcolor="white", style="filled",URL="$da/dbd/classpip_1_1__vendor_1_1ipaddress_1_1___total_ordering_mixin.html#a8b5457abdd8687d665f60a9a6d66c3cd",tooltip=" "];
  Node2 -> Node11 [dir="back",color="midnightblue",fontsize="10",style="solid",fontname="Helvetica"];
  Node11 [label="pip._vendor.msgpack.ext.\lTimestamp.__ne__",height=0.2,width=0.4,color="black", fillcolor="white", style="filled",URL="$d6/dd9/classpip_1_1__vendor_1_1msgpack_1_1ext_1_1_timestamp.html#a85bbfb0158c314f6747659d9d79fbc5f",tooltip=" "];
  Node2 -> Node12 [dir="back",color="midnightblue",fontsize="10",style="solid",fontname="Helvetica"];
  Node12 [label="pip._vendor.urllib3.\l_collections.HTTPHeaderDict.__ne__",height=0.2,width=0.4,color="black", fillcolor="white", style="filled",URL="$d8/dc7/classpip_1_1__vendor_1_1urllib3_1_1__collections_1_1_h_t_t_p_header_dict.html#a3f4d576e6b092d091cedfd92fe4becb2",tooltip=" "];
  Node1 -> Node13 [dir="back",color="midnightblue",fontsize="10",style="solid",fontname="Helvetica"];
  Node13 [label="pip._vendor.packaging.version.\l_BaseVersion.__eq__",height=0.2,width=0.4,color="black", fillcolor="white", style="filled",URL="$d9/d99/classpip_1_1__vendor_1_1packaging_1_1version_1_1___base_version.html#ad89e467a666ff72cd78c128d33ad20e2",tooltip=" "];
  Node13 -> Node12 [dir="back",color="midnightblue",fontsize="10",style="solid",fontname="Helvetica"];
  Node1 -> Node14 [dir="back",color="midnightblue",fontsize="10",style="solid",fontname="Helvetica"];
  Node14 [label="pkg_resources._vendor.packaging.version.\l_BaseVersion.__eq__",height=0.2,width=0.4,color="black", fillcolor="white", style="filled",URL="$df/da3/classpkg__resources_1_1__vendor_1_1packaging_1_1version_1_1___base_version.html#aa7df680623586d3963b9ea276e73a6e2",tooltip=" "];
  Node1 -> Node15 [dir="back",color="midnightblue",fontsize="10",style="solid",fontname="Helvetica"];
  Node15 [label="setuptools._vendor.packaging.version.\l_BaseVersion.__eq__",height=0.2,width=0.4,color="black", fillcolor="white", style="filled",URL="$d6/d08/classsetuptools_1_1__vendor_1_1packaging_1_1version_1_1___base_version.html#af48e2f9cb763dccb458a4d0b9a23f1a3",tooltip=" "];
  Node1 -> Node16 [dir="back",color="midnightblue",fontsize="10",style="solid",fontname="Helvetica"];
  Node16 [label="pip._internal.utils.models.\lKeyBasedCompareMixin.__ge__",height=0.2,width=0.4,color="black", fillcolor="white", style="filled",URL="$d3/d62/classpip_1_1__internal_1_1utils_1_1models_1_1_key_based_compare_mixin.html#a4d9e9708f0991e969b9e5de9635cc19b",tooltip=" "];
  Node1 -> Node17 [dir="back",color="midnightblue",fontsize="10",style="solid",fontname="Helvetica"];
  Node17 [label="pip._vendor.packaging.version.\l_BaseVersion.__ge__",height=0.2,width=0.4,color="black", fillcolor="white", style="filled",URL="$d9/d99/classpip_1_1__vendor_1_1packaging_1_1version_1_1___base_version.html#a38d5434d53e416ce849997f9cd7836df",tooltip=" "];
  Node1 -> Node18 [dir="back",color="midnightblue",fontsize="10",style="solid",fontname="Helvetica"];
  Node18 [label="pkg_resources._vendor.packaging.version.\l_BaseVersion.__ge__",height=0.2,width=0.4,color="black", fillcolor="white", style="filled",URL="$df/da3/classpkg__resources_1_1__vendor_1_1packaging_1_1version_1_1___base_version.html#ab70e84262e778d55f03e0faca98d37ba",tooltip=" "];
  Node1 -> Node19 [dir="back",color="midnightblue",fontsize="10",style="solid",fontname="Helvetica"];
  Node19 [label="setuptools._vendor.packaging.version.\l_BaseVersion.__ge__",height=0.2,width=0.4,color="black", fillcolor="white", style="filled",URL="$d6/d08/classsetuptools_1_1__vendor_1_1packaging_1_1version_1_1___base_version.html#a1540bb23ab0a359c40020118eba60407",tooltip=" "];
  Node1 -> Node20 [dir="back",color="midnightblue",fontsize="10",style="solid",fontname="Helvetica"];
  Node20 [label="pip._internal.utils.models.\lKeyBasedCompareMixin.__gt__",height=0.2,width=0.4,color="black", fillcolor="white", style="filled",URL="$d3/d62/classpip_1_1__internal_1_1utils_1_1models_1_1_key_based_compare_mixin.html#aa8ad30a60a69d7408cc8df46c9f68650",tooltip=" "];
  Node20 -> Node3 [dir="back",color="midnightblue",fontsize="10",style="solid",fontname="Helvetica"];
  Node1 -> Node21 [dir="back",color="midnightblue",fontsize="10",style="solid",fontname="Helvetica"];
  Node21 [label="pip._vendor.packaging.version.\l_BaseVersion.__gt__",height=0.2,width=0.4,color="black", fillcolor="white", style="filled",URL="$d9/d99/classpip_1_1__vendor_1_1packaging_1_1version_1_1___base_version.html#aa468fdcbb92fb38afc6a517150bd15e6",tooltip=" "];
  Node1 -> Node22 [dir="back",color="midnightblue",fontsize="10",style="solid",fontname="Helvetica"];
  Node22 [label="pkg_resources._vendor.packaging.version.\l_BaseVersion.__gt__",height=0.2,width=0.4,color="black", fillcolor="white", style="filled",URL="$df/da3/classpkg__resources_1_1__vendor_1_1packaging_1_1version_1_1___base_version.html#a90615e99a9d83c8434923bfe763d598c",tooltip=" "];
  Node1 -> Node23 [dir="back",color="midnightblue",fontsize="10",style="solid",fontname="Helvetica"];
  Node23 [label="setuptools._vendor.packaging.version.\l_BaseVersion.__gt__",height=0.2,width=0.4,color="black", fillcolor="white", style="filled",URL="$d6/d08/classsetuptools_1_1__vendor_1_1packaging_1_1version_1_1___base_version.html#a177dc7a3808df42256904d188848b824",tooltip=" "];
  Node1 -> Node24 [dir="back",color="midnightblue",fontsize="10",style="solid",fontname="Helvetica"];
  Node24 [label="pip._internal.utils.models.\lKeyBasedCompareMixin.__le__",height=0.2,width=0.4,color="black", fillcolor="white", style="filled",URL="$d3/d62/classpip_1_1__internal_1_1utils_1_1models_1_1_key_based_compare_mixin.html#af5bfe974250f0284e7d386cb90b64a21",tooltip=" "];
  Node1 -> Node25 [dir="back",color="midnightblue",fontsize="10",style="solid",fontname="Helvetica"];
  Node25 [label="pip._vendor.packaging.version.\l_BaseVersion.__le__",height=0.2,width=0.4,color="black", fillcolor="white", style="filled",URL="$d9/d99/classpip_1_1__vendor_1_1packaging_1_1version_1_1___base_version.html#a915576cb0f135be68ec8dfabd97706bc",tooltip=" "];
  Node1 -> Node26 [dir="back",color="midnightblue",fontsize="10",style="solid",fontname="Helvetica"];
  Node26 [label="pkg_resources._vendor.packaging.version.\l_BaseVersion.__le__",height=0.2,width=0.4,color="black", fillcolor="white", style="filled",URL="$df/da3/classpkg__resources_1_1__vendor_1_1packaging_1_1version_1_1___base_version.html#a33fd377a1abd86fe7b248798542b7bbe",tooltip=" "];
  Node1 -> Node27 [dir="back",color="midnightblue",fontsize="10",style="solid",fontname="Helvetica"];
  Node27 [label="setuptools._vendor.packaging.version.\l_BaseVersion.__le__",height=0.2,width=0.4,color="black", fillcolor="white", style="filled",URL="$d6/d08/classsetuptools_1_1__vendor_1_1packaging_1_1version_1_1___base_version.html#a5cffa6a46c9d06cff6706bc814e8123e",tooltip=" "];
  Node1 -> Node28 [dir="back",color="midnightblue",fontsize="10",style="solid",fontname="Helvetica"];
  Node28 [label="pip._internal.utils.models.\lKeyBasedCompareMixin.__lt__",height=0.2,width=0.4,color="black", fillcolor="white", style="filled",URL="$d3/d62/classpip_1_1__internal_1_1utils_1_1models_1_1_key_based_compare_mixin.html#a6052fe07f8b612f8d97667ab53859feb",tooltip=" "];
  Node28 -> Node29 [dir="back",color="midnightblue",fontsize="10",style="solid",fontname="Helvetica"];
  Node29 [label="pip._vendor.ipaddress.\l_TotalOrderingMixin.__ge__",height=0.2,width=0.4,color="black", fillcolor="white", style="filled",URL="$da/dbd/classpip_1_1__vendor_1_1ipaddress_1_1___total_ordering_mixin.html#acc3e49b1b6376153b6f6da09c70cb12a",tooltip=" "];
  Node28 -> Node4 [dir="back",color="midnightblue",fontsize="10",style="solid",fontname="Helvetica"];
  Node28 -> Node5 [dir="back",color="midnightblue",fontsize="10",style="solid",fontname="Helvetica"];
  Node28 -> Node6 [dir="back",color="midnightblue",fontsize="10",style="solid",fontname="Helvetica"];
  Node28 -> Node7 [dir="back",color="midnightblue",fontsize="10",style="solid",fontname="Helvetica"];
  Node1 -> Node30 [dir="back",color="midnightblue",fontsize="10",style="solid",fontname="Helvetica"];
  Node30 [label="pip._vendor.packaging.version.\l_BaseVersion.__lt__",height=0.2,width=0.4,color="black", fillcolor="white", style="filled",URL="$d9/d99/classpip_1_1__vendor_1_1packaging_1_1version_1_1___base_version.html#af3fa2ce7cdd1152f7d20f0eb56249bd2",tooltip=" "];
  Node1 -> Node31 [dir="back",color="midnightblue",fontsize="10",style="solid",fontname="Helvetica"];
  Node31 [label="pkg_resources._vendor.packaging.version.\l_BaseVersion.__lt__",height=0.2,width=0.4,color="black", fillcolor="white", style="filled",URL="$df/da3/classpkg__resources_1_1__vendor_1_1packaging_1_1version_1_1___base_version.html#a9de5dc61282a0ebcdebfb51f21db3a67",tooltip=" "];
  Node1 -> Node32 [dir="back",color="midnightblue",fontsize="10",style="solid",fontname="Helvetica"];
  Node32 [label="setuptools._vendor.packaging.version.\l_BaseVersion.__lt__",height=0.2,width=0.4,color="black", fillcolor="white", style="filled",URL="$d6/d08/classsetuptools_1_1__vendor_1_1packaging_1_1version_1_1___base_version.html#a6b30200919d1f89d2ab98607f1e5b3bf",tooltip=" "];
  Node1 -> Node33 [dir="back",color="midnightblue",fontsize="10",style="solid",fontname="Helvetica"];
  Node33 [label="pip._internal.utils.models.\lKeyBasedCompareMixin.__ne__",height=0.2,width=0.4,color="black", fillcolor="white", style="filled",URL="$d3/d62/classpip_1_1__internal_1_1utils_1_1models_1_1_key_based_compare_mixin.html#a01ac3ac6a871ab5e58ad590457a0ae50",tooltip=" "];
  Node1 -> Node34 [dir="back",color="midnightblue",fontsize="10",style="solid",fontname="Helvetica"];
  Node34 [label="pip._vendor.packaging.version.\l_BaseVersion.__ne__",height=0.2,width=0.4,color="black", fillcolor="white", style="filled",URL="$d9/d99/classpip_1_1__vendor_1_1packaging_1_1version_1_1___base_version.html#ad26e20f77d5afcf9be871a13f5ac39ac",tooltip=" "];
  Node1 -> Node35 [dir="back",color="midnightblue",fontsize="10",style="solid",fontname="Helvetica"];
  Node35 [label="pkg_resources._vendor.packaging.version.\l_BaseVersion.__ne__",height=0.2,width=0.4,color="black", fillcolor="white", style="filled",URL="$df/da3/classpkg__resources_1_1__vendor_1_1packaging_1_1version_1_1___base_version.html#a13ddf24975b4e331cdbfbd7fd9513496",tooltip=" "];
  Node1 -> Node36 [dir="back",color="midnightblue",fontsize="10",style="solid",fontname="Helvetica"];
  Node36 [label="setuptools._vendor.packaging.version.\l_BaseVersion.__ne__",height=0.2,width=0.4,color="black", fillcolor="white", style="filled",URL="$d6/d08/classsetuptools_1_1__vendor_1_1packaging_1_1version_1_1___base_version.html#aff0afe8376f116afd936dc82be92a60e",tooltip=" "];
}
