digraph "pip._internal.utils.models.KeyBasedCompareMixin.__lt__"
{
 // LATEX_PDF_SIZE
  edge [fontname="Helvetica",fontsize="10",labelfontname="Helvetica",labelfontsize="10"];
  node [fontname="Helvetica",fontsize="10",shape=record];
  rankdir="RL";
  Node1 [label="pip._internal.utils.models.\lKeyBasedCompareMixin.__lt__",height=0.2,width=0.4,color="black", fillcolor="grey75", style="filled", fontcolor="black",tooltip=" "];
  Node1 -> Node2 [dir="back",color="midnightblue",fontsize="10",style="solid",fontname="Helvetica"];
  Node2 [label="pip._vendor.ipaddress.\l_TotalOrderingMixin.__ge__",height=0.2,width=0.4,color="black", fillcolor="white", style="filled",URL="$da/dbd/classpip_1_1__vendor_1_1ipaddress_1_1___total_ordering_mixin.html#acc3e49b1b6376153b6f6da09c70cb12a",tooltip=" "];
  Node1 -> Node3 [dir="back",color="midnightblue",fontsize="10",style="solid",fontname="Helvetica"];
  Node3 [label="pip._vendor.distlib.version.\lVersion.__gt__",height=0.2,width=0.4,color="black", fillcolor="white", style="filled",URL="$da/d0e/classpip_1_1__vendor_1_1distlib_1_1version_1_1_version.html#a98a7c7052778f3ed12f0321e740579a2",tooltip=" "];
  Node3 -> Node4 [dir="back",color="midnightblue",fontsize="10",style="solid",fontname="Helvetica"];
  Node4 [label="pip._vendor.distlib.version.\lVersion.__ge__",height=0.2,width=0.4,color="black", fillcolor="white", style="filled",URL="$da/d0e/classpip_1_1__vendor_1_1distlib_1_1version_1_1_version.html#a3b9dd76b307e2bfd1ced1dc0ea4fede7",tooltip=" "];
  Node1 -> Node5 [dir="back",color="midnightblue",fontsize="10",style="solid",fontname="Helvetica"];
  Node5 [label="pip._vendor.ipaddress.\l_TotalOrderingMixin.__gt__",height=0.2,width=0.4,color="black", fillcolor="white", style="filled",URL="$da/dbd/classpip_1_1__vendor_1_1ipaddress_1_1___total_ordering_mixin.html#ad04fa4f97feaabc13d69e16d1270dacb",tooltip=" "];
  Node1 -> Node6 [dir="back",color="midnightblue",fontsize="10",style="solid",fontname="Helvetica"];
  Node6 [label="pip._vendor.distlib.version.\lVersion.__le__",height=0.2,width=0.4,color="black", fillcolor="white", style="filled",URL="$da/d0e/classpip_1_1__vendor_1_1distlib_1_1version_1_1_version.html#aa0225a6f551bfccb3c669645895dfdb8",tooltip=" "];
  Node1 -> Node7 [dir="back",color="midnightblue",fontsize="10",style="solid",fontname="Helvetica"];
  Node7 [label="pip._vendor.ipaddress.\l_TotalOrderingMixin.__le__",height=0.2,width=0.4,color="black", fillcolor="white", style="filled",URL="$da/dbd/classpip_1_1__vendor_1_1ipaddress_1_1___total_ordering_mixin.html#a30664700c17bc47e84a6151fb4ae248d",tooltip=" "];
}
