digraph "pip._vendor.msgpack.fallback.Packer.getbuffer"
{
 // LATEX_PDF_SIZE
  edge [fontname="Helvetica",fontsize="10",labelfontname="Helvetica",labelfontsize="10"];
  node [fontname="Helvetica",fontsize="10",shape=record];
  rankdir="LR";
  Node1 [label="pip._vendor.msgpack.fallback.\lPacker.getbuffer",height=0.2,width=0.4,color="black", fillcolor="grey75", style="filled", fontcolor="black",tooltip=" "];
  Node1 -> Node2 [color="midnightblue",fontsize="10",style="solid"];
  Node2 [label="pip._vendor.distlib.resources.\lResource.bytes",height=0.2,width=0.4,color="black", fillcolor="white", style="filled",URL="$d6/d16/classpip_1_1__vendor_1_1distlib_1_1resources_1_1_resource.html#a8f0a169e5ebe70150e18c00348983395",tooltip=" "];
  Node1 -> Node3 [color="midnightblue",fontsize="10",style="solid"];
  Node3 [label="pip._vendor.msgpack.fallback.\lPacker.bytes",height=0.2,width=0.4,color="black", fillcolor="white", style="filled",URL="$d8/da6/classpip_1_1__vendor_1_1msgpack_1_1fallback_1_1_packer.html#a9d155f83b76611440e9098546955c8c1",tooltip=" "];
}
