digraph "pip._vendor.msgpack.fallback.Packer._pack_array_header"
{
 // LATEX_PDF_SIZE
  edge [fontname="Helvetica",fontsize="10",labelfontname="Helvetica",labelfontsize="10"];
  node [fontname="Helvetica",fontsize="10",shape=record];
  rankdir="RL";
  Node1 [label="pip._vendor.msgpack.fallback.\lPacker._pack_array_header",height=0.2,width=0.4,color="black", fillcolor="grey75", style="filled", fontcolor="black",tooltip=" "];
  Node1 -> Node2 [dir="back",color="midnightblue",fontsize="10",style="solid"];
  Node2 [label="pip._vendor.msgpack.fallback.\lPacker._pack",height=0.2,width=0.4,color="black", fillcolor="white", style="filled",URL="$d8/da6/classpip_1_1__vendor_1_1msgpack_1_1fallback_1_1_packer.html#a57740dfbf52d0e2b6d68f37a5391019f",tooltip=" "];
  Node2 -> Node2 [dir="back",color="midnightblue",fontsize="10",style="solid"];
  Node2 -> Node3 [dir="back",color="midnightblue",fontsize="10",style="solid"];
  Node3 [label="pip._vendor.msgpack.fallback.\lPacker._pack_map_pairs",height=0.2,width=0.4,color="black", fillcolor="white", style="filled",URL="$d8/da6/classpip_1_1__vendor_1_1msgpack_1_1fallback_1_1_packer.html#ae313148893b739adb6e512a3eb979953",tooltip=" "];
  Node3 -> Node2 [dir="back",color="midnightblue",fontsize="10",style="solid"];
  Node3 -> Node4 [dir="back",color="midnightblue",fontsize="10",style="solid"];
  Node4 [label="pip._vendor.msgpack.fallback.\lPacker.pack_map_pairs",height=0.2,width=0.4,color="black", fillcolor="white", style="filled",URL="$d8/da6/classpip_1_1__vendor_1_1msgpack_1_1fallback_1_1_packer.html#aa5f0056238bef63a623d8f988bc861bf",tooltip=" "];
  Node2 -> Node5 [dir="back",color="midnightblue",fontsize="10",style="solid"];
  Node5 [label="pip._vendor.msgpack.fallback.\lPacker.pack",height=0.2,width=0.4,color="black", fillcolor="white", style="filled",URL="$d8/da6/classpip_1_1__vendor_1_1msgpack_1_1fallback_1_1_packer.html#aa1ef61320faf8912eed4e8b20e11c59d",tooltip=" "];
  Node1 -> Node6 [dir="back",color="midnightblue",fontsize="10",style="solid"];
  Node6 [label="pip._vendor.msgpack.fallback.\lPacker.pack_array_header",height=0.2,width=0.4,color="black", fillcolor="white", style="filled",URL="$d8/da6/classpip_1_1__vendor_1_1msgpack_1_1fallback_1_1_packer.html#ae299c5663a3f615b540a94c787bc7f0a",tooltip=" "];
}
