digraph "pip._vendor.msgpack.fallback.Packer.pack_map_pairs"
{
 // LATEX_PDF_SIZE
  edge [fontname="Helvetica",fontsize="10",labelfontname="Helvetica",labelfontsize="10"];
  node [fontname="Helvetica",fontsize="10",shape=record];
  rankdir="LR";
  Node1 [label="pip._vendor.msgpack.fallback.\lPacker.pack_map_pairs",height=0.2,width=0.4,color="black", fillcolor="grey75", style="filled", fontcolor="black",tooltip=" "];
  Node1 -> Node2 [color="midnightblue",fontsize="10",style="solid"];
  Node2 [label="pip._vendor.msgpack.fallback.\lPacker._pack_map_pairs",height=0.2,width=0.4,color="black", fillcolor="white", style="filled",URL="$d8/da6/classpip_1_1__vendor_1_1msgpack_1_1fallback_1_1_packer.html#ae313148893b739adb6e512a3eb979953",tooltip=" "];
  Node2 -> Node3 [color="midnightblue",fontsize="10",style="solid"];
  Node3 [label="pip._vendor.msgpack.fallback.\lPacker._pack",height=0.2,width=0.4,color="black", fillcolor="white", style="filled",URL="$d8/da6/classpip_1_1__vendor_1_1msgpack_1_1fallback_1_1_packer.html#a57740dfbf52d0e2b6d68f37a5391019f",tooltip=" "];
  Node3 -> Node3 [color="midnightblue",fontsize="10",style="solid"];
  Node3 -> Node4 [color="midnightblue",fontsize="10",style="solid"];
  Node4 [label="pip._vendor.msgpack.fallback.\lPacker._pack_array_header",height=0.2,width=0.4,color="black", fillcolor="white", style="filled",URL="$d8/da6/classpip_1_1__vendor_1_1msgpack_1_1fallback_1_1_packer.html#ad2d801e33eaafa8c787d94ceb44c63d1",tooltip=" "];
  Node3 -> Node5 [color="midnightblue",fontsize="10",style="solid"];
  Node5 [label="pip._vendor.msgpack.fallback.\lPacker._pack_bin_header",height=0.2,width=0.4,color="black", fillcolor="white", style="filled",URL="$d8/da6/classpip_1_1__vendor_1_1msgpack_1_1fallback_1_1_packer.html#a880b0f6453c325c1afacaabf35208b4d",tooltip=" "];
  Node5 -> Node6 [color="midnightblue",fontsize="10",style="solid"];
  Node6 [label="pip._vendor.msgpack.fallback.\lPacker._pack_raw_header",height=0.2,width=0.4,color="black", fillcolor="white", style="filled",URL="$d8/da6/classpip_1_1__vendor_1_1msgpack_1_1fallback_1_1_packer.html#a7e1986516b9e43b702c09cb1d382917a",tooltip=" "];
  Node3 -> Node2 [color="midnightblue",fontsize="10",style="solid"];
  Node3 -> Node6 [color="midnightblue",fontsize="10",style="solid"];
  Node3 -> Node7 [color="midnightblue",fontsize="10",style="solid"];
  Node7 [label="pip._vendor.pep517.check.check",height=0.2,width=0.4,color="black", fillcolor="white", style="filled",URL="$d9/da5/namespacepip_1_1__vendor_1_1pep517_1_1check.html#aa7d239907a676c2dc0540724660f94b7",tooltip=" "];
  Node7 -> Node8 [color="midnightblue",fontsize="10",style="solid"];
  Node8 [label="pip._vendor.pep517.check.check\l_build_sdist",height=0.2,width=0.4,color="black", fillcolor="white", style="filled",URL="$d9/da5/namespacepip_1_1__vendor_1_1pep517_1_1check.html#a3a47dab668d25537ec30491d2e22e56c",tooltip=" "];
  Node7 -> Node9 [color="midnightblue",fontsize="10",style="solid"];
  Node9 [label="pip._vendor.pep517.check.check\l_build_wheel",height=0.2,width=0.4,color="black", fillcolor="white", style="filled",URL="$d9/da5/namespacepip_1_1__vendor_1_1pep517_1_1check.html#a7b1f730ec661149c95e01df2ba63d97b",tooltip=" "];
  Node3 -> Node10 [color="midnightblue",fontsize="10",style="solid"];
  Node10 [label="pip._vendor.msgpack.fallback.dict\l_iteritems",height=0.2,width=0.4,color="black", fillcolor="white", style="filled",URL="$d9/d38/namespacepip_1_1__vendor_1_1msgpack_1_1fallback.html#a9a5cef9c31f40b81a8334d42e16be800",tooltip=" "];
  Node2 -> Node11 [color="midnightblue",fontsize="10",style="solid"];
  Node11 [label="pip._vendor.msgpack.fallback.\lPacker._pack_map_header",height=0.2,width=0.4,color="black", fillcolor="white", style="filled",URL="$d8/da6/classpip_1_1__vendor_1_1msgpack_1_1fallback_1_1_packer.html#af5daba6f3ee0ffe14447aa8f57b5a232",tooltip=" "];
}
