digraph "pip._internal.operations.install.editable_legacy.install_editable"
{
 // LATEX_PDF_SIZE
  edge [fontname="Helvetica",fontsize="10",labelfontname="Helvetica",labelfontsize="10"];
  node [fontname="Helvetica",fontsize="10",shape=record];
  rankdir="LR";
  Node1 [label="pip._internal.operations.install.editable\l_legacy.install_editable",height=0.2,width=0.4,color="black", fillcolor="grey75", style="filled", fontcolor="black",tooltip=" "];
  Node1 -> Node2 [color="midnightblue",fontsize="10",style="solid",fontname="Helvetica"];
  Node2 [label="pip._internal.utils.subprocess.call\l_subprocess",height=0.2,width=0.4,color="black", fillcolor="white", style="filled",URL="$de/d4d/namespacepip_1_1__internal_1_1utils_1_1subprocess.html#aa7460ba814e6508d609864b1783ac5c9",tooltip=" "];
  Node2 -> Node3 [color="midnightblue",fontsize="10",style="solid",fontname="Helvetica"];
  Node3 [label="pip._internal.utils.compat.console\l_to_str",height=0.2,width=0.4,color="black", fillcolor="white", style="filled",URL="$d1/dbe/namespacepip_1_1__internal_1_1utils_1_1compat.html#a10e86c6f45025a62c37b29bfc5801240",tooltip=" "];
  Node3 -> Node4 [color="midnightblue",fontsize="10",style="solid",fontname="Helvetica"];
  Node4 [label="pip._internal.utils.compat.str\l_to_display",height=0.2,width=0.4,color="black", fillcolor="white", style="filled",URL="$d1/dbe/namespacepip_1_1__internal_1_1utils_1_1compat.html#a4be57fd4fec2ca293f1967acba856c5b",tooltip=" "];
  Node2 -> Node5 [color="midnightblue",fontsize="10",style="solid",fontname="Helvetica"];
  Node5 [label="pip._internal.utils.subprocess.format\l_command_args",height=0.2,width=0.4,color="black", fillcolor="white", style="filled",URL="$de/d4d/namespacepip_1_1__internal_1_1utils_1_1subprocess.html#a555d52c519beee42615b9db004f18d59",tooltip=" "];
  Node2 -> Node6 [color="midnightblue",fontsize="10",style="solid",fontname="Helvetica"];
  Node6 [label="pip._internal.utils.subprocess.make\l_subprocess_output_error",height=0.2,width=0.4,color="black", fillcolor="white", style="filled",URL="$de/d4d/namespacepip_1_1__internal_1_1utils_1_1subprocess.html#a69e159aa9db850860bed4f4a64da8598",tooltip=" "];
  Node6 -> Node5 [color="midnightblue",fontsize="10",style="solid",fontname="Helvetica"];
  Node6 -> Node7 [color="midnightblue",fontsize="10",style="solid",fontname="Helvetica"];
  Node7 [label="pip._internal.utils.misc.path\l_to_display",height=0.2,width=0.4,color="black", fillcolor="white", style="filled",URL="$de/dc3/namespacepip_1_1__internal_1_1utils_1_1misc.html#a719e06573e964bf9b79c9088ae28426b",tooltip=" "];
  Node7 -> Node4 [color="midnightblue",fontsize="10",style="solid",fontname="Helvetica"];
  Node6 -> Node4 [color="midnightblue",fontsize="10",style="solid",fontname="Helvetica"];
  Node2 -> Node8 [color="midnightblue",fontsize="10",style="solid",fontname="Helvetica"];
  Node8 [label="pip._internal.utils.subprocess.reveal\l_command_args",height=0.2,width=0.4,color="black", fillcolor="white", style="filled",URL="$de/d4d/namespacepip_1_1__internal_1_1utils_1_1subprocess.html#a550dccfe24824c5345f989cdd92d8b37",tooltip=" "];
  Node1 -> Node9 [color="midnightblue",fontsize="10",style="solid",fontname="Helvetica"];
  Node9 [label="pip._internal.utils.logging.indent_log",height=0.2,width=0.4,color="black", fillcolor="white", style="filled",URL="$d2/d7f/namespacepip_1_1__internal_1_1utils_1_1logging.html#a085a5d65b0702800d0a9d48a0a4615a8",tooltip=" "];
  Node9 -> Node10 [color="midnightblue",fontsize="10",style="solid",fontname="Helvetica"];
  Node10 [label="pip._internal.utils.logging.get\l_indentation",height=0.2,width=0.4,color="black", fillcolor="white", style="filled",URL="$d2/d7f/namespacepip_1_1__internal_1_1utils_1_1logging.html#a44d946c100e5712775abb26dc67d1c51",tooltip=" "];
  Node1 -> Node11 [color="midnightblue",fontsize="10",style="solid",fontname="Helvetica"];
  Node11 [label="pip._internal.utils.setuptools\l_build.make_setuptools_develop_args",height=0.2,width=0.4,color="black", fillcolor="white", style="filled",URL="$d4/d20/namespacepip_1_1__internal_1_1utils_1_1setuptools__build.html#adacdcdb79c541588e3fff6d7f9041847",tooltip=" "];
  Node11 -> Node12 [color="midnightblue",fontsize="10",style="solid",fontname="Helvetica"];
  Node12 [label="pip._internal.utils.setuptools\l_build.make_setuptools_shim_args",height=0.2,width=0.4,color="black", fillcolor="white", style="filled",URL="$d4/d20/namespacepip_1_1__internal_1_1utils_1_1setuptools__build.html#a4ef9d09efef3a5fe2b6cad0027a3c036",tooltip=" "];
}
