digraph "pip._vendor.cachecontrol.serialize._b64_decode_str"
{
 // LATEX_PDF_SIZE
  edge [fontname="Helvetica",fontsize="10",labelfontname="Helvetica",labelfontsize="10"];
  node [fontname="Helvetica",fontsize="10",shape=record];
  rankdir="LR";
  Node1 [label="pip._vendor.cachecontrol.serialize.\l_b64_decode_str",height=0.2,width=0.4,color="black", fillcolor="grey75", style="filled", fontcolor="black",tooltip=" "];
  Node1 -> Node2 [color="midnightblue",fontsize="10",style="solid"];
  Node2 [label="pip._vendor.cachecontrol.serialize.\l_b64_decode_bytes",height=0.2,width=0.4,color="black", fillcolor="white", style="filled",URL="$da/db5/namespacepip_1_1__vendor_1_1cachecontrol_1_1serialize.html#a8bc820e94cbc5841e554910d453d3496",tooltip=" "];
  Node1 -> Node3 [color="midnightblue",fontsize="10",style="solid"];
  Node3 [label="pip._vendor.idna.core.decode",height=0.2,width=0.4,color="black", fillcolor="white", style="filled",URL="$dc/dbe/namespacepip_1_1__vendor_1_1idna_1_1core.html#ab8a24800679a07c3161db86a9b0a73e6",tooltip=" "];
  Node3 -> Node4 [color="midnightblue",fontsize="10",style="solid"];
  Node4 [label="pip._vendor.idna.core.ulabel",height=0.2,width=0.4,color="black", fillcolor="white", style="filled",URL="$dc/dbe/namespacepip_1_1__vendor_1_1idna_1_1core.html#aa5d8b1ef65c7126d2fbd3b671b105ad2",tooltip=" "];
  Node4 -> Node5 [color="midnightblue",fontsize="10",style="solid"];
  Node5 [label="pip._vendor.idna.core.check\l_label",height=0.2,width=0.4,color="black", fillcolor="white", style="filled",URL="$dc/dbe/namespacepip_1_1__vendor_1_1idna_1_1core.html#ae9fc88587359b163ac595d519715c099",tooltip=" "];
  Node5 -> Node6 [color="midnightblue",fontsize="10",style="solid"];
  Node6 [label="pip._vendor.idna.core._unot",height=0.2,width=0.4,color="black", fillcolor="white", style="filled",URL="$dc/dbe/namespacepip_1_1__vendor_1_1idna_1_1core.html#afb6d3618c7b6bb8bab08b96c967eca66",tooltip=" "];
  Node5 -> Node7 [color="midnightblue",fontsize="10",style="solid"];
  Node7 [label="pip._vendor.idna.core.check_bidi",height=0.2,width=0.4,color="black", fillcolor="white", style="filled",URL="$dc/dbe/namespacepip_1_1__vendor_1_1idna_1_1core.html#a32a613317ceb9eb4cd52fdd73b3f1248",tooltip=" "];
  Node5 -> Node8 [color="midnightblue",fontsize="10",style="solid"];
  Node8 [label="pip._vendor.idna.core.check\l_hyphen_ok",height=0.2,width=0.4,color="black", fillcolor="white", style="filled",URL="$dc/dbe/namespacepip_1_1__vendor_1_1idna_1_1core.html#a81c0586c1db1facb045d6ec94210fde0",tooltip=" "];
  Node5 -> Node9 [color="midnightblue",fontsize="10",style="solid"];
  Node9 [label="pip._vendor.idna.core.check\l_initial_combiner",height=0.2,width=0.4,color="black", fillcolor="white", style="filled",URL="$dc/dbe/namespacepip_1_1__vendor_1_1idna_1_1core.html#a585b0e816f47c888b2bee45b8558e8fe",tooltip=" "];
  Node5 -> Node10 [color="midnightblue",fontsize="10",style="solid"];
  Node10 [label="pip._vendor.idna.core.check_nfc",height=0.2,width=0.4,color="black", fillcolor="white", style="filled",URL="$dc/dbe/namespacepip_1_1__vendor_1_1idna_1_1core.html#ae9c33c8013e65ab232c798b879f7b5b7",tooltip=" "];
  Node5 -> Node11 [color="midnightblue",fontsize="10",style="solid"];
  Node11 [label="pip._vendor.idna.intranges.intranges\l_contain",height=0.2,width=0.4,color="black", fillcolor="white", style="filled",URL="$dc/d38/namespacepip_1_1__vendor_1_1idna_1_1intranges.html#abcdc067f2c261e1663789054ba59f597",tooltip=" "];
  Node11 -> Node12 [color="midnightblue",fontsize="10",style="solid"];
  Node12 [label="pip._vendor.idna.intranges.\l_decode_range",height=0.2,width=0.4,color="black", fillcolor="white", style="filled",URL="$dc/d38/namespacepip_1_1__vendor_1_1idna_1_1intranges.html#acc8ad2745e5c2518e2ebc6854c84a996",tooltip=" "];
  Node11 -> Node13 [color="midnightblue",fontsize="10",style="solid"];
  Node13 [label="pip._vendor.idna.intranges.\l_encode_range",height=0.2,width=0.4,color="black", fillcolor="white", style="filled",URL="$dc/d38/namespacepip_1_1__vendor_1_1idna_1_1intranges.html#a451578dfb8f245213932aa16923c371f",tooltip=" "];
  Node5 -> Node14 [color="midnightblue",fontsize="10",style="solid"];
  Node14 [label="pip._vendor.idna.core.valid\l_contextj",height=0.2,width=0.4,color="black", fillcolor="white", style="filled",URL="$dc/dbe/namespacepip_1_1__vendor_1_1idna_1_1core.html#ae0ccbd5b53689c3986cd22100cbc8e99",tooltip=" "];
  Node14 -> Node15 [color="midnightblue",fontsize="10",style="solid"];
  Node15 [label="pip._vendor.idna.core.\l_combining_class",height=0.2,width=0.4,color="black", fillcolor="white", style="filled",URL="$dc/dbe/namespacepip_1_1__vendor_1_1idna_1_1core.html#a8f210532c53ebf345e30ec1d6c50c829",tooltip=" "];
  Node5 -> Node16 [color="midnightblue",fontsize="10",style="solid"];
  Node16 [label="pip._vendor.idna.core.valid\l_contexto",height=0.2,width=0.4,color="black", fillcolor="white", style="filled",URL="$dc/dbe/namespacepip_1_1__vendor_1_1idna_1_1core.html#a741f7cca90b4a6adc176a40ff242ec10",tooltip=" "];
  Node16 -> Node17 [color="midnightblue",fontsize="10",style="solid"];
  Node17 [label="pip._vendor.idna.core.\l_is_script",height=0.2,width=0.4,color="black", fillcolor="white", style="filled",URL="$dc/dbe/namespacepip_1_1__vendor_1_1idna_1_1core.html#aa2cf04d1f0c7c30e0b75cbc70e10655b",tooltip=" "];
  Node17 -> Node11 [color="midnightblue",fontsize="10",style="solid"];
  Node3 -> Node18 [color="midnightblue",fontsize="10",style="solid"];
  Node18 [label="pip._vendor.idna.core.uts46\l_remap",height=0.2,width=0.4,color="black", fillcolor="white", style="filled",URL="$dc/dbe/namespacepip_1_1__vendor_1_1idna_1_1core.html#a2d90033244fa673825a46b11909a635d",tooltip=" "];
  Node18 -> Node6 [color="midnightblue",fontsize="10",style="solid"];
}
