digraph "pip._internal.utils.temp_dir.TempDirectory.cleanup"
{
 // LATEX_PDF_SIZE
  edge [fontname="Helvetica",fontsize="10",labelfontname="Helvetica",labelfontsize="10"];
  node [fontname="Helvetica",fontsize="10",shape=record];
  rankdir="LR";
  Node1 [label="pip._internal.utils.temp\l_dir.TempDirectory.cleanup",height=0.2,width=0.4,color="black", fillcolor="grey75", style="filled", fontcolor="black",tooltip=" "];
  Node1 -> Node2 [color="midnightblue",fontsize="10",style="solid"];
  Node2 [label="pip._vendor.six.ensure_text",height=0.2,width=0.4,color="black", fillcolor="white", style="filled",URL="$df/d13/namespacepip_1_1__vendor_1_1six.html#a876d78ba61942e076dbc2c335c180f1c",tooltip=" "];
  Node1 -> Node3 [color="midnightblue",fontsize="10",style="solid"];
  Node3 [label="pip._internal.utils.misc.rmtree",height=0.2,width=0.4,color="black", fillcolor="white", style="filled",URL="$de/dc3/namespacepip_1_1__internal_1_1utils_1_1misc.html#a468943eb596f19a944215297ab3b9216",tooltip=" "];
}
