digraph "pip._internal.utils.misc.normalize_version_info"
{
 // LATEX_PDF_SIZE
  edge [fontname="Helvetica",fontsize="10",labelfontname="Helvetica",labelfontsize="10"];
  node [fontname="Helvetica",fontsize="10",shape=record];
  rankdir="RL";
  Node1 [label="pip._internal.utils.misc.normalize\l_version_info",height=0.2,width=0.4,color="black", fillcolor="grey75", style="filled", fontcolor="black",tooltip=" "];
  Node1 -> Node2 [dir="back",color="midnightblue",fontsize="10",style="solid",fontname="Helvetica"];
  Node2 [label="pip._internal.resolution.resolvelib.candidates.\lRequiresPythonCandidate.__init__",height=0.2,width=0.4,color="black", fillcolor="white", style="filled",URL="$db/d0a/classpip_1_1__internal_1_1resolution_1_1resolvelib_1_1candidates_1_1_requires_python_candidate.html#a79e31dbab565951df00a6ec1b22290f6",tooltip=" "];
  Node2 -> Node3 [dir="back",color="midnightblue",fontsize="10",style="solid",fontname="Helvetica"];
  Node3 [label="setuptools._vendor.ordered\l_set.OrderedSet.__setstate__",height=0.2,width=0.4,color="black", fillcolor="white", style="filled",URL="$d0/d40/classsetuptools_1_1__vendor_1_1ordered__set_1_1_ordered_set.html#a852740634ccd2e3158b599082cf086de",tooltip=" "];
}
