digraph "pip._internal.utils.misc.split_auth_from_netloc"
{
 // LATEX_PDF_SIZE
  edge [fontname="Helvetica",fontsize="10",labelfontname="Helvetica",labelfontsize="10"];
  node [fontname="Helvetica",fontsize="10",shape=record];
  rankdir="RL";
  Node1 [label="pip._internal.utils.misc.split\l_auth_from_netloc",height=0.2,width=0.4,color="black", fillcolor="grey75", style="filled", fontcolor="black",tooltip=" "];
  Node1 -> Node2 [dir="back",color="midnightblue",fontsize="10",style="solid",fontname="Helvetica"];
  Node2 [label="pip._internal.utils.misc.\l_get_netloc",height=0.2,width=0.4,color="black", fillcolor="white", style="filled",URL="$de/dc3/namespacepip_1_1__internal_1_1utils_1_1misc.html#ae377ee5488d579d6ed32ea5e9e7558ec",tooltip=" "];
  Node1 -> Node3 [dir="back",color="midnightblue",fontsize="10",style="solid",fontname="Helvetica"];
  Node3 [label="pip._internal.models.link.\lLink.filename",height=0.2,width=0.4,color="black", fillcolor="white", style="filled",URL="$de/da5/classpip_1_1__internal_1_1models_1_1link_1_1_link.html#ae1daa5521205c1e735c9ffc1d9305d80",tooltip=" "];
  Node3 -> Node4 [dir="back",color="midnightblue",fontsize="10",style="solid",fontname="Helvetica"];
  Node4 [label="pip._vendor.distlib.wheel.\lWheel._get_extensions",height=0.2,width=0.4,color="black", fillcolor="white", style="filled",URL="$d1/d0b/classpip_1_1__vendor_1_1distlib_1_1wheel_1_1_wheel.html#a2441302c04d5c493eb719c9dd02ca7f5",tooltip=" "];
  Node4 -> Node5 [dir="back",color="midnightblue",fontsize="10",style="solid",fontname="Helvetica"];
  Node5 [label="pip._vendor.distlib.wheel.\lWheel.mount",height=0.2,width=0.4,color="black", fillcolor="white", style="filled",URL="$d1/d0b/classpip_1_1__vendor_1_1distlib_1_1wheel_1_1_wheel.html#a63bb3e266ae4ce08b7856466b24f7de8",tooltip=" "];
  Node3 -> Node6 [dir="back",color="midnightblue",fontsize="10",style="solid",fontname="Helvetica"];
  Node6 [label="pip._vendor.distlib.wheel.\lWheel.build",height=0.2,width=0.4,color="black", fillcolor="white", style="filled",URL="$d1/d0b/classpip_1_1__vendor_1_1distlib_1_1wheel_1_1_wheel.html#a0620c62c19f38ff205468e2bb575cb9c",tooltip=" "];
  Node6 -> Node7 [dir="back",color="midnightblue",fontsize="10",style="solid",fontname="Helvetica"];
  Node7 [label="pip._vendor.pkg_resources.\lMemoizedZipManifests.load",height=0.2,width=0.4,color="black", fillcolor="white", style="filled",URL="$d4/d6f/classpip_1_1__vendor_1_1pkg__resources_1_1_memoized_zip_manifests.html#ab20afedc63633f10e121b813ee787de5",tooltip=" "];
  Node6 -> Node8 [dir="back",color="midnightblue",fontsize="10",style="solid",fontname="Helvetica"];
  Node8 [label="pkg_resources.MemoizedZip\lManifests.load",height=0.2,width=0.4,color="black", fillcolor="white", style="filled",URL="$d0/da7/classpkg__resources_1_1_memoized_zip_manifests.html#a50bc96483413c076fed78057393f6d3c",tooltip=" "];
  Node6 -> Node9 [dir="back",color="midnightblue",fontsize="10",style="solid",fontname="Helvetica"];
  Node9 [label="setuptools._distutils.command.install\l_lib.install_lib.run",height=0.2,width=0.4,color="black", fillcolor="white", style="filled",URL="$de/d3b/classsetuptools_1_1__distutils_1_1command_1_1install__lib_1_1install__lib.html#a1c0172f47a7203a3044af96bf632f80e",tooltip=" "];
  Node6 -> Node10 [dir="back",color="midnightblue",fontsize="10",style="solid",fontname="Helvetica"];
  Node10 [label="setuptools.command.install\l_lib.install_lib.run",height=0.2,width=0.4,color="black", fillcolor="white", style="filled",URL="$db/d8e/classsetuptools_1_1command_1_1install__lib_1_1install__lib.html#a72adda63714aa1fdf24bdf6e6a5ca9f3",tooltip=" "];
  Node3 -> Node11 [dir="back",color="midnightblue",fontsize="10",style="solid",fontname="Helvetica"];
  Node11 [label="pip._vendor.distlib.wheel.\lWheel.exists",height=0.2,width=0.4,color="black", fillcolor="white", style="filled",URL="$d1/d0b/classpip_1_1__vendor_1_1distlib_1_1wheel_1_1_wheel.html#a20a7741e7497c517c6794789f5933cbb",tooltip=" "];
  Node3 -> Node12 [dir="back",color="midnightblue",fontsize="10",style="solid",fontname="Helvetica"];
  Node12 [label="pip._vendor.distlib.wheel.\lWheel.info",height=0.2,width=0.4,color="black", fillcolor="white", style="filled",URL="$d1/d0b/classpip_1_1__vendor_1_1distlib_1_1wheel_1_1_wheel.html#a6748bdb231092617672c163d8de404fe",tooltip=" "];
  Node12 -> Node13 [dir="back",color="midnightblue",fontsize="10",style="solid",fontname="Helvetica"];
  Node13 [label="setuptools.package\l_index.PackageIndex.\l_download_git",height=0.2,width=0.4,color="black", fillcolor="white", style="filled",URL="$d4/dea/classsetuptools_1_1package__index_1_1_package_index.html#a3675196dae930ae7b2ebaea89e20d932",tooltip=" "];
  Node13 -> Node14 [dir="back",color="midnightblue",fontsize="10",style="solid",fontname="Helvetica"];
  Node14 [label="setuptools.package\l_index.PackageIndex.\l_download_url",height=0.2,width=0.4,color="black", fillcolor="white", style="filled",URL="$d4/dea/classsetuptools_1_1package__index_1_1_package_index.html#a003952b00c51bae4fb32fdcdd03b348e",tooltip=" "];
  Node14 -> Node15 [dir="back",color="midnightblue",fontsize="10",style="solid",fontname="Helvetica"];
  Node15 [label="setuptools.package\l_index.PackageIndex.download",height=0.2,width=0.4,color="black", fillcolor="white", style="filled",URL="$d4/dea/classsetuptools_1_1package__index_1_1_package_index.html#a100de731e036d1fc5e9604355e02deed",tooltip=" "];
  Node15 -> Node16 [dir="back",color="midnightblue",fontsize="10",style="solid",fontname="Helvetica"];
  Node16 [label="setuptools.package\l_index.PackageIndex.fetch\l_distribution",height=0.2,width=0.4,color="black", fillcolor="white", style="filled",URL="$d4/dea/classsetuptools_1_1package__index_1_1_package_index.html#a991bcc357db71bc05773ce3bb03c85a4",tooltip=" "];
  Node16 -> Node15 [dir="back",color="midnightblue",fontsize="10",style="solid",fontname="Helvetica"];
  Node16 -> Node17 [dir="back",color="midnightblue",fontsize="10",style="solid",fontname="Helvetica"];
  Node17 [label="setuptools.package\l_index.PackageIndex.fetch",height=0.2,width=0.4,color="black", fillcolor="white", style="filled",URL="$d4/dea/classsetuptools_1_1package__index_1_1_package_index.html#a4fa8a0112703f75c6af17996ce6eb66e",tooltip=" "];
  Node12 -> Node18 [dir="back",color="midnightblue",fontsize="10",style="solid",fontname="Helvetica"];
  Node18 [label="setuptools.package\l_index.PackageIndex.\l_download_hg",height=0.2,width=0.4,color="black", fillcolor="white", style="filled",URL="$d4/dea/classsetuptools_1_1package__index_1_1_package_index.html#a072151d15d9b627f8396b1d9467d8314",tooltip=" "];
  Node18 -> Node14 [dir="back",color="midnightblue",fontsize="10",style="solid",fontname="Helvetica"];
  Node12 -> Node19 [dir="back",color="midnightblue",fontsize="10",style="solid",fontname="Helvetica"];
  Node19 [label="setuptools.package\l_index.PackageIndex.\l_download_svn",height=0.2,width=0.4,color="black", fillcolor="white", style="filled",URL="$d4/dea/classsetuptools_1_1package__index_1_1_package_index.html#ad1dbd1b8256bf39e4b3cb46f27117513",tooltip=" "];
  Node19 -> Node20 [dir="back",color="midnightblue",fontsize="10",style="solid",fontname="Helvetica"];
  Node20 [label="setuptools.package\l_index.PackageIndex.\l_download_html",height=0.2,width=0.4,color="black", fillcolor="white", style="filled",URL="$d4/dea/classsetuptools_1_1package__index_1_1_package_index.html#ad506f8741a9f632d63e5afe267f5dd5f",tooltip=" "];
  Node20 -> Node21 [dir="back",color="midnightblue",fontsize="10",style="solid",fontname="Helvetica"];
  Node21 [label="setuptools.package\l_index.PackageIndex.\l_attempt_download",height=0.2,width=0.4,color="black", fillcolor="white", style="filled",URL="$d4/dea/classsetuptools_1_1package__index_1_1_package_index.html#a6e828e56d8b6cc1cf9956acad28116ba",tooltip=" "];
  Node21 -> Node14 [dir="back",color="midnightblue",fontsize="10",style="solid",fontname="Helvetica"];
  Node19 -> Node14 [dir="back",color="midnightblue",fontsize="10",style="solid",fontname="Helvetica"];
  Node12 -> Node22 [dir="back",color="midnightblue",fontsize="10",style="solid",fontname="Helvetica"];
  Node22 [label="setuptools.package\l_index.PackageIndex.\l_download_to",height=0.2,width=0.4,color="black", fillcolor="white", style="filled",URL="$d4/dea/classsetuptools_1_1package__index_1_1_package_index.html#a13766a8fc49f1efd5dff77f0d5d7e7f3",tooltip=" "];
  Node22 -> Node21 [dir="back",color="midnightblue",fontsize="10",style="solid",fontname="Helvetica"];
  Node12 -> Node16 [dir="back",color="midnightblue",fontsize="10",style="solid",fontname="Helvetica"];
  Node12 -> Node23 [dir="back",color="midnightblue",fontsize="10",style="solid",fontname="Helvetica"];
  Node23 [label="pip._vendor.distlib.wheel.\lWheel.install",height=0.2,width=0.4,color="black", fillcolor="white", style="filled",URL="$d1/d0b/classpip_1_1__vendor_1_1distlib_1_1wheel_1_1_wheel.html#ab1ff84ba7378dd67f5758510eda70b69",tooltip=" "];
  Node23 -> Node9 [dir="back",color="midnightblue",fontsize="10",style="solid",fontname="Helvetica"];
  Node23 -> Node10 [dir="back",color="midnightblue",fontsize="10",style="solid",fontname="Helvetica"];
  Node12 -> Node24 [dir="back",color="midnightblue",fontsize="10",style="solid",fontname="Helvetica"];
  Node24 [label="setuptools.package\l_index.PackageIndex.not\l_found_in_index",height=0.2,width=0.4,color="black", fillcolor="white", style="filled",URL="$d4/dea/classsetuptools_1_1package__index_1_1_package_index.html#a368455ef8e28ab626077dce7ced8d44e",tooltip=" "];
  Node24 -> Node25 [dir="back",color="midnightblue",fontsize="10",style="solid",fontname="Helvetica"];
  Node25 [label="setuptools.package\l_index.PackageIndex.find\l_packages",height=0.2,width=0.4,color="red", fillcolor="white", style="filled",URL="$d4/dea/classsetuptools_1_1package__index_1_1_package_index.html#ac6b53cacdec1d717c42a4412cb0bc10f",tooltip=" "];
  Node25 -> Node16 [dir="back",color="midnightblue",fontsize="10",style="solid",fontname="Helvetica"];
  Node12 -> Node27 [dir="back",color="midnightblue",fontsize="10",style="solid",fontname="Helvetica"];
  Node27 [label="setuptools.package\l_index.PackageIndex.process_url",height=0.2,width=0.4,color="black", fillcolor="white", style="filled",URL="$d4/dea/classsetuptools_1_1package__index_1_1_package_index.html#a537fc87df159c2474b7fa0ccac56513d",tooltip=" "];
  Node27 -> Node27 [dir="back",color="midnightblue",fontsize="10",style="solid",fontname="Helvetica"];
  Node27 -> Node28 [dir="back",color="midnightblue",fontsize="10",style="solid",fontname="Helvetica"];
  Node28 [label="setuptools.package\l_index.PackageIndex.scan_url",height=0.2,width=0.4,color="red", fillcolor="white", style="filled",URL="$d4/dea/classsetuptools_1_1package__index_1_1_package_index.html#a34fd05e6bd70cb5fb45df6089a9a0d88",tooltip=" "];
  Node28 -> Node25 [dir="back",color="midnightblue",fontsize="10",style="solid",fontname="Helvetica"];
  Node28 -> Node32 [dir="back",color="midnightblue",fontsize="10",style="solid",fontname="Helvetica"];
  Node32 [label="setuptools.package\l_index.PackageIndex.scan_all",height=0.2,width=0.4,color="black", fillcolor="white", style="filled",URL="$d4/dea/classsetuptools_1_1package__index_1_1_package_index.html#a8ece2bde59e0845f58d8ca216d57d1ef",tooltip=" "];
  Node32 -> Node33 [dir="back",color="midnightblue",fontsize="10",style="solid",fontname="Helvetica"];
  Node33 [label="setuptools.package\l_index.PackageIndex.need\l_version_info",height=0.2,width=0.4,color="red", fillcolor="white", style="filled",URL="$d4/dea/classsetuptools_1_1package__index_1_1_package_index.html#af387b1796d6cf3a4542782cf936ee854",tooltip=" "];
  Node32 -> Node24 [dir="back",color="midnightblue",fontsize="10",style="solid",fontname="Helvetica"];
  Node12 -> Node32 [dir="back",color="midnightblue",fontsize="10",style="solid",fontname="Helvetica"];
  Node3 -> Node23 [dir="back",color="midnightblue",fontsize="10",style="solid",fontname="Helvetica"];
  Node3 -> Node34 [dir="back",color="midnightblue",fontsize="10",style="solid",fontname="Helvetica"];
  Node34 [label="pip._vendor.distlib.wheel.\lWheel.metadata",height=0.2,width=0.4,color="black", fillcolor="white", style="filled",URL="$d1/d0b/classpip_1_1__vendor_1_1distlib_1_1wheel_1_1_wheel.html#a520871522a9392772afac6f007c16a14",tooltip=" "];
  Node34 -> Node35 [dir="back",color="midnightblue",fontsize="10",style="solid",fontname="Helvetica"];
  Node35 [label="setuptools.dist.Distribution.\l_finalize_requires",height=0.2,width=0.4,color="black", fillcolor="white", style="filled",URL="$d0/d9f/classsetuptools_1_1dist_1_1_distribution.html#ac9a3734b77064ea1d1dc4836e3e1111a",tooltip=" "];
  Node35 -> Node36 [dir="back",color="midnightblue",fontsize="10",style="solid",fontname="Helvetica"];
  Node36 [label="setuptools.dist.Distribution.parse\l_config_files",height=0.2,width=0.4,color="black", fillcolor="white", style="filled",URL="$d0/d9f/classsetuptools_1_1dist_1_1_distribution.html#a41d3a53939167a813c13fde672ce3970",tooltip=" "];
  Node3 -> Node5 [dir="back",color="midnightblue",fontsize="10",style="solid",fontname="Helvetica"];
  Node3 -> Node37 [dir="back",color="midnightblue",fontsize="10",style="solid",fontname="Helvetica"];
  Node37 [label="pip._vendor.distlib.wheel.\lWheel.unmount",height=0.2,width=0.4,color="black", fillcolor="white", style="filled",URL="$d1/d0b/classpip_1_1__vendor_1_1distlib_1_1wheel_1_1_wheel.html#a09ab4eb1a313fa621f70b690c05bf579",tooltip=" "];
  Node3 -> Node38 [dir="back",color="midnightblue",fontsize="10",style="solid",fontname="Helvetica"];
  Node38 [label="pip._vendor.distlib.wheel.\lWheel.update",height=0.2,width=0.4,color="black", fillcolor="white", style="filled",URL="$d1/d0b/classpip_1_1__vendor_1_1distlib_1_1wheel_1_1_wheel.html#ac7e58a7d70d5ef6abd9102c379d88360",tooltip=" "];
  Node38 -> Node39 [dir="back",color="midnightblue",fontsize="10",style="solid",fontname="Helvetica"];
  Node39 [label="pip._vendor.progress.Infinite.next",height=0.2,width=0.4,color="black", fillcolor="white", style="filled",URL="$d0/da8/classpip_1_1__vendor_1_1progress_1_1_infinite.html#a4d198b1f87d7e88699771feb9f4d6630",tooltip=" "];
  Node39 -> Node40 [dir="back",color="midnightblue",fontsize="10",style="solid",fontname="Helvetica"];
  Node40 [label="pip._vendor.progress.Progress.goto",height=0.2,width=0.4,color="black", fillcolor="white", style="filled",URL="$d7/dc2/classpip_1_1__vendor_1_1progress_1_1_progress.html#af7e944763f362b2f709502ce97988f8f",tooltip=" "];
  Node39 -> Node41 [dir="back",color="midnightblue",fontsize="10",style="solid",fontname="Helvetica"];
  Node41 [label="pip._internal.cli.progress\l_bars.DownloadProgressMixin.iter",height=0.2,width=0.4,color="black", fillcolor="white", style="filled",URL="$df/d54/classpip_1_1__internal_1_1cli_1_1progress__bars_1_1_download_progress_mixin.html#a37eab0ec657772189925ac4621198a88",tooltip=" "];
  Node39 -> Node42 [dir="back",color="midnightblue",fontsize="10",style="solid",fontname="Helvetica"];
  Node42 [label="pip._vendor.progress.Infinite.iter",height=0.2,width=0.4,color="black", fillcolor="white", style="filled",URL="$d0/da8/classpip_1_1__vendor_1_1progress_1_1_infinite.html#a8041b71a97f20e9c8a65d89f18a0ee9b",tooltip=" "];
  Node39 -> Node43 [dir="back",color="midnightblue",fontsize="10",style="solid",fontname="Helvetica"];
  Node43 [label="pip._vendor.progress.Progress.iter",height=0.2,width=0.4,color="black", fillcolor="white", style="filled",URL="$d7/dc2/classpip_1_1__vendor_1_1progress_1_1_progress.html#af58dae555a18100e56380fb679c15eb7",tooltip=" "];
  Node38 -> Node44 [dir="back",color="midnightblue",fontsize="10",style="solid",fontname="Helvetica"];
  Node44 [label="pip._vendor.progress.Progress.start",height=0.2,width=0.4,color="black", fillcolor="white", style="filled",URL="$d7/dc2/classpip_1_1__vendor_1_1progress_1_1_progress.html#a51d126b2307c5d869e931b807f28d488",tooltip=" "];
  Node3 -> Node45 [dir="back",color="midnightblue",fontsize="10",style="solid",fontname="Helvetica"];
  Node45 [label="pip._vendor.distlib.wheel.\lWheel.verify",height=0.2,width=0.4,color="black", fillcolor="white", style="filled",URL="$d1/d0b/classpip_1_1__vendor_1_1distlib_1_1wheel_1_1_wheel.html#a3792fb283924a1add010ebf4fc259a76",tooltip=" "];
  Node3 -> Node46 [dir="back",color="midnightblue",fontsize="10",style="solid",fontname="Helvetica"];
  Node46 [label="wheel.wheelfile.WheelFile.write\l_files",height=0.2,width=0.4,color="black", fillcolor="white", style="filled",URL="$dd/da0/classwheel_1_1wheelfile_1_1_wheel_file.html#a69ab05d387028873a52916edac00b2a8",tooltip=" "];
  Node1 -> Node47 [dir="back",color="midnightblue",fontsize="10",style="solid",fontname="Helvetica"];
  Node47 [label="pip._internal.vcs.subversion.\lSubversion.get_netloc_and_auth",height=0.2,width=0.4,color="black", fillcolor="white", style="filled",URL="$d2/db0/classpip_1_1__internal_1_1vcs_1_1subversion_1_1_subversion.html#a6e56e5234ab6238441b73cb21d1583cb",tooltip=" "];
  Node47 -> Node48 [dir="back",color="midnightblue",fontsize="10",style="solid",fontname="Helvetica"];
  Node48 [label="pip._internal.vcs.versioncontrol.\lVersionControl.get_url_rev\l_and_auth",height=0.2,width=0.4,color="black", fillcolor="white", style="filled",URL="$d0/db7/classpip_1_1__internal_1_1vcs_1_1versioncontrol_1_1_version_control.html#aa6e993d15b1bfafccdc290582d116a3e",tooltip=" "];
  Node48 -> Node49 [dir="back",color="midnightblue",fontsize="10",style="solid",fontname="Helvetica"];
  Node49 [label="pip._internal.vcs.versioncontrol.\lVersionControl.get_url_rev_options",height=0.2,width=0.4,color="red", fillcolor="white", style="filled",URL="$d0/db7/classpip_1_1__internal_1_1vcs_1_1versioncontrol_1_1_version_control.html#add1eb71a89bb58fae48a50f88ebec4e1",tooltip=" "];
  Node49 -> Node50 [dir="back",color="midnightblue",fontsize="10",style="solid",fontname="Helvetica"];
  Node50 [label="pip._internal.vcs.bazaar.\lBazaar.export",height=0.2,width=0.4,color="black", fillcolor="white", style="filled",URL="$d6/de7/classpip_1_1__internal_1_1vcs_1_1bazaar_1_1_bazaar.html#ac3fde3b2e50faafa2ff10f865e787acb",tooltip=" "];
  Node49 -> Node51 [dir="back",color="midnightblue",fontsize="10",style="solid",fontname="Helvetica"];
  Node51 [label="pip._internal.vcs.subversion.\lSubversion.export",height=0.2,width=0.4,color="black", fillcolor="white", style="filled",URL="$d2/db0/classpip_1_1__internal_1_1vcs_1_1subversion_1_1_subversion.html#a4a09b6d0b7ffe53e34051cd0b2fca41b",tooltip=" "];
  Node49 -> Node52 [dir="back",color="midnightblue",fontsize="10",style="solid",fontname="Helvetica"];
  Node52 [label="pip._internal.vcs.git.Git.is\l_immutable_rev_checkout",height=0.2,width=0.4,color="black", fillcolor="white", style="filled",URL="$d8/d4d/classpip_1_1__internal_1_1vcs_1_1git_1_1_git.html#abdb5a1f30c6ffae3c0b914183ef8d1ad",tooltip=" "];
  Node1 -> Node59 [dir="back",color="midnightblue",fontsize="10",style="solid",fontname="Helvetica"];
  Node59 [label="pip._internal.utils.misc.redact\l_netloc",height=0.2,width=0.4,color="black", fillcolor="white", style="filled",URL="$de/dc3/namespacepip_1_1__internal_1_1utils_1_1misc.html#aac092fd7cd598e5515b827d32a45e530",tooltip=" "];
  Node59 -> Node60 [dir="back",color="midnightblue",fontsize="10",style="solid",fontname="Helvetica"];
  Node60 [label="pip._internal.utils.misc.\l_redact_netloc",height=0.2,width=0.4,color="black", fillcolor="white", style="filled",URL="$de/dc3/namespacepip_1_1__internal_1_1utils_1_1misc.html#ac1de4bd42668e41d20cbfa807d828a67",tooltip=" "];
}
