digraph "pip._internal.utils.misc.build_netloc"
{
 // LATEX_PDF_SIZE
  edge [fontname="Helvetica",fontsize="10",labelfontname="Helvetica",labelfontsize="10"];
  node [fontname="Helvetica",fontsize="10",shape=record];
  rankdir="RL";
  Node1 [label="pip._internal.utils.misc.build\l_netloc",height=0.2,width=0.4,color="black", fillcolor="grey75", style="filled", fontcolor="black",tooltip=" "];
  Node1 -> Node2 [dir="back",color="midnightblue",fontsize="10",style="solid",fontname="Helvetica"];
  Node2 [label="pip._internal.index.package\l_finder.PackageFinder.trusted_hosts",height=0.2,width=0.4,color="black", fillcolor="white", style="filled",URL="$da/d3f/classpip_1_1__internal_1_1index_1_1package__finder_1_1_package_finder.html#a941aa7758f1096c1ecb2da9bb302e6c4",tooltip=" "];
}
