digraph "pip._vendor.html5lib.treewalkers.base.NonRecursiveTreeWalker.getFirstChild"
{
 // LATEX_PDF_SIZE
  edge [fontname="Helvetica",fontsize="10",labelfontname="Helvetica",labelfontsize="10"];
  node [fontname="Helvetica",fontsize="10",shape=record];
  rankdir="RL";
  Node1 [label="pip._vendor.html5lib.treewalkers.base.\lNonRecursiveTreeWalker.getFirstChild",height=0.2,width=0.4,color="black", fillcolor="grey75", style="filled", fontcolor="black",tooltip=" "];
  Node1 -> Node2 [dir="back",color="midnightblue",fontsize="10",style="solid",fontname="Helvetica"];
  Node2 [label="pip._vendor.html5lib.treewalkers.base.\lNonRecursiveTreeWalker.__iter__",height=0.2,width=0.4,color="black", fillcolor="white", style="filled",URL="$d7/d49/classpip_1_1__vendor_1_1html5lib_1_1treewalkers_1_1base_1_1_non_recursive_tree_walker.html#a0ccaa634e5651e4ac1243dd234fe3766",tooltip=" "];
}
