digraph "pip._vendor.packaging.specifiers.BaseSpecifier.prereleases"
{
 // LATEX_PDF_SIZE
  edge [fontname="Helvetica",fontsize="10",labelfontname="Helvetica",labelfontsize="10"];
  node [fontname="Helvetica",fontsize="10",shape=record];
  rankdir="RL";
  Node1 [label="pip._vendor.packaging.specifiers.\lBaseSpecifier.prereleases",height=0.2,width=0.4,color="black", fillcolor="grey75", style="filled", fontcolor="black",tooltip=" "];
  Node1 -> Node2 [dir="back",color="midnightblue",fontsize="10",style="solid"];
  Node2 [label="pkg_resources._vendor.packaging.specifiers.\l_IndividualSpecifier.__repr__",height=0.2,width=0.4,color="black", fillcolor="white", style="filled",URL="$d7/d3d/classpkg__resources_1_1__vendor_1_1packaging_1_1specifiers_1_1___individual_specifier.html#a8e54b412330c26a0f8e7ac40ba520ca0",tooltip=" "];
  Node1 -> Node3 [dir="back",color="midnightblue",fontsize="10",style="solid"];
  Node3 [label="pkg_resources._vendor.packaging.specifiers.\lSpecifierSet.__repr__",height=0.2,width=0.4,color="black", fillcolor="white", style="filled",URL="$d2/d90/classpkg__resources_1_1__vendor_1_1packaging_1_1specifiers_1_1_specifier_set.html#abe097df2582585ded1237da4e59def9b",tooltip=" "];
  Node1 -> Node4 [dir="back",color="midnightblue",fontsize="10",style="solid"];
  Node4 [label="setuptools._vendor.packaging.specifiers.\l_IndividualSpecifier.__repr__",height=0.2,width=0.4,color="black", fillcolor="white", style="filled",URL="$d2/dfa/classsetuptools_1_1__vendor_1_1packaging_1_1specifiers_1_1___individual_specifier.html#a5bdf2d4a602c6ab875689c948fbe0633",tooltip=" "];
  Node1 -> Node5 [dir="back",color="midnightblue",fontsize="10",style="solid"];
  Node5 [label="setuptools._vendor.packaging.specifiers.\lSpecifierSet.__repr__",height=0.2,width=0.4,color="black", fillcolor="white", style="filled",URL="$d6/d78/classsetuptools_1_1__vendor_1_1packaging_1_1specifiers_1_1_specifier_set.html#a4007331afa7b0c266a2ed4f4e9d3b40b",tooltip=" "];
  Node1 -> Node6 [dir="back",color="midnightblue",fontsize="10",style="solid"];
  Node6 [label="pkg_resources._vendor.packaging.specifiers.\l_IndividualSpecifier.contains",height=0.2,width=0.4,color="black", fillcolor="white", style="filled",URL="$d7/d3d/classpkg__resources_1_1__vendor_1_1packaging_1_1specifiers_1_1___individual_specifier.html#afc614431c7e139a948866248f6f01bb4",tooltip=" "];
  Node6 -> Node7 [dir="back",color="midnightblue",fontsize="10",style="solid"];
  Node7 [label="setuptools._vendor.packaging.specifiers.\l_IndividualSpecifier.__contains__",height=0.2,width=0.4,color="black", fillcolor="white", style="filled",URL="$d2/dfa/classsetuptools_1_1__vendor_1_1packaging_1_1specifiers_1_1___individual_specifier.html#ac8c5634a825694d276f2cf5c4b3cb9bd",tooltip=" "];
  Node6 -> Node8 [dir="back",color="midnightblue",fontsize="10",style="solid"];
  Node8 [label="setuptools._vendor.packaging.specifiers.\lSpecifierSet.__contains__",height=0.2,width=0.4,color="black", fillcolor="white", style="filled",URL="$d6/d78/classsetuptools_1_1__vendor_1_1packaging_1_1specifiers_1_1_specifier_set.html#a883c1e784aebcb300e68cd5e08c7ea8a",tooltip=" "];
  Node6 -> Node9 [dir="back",color="midnightblue",fontsize="10",style="solid"];
  Node9 [label="setuptools._vendor.packaging.specifiers.\l_IndividualSpecifier.filter",height=0.2,width=0.4,color="black", fillcolor="white", style="filled",URL="$d2/dfa/classsetuptools_1_1__vendor_1_1packaging_1_1specifiers_1_1___individual_specifier.html#af07e3f018647cb7a004791b6436993e1",tooltip=" "];
  Node1 -> Node10 [dir="back",color="midnightblue",fontsize="10",style="solid"];
  Node10 [label="pkg_resources._vendor.packaging.specifiers.\lSpecifierSet.contains",height=0.2,width=0.4,color="black", fillcolor="white", style="filled",URL="$d2/d90/classpkg__resources_1_1__vendor_1_1packaging_1_1specifiers_1_1_specifier_set.html#a666f0adbbfdf76a5747216f3f5255fc9",tooltip=" "];
  Node10 -> Node7 [dir="back",color="midnightblue",fontsize="10",style="solid"];
  Node10 -> Node8 [dir="back",color="midnightblue",fontsize="10",style="solid"];
  Node10 -> Node9 [dir="back",color="midnightblue",fontsize="10",style="solid"];
  Node1 -> Node11 [dir="back",color="midnightblue",fontsize="10",style="solid"];
  Node11 [label="setuptools._vendor.packaging.specifiers.\l_IndividualSpecifier.contains",height=0.2,width=0.4,color="black", fillcolor="white", style="filled",URL="$d2/dfa/classsetuptools_1_1__vendor_1_1packaging_1_1specifiers_1_1___individual_specifier.html#add310771a2fd25ae2670e7ed15c81160",tooltip=" "];
  Node1 -> Node12 [dir="back",color="midnightblue",fontsize="10",style="solid"];
  Node12 [label="setuptools._vendor.packaging.specifiers.\lSpecifierSet.contains",height=0.2,width=0.4,color="black", fillcolor="white", style="filled",URL="$d6/d78/classsetuptools_1_1__vendor_1_1packaging_1_1specifiers_1_1_specifier_set.html#ade45c15d94a7692b74992f5debb832d2",tooltip=" "];
  Node1 -> Node13 [dir="back",color="midnightblue",fontsize="10",style="solid"];
  Node13 [label="pkg_resources._vendor.packaging.specifiers.\l_IndividualSpecifier.filter",height=0.2,width=0.4,color="black", fillcolor="white", style="filled",URL="$d7/d3d/classpkg__resources_1_1__vendor_1_1packaging_1_1specifiers_1_1___individual_specifier.html#a23722d79e6f85960e214288f3b782962",tooltip=" "];
  Node1 -> Node14 [dir="back",color="midnightblue",fontsize="10",style="solid"];
  Node14 [label="pkg_resources._vendor.packaging.specifiers.\lSpecifierSet.filter",height=0.2,width=0.4,color="black", fillcolor="white", style="filled",URL="$d2/d90/classpkg__resources_1_1__vendor_1_1packaging_1_1specifiers_1_1_specifier_set.html#a3949d930e10663288d4aab13ba3b0cb0",tooltip=" "];
  Node1 -> Node9 [dir="back",color="midnightblue",fontsize="10",style="solid"];
  Node1 -> Node15 [dir="back",color="midnightblue",fontsize="10",style="solid"];
  Node15 [label="setuptools._vendor.packaging.specifiers.\lSpecifierSet.filter",height=0.2,width=0.4,color="black", fillcolor="white", style="filled",URL="$d6/d78/classsetuptools_1_1__vendor_1_1packaging_1_1specifiers_1_1_specifier_set.html#aab85eed95b9ea9c4a9a5f88cf8fd5da5",tooltip=" "];
}
