digraph "pip._vendor.distlib.wheel.Wheel._get_dylib_cache"
{
 // LATEX_PDF_SIZE
  edge [fontname="Helvetica",fontsize="10",labelfontname="Helvetica",labelfontsize="10"];
  node [fontname="Helvetica",fontsize="10",shape=record];
  rankdir="RL";
  Node1 [label="pip._vendor.distlib.wheel.\lWheel._get_dylib_cache",height=0.2,width=0.4,color="black", fillcolor="grey75", style="filled", fontcolor="black",tooltip=" "];
  Node1 -> Node2 [dir="back",color="midnightblue",fontsize="10",style="solid"];
  Node2 [label="pip._vendor.distlib.wheel.\lWheel._get_extensions",height=0.2,width=0.4,color="black", fillcolor="white", style="filled",URL="$d1/d0b/classpip_1_1__vendor_1_1distlib_1_1wheel_1_1_wheel.html#a2441302c04d5c493eb719c9dd02ca7f5",tooltip=" "];
  Node2 -> Node3 [dir="back",color="midnightblue",fontsize="10",style="solid"];
  Node3 [label="pip._vendor.distlib.wheel.\lWheel.mount",height=0.2,width=0.4,color="black", fillcolor="white", style="filled",URL="$d1/d0b/classpip_1_1__vendor_1_1distlib_1_1wheel_1_1_wheel.html#a63bb3e266ae4ce08b7856466b24f7de8",tooltip=" "];
}
