digraph "pip._vendor.distlib.wheel.Wheel.metadata"
{
 // LATEX_PDF_SIZE
  edge [fontname="Helvetica",fontsize="10",labelfontname="Helvetica",labelfontsize="10"];
  node [fontname="Helvetica",fontsize="10",shape=record];
  rankdir="LR";
  Node1 [label="pip._vendor.distlib.wheel.\lWheel.metadata",height=0.2,width=0.4,color="black", fillcolor="grey75", style="filled", fontcolor="black",tooltip=" "];
  Node1 -> Node2 [color="midnightblue",fontsize="10",style="solid"];
  Node2 [label="pip._internal.models.link.\lLink.filename",height=0.2,width=0.4,color="black", fillcolor="white", style="filled",URL="$de/da5/classpip_1_1__internal_1_1models_1_1link_1_1_link.html#ae1daa5521205c1e735c9ffc1d9305d80",tooltip=" "];
  Node2 -> Node3 [color="midnightblue",fontsize="10",style="solid"];
  Node3 [label="pip._internal.models.link.\lLink.netloc",height=0.2,width=0.4,color="black", fillcolor="white", style="filled",URL="$de/da5/classpip_1_1__internal_1_1models_1_1link_1_1_link.html#a67c4e7c416f4464b2cf43f69a4fd32d5",tooltip=" "];
  Node2 -> Node4 [color="midnightblue",fontsize="10",style="solid"];
  Node4 [label="pip._internal.models.link.\lLink.path",height=0.2,width=0.4,color="black", fillcolor="white", style="filled",URL="$de/da5/classpip_1_1__internal_1_1models_1_1link_1_1_link.html#a92cb97c6d8284494fb9993217d96f562",tooltip=" "];
  Node2 -> Node5 [color="midnightblue",fontsize="10",style="solid"];
  Node5 [label="pip._internal.utils.misc.split\l_auth_from_netloc",height=0.2,width=0.4,color="black", fillcolor="white", style="filled",URL="$de/dc3/namespacepip_1_1__internal_1_1utils_1_1misc.html#a4f7ed628264a14243cddbdbddf4b36e8",tooltip=" "];
  Node1 -> Node6 [color="midnightblue",fontsize="10",style="solid"];
  Node6 [label="pip._vendor.distlib.wheel.\lWheel.filename",height=0.2,width=0.4,color="black", fillcolor="white", style="filled",URL="$d1/d0b/classpip_1_1__vendor_1_1distlib_1_1wheel_1_1_wheel.html#a6110ed047c86b977e51a75f43323485e",tooltip=" "];
  Node1 -> Node7 [color="midnightblue",fontsize="10",style="solid"];
  Node7 [label="pip._vendor.distlib.wheel.\lWheel.get_wheel_metadata",height=0.2,width=0.4,color="black", fillcolor="white", style="filled",URL="$d1/d0b/classpip_1_1__vendor_1_1distlib_1_1wheel_1_1_wheel.html#a2cad90a8034603d0a6d63ae827357e8c",tooltip=" "];
}
