digraph "pip._vendor.distlib._backport.tarfile._Stream.__write"
{
 // LATEX_PDF_SIZE
  edge [fontname="Helvetica",fontsize="10",labelfontname="Helvetica",labelfontsize="10"];
  node [fontname="Helvetica",fontsize="10",shape=record];
  rankdir="LR";
  Node1 [label="pip._vendor.distlib.\l_backport.tarfile._Stream.\l__write",height=0.2,width=0.4,color="black", fillcolor="grey75", style="filled", fontcolor="black",tooltip=" "];
  Node1 -> Node2 [color="midnightblue",fontsize="10",style="solid"];
  Node2 [label="pip._vendor.distlib.\l_backport.tarfile._Stream.write",height=0.2,width=0.4,color="black", fillcolor="white", style="filled",URL="$de/d60/classpip_1_1__vendor_1_1distlib_1_1__backport_1_1tarfile_1_1___stream.html#a3ebea1d0fcb9691f64a02aa2ad1edd88",tooltip=" "];
  Node2 -> Node1 [color="midnightblue",fontsize="10",style="solid"];
}
