digraph "pip._vendor.packaging.markers.Marker.__str__"
{
 // LATEX_PDF_SIZE
  edge [fontname="Helvetica",fontsize="10",labelfontname="Helvetica",labelfontsize="10"];
  node [fontname="Helvetica",fontsize="10",shape=record];
  rankdir="LR";
  Node1 [label="pip._vendor.packaging.markers.\lMarker.__str__",height=0.2,width=0.4,color="black", fillcolor="grey75", style="filled", fontcolor="black",tooltip=" "];
  Node1 -> Node2 [color="midnightblue",fontsize="10",style="solid",fontname="Helvetica"];
  Node2 [label="pip._vendor.packaging.markers.\l_format_marker",height=0.2,width=0.4,color="black", fillcolor="white", style="filled",URL="$d8/dac/namespacepip_1_1__vendor_1_1packaging_1_1markers.html#a7d94e2a031ac499b0c81402ce10b2a79",tooltip=" "];
}
