digraph "pip._internal.operations.install.wheel.ZipBackedFile.save"
{
 // LATEX_PDF_SIZE
  edge [fontname="Helvetica",fontsize="10",labelfontname="Helvetica",labelfontsize="10"];
  node [fontname="Helvetica",fontsize="10",shape=record];
  rankdir="RL";
  Node1 [label="pip._internal.operations.install.wheel.\lZipBackedFile.save",height=0.2,width=0.4,color="black", fillcolor="grey75", style="filled", fontcolor="black",tooltip=" "];
  Node1 -> Node2 [dir="back",color="midnightblue",fontsize="10",style="solid",fontname="Helvetica"];
  Node2 [label="pip._vendor.pyparsing.pyparsing\l_test.reset_pyparsing_context.\l__enter__",height=0.2,width=0.4,color="black", fillcolor="white", style="filled",URL="$df/dc9/classpip_1_1__vendor_1_1pyparsing_1_1pyparsing__test_1_1reset__pyparsing__context.html#af39d93999257444feb2eb8925f58814b",tooltip=" "];
}
