digraph "pip._vendor.idna.core._is_script"
{
 // LATEX_PDF_SIZE
  edge [fontname="Helvetica",fontsize="10",labelfontname="Helvetica",labelfontsize="10"];
  node [fontname="Helvetica",fontsize="10",shape=record];
  rankdir="LR";
  Node1 [label="pip._vendor.idna.core.\l_is_script",height=0.2,width=0.4,color="black", fillcolor="grey75", style="filled", fontcolor="black",tooltip=" "];
  Node1 -> Node2 [color="midnightblue",fontsize="10",style="solid"];
  Node2 [label="pip._vendor.idna.intranges.intranges\l_contain",height=0.2,width=0.4,color="black", fillcolor="white", style="filled",URL="$dc/d38/namespacepip_1_1__vendor_1_1idna_1_1intranges.html#abcdc067f2c261e1663789054ba59f597",tooltip=" "];
  Node2 -> Node3 [color="midnightblue",fontsize="10",style="solid"];
  Node3 [label="pip._vendor.idna.intranges.\l_decode_range",height=0.2,width=0.4,color="black", fillcolor="white", style="filled",URL="$dc/d38/namespacepip_1_1__vendor_1_1idna_1_1intranges.html#acc8ad2745e5c2518e2ebc6854c84a996",tooltip=" "];
  Node2 -> Node4 [color="midnightblue",fontsize="10",style="solid"];
  Node4 [label="pip._vendor.idna.intranges.\l_encode_range",height=0.2,width=0.4,color="black", fillcolor="white", style="filled",URL="$dc/d38/namespacepip_1_1__vendor_1_1idna_1_1intranges.html#a451578dfb8f245213932aa16923c371f",tooltip=" "];
}
