digraph "pip._vendor.idna.core.uts46_remap"
{
 // LATEX_PDF_SIZE
  edge [fontname="Helvetica",fontsize="10",labelfontname="Helvetica",labelfontsize="10"];
  node [fontname="Helvetica",fontsize="10",shape=record];
  rankdir="RL";
  Node1 [label="pip._vendor.idna.core.uts46\l_remap",height=0.2,width=0.4,color="black", fillcolor="grey75", style="filled", fontcolor="black",tooltip=" "];
  Node1 -> Node2 [dir="back",color="midnightblue",fontsize="10",style="solid"];
  Node2 [label="pip._vendor.idna.core.decode",height=0.2,width=0.4,color="black", fillcolor="white", style="filled",URL="$dc/dbe/namespacepip_1_1__vendor_1_1idna_1_1core.html#ab8a24800679a07c3161db86a9b0a73e6",tooltip=" "];
  Node2 -> Node3 [dir="back",color="midnightblue",fontsize="10",style="solid"];
  Node3 [label="pip._vendor.cachecontrol.serialize.\l_b64_decode_str",height=0.2,width=0.4,color="black", fillcolor="white", style="filled",URL="$da/db5/namespacepip_1_1__vendor_1_1cachecontrol_1_1serialize.html#ad56026f006adef13d7a479fae1921679",tooltip=" "];
  Node3 -> Node4 [dir="back",color="midnightblue",fontsize="10",style="solid"];
  Node4 [label="pip._vendor.cachecontrol.serialize.\lSerializer._loads_v2",height=0.2,width=0.4,color="black", fillcolor="white", style="filled",URL="$db/d2a/classpip_1_1__vendor_1_1cachecontrol_1_1serialize_1_1_serializer.html#aefdeafbefb9d97d0c2b6f4c77d41160a",tooltip=" "];
  Node2 -> Node5 [dir="back",color="midnightblue",fontsize="10",style="solid"];
  Node5 [label="setuptools.wheel.Wheel.\l_convert_metadata",height=0.2,width=0.4,color="red", fillcolor="white", style="filled",URL="$d8/de5/classsetuptools_1_1wheel_1_1_wheel.html#a0145a59387157485100a08c7e3602987",tooltip=" "];
  Node2 -> Node8 [dir="back",color="midnightblue",fontsize="10",style="solid"];
  Node8 [label="setuptools._distutils.cygwinccompiler.\l_find_exe_version",height=0.2,width=0.4,color="red", fillcolor="white", style="filled",URL="$db/de5/namespacesetuptools_1_1__distutils_1_1cygwinccompiler.html#a84caa055f93b63876555b0786e9a2d9a",tooltip=" "];
  Node2 -> Node49 [dir="back",color="midnightblue",fontsize="10",style="solid"];
  Node49 [label="pip._vendor.requests.models.\lPreparedRequest._get_idna\l_encoded_host",height=0.2,width=0.4,color="red", fillcolor="white", style="filled",URL="$d2/d5c/classpip_1_1__vendor_1_1requests_1_1models_1_1_prepared_request.html#a42c62da25610bf75d1d61a3db47b5bb1",tooltip=" "];
  Node2 -> Node11 [dir="back",color="midnightblue",fontsize="10",style="solid"];
  Node11 [label="pip._vendor.distlib.database.\lEggInfoDistribution._get\l_metadata",height=0.2,width=0.4,color="red", fillcolor="white", style="filled",URL="$d7/d4f/classpip_1_1__vendor_1_1distlib_1_1database_1_1_egg_info_distribution.html#ae8dd9d5435eea9e26a2ed5242e9fafd0",tooltip=" "];
  Node2 -> Node52 [dir="back",color="midnightblue",fontsize="10",style="solid"];
  Node52 [label="pip._vendor.distlib.locators.\lPyPIJSONLocator._get_project",height=0.2,width=0.4,color="black", fillcolor="white", style="filled",URL="$d1/d11/classpip_1_1__vendor_1_1distlib_1_1locators_1_1_py_p_i_j_s_o_n_locator.html#a0ffc07ea54dfa0da58d3a99df9bf0eca",tooltip=" "];
  Node2 -> Node53 [dir="back",color="midnightblue",fontsize="10",style="solid"];
  Node53 [label="setuptools._distutils.\l_msvccompiler._get_vc_env",height=0.2,width=0.4,color="red", fillcolor="white", style="filled",URL="$d6/d38/namespacesetuptools_1_1__distutils_1_1__msvccompiler.html#af76c7dbfe09faaf590667a1d21d71dba",tooltip=" "];
  Node2 -> Node4 [dir="back",color="midnightblue",fontsize="10",style="solid"];
  Node2 -> Node68 [dir="back",color="midnightblue",fontsize="10",style="solid"];
  Node68 [label="setuptools._distutils.log.\lLog._log",height=0.2,width=0.4,color="red", fillcolor="white", style="filled",URL="$d8/d63/classsetuptools_1_1__distutils_1_1log_1_1_log.html#a133132a39400a9d05d4da9b30dacbd94",tooltip=" "];
  Node2 -> Node143 [dir="back",color="midnightblue",fontsize="10",style="solid"];
  Node143 [label="pip._vendor.distlib.\l_backport.tarfile.TarInfo.\l_proc_pax",height=0.2,width=0.4,color="red", fillcolor="white", style="filled",URL="$df/d3f/classpip_1_1__vendor_1_1distlib_1_1__backport_1_1tarfile_1_1_tar_info.html#ad9327fbf4f60649f3b09053afbf704cb",tooltip=" "];
  Node2 -> Node145 [dir="back",color="midnightblue",fontsize="10",style="solid"];
  Node145 [label="setuptools._distutils.config.\lPyPIRCCommand._read_pypi\l_response",height=0.2,width=0.4,color="red", fillcolor="white", style="filled",URL="$d0/daa/classsetuptools_1_1__distutils_1_1config_1_1_py_p_i_r_c_command.html#aedf4569ae7dfaede227f6e37241f5986",tooltip=" "];
  Node145 -> Node147 [dir="back",color="midnightblue",fontsize="10",style="solid"];
  Node147 [label="setuptools._distutils.command.register.register.post\l_to_server",height=0.2,width=0.4,color="red", fillcolor="white", style="filled",URL="$de/de8/classsetuptools_1_1__distutils_1_1command_1_1register_1_1register.html#a9f0256a80ddfc1feaa46c722821f94d4",tooltip=" "];
  Node145 -> Node150 [dir="back",color="midnightblue",fontsize="10",style="solid"];
  Node150 [label="setuptools._distutils.command.upload.upload.upload_file",height=0.2,width=0.4,color="red", fillcolor="white", style="filled",URL="$d3/dd0/classsetuptools_1_1__distutils_1_1command_1_1upload_1_1upload.html#a91db9f86792f17b4e69542a506156290",tooltip=" "];
  Node2 -> Node153 [dir="back",color="midnightblue",fontsize="10",style="solid"];
  Node153 [label="pip._vendor.urllib3.contrib.\l_securetransport.low_level.\l_temporary_keychain",height=0.2,width=0.4,color="red", fillcolor="white", style="filled",URL="$d4/d95/namespacepip_1_1__vendor_1_1urllib3_1_1contrib_1_1__securetransport_1_1low__level.html#a3d5c8bc425796e383ee9ba98b37442c8",tooltip=" "];
  Node2 -> Node155 [dir="back",color="midnightblue",fontsize="10",style="solid"];
  Node155 [label="pip._internal.utils.encoding.auto\l_decode",height=0.2,width=0.4,color="red", fillcolor="white", style="filled",URL="$d0/dfd/namespacepip_1_1__internal_1_1utils_1_1encoding.html#a3cc63c6acdc349f0a9e85bae60bc0092",tooltip=" "];
  Node2 -> Node170 [dir="back",color="midnightblue",fontsize="10",style="solid"];
  Node170 [label="wheel.metadata.dedent\l_description",height=0.2,width=0.4,color="red", fillcolor="white", style="filled",URL="$d8/dd7/namespacewheel_1_1metadata.html#a695b0aeec77feb2b546d795d2ea755f0",tooltip=" "];
  Node2 -> Node173 [dir="back",color="midnightblue",fontsize="10",style="solid"];
  Node173 [label="setuptools.command.easy\l_install.get_exe_prefixes",height=0.2,width=0.4,color="red", fillcolor="white", style="filled",URL="$d4/d53/namespacesetuptools_1_1command_1_1easy__install.html#a98b9a3d250a24f2d7332bd586fcc0d2b",tooltip=" "];
  Node2 -> Node174 [dir="back",color="midnightblue",fontsize="10",style="solid"];
  Node174 [label="setuptools._distutils.command.build\l_ext.build_ext.get_export_symbols",height=0.2,width=0.4,color="black", fillcolor="white", style="filled",URL="$d0/d4b/classsetuptools_1_1__distutils_1_1command_1_1build__ext_1_1build__ext.html#ac8bf4a4568989941cfc5da8f85011fbc",tooltip=" "];
  Node2 -> Node175 [dir="back",color="midnightblue",fontsize="10",style="solid"];
  Node175 [label="pip._vendor.distlib.wheel.\lWheel.get_hash",height=0.2,width=0.4,color="red", fillcolor="white", style="filled",URL="$d1/d0b/classpip_1_1__vendor_1_1distlib_1_1wheel_1_1_wheel.html#a1089055ba5c5306618dc438ce9c69b7f",tooltip=" "];
  Node2 -> Node189 [dir="back",color="midnightblue",fontsize="10",style="solid"];
  Node189 [label="pip._vendor.distlib.database.\lBaseInstalledDistribution.get_hash",height=0.2,width=0.4,color="red", fillcolor="white", style="filled",URL="$d3/d43/classpip_1_1__vendor_1_1distlib_1_1database_1_1_base_installed_distribution.html#a0db639ac83f057f61eae7b8c6a38d603",tooltip=" "];
  Node2 -> Node192 [dir="back",color="midnightblue",fontsize="10",style="solid"];
  Node192 [label="pip._vendor.requests.models.\lResponse.json",height=0.2,width=0.4,color="black", fillcolor="white", style="filled",URL="$d4/da7/classpip_1_1__vendor_1_1requests_1_1models_1_1_response.html#af36df498450a205a6f59f3065e08a3f7",tooltip=" "];
  Node2 -> Node193 [dir="back",color="midnightblue",fontsize="10",style="solid"];
  Node193 [label="pip._vendor.cachecontrol.serialize.\lSerializer.loads",height=0.2,width=0.4,color="black", fillcolor="white", style="filled",URL="$db/d2a/classpip_1_1__vendor_1_1cachecontrol_1_1serialize_1_1_serializer.html#a61a7b81edc4e8dd2863e1421a67fb7ab",tooltip=" "];
  Node2 -> Node194 [dir="back",color="midnightblue",fontsize="10",style="solid"];
  Node194 [label="pip._vendor.urllib3.util.request.make\l_headers",height=0.2,width=0.4,color="black", fillcolor="white", style="filled",URL="$df/d66/namespacepip_1_1__vendor_1_1urllib3_1_1util_1_1request.html#a50c6d400d81fd0bc7e9618eb301085a0",tooltip=" "];
  Node2 -> Node195 [dir="back",color="midnightblue",fontsize="10",style="solid"];
  Node195 [label="wheel.metadata.pkginfo\l_unicode",height=0.2,width=0.4,color="black", fillcolor="white", style="filled",URL="$d8/dd7/namespacewheel_1_1metadata.html#ab406e279f8fbc5b9da29dc5c15dc952e",tooltip=" "];
  Node195 -> Node170 [dir="back",color="midnightblue",fontsize="10",style="solid"];
  Node2 -> Node196 [dir="back",color="midnightblue",fontsize="10",style="solid"];
  Node196 [label="pip._vendor.requests.models.\lResponse.raise_for_status",height=0.2,width=0.4,color="red", fillcolor="white", style="filled",URL="$d4/da7/classpip_1_1__vendor_1_1requests_1_1models_1_1_response.html#a786847f30e14732dd7d4ac5dfacebac2",tooltip=" "];
  Node2 -> Node200 [dir="back",color="midnightblue",fontsize="10",style="solid"];
  Node200 [label="pip._internal.operations.install.wheel.rehash",height=0.2,width=0.4,color="red", fillcolor="white", style="filled",URL="$d5/d70/namespacepip_1_1__internal_1_1operations_1_1install_1_1wheel.html#a44f28544cec7abc21fd7359d33710de7",tooltip=" "];
  Node2 -> Node205 [dir="back",color="midnightblue",fontsize="10",style="solid"];
  Node205 [label="pip._vendor.idna.compat.\lToUnicode",height=0.2,width=0.4,color="black", fillcolor="white", style="filled",URL="$dc/db3/namespacepip_1_1__vendor_1_1idna_1_1compat.html#a38f5a4547daa72377903b73d2877b642",tooltip=" "];
  Node2 -> Node150 [dir="back",color="midnightblue",fontsize="10",style="solid"];
  Node2 -> Node206 [dir="back",color="midnightblue",fontsize="10",style="solid"];
  Node206 [label="setuptools.command.upload\l_docs.upload_docs.upload_file",height=0.2,width=0.4,color="red", fillcolor="white", style="filled",URL="$d6/d06/classsetuptools_1_1command_1_1upload__docs_1_1upload__docs.html#ac346b23de37dcf9fbaa40c548f68321c",tooltip=" "];
  Node1 -> Node207 [dir="back",color="midnightblue",fontsize="10",style="solid"];
  Node207 [label="pip._vendor.idna.core.encode",height=0.2,width=0.4,color="red", fillcolor="white", style="filled",URL="$dc/dbe/namespacepip_1_1__vendor_1_1idna_1_1core.html#ab44c2946ca8d572559f40521032afe1a",tooltip=" "];
  Node207 -> Node208 [dir="back",color="midnightblue",fontsize="10",style="solid"];
  Node208 [label="pip._vendor.pep517.wrappers.\lPep517HookCaller._call_hook",height=0.2,width=0.4,color="red", fillcolor="white", style="filled",URL="$d4/dfc/classpip_1_1__vendor_1_1pep517_1_1wrappers_1_1_pep517_hook_caller.html#ae120a939084031cd8fa476af29b1f7c9",tooltip=" "];
  Node207 -> Node214 [dir="back",color="midnightblue",fontsize="10",style="solid"];
  Node214 [label="pip._vendor.distlib.\l_backport.tarfile.TarInfo.\l_create_header",height=0.2,width=0.4,color="red", fillcolor="white", style="filled",URL="$df/d3f/classpip_1_1__vendor_1_1distlib_1_1__backport_1_1tarfile_1_1_tar_info.html#a153c329eb1fc8e6d980b1366cc1d95f9",tooltip=" "];
  Node214 -> Node220 [dir="back",color="midnightblue",fontsize="10",style="solid"];
  Node220 [label="pip._vendor.distlib.\l_backport.tarfile.TarInfo.create\l_pax_header",height=0.2,width=0.4,color="red", fillcolor="white", style="filled",URL="$df/d3f/classpip_1_1__vendor_1_1distlib_1_1__backport_1_1tarfile_1_1_tar_info.html#af075da28e3c077420ef7519acf212e68",tooltip=" "];
  Node207 -> Node222 [dir="back",color="midnightblue",fontsize="10",style="solid"];
  Node222 [label="pip._vendor.urllib3.util.url.\l_encode_invalid_chars",height=0.2,width=0.4,color="red", fillcolor="white", style="filled",URL="$d1/da8/namespacepip_1_1__vendor_1_1urllib3_1_1util_1_1url.html#a2b73af65dd35486453311eb68d7d415c",tooltip=" "];
  Node207 -> Node264 [dir="back",color="midnightblue",fontsize="10",style="solid"];
  Node264 [label="pip._internal.operations.install.wheel.\lZipBackedFile._getinfo",height=0.2,width=0.4,color="red", fillcolor="white", style="filled",URL="$d2/d61/classpip_1_1__internal_1_1operations_1_1install_1_1wheel_1_1_zip_backed_file.html#a3d2d89f9d0ca776e363672700fae6d81",tooltip=" "];
  Node207 -> Node267 [dir="back",color="midnightblue",fontsize="10",style="solid"];
  Node267 [label="pip._vendor.urllib3.util.url.\l_idna_encode",height=0.2,width=0.4,color="red", fillcolor="white", style="filled",URL="$d1/da8/namespacepip_1_1__vendor_1_1urllib3_1_1util_1_1url.html#a1864a509ff94f6920663c60c0ee1b97b",tooltip=" "];
  Node207 -> Node268 [dir="back",color="midnightblue",fontsize="10",style="solid"];
  Node268 [label="pip._vendor.distlib.\l_backport.tarfile._Stream.\l_init_write_gz",height=0.2,width=0.4,color="black", fillcolor="white", style="filled",URL="$de/d60/classpip_1_1__vendor_1_1distlib_1_1__backport_1_1tarfile_1_1___stream.html#afaa784f111b19a16ac52a5661381c8f5",tooltip=" "];
  Node207 -> Node202 [dir="back",color="midnightblue",fontsize="10",style="solid"];
  Node202 [label="pip._internal.operations.install.wheel.\l_install_wheel",height=0.2,width=0.4,color="red", fillcolor="white", style="filled",URL="$d5/d70/namespacepip_1_1__internal_1_1operations_1_1install_1_1wheel.html#a0ad021df60af9054ff77b91d0074745d",tooltip=" "];
  Node207 -> Node269 [dir="back",color="midnightblue",fontsize="10",style="solid"];
  Node269 [label="pip._vendor.distlib.scripts.\lScriptMaker._make_script",height=0.2,width=0.4,color="red", fillcolor="white", style="filled",URL="$de/dcc/classpip_1_1__vendor_1_1distlib_1_1scripts_1_1_script_maker.html#a01d3210a362f4d2d311f948632c893dc",tooltip=" "];
  Node207 -> Node272 [dir="back",color="midnightblue",fontsize="10",style="solid"];
  Node272 [label="setuptools.command.sdist.sdist.\l_manifest_is_not_generated",height=0.2,width=0.4,color="black", fillcolor="white", style="filled",URL="$de/d02/classsetuptools_1_1command_1_1sdist_1_1sdist.html#a2e6075144687f05c93a8533c0c70f42f",tooltip=" "];
  Node207 -> Node273 [dir="back",color="midnightblue",fontsize="10",style="solid"];
  Node273 [label="pip._internal.cli.progress\l_bars._select_progress_class",height=0.2,width=0.4,color="black", fillcolor="white", style="filled",URL="$d9/ddc/namespacepip_1_1__internal_1_1cli_1_1progress__bars.html#abc9cb9591f888d8909418b519c1f5de8",tooltip=" "];
  Node207 -> Node153 [dir="back",color="midnightblue",fontsize="10",style="solid"];
  Node207 -> Node274 [dir="back",color="midnightblue",fontsize="10",style="solid"];
  Node274 [label="pip._vendor.pyparsing._ustr",height=0.2,width=0.4,color="black", fillcolor="white", style="filled",URL="$da/db0/namespacepip_1_1__vendor_1_1pyparsing.html#ae7b7e48cf13bff11d087010a7b365c8d",tooltip=" "];
  Node207 -> Node275 [dir="back",color="midnightblue",fontsize="10",style="solid"];
  Node275 [label="pkg_resources._vendor.pyparsing._ustr",height=0.2,width=0.4,color="black", fillcolor="white", style="filled",URL="$d9/de4/namespacepkg__resources_1_1__vendor_1_1pyparsing.html#a9cd81ab0660e40ef004085ef2cb77b0e",tooltip=" "];
  Node207 -> Node276 [dir="back",color="midnightblue",fontsize="10",style="solid"];
  Node276 [label="setuptools._vendor.pyparsing._ustr",height=0.2,width=0.4,color="black", fillcolor="white", style="filled",URL="$dc/d79/namespacesetuptools_1_1__vendor_1_1pyparsing.html#ac9b5bf47d7d04be8575e8a00f18fd5fb",tooltip=" "];
  Node207 -> Node277 [dir="back",color="midnightblue",fontsize="10",style="solid"];
  Node277 [label="pip._vendor.requests.auth.\lHTTPDigestAuth.build_digest_header",height=0.2,width=0.4,color="red", fillcolor="white", style="filled",URL="$d2/de6/classpip_1_1__vendor_1_1requests_1_1auth_1_1_h_t_t_p_digest_auth.html#abde421db9e46c01b7f2d5b78b6cc3c07",tooltip=" "];
  Node207 -> Node280 [dir="back",color="midnightblue",fontsize="10",style="solid"];
  Node280 [label="setuptools._distutils.command.bdist\l_wininst.bdist_wininst.create_exe",height=0.2,width=0.4,color="red", fillcolor="white", style="filled",URL="$d5/df2/classsetuptools_1_1__distutils_1_1command_1_1bdist__wininst_1_1bdist__wininst.html#a9e7d67f7545b8676180d34b97ef3f5d1",tooltip=" "];
  Node207 -> Node220 [dir="back",color="midnightblue",fontsize="10",style="solid"];
  Node207 -> Node170 [dir="back",color="midnightblue",fontsize="10",style="solid"];
  Node207 -> Node282 [dir="back",color="midnightblue",fontsize="10",style="solid"];
  Node282 [label="pip._vendor.distlib.index.\lPackageIndex.encode_request",height=0.2,width=0.4,color="red", fillcolor="white", style="filled",URL="$d3/df2/classpip_1_1__vendor_1_1distlib_1_1index_1_1_package_index.html#afa787474bf34ee59d4a4e599b0099f11",tooltip=" "];
  Node207 -> Node286 [dir="back",color="midnightblue",fontsize="10",style="solid"];
  Node286 [label="pip._vendor.distlib.\l_backport.tarfile.itn",height=0.2,width=0.4,color="black", fillcolor="white", style="filled",URL="$d4/df2/namespacepip_1_1__vendor_1_1distlib_1_1__backport_1_1tarfile.html#a14cae059997c819c3a23142671591ecd",tooltip=" "];
  Node286 -> Node214 [dir="back",color="midnightblue",fontsize="10",style="solid"];
  Node207 -> Node287 [dir="back",color="midnightblue",fontsize="10",style="solid"];
  Node287 [label="wheel.cli.pack.pack",height=0.2,width=0.4,color="black", fillcolor="white", style="filled",URL="$d2/d92/namespacewheel_1_1cli_1_1pack.html#a8f241539b5bf7e1e664fc39cf64925dd",tooltip=" "];
  Node207 -> Node195 [dir="back",color="midnightblue",fontsize="10",style="solid"];
  Node207 -> Node147 [dir="back",color="midnightblue",fontsize="10",style="solid"];
  Node207 -> Node150 [dir="back",color="midnightblue",fontsize="10",style="solid"];
}
