digraph "pip._vendor.idna.core.check_label"
{
 // LATEX_PDF_SIZE
  edge [fontname="Helvetica",fontsize="10",labelfontname="Helvetica",labelfontsize="10"];
  node [fontname="Helvetica",fontsize="10",shape=record];
  rankdir="RL";
  Node1 [label="pip._vendor.idna.core.check\l_label",height=0.2,width=0.4,color="black", fillcolor="grey75", style="filled", fontcolor="black",tooltip=" "];
  Node1 -> Node2 [dir="back",color="midnightblue",fontsize="10",style="solid"];
  Node2 [label="pip._vendor.idna.core.alabel",height=0.2,width=0.4,color="black", fillcolor="white", style="filled",URL="$dc/dbe/namespacepip_1_1__vendor_1_1idna_1_1core.html#a59626ddc5d21ec43787eba30bdf1b2bd",tooltip=" "];
  Node2 -> Node3 [dir="back",color="midnightblue",fontsize="10",style="solid"];
  Node3 [label="pip._vendor.idna.codec.Incremental\lEncoder._buffer_encode",height=0.2,width=0.4,color="black", fillcolor="white", style="filled",URL="$d4/dea/classpip_1_1__vendor_1_1idna_1_1codec_1_1_incremental_encoder.html#a39b28ff4be3490d81186ab22fef756c5",tooltip=" "];
  Node2 -> Node4 [dir="back",color="midnightblue",fontsize="10",style="solid"];
  Node4 [label="pip._vendor.idna.core.encode",height=0.2,width=0.4,color="black", fillcolor="white", style="filled",URL="$dc/dbe/namespacepip_1_1__vendor_1_1idna_1_1core.html#ab44c2946ca8d572559f40521032afe1a",tooltip=" "];
  Node4 -> Node5 [dir="back",color="midnightblue",fontsize="10",style="solid"];
  Node5 [label="pip._vendor.pep517.wrappers.\lPep517HookCaller._call_hook",height=0.2,width=0.4,color="red", fillcolor="white", style="filled",URL="$d4/dfc/classpip_1_1__vendor_1_1pep517_1_1wrappers_1_1_pep517_hook_caller.html#ae120a939084031cd8fa476af29b1f7c9",tooltip=" "];
  Node4 -> Node11 [dir="back",color="midnightblue",fontsize="10",style="solid"];
  Node11 [label="pip._vendor.distlib.\l_backport.tarfile.TarInfo.\l_create_header",height=0.2,width=0.4,color="red", fillcolor="white", style="filled",URL="$df/d3f/classpip_1_1__vendor_1_1distlib_1_1__backport_1_1tarfile_1_1_tar_info.html#a153c329eb1fc8e6d980b1366cc1d95f9",tooltip=" "];
  Node11 -> Node17 [dir="back",color="midnightblue",fontsize="10",style="solid"];
  Node17 [label="pip._vendor.distlib.\l_backport.tarfile.TarInfo.create\l_pax_header",height=0.2,width=0.4,color="red", fillcolor="white", style="filled",URL="$df/d3f/classpip_1_1__vendor_1_1distlib_1_1__backport_1_1tarfile_1_1_tar_info.html#af075da28e3c077420ef7519acf212e68",tooltip=" "];
  Node4 -> Node19 [dir="back",color="midnightblue",fontsize="10",style="solid"];
  Node19 [label="pip._vendor.urllib3.util.url.\l_encode_invalid_chars",height=0.2,width=0.4,color="red", fillcolor="white", style="filled",URL="$d1/da8/namespacepip_1_1__vendor_1_1urllib3_1_1util_1_1url.html#a2b73af65dd35486453311eb68d7d415c",tooltip=" "];
  Node4 -> Node64 [dir="back",color="midnightblue",fontsize="10",style="solid"];
  Node64 [label="pip._internal.operations.install.wheel.\lZipBackedFile._getinfo",height=0.2,width=0.4,color="red", fillcolor="white", style="filled",URL="$d2/d61/classpip_1_1__internal_1_1operations_1_1install_1_1wheel_1_1_zip_backed_file.html#a3d2d89f9d0ca776e363672700fae6d81",tooltip=" "];
  Node4 -> Node67 [dir="back",color="midnightblue",fontsize="10",style="solid"];
  Node67 [label="pip._vendor.urllib3.util.url.\l_idna_encode",height=0.2,width=0.4,color="red", fillcolor="white", style="filled",URL="$d1/da8/namespacepip_1_1__vendor_1_1urllib3_1_1util_1_1url.html#a1864a509ff94f6920663c60c0ee1b97b",tooltip=" "];
  Node4 -> Node68 [dir="back",color="midnightblue",fontsize="10",style="solid"];
  Node68 [label="pip._vendor.distlib.\l_backport.tarfile._Stream.\l_init_write_gz",height=0.2,width=0.4,color="black", fillcolor="white", style="filled",URL="$de/d60/classpip_1_1__vendor_1_1distlib_1_1__backport_1_1tarfile_1_1___stream.html#afaa784f111b19a16ac52a5661381c8f5",tooltip=" "];
  Node4 -> Node69 [dir="back",color="midnightblue",fontsize="10",style="solid"];
  Node69 [label="pip._internal.operations.install.wheel.\l_install_wheel",height=0.2,width=0.4,color="red", fillcolor="white", style="filled",URL="$d5/d70/namespacepip_1_1__internal_1_1operations_1_1install_1_1wheel.html#a0ad021df60af9054ff77b91d0074745d",tooltip=" "];
  Node4 -> Node74 [dir="back",color="midnightblue",fontsize="10",style="solid"];
  Node74 [label="pip._vendor.distlib.scripts.\lScriptMaker._make_script",height=0.2,width=0.4,color="red", fillcolor="white", style="filled",URL="$de/dcc/classpip_1_1__vendor_1_1distlib_1_1scripts_1_1_script_maker.html#a01d3210a362f4d2d311f948632c893dc",tooltip=" "];
  Node4 -> Node77 [dir="back",color="midnightblue",fontsize="10",style="solid"];
  Node77 [label="setuptools.command.sdist.sdist.\l_manifest_is_not_generated",height=0.2,width=0.4,color="black", fillcolor="white", style="filled",URL="$de/d02/classsetuptools_1_1command_1_1sdist_1_1sdist.html#a2e6075144687f05c93a8533c0c70f42f",tooltip=" "];
  Node4 -> Node78 [dir="back",color="midnightblue",fontsize="10",style="solid"];
  Node78 [label="pip._internal.cli.progress\l_bars._select_progress_class",height=0.2,width=0.4,color="black", fillcolor="white", style="filled",URL="$d9/ddc/namespacepip_1_1__internal_1_1cli_1_1progress__bars.html#abc9cb9591f888d8909418b519c1f5de8",tooltip=" "];
  Node4 -> Node79 [dir="back",color="midnightblue",fontsize="10",style="solid"];
  Node79 [label="pip._vendor.urllib3.contrib.\l_securetransport.low_level.\l_temporary_keychain",height=0.2,width=0.4,color="red", fillcolor="white", style="filled",URL="$d4/d95/namespacepip_1_1__vendor_1_1urllib3_1_1contrib_1_1__securetransport_1_1low__level.html#a3d5c8bc425796e383ee9ba98b37442c8",tooltip=" "];
  Node4 -> Node81 [dir="back",color="midnightblue",fontsize="10",style="solid"];
  Node81 [label="pip._vendor.pyparsing._ustr",height=0.2,width=0.4,color="black", fillcolor="white", style="filled",URL="$da/db0/namespacepip_1_1__vendor_1_1pyparsing.html#ae7b7e48cf13bff11d087010a7b365c8d",tooltip=" "];
  Node4 -> Node82 [dir="back",color="midnightblue",fontsize="10",style="solid"];
  Node82 [label="pkg_resources._vendor.pyparsing._ustr",height=0.2,width=0.4,color="black", fillcolor="white", style="filled",URL="$d9/de4/namespacepkg__resources_1_1__vendor_1_1pyparsing.html#a9cd81ab0660e40ef004085ef2cb77b0e",tooltip=" "];
  Node4 -> Node83 [dir="back",color="midnightblue",fontsize="10",style="solid"];
  Node83 [label="setuptools._vendor.pyparsing._ustr",height=0.2,width=0.4,color="black", fillcolor="white", style="filled",URL="$dc/d79/namespacesetuptools_1_1__vendor_1_1pyparsing.html#ac9b5bf47d7d04be8575e8a00f18fd5fb",tooltip=" "];
  Node4 -> Node84 [dir="back",color="midnightblue",fontsize="10",style="solid"];
  Node84 [label="pip._vendor.requests.auth.\lHTTPDigestAuth.build_digest_header",height=0.2,width=0.4,color="red", fillcolor="white", style="filled",URL="$d2/de6/classpip_1_1__vendor_1_1requests_1_1auth_1_1_h_t_t_p_digest_auth.html#abde421db9e46c01b7f2d5b78b6cc3c07",tooltip=" "];
  Node4 -> Node87 [dir="back",color="midnightblue",fontsize="10",style="solid"];
  Node87 [label="setuptools._distutils.command.bdist\l_wininst.bdist_wininst.create_exe",height=0.2,width=0.4,color="red", fillcolor="white", style="filled",URL="$d5/df2/classsetuptools_1_1__distutils_1_1command_1_1bdist__wininst_1_1bdist__wininst.html#a9e7d67f7545b8676180d34b97ef3f5d1",tooltip=" "];
  Node4 -> Node17 [dir="back",color="midnightblue",fontsize="10",style="solid"];
  Node4 -> Node89 [dir="back",color="midnightblue",fontsize="10",style="solid"];
  Node89 [label="wheel.metadata.dedent\l_description",height=0.2,width=0.4,color="red", fillcolor="white", style="filled",URL="$d8/dd7/namespacewheel_1_1metadata.html#a695b0aeec77feb2b546d795d2ea755f0",tooltip=" "];
  Node4 -> Node92 [dir="back",color="midnightblue",fontsize="10",style="solid"];
  Node92 [label="pip._vendor.distlib.index.\lPackageIndex.encode_request",height=0.2,width=0.4,color="red", fillcolor="white", style="filled",URL="$d3/df2/classpip_1_1__vendor_1_1distlib_1_1index_1_1_package_index.html#afa787474bf34ee59d4a4e599b0099f11",tooltip=" "];
  Node4 -> Node98 [dir="back",color="midnightblue",fontsize="10",style="solid"];
  Node98 [label="pip._vendor.distlib.\l_backport.tarfile.itn",height=0.2,width=0.4,color="black", fillcolor="white", style="filled",URL="$d4/df2/namespacepip_1_1__vendor_1_1distlib_1_1__backport_1_1tarfile.html#a14cae059997c819c3a23142671591ecd",tooltip=" "];
  Node98 -> Node11 [dir="back",color="midnightblue",fontsize="10",style="solid"];
  Node4 -> Node99 [dir="back",color="midnightblue",fontsize="10",style="solid"];
  Node99 [label="wheel.cli.pack.pack",height=0.2,width=0.4,color="black", fillcolor="white", style="filled",URL="$d2/d92/namespacewheel_1_1cli_1_1pack.html#a8f241539b5bf7e1e664fc39cf64925dd",tooltip=" "];
  Node4 -> Node100 [dir="back",color="midnightblue",fontsize="10",style="solid"];
  Node100 [label="wheel.metadata.pkginfo\l_unicode",height=0.2,width=0.4,color="black", fillcolor="white", style="filled",URL="$d8/dd7/namespacewheel_1_1metadata.html#ab406e279f8fbc5b9da29dc5c15dc952e",tooltip=" "];
  Node100 -> Node89 [dir="back",color="midnightblue",fontsize="10",style="solid"];
  Node4 -> Node101 [dir="back",color="midnightblue",fontsize="10",style="solid"];
  Node101 [label="setuptools._distutils.command.register.register.post\l_to_server",height=0.2,width=0.4,color="red", fillcolor="white", style="filled",URL="$de/de8/classsetuptools_1_1__distutils_1_1command_1_1register_1_1register.html#a9f0256a80ddfc1feaa46c722821f94d4",tooltip=" "];
  Node4 -> Node105 [dir="back",color="midnightblue",fontsize="10",style="solid"];
  Node105 [label="pip._vendor.six.python\l_2_unicode_compatible",height=0.2,width=0.4,color="black", fillcolor="white", style="filled",URL="$df/d13/namespacepip_1_1__vendor_1_1six.html#a73067039b6330b5c45e695487a314c41",tooltip=" "];
  Node4 -> Node106 [dir="back",color="midnightblue",fontsize="10",style="solid"];
  Node106 [label="pip._vendor.urllib3.packages.six.python\l_2_unicode_compatible",height=0.2,width=0.4,color="black", fillcolor="white", style="filled",URL="$d6/dbd/namespacepip_1_1__vendor_1_1urllib3_1_1packages_1_1six.html#a11fb759c3fab324ecec7cebdfe91b896",tooltip=" "];
  Node4 -> Node107 [dir="back",color="midnightblue",fontsize="10",style="solid"];
  Node107 [label="pip._internal.req.req\l_uninstall.UninstallPthEntries.remove",height=0.2,width=0.4,color="red", fillcolor="white", style="filled",URL="$d2/d2a/classpip_1_1__internal_1_1req_1_1req__uninstall_1_1_uninstall_pth_entries.html#ac489927e566e08ffdc3e777f4cdd015d",tooltip=" "];
  Node4 -> Node36 [dir="back",color="midnightblue",fontsize="10",style="solid"];
  Node36 [label="pip._vendor.requests.adapters.\lHTTPAdapter.send",height=0.2,width=0.4,color="red", fillcolor="white", style="filled",URL="$da/dd8/classpip_1_1__vendor_1_1requests_1_1adapters_1_1_h_t_t_p_adapter.html#a6b8cb9b4129cbc1c9aa685dc69f869a4",tooltip=" "];
  Node4 -> Node119 [dir="back",color="midnightblue",fontsize="10",style="solid"];
  Node119 [label="pip._vendor.idna.compat.\lToASCII",height=0.2,width=0.4,color="black", fillcolor="white", style="filled",URL="$dc/db3/namespacepip_1_1__vendor_1_1idna_1_1compat.html#add4f36a7d584c6fd782e7ea5e450ed59",tooltip=" "];
  Node4 -> Node120 [dir="back",color="midnightblue",fontsize="10",style="solid"];
  Node120 [label="setuptools._distutils.command.upload.upload.upload_file",height=0.2,width=0.4,color="red", fillcolor="white", style="filled",URL="$d3/dd0/classsetuptools_1_1__distutils_1_1command_1_1upload_1_1upload.html#a91db9f86792f17b4e69542a506156290",tooltip=" "];
  Node1 -> Node121 [dir="back",color="midnightblue",fontsize="10",style="solid"];
  Node121 [label="pip._vendor.idna.core.ulabel",height=0.2,width=0.4,color="black", fillcolor="white", style="filled",URL="$dc/dbe/namespacepip_1_1__vendor_1_1idna_1_1core.html#aa5d8b1ef65c7126d2fbd3b671b105ad2",tooltip=" "];
  Node121 -> Node122 [dir="back",color="midnightblue",fontsize="10",style="solid"];
  Node122 [label="pip._vendor.idna.codec.Incremental\lDecoder._buffer_decode",height=0.2,width=0.4,color="black", fillcolor="white", style="filled",URL="$dd/dfc/classpip_1_1__vendor_1_1idna_1_1codec_1_1_incremental_decoder.html#ae2a64cd0e989763fcb2826479880fb39",tooltip=" "];
  Node121 -> Node2 [dir="back",color="midnightblue",fontsize="10",style="solid"];
  Node121 -> Node123 [dir="back",color="midnightblue",fontsize="10",style="solid"];
  Node123 [label="pip._vendor.idna.core.decode",height=0.2,width=0.4,color="red", fillcolor="white", style="filled",URL="$dc/dbe/namespacepip_1_1__vendor_1_1idna_1_1core.html#ab8a24800679a07c3161db86a9b0a73e6",tooltip=" "];
  Node123 -> Node124 [dir="back",color="midnightblue",fontsize="10",style="solid"];
  Node124 [label="pip._vendor.cachecontrol.serialize.\l_b64_decode_str",height=0.2,width=0.4,color="black", fillcolor="white", style="filled",URL="$da/db5/namespacepip_1_1__vendor_1_1cachecontrol_1_1serialize.html#ad56026f006adef13d7a479fae1921679",tooltip=" "];
  Node124 -> Node125 [dir="back",color="midnightblue",fontsize="10",style="solid"];
  Node125 [label="pip._vendor.cachecontrol.serialize.\lSerializer._loads_v2",height=0.2,width=0.4,color="black", fillcolor="white", style="filled",URL="$db/d2a/classpip_1_1__vendor_1_1cachecontrol_1_1serialize_1_1_serializer.html#aefdeafbefb9d97d0c2b6f4c77d41160a",tooltip=" "];
  Node123 -> Node126 [dir="back",color="midnightblue",fontsize="10",style="solid"];
  Node126 [label="setuptools.wheel.Wheel.\l_convert_metadata",height=0.2,width=0.4,color="red", fillcolor="white", style="filled",URL="$d8/de5/classsetuptools_1_1wheel_1_1_wheel.html#a0145a59387157485100a08c7e3602987",tooltip=" "];
  Node123 -> Node129 [dir="back",color="midnightblue",fontsize="10",style="solid"];
  Node129 [label="setuptools._distutils.cygwinccompiler.\l_find_exe_version",height=0.2,width=0.4,color="red", fillcolor="white", style="filled",URL="$db/de5/namespacesetuptools_1_1__distutils_1_1cygwinccompiler.html#a84caa055f93b63876555b0786e9a2d9a",tooltip=" "];
  Node123 -> Node170 [dir="back",color="midnightblue",fontsize="10",style="solid"];
  Node170 [label="pip._vendor.requests.models.\lPreparedRequest._get_idna\l_encoded_host",height=0.2,width=0.4,color="red", fillcolor="white", style="filled",URL="$d2/d5c/classpip_1_1__vendor_1_1requests_1_1models_1_1_prepared_request.html#a42c62da25610bf75d1d61a3db47b5bb1",tooltip=" "];
  Node123 -> Node132 [dir="back",color="midnightblue",fontsize="10",style="solid"];
  Node132 [label="pip._vendor.distlib.database.\lEggInfoDistribution._get\l_metadata",height=0.2,width=0.4,color="red", fillcolor="white", style="filled",URL="$d7/d4f/classpip_1_1__vendor_1_1distlib_1_1database_1_1_egg_info_distribution.html#ae8dd9d5435eea9e26a2ed5242e9fafd0",tooltip=" "];
  Node123 -> Node171 [dir="back",color="midnightblue",fontsize="10",style="solid"];
  Node171 [label="pip._vendor.distlib.locators.\lPyPIJSONLocator._get_project",height=0.2,width=0.4,color="black", fillcolor="white", style="filled",URL="$d1/d11/classpip_1_1__vendor_1_1distlib_1_1locators_1_1_py_p_i_j_s_o_n_locator.html#a0ffc07ea54dfa0da58d3a99df9bf0eca",tooltip=" "];
  Node123 -> Node172 [dir="back",color="midnightblue",fontsize="10",style="solid"];
  Node172 [label="setuptools._distutils.\l_msvccompiler._get_vc_env",height=0.2,width=0.4,color="red", fillcolor="white", style="filled",URL="$d6/d38/namespacesetuptools_1_1__distutils_1_1__msvccompiler.html#af76c7dbfe09faaf590667a1d21d71dba",tooltip=" "];
  Node123 -> Node125 [dir="back",color="midnightblue",fontsize="10",style="solid"];
  Node123 -> Node187 [dir="back",color="midnightblue",fontsize="10",style="solid"];
  Node187 [label="setuptools._distutils.log.\lLog._log",height=0.2,width=0.4,color="red", fillcolor="white", style="filled",URL="$d8/d63/classsetuptools_1_1__distutils_1_1log_1_1_log.html#a133132a39400a9d05d4da9b30dacbd94",tooltip=" "];
  Node123 -> Node258 [dir="back",color="midnightblue",fontsize="10",style="solid"];
  Node258 [label="pip._vendor.distlib.\l_backport.tarfile.TarInfo.\l_proc_pax",height=0.2,width=0.4,color="red", fillcolor="white", style="filled",URL="$df/d3f/classpip_1_1__vendor_1_1distlib_1_1__backport_1_1tarfile_1_1_tar_info.html#ad9327fbf4f60649f3b09053afbf704cb",tooltip=" "];
  Node123 -> Node260 [dir="back",color="midnightblue",fontsize="10",style="solid"];
  Node260 [label="setuptools._distutils.config.\lPyPIRCCommand._read_pypi\l_response",height=0.2,width=0.4,color="red", fillcolor="white", style="filled",URL="$d0/daa/classsetuptools_1_1__distutils_1_1config_1_1_py_p_i_r_c_command.html#aedf4569ae7dfaede227f6e37241f5986",tooltip=" "];
  Node260 -> Node101 [dir="back",color="midnightblue",fontsize="10",style="solid"];
  Node260 -> Node120 [dir="back",color="midnightblue",fontsize="10",style="solid"];
  Node123 -> Node79 [dir="back",color="midnightblue",fontsize="10",style="solid"];
  Node123 -> Node262 [dir="back",color="midnightblue",fontsize="10",style="solid"];
  Node262 [label="pip._internal.utils.encoding.auto\l_decode",height=0.2,width=0.4,color="red", fillcolor="white", style="filled",URL="$d0/dfd/namespacepip_1_1__internal_1_1utils_1_1encoding.html#a3cc63c6acdc349f0a9e85bae60bc0092",tooltip=" "];
  Node123 -> Node89 [dir="back",color="midnightblue",fontsize="10",style="solid"];
  Node123 -> Node277 [dir="back",color="midnightblue",fontsize="10",style="solid"];
  Node277 [label="setuptools.command.easy\l_install.get_exe_prefixes",height=0.2,width=0.4,color="red", fillcolor="white", style="filled",URL="$d4/d53/namespacesetuptools_1_1command_1_1easy__install.html#a98b9a3d250a24f2d7332bd586fcc0d2b",tooltip=" "];
  Node123 -> Node278 [dir="back",color="midnightblue",fontsize="10",style="solid"];
  Node278 [label="setuptools._distutils.command.build\l_ext.build_ext.get_export_symbols",height=0.2,width=0.4,color="black", fillcolor="white", style="filled",URL="$d0/d4b/classsetuptools_1_1__distutils_1_1command_1_1build__ext_1_1build__ext.html#ac8bf4a4568989941cfc5da8f85011fbc",tooltip=" "];
  Node123 -> Node100 [dir="back",color="midnightblue",fontsize="10",style="solid"];
  Node123 -> Node120 [dir="back",color="midnightblue",fontsize="10",style="solid"];
}
