digraph "pip._internal.req.req_uninstall.StashedUninstallPathSet.rollback"
{
 // LATEX_PDF_SIZE
  edge [fontname="Helvetica",fontsize="10",labelfontname="Helvetica",labelfontsize="10"];
  node [fontname="Helvetica",fontsize="10",shape=record];
  rankdir="LR";
  Node1 [label="pip._internal.req.req\l_uninstall.StashedUninstall\lPathSet.rollback",height=0.2,width=0.4,color="black", fillcolor="grey75", style="filled", fontcolor="black",tooltip=" "];
  Node1 -> Node2 [color="midnightblue",fontsize="10",style="solid"];
  Node2 [label="pip._internal.req.req\l_uninstall.StashedUninstall\lPathSet.commit",height=0.2,width=0.4,color="black", fillcolor="white", style="filled",URL="$d3/d6e/classpip_1_1__internal_1_1req_1_1req__uninstall_1_1_stashed_uninstall_path_set.html#a8553d9a1a7bb88f16474b4cedf97ce31",tooltip=" "];
  Node1 -> Node3 [color="midnightblue",fontsize="10",style="solid"];
  Node3 [label="pip._internal.utils.misc.renames",height=0.2,width=0.4,color="black", fillcolor="white", style="filled",URL="$de/dc3/namespacepip_1_1__internal_1_1utils_1_1misc.html#ab071641ac0c920b213505c5ca553097f",tooltip=" "];
  Node1 -> Node4 [color="midnightblue",fontsize="10",style="solid"];
  Node4 [label="pip._internal.utils.misc.rmtree",height=0.2,width=0.4,color="black", fillcolor="white", style="filled",URL="$de/dc3/namespacepip_1_1__internal_1_1utils_1_1misc.html#a468943eb596f19a944215297ab3b9216",tooltip=" "];
}
