digraph "pip._vendor.pkg_resources.parse_version"
{
 // LATEX_PDF_SIZE
  edge [fontname="Helvetica",fontsize="10",labelfontname="Helvetica",labelfontsize="10"];
  node [fontname="Helvetica",fontsize="10",shape=record];
  rankdir="RL";
  Node1 [label="pip._vendor.pkg_resources.parse\l_version",height=0.2,width=0.4,color="black", fillcolor="grey75", style="filled", fontcolor="black",tooltip=" "];
  Node1 -> Node2 [dir="back",color="midnightblue",fontsize="10",style="solid",fontname="Helvetica"];
  Node2 [label="setuptools.wheel.Wheel.\l_convert_metadata",height=0.2,width=0.4,color="black", fillcolor="white", style="filled",URL="$d8/de5/classsetuptools_1_1wheel_1_1_wheel.html#a0145a59387157485100a08c7e3602987",tooltip=" "];
  Node2 -> Node3 [dir="back",color="midnightblue",fontsize="10",style="solid",fontname="Helvetica"];
  Node3 [label="setuptools.wheel.Wheel.\l_install_as_egg",height=0.2,width=0.4,color="black", fillcolor="white", style="filled",URL="$d8/de5/classsetuptools_1_1wheel_1_1_wheel.html#af38ad98deb2dd9550fdb649d6394af38",tooltip=" "];
  Node3 -> Node4 [dir="back",color="midnightblue",fontsize="10",style="solid",fontname="Helvetica"];
  Node4 [label="setuptools.wheel.Wheel.install\l_as_egg",height=0.2,width=0.4,color="black", fillcolor="white", style="filled",URL="$d8/de5/classsetuptools_1_1wheel_1_1_wheel.html#a4d5d8dcde757279d6509a1f9137e595d",tooltip=" "];
  Node1 -> Node5 [dir="back",color="midnightblue",fontsize="10",style="solid",fontname="Helvetica"];
  Node5 [label="pip._internal.req.req\l_install.InstallRequirement.\l_set_requirement",height=0.2,width=0.4,color="black", fillcolor="white", style="filled",URL="$d2/daa/classpip_1_1__internal_1_1req_1_1req__install_1_1_install_requirement.html#a4abd7ec20ac8fa094954a6351ce527da",tooltip=" "];
  Node5 -> Node6 [dir="back",color="midnightblue",fontsize="10",style="solid",fontname="Helvetica"];
  Node6 [label="pip._internal.req.req\l_install.InstallRequirement.prepare\l_metadata",height=0.2,width=0.4,color="black", fillcolor="white", style="filled",URL="$d2/daa/classpip_1_1__internal_1_1req_1_1req__install_1_1_install_requirement.html#a048131d02e7f12b151a9cf8fb3b38df6",tooltip=" "];
  Node1 -> Node7 [dir="back",color="midnightblue",fontsize="10",style="solid",fontname="Helvetica"];
  Node7 [label="setuptools.command.egg\l_info.egg_info.finalize\l_options",height=0.2,width=0.4,color="black", fillcolor="white", style="filled",URL="$d4/dd5/classsetuptools_1_1command_1_1egg__info_1_1egg__info.html#ab62dc812cd7873e55721c014fcf3207f",tooltip=" "];
  Node1 -> Node8 [dir="back",color="midnightblue",fontsize="10",style="solid",fontname="Helvetica"];
  Node8 [label="pip._internal.index.package\l_finder.PackageFinder.find\l_requirement",height=0.2,width=0.4,color="black", fillcolor="white", style="filled",URL="$da/d3f/classpip_1_1__internal_1_1index_1_1package__finder_1_1_package_finder.html#ab5049a7f28cad6ead53b40d2fb7094c4",tooltip=" "];
  Node1 -> Node9 [dir="back",color="midnightblue",fontsize="10",style="solid",fontname="Helvetica"];
  Node9 [label="pip._internal.vcs.git.Git.get\l_git_version",height=0.2,width=0.4,color="black", fillcolor="white", style="filled",URL="$d8/d4d/classpip_1_1__internal_1_1vcs_1_1git_1_1_git.html#ad237bd25668f1d0169ed3f5c1ddb7363",tooltip=" "];
  Node9 -> Node10 [dir="back",color="midnightblue",fontsize="10",style="solid",fontname="Helvetica"];
  Node10 [label="pip._internal.vcs.git.Git.update",height=0.2,width=0.4,color="black", fillcolor="white", style="filled",URL="$d8/d4d/classpip_1_1__internal_1_1vcs_1_1git_1_1_git.html#aa5158c33dc4a263752d57a944939e196",tooltip=" "];
  Node10 -> Node11 [dir="back",color="midnightblue",fontsize="10",style="solid",fontname="Helvetica"];
  Node11 [label="pip._vendor.distlib.util.\lProgress.increment",height=0.2,width=0.4,color="black", fillcolor="white", style="filled",URL="$db/d8e/classpip_1_1__vendor_1_1distlib_1_1util_1_1_progress.html#a32ab66122aabe4fc821ac7d8e9914242",tooltip=" "];
  Node10 -> Node12 [dir="back",color="midnightblue",fontsize="10",style="solid",fontname="Helvetica"];
  Node12 [label="pip._vendor.progress.Infinite.next",height=0.2,width=0.4,color="black", fillcolor="white", style="filled",URL="$d0/da8/classpip_1_1__vendor_1_1progress_1_1_infinite.html#a4d198b1f87d7e88699771feb9f4d6630",tooltip=" "];
  Node12 -> Node13 [dir="back",color="midnightblue",fontsize="10",style="solid",fontname="Helvetica"];
  Node13 [label="pip._vendor.progress.Progress.goto",height=0.2,width=0.4,color="black", fillcolor="white", style="filled",URL="$d7/dc2/classpip_1_1__vendor_1_1progress_1_1_progress.html#af7e944763f362b2f709502ce97988f8f",tooltip=" "];
  Node12 -> Node14 [dir="back",color="midnightblue",fontsize="10",style="solid",fontname="Helvetica"];
  Node14 [label="pip._internal.cli.progress\l_bars.DownloadProgressMixin.iter",height=0.2,width=0.4,color="black", fillcolor="white", style="filled",URL="$df/d54/classpip_1_1__internal_1_1cli_1_1progress__bars_1_1_download_progress_mixin.html#a37eab0ec657772189925ac4621198a88",tooltip=" "];
  Node12 -> Node15 [dir="back",color="midnightblue",fontsize="10",style="solid",fontname="Helvetica"];
  Node15 [label="pip._vendor.progress.Infinite.iter",height=0.2,width=0.4,color="black", fillcolor="white", style="filled",URL="$d0/da8/classpip_1_1__vendor_1_1progress_1_1_infinite.html#a8041b71a97f20e9c8a65d89f18a0ee9b",tooltip=" "];
  Node12 -> Node16 [dir="back",color="midnightblue",fontsize="10",style="solid",fontname="Helvetica"];
  Node16 [label="pip._vendor.progress.Progress.iter",height=0.2,width=0.4,color="black", fillcolor="white", style="filled",URL="$d7/dc2/classpip_1_1__vendor_1_1progress_1_1_progress.html#af58dae555a18100e56380fb679c15eb7",tooltip=" "];
  Node10 -> Node17 [dir="back",color="midnightblue",fontsize="10",style="solid",fontname="Helvetica"];
  Node17 [label="pip._internal.vcs.versioncontrol.\lVersionControl.obtain",height=0.2,width=0.4,color="black", fillcolor="white", style="filled",URL="$d0/db7/classpip_1_1__internal_1_1vcs_1_1versioncontrol_1_1_version_control.html#a6cd1dc22e3948b839e553cefb9e56c18",tooltip=" "];
  Node17 -> Node18 [dir="back",color="midnightblue",fontsize="10",style="solid",fontname="Helvetica"];
  Node18 [label="pip._vendor.pkg_resources.\lEnvironment.best_match",height=0.2,width=0.4,color="black", fillcolor="white", style="filled",URL="$de/d79/classpip_1_1__vendor_1_1pkg__resources_1_1_environment.html#ae73299e5eb450a7149014b90332bbc9c",tooltip=" "];
  Node17 -> Node19 [dir="back",color="midnightblue",fontsize="10",style="solid",fontname="Helvetica"];
  Node19 [label="pkg_resources.Environment.best\l_match",height=0.2,width=0.4,color="black", fillcolor="white", style="filled",URL="$dd/d81/classpkg__resources_1_1_environment.html#a7738575eddd2a89e35eff52f3462f20b",tooltip=" "];
  Node17 -> Node20 [dir="back",color="midnightblue",fontsize="10",style="solid",fontname="Helvetica"];
  Node20 [label="pip._internal.vcs.versioncontrol.\lVersionControl.unpack",height=0.2,width=0.4,color="black", fillcolor="white", style="filled",URL="$d0/db7/classpip_1_1__internal_1_1vcs_1_1versioncontrol_1_1_version_control.html#aa999e293571b16d8a23255f9a7365f68",tooltip=" "];
  Node20 -> Node21 [dir="back",color="midnightblue",fontsize="10",style="solid",fontname="Helvetica"];
  Node21 [label="pip._internal.vcs.git.Git.export",height=0.2,width=0.4,color="black", fillcolor="white", style="filled",URL="$d8/d4d/classpip_1_1__internal_1_1vcs_1_1git_1_1_git.html#a8563a0d34300f46657b9152266e0efd1",tooltip=" "];
  Node20 -> Node22 [dir="back",color="midnightblue",fontsize="10",style="solid",fontname="Helvetica"];
  Node22 [label="pip._internal.vcs.mercurial.\lMercurial.export",height=0.2,width=0.4,color="black", fillcolor="white", style="filled",URL="$db/da0/classpip_1_1__internal_1_1vcs_1_1mercurial_1_1_mercurial.html#af8b78ac25c5848b7abd5917b9ec76fe3",tooltip=" "];
  Node10 -> Node23 [dir="back",color="midnightblue",fontsize="10",style="solid",fontname="Helvetica"];
  Node23 [label="pip._vendor.distlib.util.\lProgress.start",height=0.2,width=0.4,color="black", fillcolor="white", style="filled",URL="$db/d8e/classpip_1_1__vendor_1_1distlib_1_1util_1_1_progress.html#aa0a8df6cd2b5d2c8ce7f18016fe1ed32",tooltip=" "];
  Node23 -> Node24 [dir="back",color="midnightblue",fontsize="10",style="solid",fontname="Helvetica"];
  Node24 [label="pip._vendor.progress.Infinite.\l__enter__",height=0.2,width=0.4,color="black", fillcolor="white", style="filled",URL="$d0/da8/classpip_1_1__vendor_1_1progress_1_1_infinite.html#ad0ae9c8227745f75fd75c6791de2125f",tooltip=" "];
  Node10 -> Node25 [dir="back",color="midnightblue",fontsize="10",style="solid",fontname="Helvetica"];
  Node25 [label="pip._vendor.progress.Progress.start",height=0.2,width=0.4,color="black", fillcolor="white", style="filled",URL="$d7/dc2/classpip_1_1__vendor_1_1progress_1_1_progress.html#a51d126b2307c5d869e931b807f28d488",tooltip=" "];
  Node10 -> Node26 [dir="back",color="midnightblue",fontsize="10",style="solid",fontname="Helvetica"];
  Node26 [label="pip._vendor.distlib.util.\lProgress.stop",height=0.2,width=0.4,color="black", fillcolor="white", style="filled",URL="$db/d8e/classpip_1_1__vendor_1_1distlib_1_1util_1_1_progress.html#a2758af67e089f3caaf3ff8c713e53c11",tooltip=" "];
  Node1 -> Node27 [dir="back",color="midnightblue",fontsize="10",style="solid",fontname="Helvetica"];
  Node27 [label="pip._internal.commands.search.print\l_results",height=0.2,width=0.4,color="black", fillcolor="white", style="filled",URL="$de/d2c/namespacepip_1_1__internal_1_1commands_1_1search.html#a87022e63ef0aebf90e837d77bd42f5ae",tooltip=" "];
  Node27 -> Node28 [dir="back",color="midnightblue",fontsize="10",style="solid",fontname="Helvetica"];
  Node28 [label="pip._internal.commands.search.\lSearchCommand.run",height=0.2,width=0.4,color="black", fillcolor="white", style="filled",URL="$db/d61/classpip_1_1__internal_1_1commands_1_1search_1_1_search_command.html#af3bd62eca99b1aa041c8a85696093ea2",tooltip=" "];
  Node1 -> Node10 [dir="back",color="midnightblue",fontsize="10",style="solid",fontname="Helvetica"];
}
