digraph "pip._vendor.pkg_resources.compatible_platforms"
{
 // LATEX_PDF_SIZE
  edge [fontname="Helvetica",fontsize="10",labelfontname="Helvetica",labelfontsize="10"];
  node [fontname="Helvetica",fontsize="10",shape=record];
  rankdir="RL";
  Node1 [label="pip._vendor.pkg_resources.compatible\l_platforms",height=0.2,width=0.4,color="black", fillcolor="grey75", style="filled", fontcolor="black",tooltip=" "];
  Node1 -> Node2 [dir="back",color="midnightblue",fontsize="10",style="solid",fontname="Helvetica"];
  Node2 [label="pip._vendor.pkg_resources.\lEnvironment.can_add",height=0.2,width=0.4,color="black", fillcolor="white", style="filled",URL="$de/d79/classpip_1_1__vendor_1_1pkg__resources_1_1_environment.html#ada05f2e83376abee2592ec9571fce0af",tooltip=" "];
  Node2 -> Node3 [dir="back",color="midnightblue",fontsize="10",style="solid",fontname="Helvetica"];
  Node3 [label="pip._vendor.pkg_resources.\lEnvironment.add",height=0.2,width=0.4,color="black", fillcolor="white", style="filled",URL="$de/d79/classpip_1_1__vendor_1_1pkg__resources_1_1_environment.html#a81284f46d9fa7b21a5f9a4e710fe80cf",tooltip=" "];
  Node3 -> Node4 [dir="back",color="midnightblue",fontsize="10",style="solid",fontname="Helvetica"];
  Node4 [label="pip._vendor.pkg_resources.\lEnvironment.__iadd__",height=0.2,width=0.4,color="black", fillcolor="white", style="filled",URL="$de/d79/classpip_1_1__vendor_1_1pkg__resources_1_1_environment.html#ad026f479ac7031c92cf7cec14cef654f",tooltip=" "];
  Node4 -> Node5 [dir="back",color="midnightblue",fontsize="10",style="solid",fontname="Helvetica"];
  Node5 [label="pip._vendor.pyparsing.Parse\lResults.extend",height=0.2,width=0.4,color="black", fillcolor="white", style="filled",URL="$d3/d5b/classpip_1_1__vendor_1_1pyparsing_1_1_parse_results.html#acd6c647ae66379e661f5c348d714e0e9",tooltip=" "];
  Node5 -> Node6 [dir="back",color="midnightblue",fontsize="10",style="solid",fontname="Helvetica"];
  Node6 [label="setuptools.command.egg\l_info.FileList.global\l_include",height=0.2,width=0.4,color="black", fillcolor="white", style="filled",URL="$d1/df1/classsetuptools_1_1command_1_1egg__info_1_1_file_list.html#a37479fbd5d06a6abedea2c8914754735",tooltip=" "];
  Node6 -> Node7 [dir="back",color="midnightblue",fontsize="10",style="solid",fontname="Helvetica"];
  Node7 [label="setuptools.command.egg\l_info.FileList.process\l_template_line",height=0.2,width=0.4,color="black", fillcolor="white", style="filled",URL="$d1/df1/classsetuptools_1_1command_1_1egg__info_1_1_file_list.html#a4c2fa3fbb3484337650be82c173d06bf",tooltip=" "];
  Node5 -> Node8 [dir="back",color="midnightblue",fontsize="10",style="solid",fontname="Helvetica"];
  Node8 [label="setuptools.command.egg\l_info.FileList.graft",height=0.2,width=0.4,color="black", fillcolor="white", style="filled",URL="$d1/df1/classsetuptools_1_1command_1_1egg__info_1_1_file_list.html#a3a7407577c491ca328677532b0a67264",tooltip=" "];
  Node8 -> Node7 [dir="back",color="midnightblue",fontsize="10",style="solid",fontname="Helvetica"];
  Node5 -> Node9 [dir="back",color="midnightblue",fontsize="10",style="solid",fontname="Helvetica"];
  Node9 [label="setuptools.command.egg\l_info.FileList.include",height=0.2,width=0.4,color="black", fillcolor="white", style="filled",URL="$d1/df1/classsetuptools_1_1command_1_1egg__info_1_1_file_list.html#ae1210c8390f0b9722db42fb320e1eb05",tooltip=" "];
  Node9 -> Node7 [dir="back",color="midnightblue",fontsize="10",style="solid",fontname="Helvetica"];
  Node5 -> Node10 [dir="back",color="midnightblue",fontsize="10",style="solid",fontname="Helvetica"];
  Node10 [label="setuptools.command.egg\l_info.FileList.recursive\l_include",height=0.2,width=0.4,color="black", fillcolor="white", style="filled",URL="$d1/df1/classsetuptools_1_1command_1_1egg__info_1_1_file_list.html#a287e9bf1901bbc7fe07e6018227e8493",tooltip=" "];
  Node10 -> Node7 [dir="back",color="midnightblue",fontsize="10",style="solid",fontname="Helvetica"];
  Node3 -> Node11 [dir="back",color="midnightblue",fontsize="10",style="solid",fontname="Helvetica"];
  Node11 [label="pkg_resources.Environment.\l__iadd__",height=0.2,width=0.4,color="black", fillcolor="white", style="filled",URL="$dd/d81/classpkg__resources_1_1_environment.html#ac8fc54442fe5e9c647b57320e7ccf78a",tooltip=" "];
  Node3 -> Node12 [dir="back",color="midnightblue",fontsize="10",style="solid",fontname="Helvetica"];
  Node12 [label="pkg_resources.WorkingSet.add\l_entry",height=0.2,width=0.4,color="black", fillcolor="white", style="filled",URL="$d5/d96/classpkg__resources_1_1_working_set.html#aed20abcb6a85cdc25dff1686ad480958",tooltip=" "];
  Node3 -> Node13 [dir="back",color="midnightblue",fontsize="10",style="solid",fontname="Helvetica"];
  Node13 [label="pip._vendor.urllib3.\l_collections.HTTPHeaderDict.extend",height=0.2,width=0.4,color="black", fillcolor="white", style="filled",URL="$d8/dc7/classpip_1_1__vendor_1_1urllib3_1_1__collections_1_1_h_t_t_p_header_dict.html#a04ea7ef53fe3916a040ec0e8cacc6581",tooltip=" "];
  Node13 -> Node6 [dir="back",color="midnightblue",fontsize="10",style="solid",fontname="Helvetica"];
  Node13 -> Node8 [dir="back",color="midnightblue",fontsize="10",style="solid",fontname="Helvetica"];
  Node13 -> Node9 [dir="back",color="midnightblue",fontsize="10",style="solid",fontname="Helvetica"];
  Node13 -> Node10 [dir="back",color="midnightblue",fontsize="10",style="solid",fontname="Helvetica"];
  Node3 -> Node14 [dir="back",color="midnightblue",fontsize="10",style="solid",fontname="Helvetica"];
  Node14 [label="setuptools.package\l_index.PackageIndex.process\l_filename",height=0.2,width=0.4,color="black", fillcolor="white", style="filled",URL="$d4/dea/classsetuptools_1_1package__index_1_1_package_index.html#ac83aebaf268b16debbfb5fd6200c53f7",tooltip=" "];
  Node14 -> Node14 [dir="back",color="midnightblue",fontsize="10",style="solid",fontname="Helvetica"];
  Node14 -> Node15 [dir="back",color="midnightblue",fontsize="10",style="solid",fontname="Helvetica"];
  Node15 [label="setuptools.package\l_index.PackageIndex.process_url",height=0.2,width=0.4,color="black", fillcolor="white", style="filled",URL="$d4/dea/classsetuptools_1_1package__index_1_1_package_index.html#a537fc87df159c2474b7fa0ccac56513d",tooltip=" "];
  Node15 -> Node15 [dir="back",color="midnightblue",fontsize="10",style="solid",fontname="Helvetica"];
  Node15 -> Node16 [dir="back",color="midnightblue",fontsize="10",style="solid",fontname="Helvetica"];
  Node16 [label="setuptools.package\l_index.PackageIndex.scan_url",height=0.2,width=0.4,color="black", fillcolor="white", style="filled",URL="$d4/dea/classsetuptools_1_1package__index_1_1_package_index.html#a34fd05e6bd70cb5fb45df6089a9a0d88",tooltip=" "];
  Node16 -> Node17 [dir="back",color="midnightblue",fontsize="10",style="solid",fontname="Helvetica"];
  Node17 [label="setuptools.package\l_index.PackageIndex.add\l_find_links",height=0.2,width=0.4,color="black", fillcolor="white", style="filled",URL="$d4/dea/classsetuptools_1_1package__index_1_1_package_index.html#af2814314197cc6aee392b64f303f08c4",tooltip=" "];
  Node16 -> Node18 [dir="back",color="midnightblue",fontsize="10",style="solid",fontname="Helvetica"];
  Node18 [label="setuptools.package\l_index.PackageIndex.find\l_packages",height=0.2,width=0.4,color="black", fillcolor="white", style="filled",URL="$d4/dea/classsetuptools_1_1package__index_1_1_package_index.html#ac6b53cacdec1d717c42a4412cb0bc10f",tooltip=" "];
  Node18 -> Node19 [dir="back",color="midnightblue",fontsize="10",style="solid",fontname="Helvetica"];
  Node19 [label="setuptools.package\l_index.PackageIndex.fetch\l_distribution",height=0.2,width=0.4,color="black", fillcolor="white", style="filled",URL="$d4/dea/classsetuptools_1_1package__index_1_1_package_index.html#a991bcc357db71bc05773ce3bb03c85a4",tooltip=" "];
  Node19 -> Node20 [dir="back",color="midnightblue",fontsize="10",style="solid",fontname="Helvetica"];
  Node20 [label="setuptools.package\l_index.PackageIndex.download",height=0.2,width=0.4,color="black", fillcolor="white", style="filled",URL="$d4/dea/classsetuptools_1_1package__index_1_1_package_index.html#a100de731e036d1fc5e9604355e02deed",tooltip=" "];
  Node20 -> Node19 [dir="back",color="midnightblue",fontsize="10",style="solid",fontname="Helvetica"];
  Node19 -> Node21 [dir="back",color="midnightblue",fontsize="10",style="solid",fontname="Helvetica"];
  Node21 [label="setuptools.package\l_index.PackageIndex.fetch",height=0.2,width=0.4,color="black", fillcolor="white", style="filled",URL="$d4/dea/classsetuptools_1_1package__index_1_1_package_index.html#a4fa8a0112703f75c6af17996ce6eb66e",tooltip=" "];
  Node18 -> Node22 [dir="back",color="midnightblue",fontsize="10",style="solid",fontname="Helvetica"];
  Node22 [label="setuptools.package\l_index.PackageIndex.obtain",height=0.2,width=0.4,color="black", fillcolor="white", style="filled",URL="$d4/dea/classsetuptools_1_1package__index_1_1_package_index.html#aefcf6b14d54c909ce0200f666672acaf",tooltip=" "];
  Node16 -> Node23 [dir="back",color="midnightblue",fontsize="10",style="solid",fontname="Helvetica"];
  Node23 [label="setuptools.package\l_index.PackageIndex.prescan",height=0.2,width=0.4,color="black", fillcolor="white", style="filled",URL="$d4/dea/classsetuptools_1_1package__index_1_1_package_index.html#a65d775034e7b39ede1a15be9cc17e1aa",tooltip=" "];
  Node23 -> Node19 [dir="back",color="midnightblue",fontsize="10",style="solid",fontname="Helvetica"];
  Node23 -> Node22 [dir="back",color="midnightblue",fontsize="10",style="solid",fontname="Helvetica"];
  Node16 -> Node24 [dir="back",color="midnightblue",fontsize="10",style="solid",fontname="Helvetica"];
  Node24 [label="setuptools.package\l_index.PackageIndex.process_index",height=0.2,width=0.4,color="black", fillcolor="white", style="filled",URL="$d4/dea/classsetuptools_1_1package__index_1_1_package_index.html#a1ae14e5edd4b4c1a585aec3eb9022de0",tooltip=" "];
  Node24 -> Node15 [dir="back",color="midnightblue",fontsize="10",style="solid",fontname="Helvetica"];
  Node16 -> Node25 [dir="back",color="midnightblue",fontsize="10",style="solid",fontname="Helvetica"];
  Node25 [label="setuptools.package\l_index.PackageIndex.scan_all",height=0.2,width=0.4,color="black", fillcolor="white", style="filled",URL="$d4/dea/classsetuptools_1_1package__index_1_1_package_index.html#a8ece2bde59e0845f58d8ca216d57d1ef",tooltip=" "];
  Node25 -> Node26 [dir="back",color="midnightblue",fontsize="10",style="solid",fontname="Helvetica"];
  Node26 [label="setuptools.package\l_index.PackageIndex.need\l_version_info",height=0.2,width=0.4,color="black", fillcolor="white", style="filled",URL="$d4/dea/classsetuptools_1_1package__index_1_1_package_index.html#af387b1796d6cf3a4542782cf936ee854",tooltip=" "];
  Node26 -> Node24 [dir="back",color="midnightblue",fontsize="10",style="solid",fontname="Helvetica"];
  Node25 -> Node27 [dir="back",color="midnightblue",fontsize="10",style="solid",fontname="Helvetica"];
  Node27 [label="setuptools.package\l_index.PackageIndex.not\l_found_in_index",height=0.2,width=0.4,color="black", fillcolor="white", style="filled",URL="$d4/dea/classsetuptools_1_1package__index_1_1_package_index.html#a368455ef8e28ab626077dce7ced8d44e",tooltip=" "];
  Node27 -> Node18 [dir="back",color="midnightblue",fontsize="10",style="solid",fontname="Helvetica"];
  Node3 -> Node15 [dir="back",color="midnightblue",fontsize="10",style="solid",fontname="Helvetica"];
  Node3 -> Node28 [dir="back",color="midnightblue",fontsize="10",style="solid",fontname="Helvetica"];
  Node28 [label="pkg_resources.WorkingSet.require",height=0.2,width=0.4,color="black", fillcolor="white", style="filled",URL="$d5/d96/classpkg__resources_1_1_working_set.html#a335262cb577b8fa37a8fa92cff024cf9",tooltip=" "];
  Node28 -> Node29 [dir="back",color="midnightblue",fontsize="10",style="solid",fontname="Helvetica"];
  Node29 [label="pkg_resources.EntryPoint.load",height=0.2,width=0.4,color="black", fillcolor="white", style="filled",URL="$de/dfa/classpkg__resources_1_1_entry_point.html#aca40d6504feabd38a326c0d6f51ecb6a",tooltip=" "];
  Node28 -> Node30 [dir="back",color="midnightblue",fontsize="10",style="solid",fontname="Helvetica"];
  Node30 [label="pkg_resources.WorkingSet.run\l_script",height=0.2,width=0.4,color="black", fillcolor="white", style="filled",URL="$d5/d96/classpkg__resources_1_1_working_set.html#ab2b93a4b8818042f319d7f9d7d2884bf",tooltip=" "];
  Node3 -> Node31 [dir="back",color="midnightblue",fontsize="10",style="solid",fontname="Helvetica"];
  Node31 [label="pip._vendor.pkg_resources.\lEnvironment.scan",height=0.2,width=0.4,color="black", fillcolor="white", style="filled",URL="$de/d79/classpip_1_1__vendor_1_1pkg__resources_1_1_environment.html#ab899471d6564a9869592df78700a24f1",tooltip=" "];
  Node3 -> Node32 [dir="back",color="midnightblue",fontsize="10",style="solid",fontname="Helvetica"];
  Node32 [label="pkg_resources.Environment.scan",height=0.2,width=0.4,color="black", fillcolor="white", style="filled",URL="$dd/d81/classpkg__resources_1_1_environment.html#a2dd1caa73a329d4c50b0ab9fdec9c1d4",tooltip=" "];
  Node32 -> Node24 [dir="back",color="midnightblue",fontsize="10",style="solid",fontname="Helvetica"];
  Node3 -> Node33 [dir="back",color="midnightblue",fontsize="10",style="solid",fontname="Helvetica"];
  Node33 [label="setuptools.package\l_index.PackageIndex.scan\l_egg_link",height=0.2,width=0.4,color="black", fillcolor="white", style="filled",URL="$d4/dea/classsetuptools_1_1package__index_1_1_package_index.html#ae65aee19ddf23d6602bcd09fd3f060a7",tooltip=" "];
  Node33 -> Node34 [dir="back",color="midnightblue",fontsize="10",style="solid",fontname="Helvetica"];
  Node34 [label="setuptools.package\l_index.PackageIndex.scan\l_egg_links",height=0.2,width=0.4,color="black", fillcolor="white", style="filled",URL="$d4/dea/classsetuptools_1_1package__index_1_1_package_index.html#a50e6e468950479ac9902c899435c0483",tooltip=" "];
  Node3 -> Node35 [dir="back",color="midnightblue",fontsize="10",style="solid",fontname="Helvetica"];
  Node35 [label="setuptools._vendor.ordered\l_set.OrderedSet.update",height=0.2,width=0.4,color="black", fillcolor="white", style="filled",URL="$d0/d40/classsetuptools_1_1__vendor_1_1ordered__set_1_1_ordered_set.html#a464866fb08988f25948761c50a438435",tooltip=" "];
  Node2 -> Node36 [dir="back",color="midnightblue",fontsize="10",style="solid",fontname="Helvetica"];
  Node36 [label="pkg_resources.Environment.add",height=0.2,width=0.4,color="black", fillcolor="white", style="filled",URL="$dd/d81/classpkg__resources_1_1_environment.html#a0ba8999abdb4cbc7a1965766560197fc",tooltip=" "];
  Node36 -> Node11 [dir="back",color="midnightblue",fontsize="10",style="solid",fontname="Helvetica"];
  Node36 -> Node14 [dir="back",color="midnightblue",fontsize="10",style="solid",fontname="Helvetica"];
  Node36 -> Node15 [dir="back",color="midnightblue",fontsize="10",style="solid",fontname="Helvetica"];
  Node36 -> Node32 [dir="back",color="midnightblue",fontsize="10",style="solid",fontname="Helvetica"];
  Node36 -> Node33 [dir="back",color="midnightblue",fontsize="10",style="solid",fontname="Helvetica"];
  Node36 -> Node35 [dir="back",color="midnightblue",fontsize="10",style="solid",fontname="Helvetica"];
}
