digraph "pip._vendor.contextlib2.ExitStack.push"
{
 // LATEX_PDF_SIZE
  edge [fontname="Helvetica",fontsize="10",labelfontname="Helvetica",labelfontsize="10"];
  node [fontname="Helvetica",fontsize="10",shape=record];
  rankdir="LR";
  Node1 [label="pip._vendor.contextlib2.\lExitStack.push",height=0.2,width=0.4,color="black", fillcolor="grey75", style="filled", fontcolor="black",tooltip=" "];
  Node1 -> Node2 [color="midnightblue",fontsize="10",style="solid",fontname="Helvetica"];
  Node2 [label="pip._vendor.contextlib2.\lExitStack._push_cm_exit",height=0.2,width=0.4,color="black", fillcolor="white", style="filled",URL="$da/d9c/classpip_1_1__vendor_1_1contextlib2_1_1_exit_stack.html#acd00d6e9bd24e03a556cdf826cbafbbf",tooltip=" "];
  Node2 -> Node1 [color="midnightblue",fontsize="10",style="solid",fontname="Helvetica"];
}
