digraph "pip._vendor.msgpack.packb"
{
 // LATEX_PDF_SIZE
  edge [fontname="Helvetica",fontsize="10",labelfontname="Helvetica",labelfontsize="10"];
  node [fontname="Helvetica",fontsize="10",shape=record];
  rankdir="LR";
  Node1 [label="pip._vendor.msgpack.packb",height=0.2,width=0.4,color="black", fillcolor="grey75", style="filled", fontcolor="black",tooltip=" "];
  Node1 -> Node2 [color="midnightblue",fontsize="10",style="solid",fontname="Helvetica"];
  Node2 [label="pip._vendor.msgpack.pack",height=0.2,width=0.4,color="black", fillcolor="white", style="filled",URL="$dc/d2c/namespacepip_1_1__vendor_1_1msgpack.html#a0a876d1a4fcd4f00f4da5f33c2741dab",tooltip=" "];
}
