digraph "pip._vendor.chardet.charsetprober.CharSetProber.state"
{
 // LATEX_PDF_SIZE
  edge [fontname="Helvetica",fontsize="10",labelfontname="Helvetica",labelfontsize="10"];
  node [fontname="Helvetica",fontsize="10",shape=record];
  rankdir="RL";
  Node1 [label="pip._vendor.chardet.charsetprober.\lCharSetProber.state",height=0.2,width=0.4,color="black", fillcolor="grey75", style="filled", fontcolor="black",tooltip=" "];
  Node1 -> Node2 [dir="back",color="midnightblue",fontsize="10",style="solid",fontname="Helvetica"];
  Node2 [label="pip._vendor.resolvelib.resolvers.\lResolution._attempt_to_pin\l_criterion",height=0.2,width=0.4,color="black", fillcolor="white", style="filled",URL="$da/d77/classpip_1_1__vendor_1_1resolvelib_1_1resolvers_1_1_resolution.html#aa6c30acdfdea13cc6620fa7815bc304b",tooltip=" "];
  Node2 -> Node3 [dir="back",color="midnightblue",fontsize="10",style="solid",fontname="Helvetica"];
  Node3 [label="pip._vendor.resolvelib.resolvers.\lResolution.resolve",height=0.2,width=0.4,color="black", fillcolor="white", style="filled",URL="$da/d77/classpip_1_1__vendor_1_1resolvelib_1_1resolvers_1_1_resolution.html#ab753d46c8fb1eaa2909f12ef51d67b0f",tooltip=" "];
  Node3 -> Node4 [dir="back",color="midnightblue",fontsize="10",style="solid",fontname="Helvetica"];
  Node4 [label="pkg_resources.EntryPoint.load",height=0.2,width=0.4,color="black", fillcolor="white", style="filled",URL="$de/dfa/classpkg__resources_1_1_entry_point.html#aca40d6504feabd38a326c0d6f51ecb6a",tooltip=" "];
  Node3 -> Node5 [dir="back",color="midnightblue",fontsize="10",style="solid",fontname="Helvetica"];
  Node5 [label="pkg_resources.WorkingSet.require",height=0.2,width=0.4,color="black", fillcolor="white", style="filled",URL="$d5/d96/classpkg__resources_1_1_working_set.html#a335262cb577b8fa37a8fa92cff024cf9",tooltip=" "];
  Node5 -> Node4 [dir="back",color="midnightblue",fontsize="10",style="solid",fontname="Helvetica"];
  Node5 -> Node6 [dir="back",color="midnightblue",fontsize="10",style="solid",fontname="Helvetica"];
  Node6 [label="pkg_resources.WorkingSet.run\l_script",height=0.2,width=0.4,color="black", fillcolor="white", style="filled",URL="$d5/d96/classpkg__resources_1_1_working_set.html#ab2b93a4b8818042f319d7f9d7d2884bf",tooltip=" "];
  Node1 -> Node7 [dir="back",color="midnightblue",fontsize="10",style="solid",fontname="Helvetica"];
  Node7 [label="pip._vendor.resolvelib.resolvers.\lResolution._backtrack",height=0.2,width=0.4,color="black", fillcolor="white", style="filled",URL="$da/d77/classpip_1_1__vendor_1_1resolvelib_1_1resolvers_1_1_resolution.html#a6464c80f3b99f99d9ee72d34fb37ba07",tooltip=" "];
  Node7 -> Node3 [dir="back",color="midnightblue",fontsize="10",style="solid",fontname="Helvetica"];
  Node1 -> Node8 [dir="back",color="midnightblue",fontsize="10",style="solid",fontname="Helvetica"];
  Node8 [label="pip._vendor.resolvelib.resolvers.\lResolution._get_criterion_item\l_preference",height=0.2,width=0.4,color="black", fillcolor="white", style="filled",URL="$da/d77/classpip_1_1__vendor_1_1resolvelib_1_1resolvers_1_1_resolution.html#a03f49d3f7b284c52e9cba413c6c2ec93",tooltip=" "];
  Node8 -> Node3 [dir="back",color="midnightblue",fontsize="10",style="solid",fontname="Helvetica"];
  Node1 -> Node9 [dir="back",color="midnightblue",fontsize="10",style="solid",fontname="Helvetica"];
  Node9 [label="pip._vendor.resolvelib.resolvers.\lResolution._is_current_pin\l_satisfying",height=0.2,width=0.4,color="black", fillcolor="white", style="filled",URL="$da/d77/classpip_1_1__vendor_1_1resolvelib_1_1resolvers_1_1_resolution.html#a6dfb58c8a1544ea6eddf2267dd4ffcaa",tooltip=" "];
  Node9 -> Node3 [dir="back",color="midnightblue",fontsize="10",style="solid",fontname="Helvetica"];
  Node1 -> Node10 [dir="back",color="midnightblue",fontsize="10",style="solid",fontname="Helvetica"];
  Node10 [label="pip._vendor.resolvelib.resolvers.\lResolution._merge_into_criterion",height=0.2,width=0.4,color="black", fillcolor="white", style="filled",URL="$da/d77/classpip_1_1__vendor_1_1resolvelib_1_1resolvers_1_1_resolution.html#a1120bd581062b3ec066bb487482bf27f",tooltip=" "];
  Node10 -> Node11 [dir="back",color="midnightblue",fontsize="10",style="solid",fontname="Helvetica"];
  Node11 [label="pip._vendor.resolvelib.resolvers.\lResolution._get_criteria_to_update",height=0.2,width=0.4,color="black", fillcolor="white", style="filled",URL="$da/d77/classpip_1_1__vendor_1_1resolvelib_1_1resolvers_1_1_resolution.html#acf701836f212ea38747441a2961ad474",tooltip=" "];
  Node11 -> Node2 [dir="back",color="midnightblue",fontsize="10",style="solid",fontname="Helvetica"];
  Node10 -> Node3 [dir="back",color="midnightblue",fontsize="10",style="solid",fontname="Helvetica"];
  Node1 -> Node12 [dir="back",color="midnightblue",fontsize="10",style="solid",fontname="Helvetica"];
  Node12 [label="pip._vendor.chardet.charsetgroupprober.\lCharSetGroupProber.feed",height=0.2,width=0.4,color="black", fillcolor="white", style="filled",URL="$d5/d8f/classpip_1_1__vendor_1_1chardet_1_1charsetgroupprober_1_1_char_set_group_prober.html#aab3c0cbb972732881afd124221c6106e",tooltip=" "];
  Node1 -> Node13 [dir="back",color="midnightblue",fontsize="10",style="solid",fontname="Helvetica"];
  Node13 [label="pip._vendor.chardet.escprober.\lEscCharSetProber.feed",height=0.2,width=0.4,color="black", fillcolor="white", style="filled",URL="$d9/d37/classpip_1_1__vendor_1_1chardet_1_1escprober_1_1_esc_char_set_prober.html#a9a4b36b24c3a8622cbd3f4eeadfeffc4",tooltip=" "];
  Node1 -> Node14 [dir="back",color="midnightblue",fontsize="10",style="solid",fontname="Helvetica"];
  Node14 [label="pip._vendor.chardet.charsetgroupprober.\lCharSetGroupProber.get_confidence",height=0.2,width=0.4,color="black", fillcolor="white", style="filled",URL="$d5/d8f/classpip_1_1__vendor_1_1chardet_1_1charsetgroupprober_1_1_char_set_group_prober.html#aeac22917bb85a807144868bcc9d46ad0",tooltip=" "];
  Node14 -> Node15 [dir="back",color="midnightblue",fontsize="10",style="solid",fontname="Helvetica"];
  Node15 [label="pip._vendor.chardet.charsetgroupprober.\lCharSetGroupProber.charset_name",height=0.2,width=0.4,color="black", fillcolor="white", style="filled",URL="$d5/d8f/classpip_1_1__vendor_1_1chardet_1_1charsetgroupprober_1_1_char_set_group_prober.html#a86064c3eab9f0d3107234bdea5093cf8",tooltip=" "];
  Node15 -> Node16 [dir="back",color="midnightblue",fontsize="10",style="solid",fontname="Helvetica"];
  Node16 [label="pip._vendor.chardet.eucjpprober.\lEUCJPProber.feed",height=0.2,width=0.4,color="black", fillcolor="white", style="filled",URL="$dd/d73/classpip_1_1__vendor_1_1chardet_1_1eucjpprober_1_1_e_u_c_j_p_prober.html#ad96303aded5d210f4161a85cee288db1",tooltip=" "];
  Node15 -> Node17 [dir="back",color="midnightblue",fontsize="10",style="solid",fontname="Helvetica"];
  Node17 [label="pip._vendor.chardet.mbcharsetprober.\lMultiByteCharSetProber.feed",height=0.2,width=0.4,color="black", fillcolor="white", style="filled",URL="$df/d40/classpip_1_1__vendor_1_1chardet_1_1mbcharsetprober_1_1_multi_byte_char_set_prober.html#ad57b10650bc13b5edbb278b4488369e7",tooltip=" "];
  Node15 -> Node18 [dir="back",color="midnightblue",fontsize="10",style="solid",fontname="Helvetica"];
  Node18 [label="pip._vendor.chardet.sjisprober.\lSJISProber.feed",height=0.2,width=0.4,color="black", fillcolor="white", style="filled",URL="$dc/dba/classpip_1_1__vendor_1_1chardet_1_1sjisprober_1_1_s_j_i_s_prober.html#a95af2daa6b9396f65da6f6197a1dbfb8",tooltip=" "];
  Node14 -> Node19 [dir="back",color="midnightblue",fontsize="10",style="solid",fontname="Helvetica"];
  Node19 [label="pip._vendor.chardet.charsetgroupprober.\lCharSetGroupProber.language",height=0.2,width=0.4,color="black", fillcolor="white", style="filled",URL="$d5/d8f/classpip_1_1__vendor_1_1chardet_1_1charsetgroupprober_1_1_char_set_group_prober.html#abf98124d05d0bb98c439b1fca791bd3f",tooltip=" "];
  Node19 -> Node20 [dir="back",color="midnightblue",fontsize="10",style="solid",fontname="Helvetica"];
  Node20 [label="setuptools.extension.Extension.\l_convert_pyx_sources_to_lang",height=0.2,width=0.4,color="black", fillcolor="white", style="filled",URL="$d2/da3/classsetuptools_1_1extension_1_1_extension.html#aec80a43b695b8fb397bcf80d89a62737",tooltip=" "];
  Node19 -> Node16 [dir="back",color="midnightblue",fontsize="10",style="solid",fontname="Helvetica"];
  Node19 -> Node17 [dir="back",color="midnightblue",fontsize="10",style="solid",fontname="Helvetica"];
  Node19 -> Node18 [dir="back",color="midnightblue",fontsize="10",style="solid",fontname="Helvetica"];
  Node1 -> Node3 [dir="back",color="midnightblue",fontsize="10",style="solid",fontname="Helvetica"];
}
