digraph "pip._vendor.pkg_resources.NullProvider.has_metadata"
{
 // LATEX_PDF_SIZE
  edge [fontname="Helvetica",fontsize="10",labelfontname="Helvetica",labelfontsize="10"];
  node [fontname="Helvetica",fontsize="10",shape=record];
  rankdir="LR";
  Node1 [label="pip._vendor.pkg_resources.\lNullProvider.has_metadata",height=0.2,width=0.4,color="black", fillcolor="grey75", style="filled", fontcolor="black",tooltip=" "];
  Node1 -> Node2 [color="midnightblue",fontsize="10",style="solid",fontname="Helvetica"];
  Node2 [label="pip._vendor.pkg_resources.\lNullProvider._get_metadata_path",height=0.2,width=0.4,color="black", fillcolor="white", style="filled",URL="$dd/dc4/classpip_1_1__vendor_1_1pkg__resources_1_1_null_provider.html#af47cb33387840c8392ef709c84f9f3a8",tooltip=" "];
  Node2 -> Node3 [color="midnightblue",fontsize="10",style="solid",fontname="Helvetica"];
  Node3 [label="pip._vendor.pkg_resources.\lNullProvider._fn",height=0.2,width=0.4,color="black", fillcolor="white", style="filled",URL="$dd/dc4/classpip_1_1__vendor_1_1pkg__resources_1_1_null_provider.html#a8633d9e788b867f2ecc7e2b28f5e24f5",tooltip=" "];
  Node3 -> Node4 [color="midnightblue",fontsize="10",style="solid",fontname="Helvetica"];
  Node4 [label="pip._vendor.pkg_resources.\lNullProvider._validate\l_resource_path",height=0.2,width=0.4,color="black", fillcolor="white", style="filled",URL="$dd/dc4/classpip_1_1__vendor_1_1pkg__resources_1_1_null_provider.html#a4e4db1c4e925f729255e9d361b8cc29a",tooltip=" "];
  Node2 -> Node5 [color="midnightblue",fontsize="10",style="solid",fontname="Helvetica"];
  Node5 [label="pip._vendor.cachecontrol.caches.file\l_cache.FileCache._fn",height=0.2,width=0.4,color="black", fillcolor="white", style="filled",URL="$d4/d5e/classpip_1_1__vendor_1_1cachecontrol_1_1caches_1_1file__cache_1_1_file_cache.html#acc032338fee1e604f8e74c43b836a045",tooltip=" "];
  Node5 -> Node6 [color="midnightblue",fontsize="10",style="solid",fontname="Helvetica"];
  Node6 [label="pip._vendor.cachecontrol.caches.file\l_cache.FileCache.encode",height=0.2,width=0.4,color="black", fillcolor="white", style="filled",URL="$d4/d5e/classpip_1_1__vendor_1_1cachecontrol_1_1caches_1_1file__cache_1_1_file_cache.html#a332cb83da1e988931abc75e2634718de",tooltip=" "];
  Node1 -> Node7 [color="midnightblue",fontsize="10",style="solid",fontname="Helvetica"];
  Node7 [label="pip._vendor.pkg_resources.\lNullProvider._has",height=0.2,width=0.4,color="black", fillcolor="white", style="filled",URL="$dd/dc4/classpip_1_1__vendor_1_1pkg__resources_1_1_null_provider.html#a596dc767319e029b66f352474d01ca71",tooltip=" "];
}
