digraph "pip._vendor.pkg_resources.NullProvider._listdir"
{
 // LATEX_PDF_SIZE
  edge [fontname="Helvetica",fontsize="10",labelfontname="Helvetica",labelfontsize="10"];
  node [fontname="Helvetica",fontsize="10",shape=record];
  rankdir="RL";
  Node1 [label="pip._vendor.pkg_resources.\lNullProvider._listdir",height=0.2,width=0.4,color="black", fillcolor="grey75", style="filled", fontcolor="black",tooltip=" "];
  Node1 -> Node2 [dir="back",color="midnightblue",fontsize="10",style="solid",fontname="Helvetica"];
  Node2 [label="pip._vendor.pkg_resources.\lNullProvider.metadata_listdir",height=0.2,width=0.4,color="black", fillcolor="white", style="filled",URL="$dd/dc4/classpip_1_1__vendor_1_1pkg__resources_1_1_null_provider.html#ae31a32cfb5ca6f199d16976d46b4b818",tooltip=" "];
  Node1 -> Node3 [dir="back",color="midnightblue",fontsize="10",style="solid",fontname="Helvetica"];
  Node3 [label="pkg_resources.NullProvider.metadata\l_listdir",height=0.2,width=0.4,color="black", fillcolor="white", style="filled",URL="$d3/da0/classpkg__resources_1_1_null_provider.html#a3cb806ee524e9fe799811bb789d37591",tooltip=" "];
  Node1 -> Node4 [dir="back",color="midnightblue",fontsize="10",style="solid",fontname="Helvetica"];
  Node4 [label="pip._vendor.pkg_resources.\lNullProvider.resource_listdir",height=0.2,width=0.4,color="black", fillcolor="white", style="filled",URL="$dd/dc4/classpip_1_1__vendor_1_1pkg__resources_1_1_null_provider.html#a954d4b5e70cf87e7869aa27a1c4b091c",tooltip=" "];
  Node1 -> Node5 [dir="back",color="midnightblue",fontsize="10",style="solid",fontname="Helvetica"];
  Node5 [label="pkg_resources.NullProvider.resource\l_listdir",height=0.2,width=0.4,color="black", fillcolor="white", style="filled",URL="$d3/da0/classpkg__resources_1_1_null_provider.html#acba3c4c30764a40146f28cc1be50808a",tooltip=" "];
}
