digraph "pip._internal.commands.search.SearchCommand.search"
{
 // LATEX_PDF_SIZE
  edge [fontname="Helvetica",fontsize="10",labelfontname="Helvetica",labelfontsize="10"];
  node [fontname="Helvetica",fontsize="10",shape=record];
  rankdir="RL";
  Node1 [label="pip._internal.commands.search.\lSearchCommand.search",height=0.2,width=0.4,color="black", fillcolor="grey75", style="filled", fontcolor="black",tooltip=" "];
  Node1 -> Node2 [dir="back",color="midnightblue",fontsize="10",style="solid",fontname="Helvetica"];
  Node2 [label="pip._internal.commands.search.\lSearchCommand.run",height=0.2,width=0.4,color="black", fillcolor="white", style="filled",URL="$db/d61/classpip_1_1__internal_1_1commands_1_1search_1_1_search_command.html#af3bd62eca99b1aa041c8a85696093ea2",tooltip=" "];
}
