digraph "pip._vendor.html5lib._inputstream.EncodingBytes.next"
{
 // LATEX_PDF_SIZE
  edge [fontname="Helvetica",fontsize="10",labelfontname="Helvetica",labelfontsize="10"];
  node [fontname="Helvetica",fontsize="10",shape=record];
  rankdir="LR";
  Node1 [label="pip._vendor.html5lib.\l_inputstream.EncodingBytes.next",height=0.2,width=0.4,color="black", fillcolor="grey75", style="filled", fontcolor="black",tooltip=" "];
  Node1 -> Node2 [color="midnightblue",fontsize="10",style="solid"];
  Node2 [label="pip._vendor.distlib.\l_backport.tarfile.TarIter.\l__next__",height=0.2,width=0.4,color="black", fillcolor="white", style="filled",URL="$d1/dcf/classpip_1_1__vendor_1_1distlib_1_1__backport_1_1tarfile_1_1_tar_iter.html#af67b8320f49fc25d7f10d0f61c738110",tooltip=" "];
  Node1 -> Node3 [color="midnightblue",fontsize="10",style="solid"];
  Node3 [label="pip._vendor.html5lib.\l_inputstream.EncodingBytes.\l__next__",height=0.2,width=0.4,color="black", fillcolor="white", style="filled",URL="$d9/d4d/classpip_1_1__vendor_1_1html5lib_1_1__inputstream_1_1_encoding_bytes.html#a328b56cc9d2debf3c0dd6ef634fbc924",tooltip=" "];
}
