digraph "pip._internal.utils.parallel.closing"
{
 // LATEX_PDF_SIZE
  edge [fontname="Helvetica",fontsize="10",labelfontname="Helvetica",labelfontsize="10"];
  node [fontname="Helvetica",fontsize="10",shape=record];
  rankdir="RL";
  Node1 [label="pip._internal.utils.parallel.closing",height=0.2,width=0.4,color="black", fillcolor="grey75", style="filled", fontcolor="black",tooltip=" "];
  Node1 -> Node2 [dir="back",color="midnightblue",fontsize="10",style="solid"];
  Node2 [label="pip._internal.utils.parallel.\l_map_multiprocess",height=0.2,width=0.4,color="black", fillcolor="white", style="filled",URL="$d9/d93/namespacepip_1_1__internal_1_1utils_1_1parallel.html#ae188e0f45e94e99549596f3c4abfb842",tooltip=" "];
  Node1 -> Node3 [dir="back",color="midnightblue",fontsize="10",style="solid"];
  Node3 [label="pip._internal.utils.parallel.\l_map_multithread",height=0.2,width=0.4,color="black", fillcolor="white", style="filled",URL="$d9/d93/namespacepip_1_1__internal_1_1utils_1_1parallel.html#a68f910dd43f362804a26485c6fa2b736",tooltip=" "];
}
