digraph "pip._internal.req.req_uninstall.StashedUninstallPathSet.stash"
{
 // LATEX_PDF_SIZE
  edge [fontname="Helvetica",fontsize="10",labelfontname="Helvetica",labelfontsize="10"];
  node [fontname="Helvetica",fontsize="10",shape=record];
  rankdir="LR";
  Node1 [label="pip._internal.req.req\l_uninstall.StashedUninstall\lPathSet.stash",height=0.2,width=0.4,color="black", fillcolor="grey75", style="filled", fontcolor="black",tooltip=" "];
  Node1 -> Node2 [color="midnightblue",fontsize="10",style="solid",fontname="Helvetica"];
  Node2 [label="pip._internal.req.req\l_uninstall.StashedUninstall\lPathSet._get_directory_stash",height=0.2,width=0.4,color="black", fillcolor="white", style="filled",URL="$d3/d6e/classpip_1_1__internal_1_1req_1_1req__uninstall_1_1_stashed_uninstall_path_set.html#a8fee78f2f3e4a0e505ea9609abbda4cb",tooltip=" "];
  Node1 -> Node3 [color="midnightblue",fontsize="10",style="solid",fontname="Helvetica"];
  Node3 [label="pip._internal.req.req\l_uninstall.StashedUninstall\lPathSet._get_file_stash",height=0.2,width=0.4,color="black", fillcolor="white", style="filled",URL="$d3/d6e/classpip_1_1__internal_1_1req_1_1req__uninstall_1_1_stashed_uninstall_path_set.html#a5ca36330798505261a387fdb7664cf11",tooltip=" "];
  Node1 -> Node4 [color="midnightblue",fontsize="10",style="solid",fontname="Helvetica"];
  Node4 [label="pip._internal.utils.misc.renames",height=0.2,width=0.4,color="black", fillcolor="white", style="filled",URL="$de/dc3/namespacepip_1_1__internal_1_1utils_1_1misc.html#ab071641ac0c920b213505c5ca553097f",tooltip=" "];
}
