digraph "pip._internal.req.req_uninstall.StashedUninstallPathSet._get_directory_stash"
{
 // LATEX_PDF_SIZE
  edge [fontname="Helvetica",fontsize="10",labelfontname="Helvetica",labelfontsize="10"];
  node [fontname="Helvetica",fontsize="10",shape=record];
  rankdir="RL";
  Node1 [label="pip._internal.req.req\l_uninstall.StashedUninstall\lPathSet._get_directory_stash",height=0.2,width=0.4,color="black", fillcolor="grey75", style="filled", fontcolor="black",tooltip=" "];
  Node1 -> Node2 [dir="back",color="midnightblue",fontsize="10",style="solid",fontname="Helvetica"];
  Node2 [label="pip._internal.req.req\l_uninstall.StashedUninstall\lPathSet.stash",height=0.2,width=0.4,color="black", fillcolor="white", style="filled",URL="$d3/d6e/classpip_1_1__internal_1_1req_1_1req__uninstall_1_1_stashed_uninstall_path_set.html#a62c5b7a661d108ebcc8b7eef77a250db",tooltip=" "];
}
