digraph "pip._vendor.colorama.ansitowin32.AnsiToWin32"
{
 // LATEX_PDF_SIZE
  edge [fontname="Helvetica",fontsize="10",labelfontname="Helvetica",labelfontsize="10"];
  node [fontname="Helvetica",fontsize="10",shape=record];
  Node1 [label="{pip._vendor.colorama.ansitowin32.\lAnsiToWin32\n|+ wrapped\l+ autoreset\l+ stream\l+ strip\l+ convert\l+ win32_calls\l+ on_stderr\l+ ANSI_CSI_RE\l+ ANSI_OSC_RE\l|+ __init__()\l+ should_wrap()\l+ get_win32_calls()\l+ write()\l+ reset_all()\l+ write_and_convert()\l+ write_plain_text()\l+ convert_ansi()\l+ extract_params()\l+ call_win32()\l+ convert_osc()\l}",height=0.2,width=0.4,color="black", fillcolor="grey75", style="filled", fontcolor="black",tooltip=" "];
  Node2 -> Node1 [dir="back",color="midnightblue",fontsize="10",style="solid",arrowtail="onormal",fontname="Helvetica"];
  Node2 [label="{object\n||}",height=0.2,width=0.4,color="grey75", fillcolor="white", style="filled",tooltip=" "];
}
