digraph "pip._internal.cli.progress_bars.DownloadSilentBar"
{
 // LATEX_PDF_SIZE
  edge [fontname="Helvetica",fontsize="10",labelfontname="Helvetica",labelfontsize="10"];
  node [fontname="Helvetica",fontsize="10",shape=record];
  Node1 [label="{pip._internal.cli.progress\l_bars.DownloadSilentBar\n||}",height=0.2,width=0.4,color="black", fillcolor="grey75", style="filled", fontcolor="black",tooltip=" "];
  Node2 -> Node1 [dir="back",color="midnightblue",fontsize="10",style="solid",arrowtail="onormal"];
  Node2 [label="{pip._internal.cli.progress\l_bars.BaseDownloadProgressBar\n|+ file\l+ message\l+ suffix\l|}",height=0.2,width=0.4,color="black", fillcolor="white", style="filled",URL="$d4/dfb/classpip_1_1__internal_1_1cli_1_1progress__bars_1_1_base_download_progress_bar.html",tooltip=" "];
  Node3 -> Node2 [dir="back",color="midnightblue",fontsize="10",style="solid",arrowtail="onormal"];
  Node3 [label="{pip._internal.cli.progress\l_bars.WindowsMixin\n|+ hide_cursor\l+ file\l|+ __init__()\l}",height=0.2,width=0.4,color="black", fillcolor="white", style="filled",URL="$d3/d4d/classpip_1_1__internal_1_1cli_1_1progress__bars_1_1_windows_mixin.html",tooltip=" "];
  Node4 -> Node3 [dir="back",color="midnightblue",fontsize="10",style="solid",arrowtail="onormal"];
  Node4 [label="{object\n||}",height=0.2,width=0.4,color="grey75", fillcolor="white", style="filled",tooltip=" "];
  Node5 -> Node2 [dir="back",color="midnightblue",fontsize="10",style="solid",arrowtail="onormal"];
  Node5 [label="{pip._internal.cli.progress\l_bars.InterruptibleMixin\n|+ original_handler\l|+ __init__()\l+ finish()\l+ handle_sigint()\l}",height=0.2,width=0.4,color="black", fillcolor="white", style="filled",URL="$d0/d2a/classpip_1_1__internal_1_1cli_1_1progress__bars_1_1_interruptible_mixin.html",tooltip=" "];
  Node4 -> Node5 [dir="back",color="midnightblue",fontsize="10",style="solid",arrowtail="onormal"];
  Node6 -> Node2 [dir="back",color="midnightblue",fontsize="10",style="solid",arrowtail="onormal"];
  Node6 [label="{pip._internal.cli.progress\l_bars.DownloadProgressMixin\n|+ message\l+ avg\l|+ __init__()\l+ downloaded()\l+ download_speed()\l+ pretty_eta()\l+ iter()\l}",height=0.2,width=0.4,color="black", fillcolor="white", style="filled",URL="$df/d54/classpip_1_1__internal_1_1cli_1_1progress__bars_1_1_download_progress_mixin.html",tooltip=" "];
  Node4 -> Node6 [dir="back",color="midnightblue",fontsize="10",style="solid",arrowtail="onormal"];
  Node7 -> Node1 [dir="back",color="midnightblue",fontsize="10",style="solid",arrowtail="onormal"];
  Node7 [label="{pip._internal.cli.progress\l_bars.SilentBar\n||+ update()\l}",height=0.2,width=0.4,color="black", fillcolor="white", style="filled",URL="$d5/d7d/classpip_1_1__internal_1_1cli_1_1progress__bars_1_1_silent_bar.html",tooltip=" "];
  Node8 -> Node7 [dir="back",color="midnightblue",fontsize="10",style="solid",arrowtail="onormal"];
  Node8 [label="{pip._vendor.progress.bar.Bar\n|+ width\l+ suffix\l+ bar_prefix\l+ bar_suffix\l+ empty_fill\l+ fill\l|+ update()\l}",height=0.2,width=0.4,color="black", fillcolor="white", style="filled",URL="$d4/ddf/classpip_1_1__vendor_1_1progress_1_1bar_1_1_bar.html",tooltip=" "];
  Node9 -> Node8 [dir="back",color="midnightblue",fontsize="10",style="solid",arrowtail="onormal"];
  Node9 [label="{Progress\n||}",height=0.2,width=0.4,color="grey75", fillcolor="white", style="filled",tooltip=" "];
}
