digraph "pip._internal.index.collector.LinkCollector.collect_links"
{
 // LATEX_PDF_SIZE
  edge [fontname="Helvetica",fontsize="10",labelfontname="Helvetica",labelfontsize="10"];
  node [fontname="Helvetica",fontsize="10",shape=record];
  rankdir="LR";
  Node1 [label="pip._internal.index.collector.\lLinkCollector.collect_links",height=0.2,width=0.4,color="black", fillcolor="grey75", style="filled", fontcolor="black",tooltip=" "];
  Node1 -> Node2 [color="midnightblue",fontsize="10",style="solid",fontname="Helvetica"];
  Node2 [label="pip._internal.index.collector.\l_remove_duplicate_links",height=0.2,width=0.4,color="black", fillcolor="white", style="filled",URL="$dc/def/namespacepip_1_1__internal_1_1index_1_1collector.html#a989fc467cf752c1fd7687065a486df42",tooltip=" "];
  Node1 -> Node3 [color="midnightblue",fontsize="10",style="solid",fontname="Helvetica"];
  Node3 [label="pip._internal.index.collector.\lLinkCollector.find_links",height=0.2,width=0.4,color="black", fillcolor="white", style="filled",URL="$d9/d03/classpip_1_1__internal_1_1index_1_1collector_1_1_link_collector.html#a20a332f936cb9aa4fb7419f2d03fde4d",tooltip=" "];
  Node1 -> Node4 [color="midnightblue",fontsize="10",style="solid",fontname="Helvetica"];
  Node4 [label="pip._internal.index.collector.group\l_locations",height=0.2,width=0.4,color="black", fillcolor="white", style="filled",URL="$dc/def/namespacepip_1_1__internal_1_1index_1_1collector.html#a9366a9bde07b9a223e8263d17e5339b5",tooltip=" "];
  Node4 -> Node5 [color="midnightblue",fontsize="10",style="solid",fontname="Helvetica"];
  Node5 [label="pip._internal.vcs.versioncontrol.is_url",height=0.2,width=0.4,color="black", fillcolor="white", style="filled",URL="$d1/d2c/namespacepip_1_1__internal_1_1vcs_1_1versioncontrol.html#a885afc288d59bd52197f024fa2fb779c",tooltip=" "];
  Node5 -> Node6 [color="midnightblue",fontsize="10",style="solid",fontname="Helvetica"];
  Node6 [label="pip._internal.utils.urls.get\l_url_scheme",height=0.2,width=0.4,color="black", fillcolor="white", style="filled",URL="$d7/d48/namespacepip_1_1__internal_1_1utils_1_1urls.html#ad87043afb534368959c3a324598b96f5",tooltip=" "];
  Node4 -> Node7 [color="midnightblue",fontsize="10",style="solid",fontname="Helvetica"];
  Node7 [label="pip._internal.utils.urls.path\l_to_url",height=0.2,width=0.4,color="black", fillcolor="white", style="filled",URL="$d7/d48/namespacepip_1_1__internal_1_1utils_1_1urls.html#a789117f8d3114e952ead88416e5493d9",tooltip=" "];
  Node4 -> Node8 [color="midnightblue",fontsize="10",style="solid",fontname="Helvetica"];
  Node8 [label="pip._internal.utils.urls.url\l_to_path",height=0.2,width=0.4,color="black", fillcolor="white", style="filled",URL="$d7/d48/namespacepip_1_1__internal_1_1utils_1_1urls.html#a3de8091daa436638c4e3104ba125beb6",tooltip=" "];
}
