digraph "pip._internal.index.collector.LinkCollector.find_links"
{
 // LATEX_PDF_SIZE
  edge [fontname="Helvetica",fontsize="10",labelfontname="Helvetica",labelfontsize="10"];
  node [fontname="Helvetica",fontsize="10",shape=record];
  rankdir="RL";
  Node1 [label="pip._internal.index.collector.\lLinkCollector.find_links",height=0.2,width=0.4,color="black", fillcolor="grey75", style="filled", fontcolor="black",tooltip=" "];
  Node1 -> Node2 [dir="back",color="midnightblue",fontsize="10",style="solid",fontname="Helvetica"];
  Node2 [label="pip._internal.index.collector.\lLinkCollector.collect_links",height=0.2,width=0.4,color="black", fillcolor="white", style="filled",URL="$d9/d03/classpip_1_1__internal_1_1index_1_1collector_1_1_link_collector.html#a913587d03e264b64cada070272d6343e",tooltip=" "];
}
