digraph "pip._internal.commands.download.DownloadCommand.run"
{
 // LATEX_PDF_SIZE
  edge [fontname="Helvetica",fontsize="10",labelfontname="Helvetica",labelfontsize="10"];
  node [fontname="Helvetica",fontsize="10",shape=record];
  rankdir="LR";
  Node1 [label="pip._internal.commands.download.\lDownloadCommand.run",height=0.2,width=0.4,color="black", fillcolor="grey75", style="filled", fontcolor="black",tooltip=" "];
  Node1 -> Node2 [color="midnightblue",fontsize="10",style="solid",fontname="Helvetica"];
  Node2 [label="pip._internal.cli.req\l_command.RequirementCommand.\l_build_package_finder",height=0.2,width=0.4,color="black", fillcolor="white", style="filled",URL="$d4/db3/classpip_1_1__internal_1_1cli_1_1req__command_1_1_requirement_command.html#a4bb4be6b6637223c3d88ea081ba70b50",tooltip=" "];
  Node1 -> Node3 [color="midnightblue",fontsize="10",style="solid",fontname="Helvetica"];
  Node3 [label="pip._internal.utils.misc.ensure_dir",height=0.2,width=0.4,color="black", fillcolor="white", style="filled",URL="$de/dc3/namespacepip_1_1__internal_1_1utils_1_1misc.html#afaf6195b8068b1a08c9b6bb51384b7d0",tooltip=" "];
  Node1 -> Node4 [color="midnightblue",fontsize="10",style="solid",fontname="Helvetica"];
  Node4 [label="pip._internal.cli.command\l_context.CommandContextMixIn.enter\l_context",height=0.2,width=0.4,color="black", fillcolor="white", style="filled",URL="$d4/d41/classpip_1_1__internal_1_1cli_1_1command__context_1_1_command_context_mix_in.html#ae66ea2807c894992943232fed9b0c33e",tooltip=" "];
  Node1 -> Node5 [color="midnightblue",fontsize="10",style="solid",fontname="Helvetica"];
  Node5 [label="pip._internal.cli.req\l_command.SessionCommandMixin.get\l_default_session",height=0.2,width=0.4,color="black", fillcolor="white", style="filled",URL="$da/d76/classpip_1_1__internal_1_1cli_1_1req__command_1_1_session_command_mixin.html#a673ab3f9bf8f1ea6ddd833d04e34257c",tooltip=" "];
  Node5 -> Node6 [color="midnightblue",fontsize="10",style="solid",fontname="Helvetica"];
  Node6 [label="pip._internal.cli.req\l_command.SessionCommandMixin.\l_build_session",height=0.2,width=0.4,color="black", fillcolor="white", style="filled",URL="$da/d76/classpip_1_1__internal_1_1cli_1_1req__command_1_1_session_command_mixin.html#a5dea53628463e162df9b4f544575e0aa",tooltip=" "];
  Node6 -> Node7 [color="midnightblue",fontsize="10",style="solid",fontname="Helvetica"];
  Node7 [label="pip._internal.cli.req\l_command.SessionCommandMixin.\l_get_index_urls",height=0.2,width=0.4,color="black", fillcolor="white", style="filled",URL="$da/d76/classpip_1_1__internal_1_1cli_1_1req__command_1_1_session_command_mixin.html#a92371eccf8271ac3489532581b16af7f",tooltip=" "];
  Node5 -> Node4 [color="midnightblue",fontsize="10",style="solid",fontname="Helvetica"];
  Node1 -> Node8 [color="midnightblue",fontsize="10",style="solid",fontname="Helvetica"];
  Node8 [label="pip._internal.req.req\l_tracker.get_requirement\l_tracker",height=0.2,width=0.4,color="black", fillcolor="white", style="filled",URL="$de/dbd/namespacepip_1_1__internal_1_1req_1_1req__tracker.html#a596c764b9b20596f71245a58dbcd0952",tooltip=" "];
  Node8 -> Node9 [color="midnightblue",fontsize="10",style="solid",fontname="Helvetica"];
  Node9 [label="pip._internal.req.req\l_tracker.update_env_context\l_manager",height=0.2,width=0.4,color="black", fillcolor="white", style="filled",URL="$de/dbd/namespacepip_1_1__internal_1_1req_1_1req__tracker.html#aeecba78ac24b4c31ca5063a38025dbf1",tooltip=" "];
  Node1 -> Node10 [color="midnightblue",fontsize="10",style="solid",fontname="Helvetica"];
  Node10 [label="pip._internal.cli.req\l_command.RequirementCommand.get\l_requirements",height=0.2,width=0.4,color="black", fillcolor="white", style="filled",URL="$d4/db3/classpip_1_1__internal_1_1cli_1_1req__command_1_1_requirement_command.html#abec6b583dd1834f5bdc35eab1c5e8ca0",tooltip=" "];
  Node10 -> Node11 [color="midnightblue",fontsize="10",style="solid",fontname="Helvetica"];
  Node11 [label="pip._internal.req.constructors.install\l_req_from_editable",height=0.2,width=0.4,color="black", fillcolor="white", style="filled",URL="$df/dd2/namespacepip_1_1__internal_1_1req_1_1constructors.html#a6ef0babd0219317e92de885ca7e37489",tooltip=" "];
  Node11 -> Node12 [color="midnightblue",fontsize="10",style="solid",fontname="Helvetica"];
  Node12 [label="pip._internal.req.constructors.parse\l_req_from_editable",height=0.2,width=0.4,color="black", fillcolor="white", style="filled",URL="$df/dd2/namespacepip_1_1__internal_1_1req_1_1constructors.html#ad1f17d71e7bf4a4f3e7e1f9219e92654",tooltip=" "];
  Node12 -> Node13 [color="midnightblue",fontsize="10",style="solid",fontname="Helvetica"];
  Node13 [label="pip._internal.req.constructors.parse\l_editable",height=0.2,width=0.4,color="black", fillcolor="white", style="filled",URL="$df/dd2/namespacepip_1_1__internal_1_1req_1_1constructors.html#ac2c68d670442590283ec2d86c1d13dd4",tooltip=" "];
  Node13 -> Node14 [color="midnightblue",fontsize="10",style="solid",fontname="Helvetica"];
  Node14 [label="pip._internal.req.constructors.\l_strip_extras",height=0.2,width=0.4,color="black", fillcolor="white", style="filled",URL="$df/dd2/namespacepip_1_1__internal_1_1req_1_1constructors.html#ac966ea668059516ba80fe95838e1d2ec",tooltip=" "];
  Node13 -> Node15 [color="midnightblue",fontsize="10",style="solid",fontname="Helvetica"];
  Node15 [label="pip._internal.pyproject.make\l_pyproject_path",height=0.2,width=0.4,color="black", fillcolor="white", style="filled",URL="$d9/d29/namespacepip_1_1__internal_1_1pyproject.html#aa0250284deda8acb0915feb29cbf0fc9",tooltip=" "];
  Node13 -> Node16 [color="midnightblue",fontsize="10",style="solid",fontname="Helvetica"];
  Node16 [label="pip._internal.utils.urls.path\l_to_url",height=0.2,width=0.4,color="black", fillcolor="white", style="filled",URL="$d7/d48/namespacepip_1_1__internal_1_1utils_1_1urls.html#a789117f8d3114e952ead88416e5493d9",tooltip=" "];
  Node10 -> Node17 [color="midnightblue",fontsize="10",style="solid",fontname="Helvetica"];
  Node17 [label="pip._internal.req.constructors.install\l_req_from_line",height=0.2,width=0.4,color="black", fillcolor="white", style="filled",URL="$df/dd2/namespacepip_1_1__internal_1_1req_1_1constructors.html#a627ed3c7246a72ae1e9c5aa38120a497",tooltip=" "];
  Node17 -> Node18 [color="midnightblue",fontsize="10",style="solid",fontname="Helvetica"];
  Node18 [label="pip._internal.req.constructors.parse\l_req_from_line",height=0.2,width=0.4,color="black", fillcolor="white", style="filled",URL="$df/dd2/namespacepip_1_1__internal_1_1req_1_1constructors.html#acfb2162125bb400c1b7d8a9abbe1771d",tooltip=" "];
  Node18 -> Node19 [color="midnightblue",fontsize="10",style="solid",fontname="Helvetica"];
  Node19 [label="pip._internal.req.constructors.\l_get_url_from_path",height=0.2,width=0.4,color="black", fillcolor="white", style="filled",URL="$df/dd2/namespacepip_1_1__internal_1_1req_1_1constructors.html#a7c6b770e45fa26d341bb67477c1ffe36",tooltip=" "];
  Node19 -> Node20 [color="midnightblue",fontsize="10",style="solid",fontname="Helvetica"];
  Node20 [label="pip._internal.req.constructors.\l_looks_like_path",height=0.2,width=0.4,color="black", fillcolor="white", style="filled",URL="$df/dd2/namespacepip_1_1__internal_1_1req_1_1constructors.html#a95ce5b118c03d61ee7f4482ce9db3415",tooltip=" "];
  Node19 -> Node21 [color="midnightblue",fontsize="10",style="solid",fontname="Helvetica"];
  Node21 [label="pip._internal.req.constructors.is\l_archive_file",height=0.2,width=0.4,color="black", fillcolor="white", style="filled",URL="$df/dd2/namespacepip_1_1__internal_1_1req_1_1constructors.html#ab664d504bab236974a158a88984fe657",tooltip=" "];
  Node21 -> Node22 [color="midnightblue",fontsize="10",style="solid",fontname="Helvetica"];
  Node22 [label="pip._internal.utils.misc.splitext",height=0.2,width=0.4,color="black", fillcolor="white", style="filled",URL="$de/dc3/namespacepip_1_1__internal_1_1utils_1_1misc.html#a6060934981bde6e18b7e138df65640ec",tooltip=" "];
  Node19 -> Node23 [color="midnightblue",fontsize="10",style="solid",fontname="Helvetica"];
  Node23 [label="pip._internal.utils.misc.is\l_installable_dir",height=0.2,width=0.4,color="black", fillcolor="white", style="filled",URL="$de/dc3/namespacepip_1_1__internal_1_1utils_1_1misc.html#aa0a3f4f5231d8f6fe06e209c36e4710f",tooltip=" "];
  Node19 -> Node16 [color="midnightblue",fontsize="10",style="solid",fontname="Helvetica"];
  Node18 -> Node14 [color="midnightblue",fontsize="10",style="solid",fontname="Helvetica"];
  Node18 -> Node24 [color="midnightblue",fontsize="10",style="solid",fontname="Helvetica"];
  Node24 [label="pip._internal.req.constructors.convert\l_extras",height=0.2,width=0.4,color="black", fillcolor="white", style="filled",URL="$df/dd2/namespacepip_1_1__internal_1_1req_1_1constructors.html#a29955c4bc32fc2f80ca49ebb585100af",tooltip=" "];
  Node18 -> Node25 [color="midnightblue",fontsize="10",style="solid",fontname="Helvetica"];
  Node25 [label="pip._internal.req.constructors.deduce\l_helpful_msg",height=0.2,width=0.4,color="black", fillcolor="white", style="filled",URL="$df/dd2/namespacepip_1_1__internal_1_1req_1_1constructors.html#a361bce2fe5fcf2c86d37f602878d096b",tooltip=" "];
  Node25 -> Node26 [color="midnightblue",fontsize="10",style="solid",fontname="Helvetica"];
  Node26 [label="pip._internal.req.req\l_file.parse_requirements",height=0.2,width=0.4,color="black", fillcolor="white", style="filled",URL="$d9/d27/namespacepip_1_1__internal_1_1req_1_1req__file.html#a26157dbab79dc73771f38f1eb08d29c8",tooltip=" "];
  Node26 -> Node27 [color="midnightblue",fontsize="10",style="solid",fontname="Helvetica"];
  Node27 [label="pip._internal.req.req\l_file.get_line_parser",height=0.2,width=0.4,color="black", fillcolor="white", style="filled",URL="$d9/d27/namespacepip_1_1__internal_1_1req_1_1req__file.html#ab28e7931f03ea251630e063377a33936",tooltip=" "];
  Node27 -> Node28 [color="midnightblue",fontsize="10",style="solid",fontname="Helvetica"];
  Node28 [label="pip._internal.req.req\l_file.break_args_options",height=0.2,width=0.4,color="black", fillcolor="white", style="filled",URL="$d9/d27/namespacepip_1_1__internal_1_1req_1_1req__file.html#a4af0019abe61898b2e2556bfd9c103f9",tooltip=" "];
  Node27 -> Node29 [color="midnightblue",fontsize="10",style="solid",fontname="Helvetica"];
  Node29 [label="pip._internal.req.req\l_file.build_parser",height=0.2,width=0.4,color="black", fillcolor="white", style="filled",URL="$d9/d27/namespacepip_1_1__internal_1_1req_1_1req__file.html#ad877f09761f42a82cda8fe3630689b20",tooltip=" "];
  Node26 -> Node30 [color="midnightblue",fontsize="10",style="solid",fontname="Helvetica"];
  Node30 [label="pip._internal.req.req\l_file.handle_line",height=0.2,width=0.4,color="black", fillcolor="white", style="filled",URL="$d9/d27/namespacepip_1_1__internal_1_1req_1_1req__file.html#a84c3d53ffb4cac1346b54ab540ef58be",tooltip=" "];
  Node30 -> Node31 [color="midnightblue",fontsize="10",style="solid",fontname="Helvetica"];
  Node31 [label="pip._internal.req.req\l_file.handle_option_line",height=0.2,width=0.4,color="black", fillcolor="white", style="filled",URL="$d9/d27/namespacepip_1_1__internal_1_1req_1_1req__file.html#a54d25df51acbdd71432aadb2af1df991",tooltip=" "];
  Node30 -> Node32 [color="midnightblue",fontsize="10",style="solid",fontname="Helvetica"];
  Node32 [label="pip._internal.req.req\l_file.handle_requirement_line",height=0.2,width=0.4,color="black", fillcolor="white", style="filled",URL="$d9/d27/namespacepip_1_1__internal_1_1req_1_1req__file.html#a08eb89957cfc2e8ceaead212f682b756",tooltip=" "];
  Node18 -> Node33 [color="midnightblue",fontsize="10",style="solid",fontname="Helvetica"];
  Node33 [label="pip._internal.utils.deprecation.deprecated",height=0.2,width=0.4,color="black", fillcolor="white", style="filled",URL="$da/df1/namespacepip_1_1__internal_1_1utils_1_1deprecation.html#a7f64ef4a2a3e8999461e6d63b6929543",tooltip=" "];
  Node33 -> Node34 [color="midnightblue",fontsize="10",style="solid",fontname="Helvetica"];
  Node34 [label="pip._vendor.html5lib.html5parser.parse",height=0.2,width=0.4,color="black", fillcolor="white", style="filled",URL="$d2/d86/namespacepip_1_1__vendor_1_1html5lib_1_1html5parser.html#a2987549a868788409adca199412a27e4",tooltip=" "];
  Node18 -> Node35 [color="midnightblue",fontsize="10",style="solid",fontname="Helvetica"];
  Node35 [label="pip._internal.vcs.versioncontrol.is_url",height=0.2,width=0.4,color="black", fillcolor="white", style="filled",URL="$d1/d2c/namespacepip_1_1__internal_1_1vcs_1_1versioncontrol.html#a885afc288d59bd52197f024fa2fb779c",tooltip=" "];
  Node35 -> Node36 [color="midnightblue",fontsize="10",style="solid",fontname="Helvetica"];
  Node36 [label="pip._internal.utils.urls.get\l_url_scheme",height=0.2,width=0.4,color="black", fillcolor="white", style="filled",URL="$d7/d48/namespacepip_1_1__internal_1_1utils_1_1urls.html#ad87043afb534368959c3a324598b96f5",tooltip=" "];
  Node18 -> Node16 [color="midnightblue",fontsize="10",style="solid",fontname="Helvetica"];
  Node10 -> Node37 [color="midnightblue",fontsize="10",style="solid",fontname="Helvetica"];
  Node37 [label="pip._internal.req.constructors.install\l_req_from_parsed_requirement",height=0.2,width=0.4,color="black", fillcolor="white", style="filled",URL="$df/dd2/namespacepip_1_1__internal_1_1req_1_1constructors.html#a093d3da992203ec555c1f58cb9d83fe5",tooltip=" "];
  Node37 -> Node11 [color="midnightblue",fontsize="10",style="solid",fontname="Helvetica"];
  Node37 -> Node17 [color="midnightblue",fontsize="10",style="solid",fontname="Helvetica"];
  Node10 -> Node26 [color="midnightblue",fontsize="10",style="solid",fontname="Helvetica"];
  Node1 -> Node38 [color="midnightblue",fontsize="10",style="solid",fontname="Helvetica"];
  Node38 [label="pip._internal.cli.req\l_command.RequirementCommand.make\l_requirement_preparer",height=0.2,width=0.4,color="black", fillcolor="white", style="filled",URL="$d4/db3/classpip_1_1__internal_1_1cli_1_1req__command_1_1_requirement_command.html#a16ff94533f53a8f6e011927951e8dc1c",tooltip=" "];
  Node1 -> Node39 [color="midnightblue",fontsize="10",style="solid",fontname="Helvetica"];
  Node39 [label="pip._internal.cli.req\l_command.RequirementCommand.make\l_resolver",height=0.2,width=0.4,color="black", fillcolor="white", style="filled",URL="$d4/db3/classpip_1_1__internal_1_1cli_1_1req__command_1_1_requirement_command.html#a0d161cc14792599c534a80daa2944a5e",tooltip=" "];
  Node1 -> Node40 [color="midnightblue",fontsize="10",style="solid",fontname="Helvetica"];
  Node40 [label="pip._internal.utils.misc.normalize_path",height=0.2,width=0.4,color="black", fillcolor="white", style="filled",URL="$de/dc3/namespacepip_1_1__internal_1_1utils_1_1misc.html#a9594cfa80c3e1c931446b2ea25904443",tooltip=" "];
  Node40 -> Node41 [color="midnightblue",fontsize="10",style="solid",fontname="Helvetica"];
  Node41 [label="pip._internal.utils.compat.expanduser",height=0.2,width=0.4,color="black", fillcolor="white", style="filled",URL="$d1/dbe/namespacepip_1_1__internal_1_1utils_1_1compat.html#a67193dd0e0e3b2080bba56314b610e07",tooltip=" "];
  Node1 -> Node42 [color="midnightblue",fontsize="10",style="solid",fontname="Helvetica"];
  Node42 [label="pip._internal.cli.req\l_command.RequirementCommand.trace\l_basic_info",height=0.2,width=0.4,color="black", fillcolor="white", style="filled",URL="$d4/db3/classpip_1_1__internal_1_1cli_1_1req__command_1_1_requirement_command.html#a5b36522ca6cf61e206baf9cebcdca55a",tooltip=" "];
  Node1 -> Node43 [color="midnightblue",fontsize="10",style="solid",fontname="Helvetica"];
  Node43 [label="pip._internal.utils.misc.write\l_output",height=0.2,width=0.4,color="black", fillcolor="white", style="filled",URL="$de/dc3/namespacepip_1_1__internal_1_1utils_1_1misc.html#a06fe393af56d0f157de603d406d98c29",tooltip=" "];
}
