digraph "pip._vendor.chardet.codingstatemachine.CodingStateMachine"
{
 // LATEX_PDF_SIZE
  edge [fontname="Helvetica",fontsize="10",labelfontname="Helvetica",labelfontsize="10"];
  node [fontname="Helvetica",fontsize="10",shape=record];
  Node1 [label="{pip._vendor.chardet.codingstatemachine.\lCodingStateMachine\n|+ logger\l- _model\l- _curr_byte_pos\l- _curr_char_len\l- _curr_state\l|+ __init__()\l+ reset()\l+ next_state()\l+ get_current_charlen()\l+ get_coding_state_machine()\l+ language()\l}",height=0.2,width=0.4,color="black", fillcolor="grey75", style="filled", fontcolor="black",tooltip=" "];
  Node2 -> Node1 [dir="back",color="midnightblue",fontsize="10",style="solid",arrowtail="onormal"];
  Node2 [label="{object\n||}",height=0.2,width=0.4,color="grey75", fillcolor="white", style="filled",tooltip=" "];
}
