digraph "pip._vendor.pep517._in_process._find_already_built_wheel"
{
 // LATEX_PDF_SIZE
  edge [fontname="Helvetica",fontsize="10",labelfontname="Helvetica",labelfontsize="10"];
  node [fontname="Helvetica",fontsize="10",shape=record];
  rankdir="RL";
  Node1 [label="pip._vendor.pep517.\l_in_process._find_already\l_built_wheel",height=0.2,width=0.4,color="black", fillcolor="grey75", style="filled", fontcolor="black",tooltip=" "];
  Node1 -> Node2 [dir="back",color="midnightblue",fontsize="10",style="solid"];
  Node2 [label="pip._vendor.pep517.\l_in_process.build_wheel",height=0.2,width=0.4,color="black", fillcolor="white", style="filled",URL="$d4/db8/namespacepip_1_1__vendor_1_1pep517_1_1__in__process.html#a1bc175faf696c46d5ea318da1452949f",tooltip=" "];
}
