digraph "pip._vendor.distlib.util.FileOperator.copy_file"
{
 // LATEX_PDF_SIZE
  edge [fontname="Helvetica",fontsize="10",labelfontname="Helvetica",labelfontsize="10"];
  node [fontname="Helvetica",fontsize="10",shape=record];
  rankdir="RL";
  Node1 [label="pip._vendor.distlib.util.\lFileOperator.copy_file",height=0.2,width=0.4,color="black", fillcolor="grey75", style="filled", fontcolor="black",tooltip=" "];
  Node1 -> Node2 [dir="back",color="midnightblue",fontsize="10",style="solid"];
  Node2 [label="setuptools._distutils.command.build\l_py.build_py.build_module",height=0.2,width=0.4,color="black", fillcolor="white", style="filled",URL="$dd/d1f/classsetuptools_1_1__distutils_1_1command_1_1build__py_1_1build__py.html#a21332bcead6c11a9154c5b9bea6498a5",tooltip=" "];
  Node2 -> Node3 [dir="back",color="midnightblue",fontsize="10",style="solid"];
  Node3 [label="setuptools._distutils.command.build\l_py.build_py.build_modules",height=0.2,width=0.4,color="black", fillcolor="white", style="filled",URL="$dd/d1f/classsetuptools_1_1__distutils_1_1command_1_1build__py_1_1build__py.html#aad3b8af381f4122560d0f0f3ddaf5db1",tooltip=" "];
  Node3 -> Node4 [dir="back",color="midnightblue",fontsize="10",style="solid"];
  Node4 [label="setuptools._distutils.command.build\l_py.build_py.run",height=0.2,width=0.4,color="black", fillcolor="white", style="filled",URL="$dd/d1f/classsetuptools_1_1__distutils_1_1command_1_1build__py_1_1build__py.html#a601d7d2af344082666e61130fb8a1a95",tooltip=" "];
  Node3 -> Node5 [dir="back",color="midnightblue",fontsize="10",style="solid"];
  Node5 [label="setuptools.command.build\l_py.build_py.run",height=0.2,width=0.4,color="black", fillcolor="white", style="filled",URL="$d3/dd1/classsetuptools_1_1command_1_1build__py_1_1build__py.html#a9d6ec30f78533d2d06db30903b5ffbc1",tooltip=" "];
  Node2 -> Node6 [dir="back",color="midnightblue",fontsize="10",style="solid"];
  Node6 [label="setuptools._distutils.command.build\l_py.build_py.build_packages",height=0.2,width=0.4,color="black", fillcolor="white", style="filled",URL="$dd/d1f/classsetuptools_1_1__distutils_1_1command_1_1build__py_1_1build__py.html#a2cd728de30f7224d31d8a0d0627bd039",tooltip=" "];
  Node6 -> Node4 [dir="back",color="midnightblue",fontsize="10",style="solid"];
  Node6 -> Node5 [dir="back",color="midnightblue",fontsize="10",style="solid"];
  Node1 -> Node7 [dir="back",color="midnightblue",fontsize="10",style="solid"];
  Node7 [label="setuptools._distutils.command.build\l_py.build_py.build_package_data",height=0.2,width=0.4,color="black", fillcolor="white", style="filled",URL="$dd/d1f/classsetuptools_1_1__distutils_1_1command_1_1build__py_1_1build__py.html#a07aaac20bfe1aed6206a0637ddf92a8b",tooltip=" "];
  Node7 -> Node4 [dir="back",color="midnightblue",fontsize="10",style="solid"];
  Node7 -> Node5 [dir="back",color="midnightblue",fontsize="10",style="solid"];
  Node1 -> Node8 [dir="back",color="midnightblue",fontsize="10",style="solid"];
  Node8 [label="setuptools.command.build\l_py.build_py.build_package_data",height=0.2,width=0.4,color="black", fillcolor="white", style="filled",URL="$d3/dd1/classsetuptools_1_1command_1_1build__py_1_1build__py.html#abada4e4302bf4dbdabc9b64e63f87924",tooltip=" "];
  Node8 -> Node5 [dir="back",color="midnightblue",fontsize="10",style="solid"];
  Node1 -> Node9 [dir="back",color="midnightblue",fontsize="10",style="solid"];
  Node9 [label="setuptools.command.bdist\l_egg.bdist_egg.copy_metadata_to",height=0.2,width=0.4,color="black", fillcolor="white", style="filled",URL="$da/daa/classsetuptools_1_1command_1_1bdist__egg_1_1bdist__egg.html#a35fe5f263d15d180f820c12cea33760c",tooltip=" "];
  Node1 -> Node10 [dir="back",color="midnightblue",fontsize="10",style="solid"];
  Node10 [label="setuptools._distutils.command.build\l_scripts.build_scripts.copy_scripts",height=0.2,width=0.4,color="black", fillcolor="white", style="filled",URL="$d8/d2b/classsetuptools_1_1__distutils_1_1command_1_1build__scripts_1_1build__scripts.html#abce1fbb50d4fa5a832f4241f5a452482",tooltip=" "];
  Node10 -> Node11 [dir="back",color="midnightblue",fontsize="10",style="solid"];
  Node11 [label="setuptools._distutils.command.build\l_scripts.build_scripts.run",height=0.2,width=0.4,color="black", fillcolor="white", style="filled",URL="$d8/d2b/classsetuptools_1_1__distutils_1_1command_1_1build__scripts_1_1build__scripts.html#ae4b3bc4a2e0dd39d298dab878bffa3cf",tooltip=" "];
  Node1 -> Node12 [dir="back",color="midnightblue",fontsize="10",style="solid"];
  Node12 [label="setuptools._distutils.command.sdist.sdist.make\l_release_tree",height=0.2,width=0.4,color="black", fillcolor="white", style="filled",URL="$d1/dd7/classsetuptools_1_1__distutils_1_1command_1_1sdist_1_1sdist.html#a124114db5167df9b9530789bc8d6386e",tooltip=" "];
  Node12 -> Node13 [dir="back",color="midnightblue",fontsize="10",style="solid"];
  Node13 [label="setuptools._distutils.command.sdist.sdist.make\l_distribution",height=0.2,width=0.4,color="black", fillcolor="white", style="filled",URL="$d1/dd7/classsetuptools_1_1__distutils_1_1command_1_1sdist_1_1sdist.html#ab640b8df57981d192ceeee9100e34c86",tooltip=" "];
  Node1 -> Node14 [dir="back",color="midnightblue",fontsize="10",style="solid"];
  Node14 [label="setuptools.command.sdist.sdist.make\l_release_tree",height=0.2,width=0.4,color="black", fillcolor="white", style="filled",URL="$de/d02/classsetuptools_1_1command_1_1sdist_1_1sdist.html#ad498b313d40b183b6edb6e66956dbf0b",tooltip=" "];
  Node1 -> Node15 [dir="back",color="midnightblue",fontsize="10",style="solid"];
  Node15 [label="setuptools._distutils.command.bdist\l_rpm.bdist_rpm.run",height=0.2,width=0.4,color="black", fillcolor="white", style="filled",URL="$d7/d13/classsetuptools_1_1__distutils_1_1command_1_1bdist__rpm_1_1bdist__rpm.html#a35e31868300bbdbbf0bf38d2e3abb103",tooltip=" "];
  Node1 -> Node16 [dir="back",color="midnightblue",fontsize="10",style="solid"];
  Node16 [label="setuptools._distutils.command.install\l_data.install_data.run",height=0.2,width=0.4,color="black", fillcolor="white", style="filled",URL="$d7/d75/classsetuptools_1_1__distutils_1_1command_1_1install__data_1_1install__data.html#a9f01aae358d140440d2b962ca9dc46ea",tooltip=" "];
  Node1 -> Node17 [dir="back",color="midnightblue",fontsize="10",style="solid"];
  Node17 [label="setuptools._distutils.command.install\l_headers.install_headers.run",height=0.2,width=0.4,color="black", fillcolor="white", style="filled",URL="$df/d4c/classsetuptools_1_1__distutils_1_1command_1_1install__headers_1_1install__headers.html#a64569e2a6cdf961fe34710e5dc7071fc",tooltip=" "];
}
