digraph "pip._vendor.distlib.util.FileOperator.copy_stream"
{
 // LATEX_PDF_SIZE
  edge [fontname="Helvetica",fontsize="10",labelfontname="Helvetica",labelfontsize="10"];
  node [fontname="Helvetica",fontsize="10",shape=record];
  rankdir="LR";
  Node1 [label="pip._vendor.distlib.util.\lFileOperator.copy_stream",height=0.2,width=0.4,color="black", fillcolor="grey75", style="filled", fontcolor="black",tooltip=" "];
  Node1 -> Node2 [color="midnightblue",fontsize="10",style="solid"];
  Node2 [label="pip._vendor.distlib.util.\lFileOperator.ensure_dir",height=0.2,width=0.4,color="black", fillcolor="white", style="filled",URL="$d9/db3/classpip_1_1__vendor_1_1distlib_1_1util_1_1_file_operator.html#a8120aac76979a816cab95f1590e5c4f3",tooltip=" "];
  Node2 -> Node2 [color="midnightblue",fontsize="10",style="solid"];
  Node1 -> Node3 [color="midnightblue",fontsize="10",style="solid"];
  Node3 [label="pip._vendor.distlib.util.\lFileOperator.record_as\l_written",height=0.2,width=0.4,color="black", fillcolor="white", style="filled",URL="$d9/db3/classpip_1_1__vendor_1_1distlib_1_1util_1_1_file_operator.html#a90b884b39270a7e8f4dd5194ad2c103c",tooltip=" "];
}
