digraph "pip._vendor.distlib.util.FileOperator.commit"
{
 // LATEX_PDF_SIZE
  edge [fontname="Helvetica",fontsize="10",labelfontname="Helvetica",labelfontsize="10"];
  node [fontname="Helvetica",fontsize="10",shape=record];
  rankdir="LR";
  Node1 [label="pip._vendor.distlib.util.\lFileOperator.commit",height=0.2,width=0.4,color="black", fillcolor="grey75", style="filled", fontcolor="black",tooltip=" "];
  Node1 -> Node2 [color="midnightblue",fontsize="10",style="solid"];
  Node2 [label="pip._vendor.distlib.util.\lFileOperator._init_record",height=0.2,width=0.4,color="black", fillcolor="white", style="filled",URL="$d9/db3/classpip_1_1__vendor_1_1distlib_1_1util_1_1_file_operator.html#a28b51de04be41ad25c6da123422ab5ab",tooltip=" "];
}
