digraph "pip._vendor.distro.info"
{
 // LATEX_PDF_SIZE
  edge [fontname="Helvetica",fontsize="10",labelfontname="Helvetica",labelfontsize="10"];
  node [fontname="Helvetica",fontsize="10",shape=record];
  rankdir="RL";
  Node1 [label="pip._vendor.distro.info",height=0.2,width=0.4,color="black", fillcolor="grey75", style="filled", fontcolor="black",tooltip=" "];
  Node1 -> Node2 [dir="back",color="midnightblue",fontsize="10",style="solid"];
  Node2 [label="pip._vendor.distro.main",height=0.2,width=0.4,color="black", fillcolor="white", style="filled",URL="$d3/d87/namespacepip_1_1__vendor_1_1distro.html#a404765c670d873a51a423c0105907ad2",tooltip=" "];
}
