digraph "pip._vendor.html5lib._inputstream.lookupEncoding"
{
 // LATEX_PDF_SIZE
  edge [fontname="Helvetica",fontsize="10",labelfontname="Helvetica",labelfontsize="10"];
  node [fontname="Helvetica",fontsize="10",shape=record];
  rankdir="RL";
  Node1 [label="pip._vendor.html5lib.\l_inputstream.lookupEncoding",height=0.2,width=0.4,color="black", fillcolor="grey75", style="filled", fontcolor="black",tooltip=" "];
  Node1 -> Node2 [dir="back",color="midnightblue",fontsize="10",style="solid"];
  Node2 [label="pip._vendor.html5lib.\l_inputstream.HTMLBinaryInput\lStream.changeEncoding",height=0.2,width=0.4,color="black", fillcolor="white", style="filled",URL="$dc/db5/classpip_1_1__vendor_1_1html5lib_1_1__inputstream_1_1_h_t_m_l_binary_input_stream.html#a137e8842958cefcbcc82a32fac1103af",tooltip=" "];
  Node1 -> Node3 [dir="back",color="midnightblue",fontsize="10",style="solid"];
  Node3 [label="pip._vendor.html5lib.\l_inputstream.HTMLBinaryInput\lStream.detectBOM",height=0.2,width=0.4,color="black", fillcolor="white", style="filled",URL="$dc/db5/classpip_1_1__vendor_1_1html5lib_1_1__inputstream_1_1_h_t_m_l_binary_input_stream.html#a7c1a5c5e46131f40683e97bc5b59ceb6",tooltip=" "];
  Node3 -> Node4 [dir="back",color="midnightblue",fontsize="10",style="solid"];
  Node4 [label="pip._vendor.html5lib.\l_inputstream.HTMLBinaryInput\lStream.determineEncoding",height=0.2,width=0.4,color="black", fillcolor="white", style="filled",URL="$dc/db5/classpip_1_1__vendor_1_1html5lib_1_1__inputstream_1_1_h_t_m_l_binary_input_stream.html#a50f4ba39aaf985a0016c6bc4b0043f5f",tooltip=" "];
  Node1 -> Node5 [dir="back",color="midnightblue",fontsize="10",style="solid"];
  Node5 [label="pip._vendor.html5lib.\l_inputstream.HTMLBinaryInput\lStream.detectEncodingMeta",height=0.2,width=0.4,color="black", fillcolor="white", style="filled",URL="$dc/db5/classpip_1_1__vendor_1_1html5lib_1_1__inputstream_1_1_h_t_m_l_binary_input_stream.html#a5e7df8e04917a641abe92fcb3564fb89",tooltip=" "];
  Node5 -> Node4 [dir="back",color="midnightblue",fontsize="10",style="solid"];
  Node1 -> Node4 [dir="back",color="midnightblue",fontsize="10",style="solid"];
  Node1 -> Node6 [dir="back",color="midnightblue",fontsize="10",style="solid"];
  Node6 [label="pip._vendor.html5lib.\l_inputstream.EncodingParser.handleMeta",height=0.2,width=0.4,color="black", fillcolor="white", style="filled",URL="$d5/d4d/classpip_1_1__vendor_1_1html5lib_1_1__inputstream_1_1_encoding_parser.html#ad53d84ecda3a740a1d01ea3a48053ef2",tooltip=" "];
  Node6 -> Node7 [dir="back",color="midnightblue",fontsize="10",style="solid"];
  Node7 [label="pip._vendor.html5lib.\l_inputstream.EncodingParser.get\lEncoding",height=0.2,width=0.4,color="black", fillcolor="white", style="filled",URL="$d5/d4d/classpip_1_1__vendor_1_1html5lib_1_1__inputstream_1_1_encoding_parser.html#aab9a865ddddd92e25a662fe8e622ca64",tooltip=" "];
}
