digraph "pip._internal.utils.glibc.libc_ver"
{
 // LATEX_PDF_SIZE
  edge [fontname="Helvetica",fontsize="10",labelfontname="Helvetica",labelfontsize="10"];
  node [fontname="Helvetica",fontsize="10",shape=record];
  rankdir="LR";
  Node1 [label="pip._internal.utils.glibc.libc_ver",height=0.2,width=0.4,color="black", fillcolor="grey75", style="filled", fontcolor="black",tooltip=" "];
  Node1 -> Node2 [color="midnightblue",fontsize="10",style="solid",fontname="Helvetica"];
  Node2 [label="pip._internal.utils.glibc.glibc\l_version_string",height=0.2,width=0.4,color="black", fillcolor="white", style="filled",URL="$dd/d38/namespacepip_1_1__internal_1_1utils_1_1glibc.html#a8f1d27a82a054b39a13249eb48d2c9e9",tooltip=" "];
  Node2 -> Node3 [color="midnightblue",fontsize="10",style="solid",fontname="Helvetica"];
  Node3 [label="pip._internal.utils.glibc.glibc\l_version_string_confstr",height=0.2,width=0.4,color="black", fillcolor="white", style="filled",URL="$dd/d38/namespacepip_1_1__internal_1_1utils_1_1glibc.html#a3fb841b8bc926a138c236e0de6c4e317",tooltip=" "];
  Node2 -> Node4 [color="midnightblue",fontsize="10",style="solid",fontname="Helvetica"];
  Node4 [label="pip._internal.utils.glibc.glibc\l_version_string_ctypes",height=0.2,width=0.4,color="black", fillcolor="white", style="filled",URL="$dd/d38/namespacepip_1_1__internal_1_1utils_1_1glibc.html#a782095241f5e1b12ffdb9ab7eeb4df79",tooltip=" "];
}
