digraph "pip._internal.vcs.versioncontrol.VersionControl"
{
 // LATEX_PDF_SIZE
  edge [fontname="Helvetica",fontsize="10",labelfontname="Helvetica",labelfontsize="10"];
  node [fontname="Helvetica",fontsize="10",shape=record];
  Node1 [label="{pip._internal.vcs.versioncontrol.\lVersionControl\n|+ name\l+ dirname\l+ repo_name\l+ schemes\l+ unset_environ\l+ default_arg_rev\l|+ should_add_vcs_url\l_prefix()\l+ get_subdirectory()\l+ get_requirement_revision()\l+ get_src_requirement()\l+ is_immutable_rev_checkout()\l+ make_rev_options()\l+ export()\l+ get_netloc_and_auth()\l+ get_url_rev_and_auth()\l+ get_url_rev_options()\land 12 more...\l+ get_base_rev_args()\l+ make_rev_args()\l+ normalize_url()\l- _is_local_repository()\l}",height=0.2,width=0.4,color="black", fillcolor="grey75", style="filled", fontcolor="black",tooltip=" "];
  Node2 -> Node1 [dir="back",color="midnightblue",fontsize="10",style="solid",arrowtail="onormal"];
  Node2 [label="{object\n||}",height=0.2,width=0.4,color="grey75", fillcolor="white", style="filled",tooltip=" "];
  Node1 -> Node3 [dir="back",color="midnightblue",fontsize="10",style="solid",arrowtail="onormal"];
  Node3 [label="{pip._internal.vcs.bazaar.\lBazaar\n|+ name\l+ dirname\l+ repo_name\l+ schemes\l|+ __init__()\l+ export()\l+ fetch_new()\l+ switch()\l+ update()\l+ get_url_rev_and_auth()\l+ get_remote_url()\l+ get_revision()\l+ is_commit_id_equal()\l+ get_base_rev_args()\l}",height=0.2,width=0.4,color="black", fillcolor="white", style="filled",URL="$d6/de7/classpip_1_1__internal_1_1vcs_1_1bazaar_1_1_bazaar.html",tooltip=" "];
  Node1 -> Node4 [dir="back",color="midnightblue",fontsize="10",style="solid",arrowtail="onormal"];
  Node4 [label="{pip._internal.vcs.git.Git\n|+ name\l+ dirname\l+ repo_name\l+ schemes\l+ unset_environ\l+ default_arg_rev\l|+ is_immutable_rev_checkout()\l+ get_git_version()\l+ get_current_branch()\l+ export()\l+ get_revision_sha()\l+ resolve_revision()\l+ is_commit_id_equal()\l+ fetch_new()\l+ switch()\l+ update()\land 6 more...\l+ get_base_rev_args()\l}",height=0.2,width=0.4,color="black", fillcolor="white", style="filled",URL="$d8/d4d/classpip_1_1__internal_1_1vcs_1_1git_1_1_git.html",tooltip=" "];
  Node1 -> Node5 [dir="back",color="midnightblue",fontsize="10",style="solid",arrowtail="onormal"];
  Node5 [label="{pip._internal.vcs.mercurial.\lMercurial\n|+ name\l+ dirname\l+ repo_name\l+ schemes\l|+ export()\l+ fetch_new()\l+ switch()\l+ update()\l+ get_remote_url()\l+ get_revision()\l+ get_requirement_revision()\l+ is_commit_id_equal()\l+ get_subdirectory()\l+ get_repository_root()\l+ get_base_rev_args()\l}",height=0.2,width=0.4,color="black", fillcolor="white", style="filled",URL="$db/da0/classpip_1_1__internal_1_1vcs_1_1mercurial_1_1_mercurial.html",tooltip=" "];
  Node1 -> Node6 [dir="back",color="midnightblue",fontsize="10",style="solid",arrowtail="onormal"];
  Node6 [label="{pip._internal.vcs.subversion.\lSubversion\n|+ use_interactive\l+ name\l+ dirname\l+ repo_name\l+ schemes\l- _vcs_version\l|+ should_add_vcs_url\l_prefix()\l+ get_revision()\l+ get_netloc_and_auth()\l+ get_url_rev_and_auth()\l+ get_remote_url()\l+ is_commit_id_equal()\l+ __init__()\l+ call_vcs_version()\l+ get_vcs_version()\l+ get_remote_call_options()\l+ export()\l+ fetch_new()\l+ switch()\l+ update()\l+ get_base_rev_args()\l+ make_rev_args()\l- _get_svn_url_rev()\l}",height=0.2,width=0.4,color="black", fillcolor="white", style="filled",URL="$d2/db0/classpip_1_1__internal_1_1vcs_1_1subversion_1_1_subversion.html",tooltip=" "];
}
