digraph "pip._vendor.progress.bar.FillingSquaresBar"
{
 // LATEX_PDF_SIZE
  edge [fontname="Helvetica",fontsize="10",labelfontname="Helvetica",labelfontsize="10"];
  node [fontname="Helvetica",fontsize="10",shape=record];
  Node1 [label="{pip._vendor.progress.bar.\lFillingSquaresBar\n|+ empty_fill\l+ fill\l|}",height=0.2,width=0.4,color="black", fillcolor="grey75", style="filled", fontcolor="black",tooltip=" "];
  Node2 -> Node1 [dir="back",color="midnightblue",fontsize="10",style="solid",arrowtail="onormal"];
  Node2 [label="{pip._vendor.progress.bar.\lChargingBar\n|+ suffix\l+ bar_prefix\l+ bar_suffix\l+ empty_fill\l+ fill\l|}",height=0.2,width=0.4,color="black", fillcolor="white", style="filled",URL="$de/d81/classpip_1_1__vendor_1_1progress_1_1bar_1_1_charging_bar.html",tooltip=" "];
  Node3 -> Node2 [dir="back",color="midnightblue",fontsize="10",style="solid",arrowtail="onormal"];
  Node3 [label="{pip._vendor.progress.bar.Bar\n|+ width\l+ suffix\l+ bar_prefix\l+ bar_suffix\l+ empty_fill\l+ fill\l|+ update()\l}",height=0.2,width=0.4,color="black", fillcolor="white", style="filled",URL="$d4/ddf/classpip_1_1__vendor_1_1progress_1_1bar_1_1_bar.html",tooltip=" "];
  Node4 -> Node3 [dir="back",color="midnightblue",fontsize="10",style="solid",arrowtail="onormal"];
  Node4 [label="{Progress\n||}",height=0.2,width=0.4,color="grey75", fillcolor="white", style="filled",tooltip=" "];
}
