digraph "pip._internal.cli.req_command.SessionCommandMixin"
{
 // LATEX_PDF_SIZE
  edge [fontname="Helvetica",fontsize="10",labelfontname="Helvetica",labelfontsize="10"];
  node [fontname="Helvetica",fontsize="10",shape=record];
  Node1 [label="{pip._internal.cli.req\l_command.SessionCommandMixin\n|- _session\l|+ __init__()\l+ get_default_session()\l- _get_index_urls()\l- _build_session()\l}",height=0.2,width=0.4,color="black", fillcolor="grey75", style="filled", fontcolor="black",tooltip=" "];
  Node2 -> Node1 [dir="back",color="midnightblue",fontsize="10",style="solid",arrowtail="onormal",fontname="Helvetica"];
  Node2 [label="{pip._internal.cli.command\l_context.CommandContextMixIn\n|- _in_main_context\l- _main_context\l|+ __init__()\l+ main_context()\l+ enter_context()\l}",height=0.2,width=0.4,color="black", fillcolor="white", style="filled",URL="$d4/d41/classpip_1_1__internal_1_1cli_1_1command__context_1_1_command_context_mix_in.html",tooltip=" "];
  Node3 -> Node2 [dir="back",color="midnightblue",fontsize="10",style="solid",arrowtail="onormal",fontname="Helvetica"];
  Node3 [label="{object\n||}",height=0.2,width=0.4,color="grey75", fillcolor="white", style="filled",tooltip=" "];
}
