digraph "pip._vendor.colorama.ansi.AnsiStyle"
{
 // LATEX_PDF_SIZE
  edge [fontname="Helvetica",fontsize="10",labelfontname="Helvetica",labelfontsize="10"];
  node [fontname="Helvetica",fontsize="10",shape=record];
  Node1 [label="{pip._vendor.colorama.ansi.\lAnsiStyle\n|+ BRIGHT\l+ DIM\l+ NORMAL\l+ RESET_ALL\l|}",height=0.2,width=0.4,color="black", fillcolor="grey75", style="filled", fontcolor="black",tooltip=" "];
  Node2 -> Node1 [dir="back",color="midnightblue",fontsize="10",style="solid",arrowtail="onormal"];
  Node2 [label="{pip._vendor.colorama.ansi.\lAnsiCodes\n||+ __init__()\l}",height=0.2,width=0.4,color="black", fillcolor="white", style="filled",URL="$da/d84/classpip_1_1__vendor_1_1colorama_1_1ansi_1_1_ansi_codes.html",tooltip=" "];
  Node3 -> Node2 [dir="back",color="midnightblue",fontsize="10",style="solid",arrowtail="onormal"];
  Node3 [label="{object\n||}",height=0.2,width=0.4,color="grey75", fillcolor="white", style="filled",tooltip=" "];
}
