digraph "pip._vendor.packaging.tags._platform_tags"
{
 // LATEX_PDF_SIZE
  edge [fontname="Helvetica",fontsize="10",labelfontname="Helvetica",labelfontsize="10"];
  node [fontname="Helvetica",fontsize="10",shape=record];
  rankdir="RL";
  Node1 [label="pip._vendor.packaging.tags.\l_platform_tags",height=0.2,width=0.4,color="black", fillcolor="grey75", style="filled", fontcolor="black",tooltip=" "];
  Node1 -> Node2 [dir="back",color="midnightblue",fontsize="10",style="solid"];
  Node2 [label="pip._vendor.packaging.tags.compatible_tags",height=0.2,width=0.4,color="black", fillcolor="white", style="filled",URL="$da/df2/namespacepip_1_1__vendor_1_1packaging_1_1tags.html#ae4de41d12c281e779e13f673f0b95643",tooltip=" "];
  Node2 -> Node3 [dir="back",color="midnightblue",fontsize="10",style="solid"];
  Node3 [label="pip._vendor.packaging.tags.sys_tags",height=0.2,width=0.4,color="black", fillcolor="white", style="filled",URL="$da/df2/namespacepip_1_1__vendor_1_1packaging_1_1tags.html#a6c3133a19f6dbe00edca193287622b85",tooltip=" "];
  Node3 -> Node4 [dir="back",color="midnightblue",fontsize="10",style="solid"];
  Node4 [label="setuptools.wheel.Wheel.is\l_compatible",height=0.2,width=0.4,color="black", fillcolor="white", style="filled",URL="$d8/de5/classsetuptools_1_1wheel_1_1_wheel.html#aa3b52caa6023c95670ac3bdb3d730c2c",tooltip=" "];
  Node1 -> Node5 [dir="back",color="midnightblue",fontsize="10",style="solid"];
  Node5 [label="pip._vendor.packaging.tags.cpython_tags",height=0.2,width=0.4,color="black", fillcolor="white", style="filled",URL="$da/df2/namespacepip_1_1__vendor_1_1packaging_1_1tags.html#ac0d9e648748bbcb11e042ab23c7344b2",tooltip=" "];
  Node5 -> Node6 [dir="back",color="midnightblue",fontsize="10",style="solid"];
  Node6 [label="pip._internal.utils.compatibility\l_tags.get_supported",height=0.2,width=0.4,color="black", fillcolor="white", style="filled",URL="$d8/d94/namespacepip_1_1__internal_1_1utils_1_1compatibility__tags.html#a39be260d2d9d634f84765647432312be",tooltip=" "];
  Node6 -> Node7 [dir="back",color="midnightblue",fontsize="10",style="solid"];
  Node7 [label="pip._internal.resolution.legacy.resolver.\lResolver._populate_link",height=0.2,width=0.4,color="black", fillcolor="white", style="filled",URL="$db/d5b/classpip_1_1__internal_1_1resolution_1_1legacy_1_1resolver_1_1_resolver.html#a90d1c56ba0c19402cb9caa7d24f7bafa",tooltip=" "];
  Node7 -> Node8 [dir="back",color="midnightblue",fontsize="10",style="solid"];
  Node8 [label="pip._internal.resolution.legacy.resolver.\lResolver._get_abstract_dist_for",height=0.2,width=0.4,color="black", fillcolor="white", style="filled",URL="$db/d5b/classpip_1_1__internal_1_1resolution_1_1legacy_1_1resolver_1_1_resolver.html#a39041281732807e110466b3db232eb24",tooltip=" "];
  Node8 -> Node9 [dir="back",color="midnightblue",fontsize="10",style="solid"];
  Node9 [label="pip._internal.resolution.legacy.resolver.\lResolver._resolve_one",height=0.2,width=0.4,color="black", fillcolor="white", style="filled",URL="$db/d5b/classpip_1_1__internal_1_1resolution_1_1legacy_1_1resolver_1_1_resolver.html#a5058b440022bccc6a3b12041b562a323",tooltip=" "];
  Node9 -> Node10 [dir="back",color="midnightblue",fontsize="10",style="solid"];
  Node10 [label="pip._internal.resolution.legacy.resolver.\lResolver.resolve",height=0.2,width=0.4,color="black", fillcolor="white", style="filled",URL="$db/d5b/classpip_1_1__internal_1_1resolution_1_1legacy_1_1resolver_1_1_resolver.html#a1321882f40c26aa4b44a693b4be74ae2",tooltip=" "];
  Node10 -> Node11 [dir="back",color="midnightblue",fontsize="10",style="solid"];
  Node11 [label="pip._vendor.distlib.compat.\lBaseConfigurator.configure_custom",height=0.2,width=0.4,color="black", fillcolor="white", style="filled",URL="$dc/d1f/classpip_1_1__vendor_1_1distlib_1_1compat_1_1_base_configurator.html#a413001393d55f20868bf168573a1ff1d",tooltip=" "];
  Node11 -> Node12 [dir="back",color="midnightblue",fontsize="10",style="solid"];
  Node12 [label="pip._vendor.distlib.util.\lConfigurator.__getitem__",height=0.2,width=0.4,color="black", fillcolor="white", style="filled",URL="$db/d94/classpip_1_1__vendor_1_1distlib_1_1util_1_1_configurator.html#a3ff695c0521e0edb863bb8e6737adc75",tooltip=" "];
  Node11 -> Node13 [dir="back",color="midnightblue",fontsize="10",style="solid"];
  Node13 [label="pip._vendor.distlib.util.\lConfigurator.configure_custom",height=0.2,width=0.4,color="black", fillcolor="white", style="filled",URL="$db/d94/classpip_1_1__vendor_1_1distlib_1_1util_1_1_configurator.html#a0d009327a85c6a6843254c1f00907b99",tooltip=" "];
  Node10 -> Node13 [dir="back",color="midnightblue",fontsize="10",style="solid"];
  Node10 -> Node14 [dir="back",color="midnightblue",fontsize="10",style="solid"];
  Node14 [label="pip._vendor.distlib.compat.\lBaseConfigurator.ext_convert",height=0.2,width=0.4,color="black", fillcolor="white", style="filled",URL="$dc/d1f/classpip_1_1__vendor_1_1distlib_1_1compat_1_1_base_configurator.html#a99583d9b1713e0e7ed6f5e6024f6146c",tooltip=" "];
  Node10 -> Node15 [dir="back",color="midnightblue",fontsize="10",style="solid"];
  Node15 [label="pip._vendor.pkg_resources.\lEntryPoint.load",height=0.2,width=0.4,color="black", fillcolor="white", style="filled",URL="$dc/d51/classpip_1_1__vendor_1_1pkg__resources_1_1_entry_point.html#a1dc35c835e4f04102cf03311a85282cf",tooltip=" "];
  Node10 -> Node16 [dir="back",color="midnightblue",fontsize="10",style="solid"];
  Node16 [label="pkg_resources.EntryPoint.load",height=0.2,width=0.4,color="black", fillcolor="white", style="filled",URL="$de/dfa/classpkg__resources_1_1_entry_point.html#aca40d6504feabd38a326c0d6f51ecb6a",tooltip=" "];
  Node10 -> Node17 [dir="back",color="midnightblue",fontsize="10",style="solid"];
  Node17 [label="pip._vendor.pkg_resources.\lWorkingSet.require",height=0.2,width=0.4,color="black", fillcolor="white", style="filled",URL="$da/d4f/classpip_1_1__vendor_1_1pkg__resources_1_1_working_set.html#a3e06498f30579d47e25fffe036206a80",tooltip=" "];
  Node17 -> Node15 [dir="back",color="midnightblue",fontsize="10",style="solid"];
  Node17 -> Node16 [dir="back",color="midnightblue",fontsize="10",style="solid"];
  Node17 -> Node18 [dir="back",color="midnightblue",fontsize="10",style="solid"];
  Node18 [label="pip._vendor.pkg_resources.\lWorkingSet.run_script",height=0.2,width=0.4,color="black", fillcolor="white", style="filled",URL="$da/d4f/classpip_1_1__vendor_1_1pkg__resources_1_1_working_set.html#a64f8503c4eb0c05db9faf1bc62c1a21f",tooltip=" "];
  Node17 -> Node19 [dir="back",color="midnightblue",fontsize="10",style="solid"];
  Node19 [label="pkg_resources.WorkingSet.run\l_script",height=0.2,width=0.4,color="black", fillcolor="white", style="filled",URL="$d5/d96/classpkg__resources_1_1_working_set.html#ab2b93a4b8818042f319d7f9d7d2884bf",tooltip=" "];
  Node10 -> Node20 [dir="back",color="midnightblue",fontsize="10",style="solid"];
  Node20 [label="pkg_resources.WorkingSet.require",height=0.2,width=0.4,color="black", fillcolor="white", style="filled",URL="$d5/d96/classpkg__resources_1_1_working_set.html#a335262cb577b8fa37a8fa92cff024cf9",tooltip=" "];
  Node20 -> Node16 [dir="back",color="midnightblue",fontsize="10",style="solid"];
  Node20 -> Node19 [dir="back",color="midnightblue",fontsize="10",style="solid"];
  Node6 -> Node21 [dir="back",color="midnightblue",fontsize="10",style="solid"];
  Node21 [label="pip._internal.models.target\l_python.TargetPython.get_tags",height=0.2,width=0.4,color="black", fillcolor="white", style="filled",URL="$db/d1c/classpip_1_1__internal_1_1models_1_1target__python_1_1_target_python.html#a03f74edf70da08177b563c742106b510",tooltip=" "];
  Node6 -> Node22 [dir="back",color="midnightblue",fontsize="10",style="solid"];
  Node22 [label="pip._internal.resolution.resolvelib.factory.\lFactory.get_wheel_cache_entry",height=0.2,width=0.4,color="black", fillcolor="white", style="filled",URL="$dc/d3c/classpip_1_1__internal_1_1resolution_1_1resolvelib_1_1factory_1_1_factory.html#a77afd551b75bb736c558265dd63b4e64",tooltip=" "];
  Node5 -> Node3 [dir="back",color="midnightblue",fontsize="10",style="solid"];
  Node1 -> Node23 [dir="back",color="midnightblue",fontsize="10",style="solid"];
  Node23 [label="pip._vendor.packaging.tags.generic_tags",height=0.2,width=0.4,color="black", fillcolor="white", style="filled",URL="$da/df2/namespacepip_1_1__vendor_1_1packaging_1_1tags.html#aa250d83af846ba22a8c2259a8968f84f",tooltip=" "];
  Node23 -> Node6 [dir="back",color="midnightblue",fontsize="10",style="solid"];
  Node23 -> Node3 [dir="back",color="midnightblue",fontsize="10",style="solid"];
}
