digraph "pip._vendor.distlib.metadata._version2fieldlist"
{
 // LATEX_PDF_SIZE
  edge [fontname="Helvetica",fontsize="10",labelfontname="Helvetica",labelfontsize="10"];
  node [fontname="Helvetica",fontsize="10",shape=record];
  rankdir="RL";
  Node1 [label="pip._vendor.distlib.metadata.\l_version2fieldlist",height=0.2,width=0.4,color="black", fillcolor="grey75", style="filled", fontcolor="black",tooltip=" "];
  Node1 -> Node2 [dir="back",color="midnightblue",fontsize="10",style="solid"];
  Node2 [label="pip._vendor.distlib.metadata.\lLegacyMetadata.keys",height=0.2,width=0.4,color="black", fillcolor="white", style="filled",URL="$d3/dc5/classpip_1_1__vendor_1_1distlib_1_1metadata_1_1_legacy_metadata.html#ab0e7a14456749f1859007eaa600fd938",tooltip=" "];
  Node2 -> Node3 [dir="back",color="midnightblue",fontsize="10",style="solid"];
  Node3 [label="pip._vendor.distlib.metadata.\lLegacyMetadata.__iter__",height=0.2,width=0.4,color="black", fillcolor="white", style="filled",URL="$d3/dc5/classpip_1_1__vendor_1_1distlib_1_1metadata_1_1_legacy_metadata.html#a3107bd40ea8767d920f542d9a337b0c1",tooltip=" "];
  Node2 -> Node4 [dir="back",color="midnightblue",fontsize="10",style="solid"];
  Node4 [label="pip._vendor.html5lib.\l_trie._base.Trie.has\l_keys_with_prefix",height=0.2,width=0.4,color="black", fillcolor="white", style="filled",URL="$da/d41/classpip_1_1__vendor_1_1html5lib_1_1__trie_1_1__base_1_1_trie.html#ae9c2359ca607b05a8b969f07ca7df667",tooltip=" "];
  Node4 -> Node5 [dir="back",color="midnightblue",fontsize="10",style="solid"];
  Node5 [label="pip._vendor.html5lib.\l_trie.py.Trie.has_keys\l_with_prefix",height=0.2,width=0.4,color="black", fillcolor="white", style="filled",URL="$d7/dbd/classpip_1_1__vendor_1_1html5lib_1_1__trie_1_1py_1_1_trie.html#ac90aa181903278951be56c097398145d",tooltip=" "];
  Node2 -> Node6 [dir="back",color="midnightblue",fontsize="10",style="solid"];
  Node6 [label="pip._vendor.distlib.metadata.\lLegacyMetadata.items",height=0.2,width=0.4,color="black", fillcolor="white", style="filled",URL="$d3/dc5/classpip_1_1__vendor_1_1distlib_1_1metadata_1_1_legacy_metadata.html#ad75ade4c3fcb143145f1e75dcb2b691d",tooltip=" "];
  Node6 -> Node7 [dir="back",color="midnightblue",fontsize="10",style="solid"];
  Node7 [label="pip._vendor.requests.structures.\lCaseInsensitiveDict.__repr__",height=0.2,width=0.4,color="black", fillcolor="white", style="filled",URL="$d3/de3/classpip_1_1__vendor_1_1requests_1_1structures_1_1_case_insensitive_dict.html#ae73d2c83e34d03369e5bbe0cc16b3115",tooltip=" "];
  Node2 -> Node8 [dir="back",color="midnightblue",fontsize="10",style="solid"];
  Node8 [label="pip._vendor.distlib.metadata.\lLegacyMetadata.values",height=0.2,width=0.4,color="black", fillcolor="white", style="filled",URL="$d3/dc5/classpip_1_1__vendor_1_1distlib_1_1metadata_1_1_legacy_metadata.html#a16fbb10c4986368f35f737299db137d2",tooltip=" "];
  Node1 -> Node9 [dir="back",color="midnightblue",fontsize="10",style="solid"];
  Node9 [label="pip._vendor.distlib.metadata.\lLegacyMetadata.todict",height=0.2,width=0.4,color="black", fillcolor="white", style="filled",URL="$d3/dc5/classpip_1_1__vendor_1_1distlib_1_1metadata_1_1_legacy_metadata.html#a536602a48821bb0182c5425f86f1116d",tooltip=" "];
  Node1 -> Node10 [dir="back",color="midnightblue",fontsize="10",style="solid"];
  Node10 [label="pip._vendor.distlib.metadata.\lLegacyMetadata.write_file",height=0.2,width=0.4,color="black", fillcolor="white", style="filled",URL="$d3/dc5/classpip_1_1__vendor_1_1distlib_1_1metadata_1_1_legacy_metadata.html#aa033975ed8087aaf281be90f828a4faa",tooltip=" "];
  Node10 -> Node11 [dir="back",color="midnightblue",fontsize="10",style="solid"];
  Node11 [label="pip._vendor.distlib.metadata.\lLegacyMetadata.write",height=0.2,width=0.4,color="black", fillcolor="white", style="filled",URL="$d3/dc5/classpip_1_1__vendor_1_1distlib_1_1metadata_1_1_legacy_metadata.html#a6b21f09baf95f38b5c15ed3cfb6d28a2",tooltip=" "];
  Node11 -> Node12 [dir="back",color="midnightblue",fontsize="10",style="solid"];
  Node12 [label="pip._vendor.progress.counter.\lCounter.update",height=0.2,width=0.4,color="black", fillcolor="white", style="filled",URL="$d6/dbf/classpip_1_1__vendor_1_1progress_1_1counter_1_1_counter.html#a66bd8824561e1565e96015dbddb60366",tooltip=" "];
  Node11 -> Node13 [dir="back",color="midnightblue",fontsize="10",style="solid"];
  Node13 [label="pip._vendor.progress.counter.\lCountdown.update",height=0.2,width=0.4,color="black", fillcolor="white", style="filled",URL="$dd/d0f/classpip_1_1__vendor_1_1progress_1_1counter_1_1_countdown.html#a3488ef039b3b0f97853fdde0560f2749",tooltip=" "];
  Node11 -> Node14 [dir="back",color="midnightblue",fontsize="10",style="solid"];
  Node14 [label="pip._vendor.progress.counter.\lStack.update",height=0.2,width=0.4,color="black", fillcolor="white", style="filled",URL="$db/db4/classpip_1_1__vendor_1_1progress_1_1counter_1_1_stack.html#af271659d85b633bbd2954fba09b3371f",tooltip=" "];
  Node11 -> Node15 [dir="back",color="midnightblue",fontsize="10",style="solid"];
  Node15 [label="pip._vendor.progress.spinner.\lSpinner.update",height=0.2,width=0.4,color="black", fillcolor="white", style="filled",URL="$d0/d7f/classpip_1_1__vendor_1_1progress_1_1spinner_1_1_spinner.html#a5e5421b479c8ef4e38b3e0398eee8595",tooltip=" "];
  Node11 -> Node16 [dir="back",color="midnightblue",fontsize="10",style="solid"];
  Node16 [label="wheel.wheelfile.WheelFile.write\l_files",height=0.2,width=0.4,color="black", fillcolor="white", style="filled",URL="$dd/da0/classwheel_1_1wheelfile_1_1_wheel_file.html#a69ab05d387028873a52916edac00b2a8",tooltip=" "];
  Node10 -> Node17 [dir="back",color="midnightblue",fontsize="10",style="solid"];
  Node17 [label="setuptools.command.egg\l_info.egg_info.write_or\l_delete_file",height=0.2,width=0.4,color="black", fillcolor="white", style="filled",URL="$d4/dd5/classsetuptools_1_1command_1_1egg__info_1_1egg__info.html#af70ce31ed5b38118ad41b3899f56f9b8",tooltip=" "];
}
