digraph "pip._vendor.html5lib.treewalkers.etree_lxml.Root"
{
 // LATEX_PDF_SIZE
  edge [fontname="Helvetica",fontsize="10",labelfontname="Helvetica",labelfontsize="10"];
  node [fontname="Helvetica",fontsize="10",shape=record];
  Node1 [label="{pip._vendor.html5lib.treewalkers.etree\l_lxml.Root\n|+ elementtree\l+ children\l+ text\l+ tail\l|+ __init__()\l+ __getitem__()\l+ getnext()\l+ __len__()\l}",height=0.2,width=0.4,color="black", fillcolor="grey75", style="filled", fontcolor="black",tooltip=" "];
  Node2 -> Node1 [dir="back",color="midnightblue",fontsize="10",style="solid",arrowtail="onormal"];
  Node2 [label="{object\n||}",height=0.2,width=0.4,color="grey75", fillcolor="white", style="filled",tooltip=" "];
  Node1 -> Node3 [dir="back",color="midnightblue",fontsize="10",style="solid",arrowtail="onormal"];
  Node3 [label="{pip._vendor.html5lib.treewalkers.etree\l_lxml.FragmentRoot\n|+ children\l+ text\l+ tail\l|+ __init__()\l+ getnext()\l}",height=0.2,width=0.4,color="black", fillcolor="white", style="filled",URL="$d8/dbf/classpip_1_1__vendor_1_1html5lib_1_1treewalkers_1_1etree__lxml_1_1_fragment_root.html",tooltip=" "];
}
