digraph "pip._vendor.progress.Infinite.write"
{
 // LATEX_PDF_SIZE
  edge [fontname="Helvetica",fontsize="10",labelfontname="Helvetica",labelfontsize="10"];
  node [fontname="Helvetica",fontsize="10",shape=record];
  rankdir="RL";
  Node1 [label="pip._vendor.progress.Infinite.write",height=0.2,width=0.4,color="black", fillcolor="grey75", style="filled", fontcolor="black",tooltip=" "];
  Node1 -> Node2 [dir="back",color="midnightblue",fontsize="10",style="solid",fontname="Helvetica"];
  Node2 [label="pip._vendor.progress.counter.\lCounter.update",height=0.2,width=0.4,color="black", fillcolor="white", style="filled",URL="$d6/dbf/classpip_1_1__vendor_1_1progress_1_1counter_1_1_counter.html#a66bd8824561e1565e96015dbddb60366",tooltip=" "];
  Node1 -> Node3 [dir="back",color="midnightblue",fontsize="10",style="solid",fontname="Helvetica"];
  Node3 [label="pip._vendor.progress.counter.\lCountdown.update",height=0.2,width=0.4,color="black", fillcolor="white", style="filled",URL="$dd/d0f/classpip_1_1__vendor_1_1progress_1_1counter_1_1_countdown.html#a3488ef039b3b0f97853fdde0560f2749",tooltip=" "];
  Node1 -> Node4 [dir="back",color="midnightblue",fontsize="10",style="solid",fontname="Helvetica"];
  Node4 [label="pip._vendor.progress.counter.\lStack.update",height=0.2,width=0.4,color="black", fillcolor="white", style="filled",URL="$db/db4/classpip_1_1__vendor_1_1progress_1_1counter_1_1_stack.html#af271659d85b633bbd2954fba09b3371f",tooltip=" "];
  Node1 -> Node5 [dir="back",color="midnightblue",fontsize="10",style="solid",fontname="Helvetica"];
  Node5 [label="pip._vendor.progress.spinner.\lSpinner.update",height=0.2,width=0.4,color="black", fillcolor="white", style="filled",URL="$d0/d7f/classpip_1_1__vendor_1_1progress_1_1spinner_1_1_spinner.html#a5e5421b479c8ef4e38b3e0398eee8595",tooltip=" "];
  Node1 -> Node6 [dir="back",color="midnightblue",fontsize="10",style="solid",fontname="Helvetica"];
  Node6 [label="wheel.wheelfile.WheelFile.write\l_files",height=0.2,width=0.4,color="black", fillcolor="white", style="filled",URL="$dd/da0/classwheel_1_1wheelfile_1_1_wheel_file.html#a69ab05d387028873a52916edac00b2a8",tooltip=" "];
}
