digraph "pip._internal.network.utils.raise_for_status"
{
 // LATEX_PDF_SIZE
  edge [fontname="Helvetica",fontsize="10",labelfontname="Helvetica",labelfontsize="10"];
  node [fontname="Helvetica",fontsize="10",shape=record];
  rankdir="RL";
  Node1 [label="pip._internal.network.utils.raise\l_for_status",height=0.2,width=0.4,color="black", fillcolor="grey75", style="filled", fontcolor="black",tooltip=" "];
  Node1 -> Node2 [dir="back",color="midnightblue",fontsize="10",style="solid",fontname="Helvetica"];
  Node2 [label="pip._internal.network.lazy\l_wheel.LazyZipOverHTTP.\l__init__",height=0.2,width=0.4,color="black", fillcolor="white", style="filled",URL="$df/d67/classpip_1_1__internal_1_1network_1_1lazy__wheel_1_1_lazy_zip_over_h_t_t_p.html#a8d522c9bfc70df01c3439c43a4669492",tooltip=" "];
  Node2 -> Node3 [dir="back",color="midnightblue",fontsize="10",style="solid",fontname="Helvetica"];
  Node3 [label="setuptools._vendor.ordered\l_set.OrderedSet.__setstate__",height=0.2,width=0.4,color="black", fillcolor="white", style="filled",URL="$d0/d40/classsetuptools_1_1__vendor_1_1ordered__set_1_1_ordered_set.html#a852740634ccd2e3158b599082cf086de",tooltip=" "];
  Node1 -> Node4 [dir="back",color="midnightblue",fontsize="10",style="solid",fontname="Helvetica"];
  Node4 [label="pip._internal.index.collector.\l_get_html_response",height=0.2,width=0.4,color="black", fillcolor="white", style="filled",URL="$dc/def/namespacepip_1_1__internal_1_1index_1_1collector.html#a339aa8977de9666d89c1496b5c774d3d",tooltip=" "];
  Node4 -> Node5 [dir="back",color="midnightblue",fontsize="10",style="solid",fontname="Helvetica"];
  Node5 [label="pip._internal.index.collector.\l_get_html_page",height=0.2,width=0.4,color="black", fillcolor="white", style="filled",URL="$dc/def/namespacepip_1_1__internal_1_1index_1_1collector.html#a611d56a1f295a1bf16d57012885bba44",tooltip=" "];
  Node5 -> Node6 [dir="back",color="midnightblue",fontsize="10",style="solid",fontname="Helvetica"];
  Node6 [label="pip._internal.index.collector.\lLinkCollector.fetch_page",height=0.2,width=0.4,color="black", fillcolor="white", style="filled",URL="$d9/d03/classpip_1_1__internal_1_1index_1_1collector_1_1_link_collector.html#add011fc2e36cd20b4e9fb30ea262259a",tooltip=" "];
  Node1 -> Node7 [dir="back",color="midnightblue",fontsize="10",style="solid",fontname="Helvetica"];
  Node7 [label="pip._internal.network.download.\l_http_get_download",height=0.2,width=0.4,color="black", fillcolor="white", style="filled",URL="$d1/d20/namespacepip_1_1__internal_1_1network_1_1download.html#a8c34d16445b75cd16db28afd113458f3",tooltip=" "];
  Node7 -> Node8 [dir="back",color="midnightblue",fontsize="10",style="solid",fontname="Helvetica"];
  Node8 [label="pip._internal.network.download.\lDownloader.__call__",height=0.2,width=0.4,color="black", fillcolor="white", style="filled",URL="$d5/d7f/classpip_1_1__internal_1_1network_1_1download_1_1_downloader.html#af64093575b0f0de5e41da199fe394c6c",tooltip=" "];
  Node1 -> Node9 [dir="back",color="midnightblue",fontsize="10",style="solid",fontname="Helvetica"];
  Node9 [label="pip._internal.req.req\l_file.get_file_content",height=0.2,width=0.4,color="black", fillcolor="white", style="filled",URL="$d9/d27/namespacepip_1_1__internal_1_1req_1_1req__file.html#a20371d1fb95ad99ab432e2ca6189d4e6",tooltip=" "];
  Node9 -> Node10 [dir="back",color="midnightblue",fontsize="10",style="solid",fontname="Helvetica"];
  Node10 [label="pip._internal.req.req\l_file.RequirementsFileParser.\l_parse_file",height=0.2,width=0.4,color="black", fillcolor="white", style="filled",URL="$df/d5c/classpip_1_1__internal_1_1req_1_1req__file_1_1_requirements_file_parser.html#ab8364f88a1e3509d99e47a1772ca8ac0",tooltip=" "];
  Node10 -> Node11 [dir="back",color="midnightblue",fontsize="10",style="solid",fontname="Helvetica"];
  Node11 [label="pip._internal.req.req\l_file.RequirementsFileParser.\l_parse_and_recurse",height=0.2,width=0.4,color="black", fillcolor="white", style="filled",URL="$df/d5c/classpip_1_1__internal_1_1req_1_1req__file_1_1_requirements_file_parser.html#a6bdd401b9e93198a42bacd6dc14e4442",tooltip=" "];
  Node11 -> Node11 [dir="back",color="midnightblue",fontsize="10",style="solid",fontname="Helvetica"];
  Node11 -> Node12 [dir="back",color="midnightblue",fontsize="10",style="solid",fontname="Helvetica"];
  Node12 [label="pip._internal.req.req\l_file.RequirementsFileParser.parse",height=0.2,width=0.4,color="black", fillcolor="white", style="filled",URL="$df/d5c/classpip_1_1__internal_1_1req_1_1req__file_1_1_requirements_file_parser.html#a07f8b5803396c6470e82e665b8a81200",tooltip=" "];
  Node12 -> Node13 [dir="back",color="midnightblue",fontsize="10",style="solid",fontname="Helvetica"];
  Node13 [label="setuptools._distutils.version.\lVersion.__init__",height=0.2,width=0.4,color="black", fillcolor="white", style="filled",URL="$dd/de9/classsetuptools_1_1__distutils_1_1version_1_1_version.html#a3ee288ca127d8a189fee3cdc99ed0968",tooltip=" "];
  Node13 -> Node3 [dir="back",color="midnightblue",fontsize="10",style="solid",fontname="Helvetica"];
  Node12 -> Node14 [dir="back",color="midnightblue",fontsize="10",style="solid",fontname="Helvetica"];
  Node14 [label="setuptools._distutils.version.\lLooseVersion.__init__",height=0.2,width=0.4,color="black", fillcolor="white", style="filled",URL="$d6/d60/classsetuptools_1_1__distutils_1_1version_1_1_loose_version.html#a07dc312ca7cc0b5fcbdc615ad76a5eea",tooltip=" "];
  Node14 -> Node3 [dir="back",color="midnightblue",fontsize="10",style="solid",fontname="Helvetica"];
  Node12 -> Node15 [dir="back",color="midnightblue",fontsize="10",style="solid",fontname="Helvetica"];
  Node15 [label="pip._vendor.pkg_resources.\lEntryPoint.parse_group",height=0.2,width=0.4,color="black", fillcolor="white", style="filled",URL="$dc/d51/classpip_1_1__vendor_1_1pkg__resources_1_1_entry_point.html#a7a073b57c2523016366e96901108b1e3",tooltip=" "];
  Node15 -> Node16 [dir="back",color="midnightblue",fontsize="10",style="solid",fontname="Helvetica"];
  Node16 [label="pip._vendor.pkg_resources.\lEntryPoint.parse_map",height=0.2,width=0.4,color="black", fillcolor="white", style="filled",URL="$dc/d51/classpip_1_1__vendor_1_1pkg__resources_1_1_entry_point.html#a49afd2196172292b203587c86ced6b78",tooltip=" "];
  Node15 -> Node17 [dir="back",color="midnightblue",fontsize="10",style="solid",fontname="Helvetica"];
  Node17 [label="pkg_resources.EntryPoint.parse_map",height=0.2,width=0.4,color="black", fillcolor="white", style="filled",URL="$de/dfa/classpkg__resources_1_1_entry_point.html#a925bbccfaed5f41e1f676adb88199afa",tooltip=" "];
  Node17 -> Node18 [dir="back",color="midnightblue",fontsize="10",style="solid",fontname="Helvetica"];
  Node18 [label="setuptools.dist.check\l_entry_points",height=0.2,width=0.4,color="black", fillcolor="white", style="filled",URL="$d0/dbd/namespacesetuptools_1_1dist.html#a392bacff0b7eefe57d55ac19706234c1",tooltip=" "];
  Node12 -> Node19 [dir="back",color="midnightblue",fontsize="10",style="solid",fontname="Helvetica"];
  Node19 [label="pkg_resources.EntryPoint.parse\l_group",height=0.2,width=0.4,color="black", fillcolor="white", style="filled",URL="$de/dfa/classpkg__resources_1_1_entry_point.html#aa6103add7859c9b6e0338b6866fe44ba",tooltip=" "];
  Node19 -> Node17 [dir="back",color="midnightblue",fontsize="10",style="solid",fontname="Helvetica"];
  Node10 -> Node20 [dir="back",color="midnightblue",fontsize="10",style="solid",fontname="Helvetica"];
  Node20 [label="setuptools.config.Config\lMetadataHandler._parse\l_version",height=0.2,width=0.4,color="black", fillcolor="white", style="filled",URL="$d5/db2/classsetuptools_1_1config_1_1_config_metadata_handler.html#ae12fa89d1f5aed27ab79c89590f48ae4",tooltip=" "];
  Node20 -> Node21 [dir="back",color="midnightblue",fontsize="10",style="solid",fontname="Helvetica"];
  Node21 [label="setuptools.config.Config\lMetadataHandler.parsers",height=0.2,width=0.4,color="black", fillcolor="white", style="filled",URL="$d5/db2/classsetuptools_1_1config_1_1_config_metadata_handler.html#a79d5728ed108d5aaa690deca115678f1",tooltip=" "];
  Node10 -> Node21 [dir="back",color="midnightblue",fontsize="10",style="solid",fontname="Helvetica"];
  Node10 -> Node22 [dir="back",color="midnightblue",fontsize="10",style="solid",fontname="Helvetica"];
  Node22 [label="setuptools.config.Config\lOptionsHandler.parsers",height=0.2,width=0.4,color="black", fillcolor="white", style="filled",URL="$d7/d6f/classsetuptools_1_1config_1_1_config_options_handler.html#a84db64d7a8a64c2816c2967a1ba1a486",tooltip=" "];
  Node1 -> Node23 [dir="back",color="midnightblue",fontsize="10",style="solid",fontname="Helvetica"];
  Node23 [label="pip._internal.network.xmlrpc.\lPipXmlrpcTransport.request",height=0.2,width=0.4,color="black", fillcolor="white", style="filled",URL="$dd/d8a/classpip_1_1__internal_1_1network_1_1xmlrpc_1_1_pip_xmlrpc_transport.html#a0e77258e7d3e6fa049b2f6d3a742becd",tooltip=" "];
  Node23 -> Node24 [dir="back",color="midnightblue",fontsize="10",style="solid",fontname="Helvetica"];
  Node24 [label="pip._vendor.requests.sessions.\lSession.delete",height=0.2,width=0.4,color="black", fillcolor="white", style="filled",URL="$da/de9/classpip_1_1__vendor_1_1requests_1_1sessions_1_1_session.html#a10a0d9552a108655ec064bd587678247",tooltip=" "];
  Node23 -> Node25 [dir="back",color="midnightblue",fontsize="10",style="solid",fontname="Helvetica"];
  Node25 [label="pip._vendor.requests.sessions.\lSession.get",height=0.2,width=0.4,color="black", fillcolor="white", style="filled",URL="$da/de9/classpip_1_1__vendor_1_1requests_1_1sessions_1_1_session.html#a637a2a933183e90943aabeab91d0e475",tooltip=" "];
  Node25 -> Node26 [dir="back",color="midnightblue",fontsize="10",style="solid",fontname="Helvetica"];
  Node26 [label="setuptools.package\l_index.PyPIConfig._get\l_repo_cred",height=0.2,width=0.4,color="black", fillcolor="white", style="filled",URL="$d3/d47/classsetuptools_1_1package__index_1_1_py_p_i_config.html#a8560244cd85a884510096d2b673838a9",tooltip=" "];
  Node26 -> Node27 [dir="back",color="midnightblue",fontsize="10",style="solid",fontname="Helvetica"];
  Node27 [label="setuptools.package\l_index.PyPIConfig.creds\l_by_repository",height=0.2,width=0.4,color="black", fillcolor="white", style="filled",URL="$d3/d47/classsetuptools_1_1package__index_1_1_py_p_i_config.html#adc322072461ff5f3499d6187040ebc91",tooltip=" "];
  Node27 -> Node28 [dir="back",color="midnightblue",fontsize="10",style="solid",fontname="Helvetica"];
  Node28 [label="setuptools.package\l_index.PyPIConfig.find\l_credential",height=0.2,width=0.4,color="black", fillcolor="white", style="filled",URL="$d3/d47/classsetuptools_1_1package__index_1_1_py_p_i_config.html#a591eed255577ae924d683a1cdfc6cbbd",tooltip=" "];
  Node25 -> Node27 [dir="back",color="midnightblue",fontsize="10",style="solid",fontname="Helvetica"];
  Node25 -> Node29 [dir="back",color="midnightblue",fontsize="10",style="solid",fontname="Helvetica"];
  Node29 [label="pip._vendor.pkg_resources.\l_ReqExtras.markers_pass",height=0.2,width=0.4,color="black", fillcolor="white", style="filled",URL="$d9/dd5/classpip_1_1__vendor_1_1pkg__resources_1_1___req_extras.html#a1b0256ec9bc9da2aac912b35898fda5f",tooltip=" "];
  Node25 -> Node30 [dir="back",color="midnightblue",fontsize="10",style="solid",fontname="Helvetica"];
  Node30 [label="pkg_resources._ReqExtras.markers_pass",height=0.2,width=0.4,color="black", fillcolor="white", style="filled",URL="$d9/d9f/classpkg__resources_1_1___req_extras.html#a435242531f1af2132de48679c5edf3c7",tooltip=" "];
  Node23 -> Node31 [dir="back",color="midnightblue",fontsize="10",style="solid",fontname="Helvetica"];
  Node31 [label="pip._vendor.requests.sessions.\lSession.head",height=0.2,width=0.4,color="black", fillcolor="white", style="filled",URL="$da/de9/classpip_1_1__vendor_1_1requests_1_1sessions_1_1_session.html#a0b4eedeb465ba385aa984ac58617dd79",tooltip=" "];
  Node31 -> Node32 [dir="back",color="midnightblue",fontsize="10",style="solid",fontname="Helvetica"];
  Node32 [label="pip._internal.exceptions.\lHashErrors.__str__",height=0.2,width=0.4,color="black", fillcolor="white", style="filled",URL="$da/d1a/classpip_1_1__internal_1_1exceptions_1_1_hash_errors.html#a1f0df3404102191fd54a5a1cee1445f4",tooltip=" "];
  Node23 -> Node33 [dir="back",color="midnightblue",fontsize="10",style="solid",fontname="Helvetica"];
  Node33 [label="pip._vendor.requests.sessions.\lSession.options",height=0.2,width=0.4,color="black", fillcolor="white", style="filled",URL="$da/de9/classpip_1_1__vendor_1_1requests_1_1sessions_1_1_session.html#a782817284df10ee3d0c9a656670017b6",tooltip=" "];
  Node23 -> Node34 [dir="back",color="midnightblue",fontsize="10",style="solid",fontname="Helvetica"];
  Node34 [label="pip._vendor.requests.sessions.\lSession.patch",height=0.2,width=0.4,color="black", fillcolor="white", style="filled",URL="$da/de9/classpip_1_1__vendor_1_1requests_1_1sessions_1_1_session.html#a30572ac06f35dd3711887d17f3ecc709",tooltip=" "];
  Node23 -> Node35 [dir="back",color="midnightblue",fontsize="10",style="solid",fontname="Helvetica"];
  Node35 [label="pip._vendor.requests.sessions.\lSession.post",height=0.2,width=0.4,color="black", fillcolor="white", style="filled",URL="$da/de9/classpip_1_1__vendor_1_1requests_1_1sessions_1_1_session.html#a5e106cded162e6aa992e012347ac066f",tooltip=" "];
  Node35 -> Node36 [dir="back",color="midnightblue",fontsize="10",style="solid",fontname="Helvetica"];
  Node36 [label="pkg_resources._vendor.packaging.version.\lVersion.__str__",height=0.2,width=0.4,color="black", fillcolor="white", style="filled",URL="$d9/da7/classpkg__resources_1_1__vendor_1_1packaging_1_1version_1_1_version.html#a9a90e18e451e2e46f4cecb59e159d3d7",tooltip=" "];
  Node35 -> Node37 [dir="back",color="midnightblue",fontsize="10",style="solid",fontname="Helvetica"];
  Node37 [label="setuptools._vendor.packaging.version.\lVersion.__str__",height=0.2,width=0.4,color="black", fillcolor="white", style="filled",URL="$da/de8/classsetuptools_1_1__vendor_1_1packaging_1_1version_1_1_version.html#ad7799d4b1432a9a0ec3f8569b61e94a1",tooltip=" "];
  Node35 -> Node38 [dir="back",color="midnightblue",fontsize="10",style="solid",fontname="Helvetica"];
  Node38 [label="pkg_resources._vendor.packaging.version.\lVersion.is_postrelease",height=0.2,width=0.4,color="black", fillcolor="white", style="filled",URL="$d9/da7/classpkg__resources_1_1__vendor_1_1packaging_1_1version_1_1_version.html#af9bfffa937f9cf6206e4bd6c183bbb2d",tooltip=" "];
  Node35 -> Node39 [dir="back",color="midnightblue",fontsize="10",style="solid",fontname="Helvetica"];
  Node39 [label="setuptools._vendor.packaging.version.\lVersion.is_postrelease",height=0.2,width=0.4,color="black", fillcolor="white", style="filled",URL="$da/de8/classsetuptools_1_1__vendor_1_1packaging_1_1version_1_1_version.html#a473df1b65542159470e42b342de3f123",tooltip=" "];
  Node23 -> Node40 [dir="back",color="midnightblue",fontsize="10",style="solid",fontname="Helvetica"];
  Node40 [label="pip._vendor.requests.sessions.\lSession.put",height=0.2,width=0.4,color="black", fillcolor="white", style="filled",URL="$da/de9/classpip_1_1__vendor_1_1requests_1_1sessions_1_1_session.html#a9ddc29cd786a7cf9c1e1e07b2d140adb",tooltip=" "];
}
