digraph "pip._internal.commands.configuration.ConfigurationCommand._save_configuration"
{
 // LATEX_PDF_SIZE
  edge [fontname="Helvetica",fontsize="10",labelfontname="Helvetica",labelfontsize="10"];
  node [fontname="Helvetica",fontsize="10",shape=record];
  rankdir="RL";
  Node1 [label="pip._internal.commands.configuration.\lConfigurationCommand._save_configuration",height=0.2,width=0.4,color="black", fillcolor="grey75", style="filled", fontcolor="black",tooltip=" "];
  Node1 -> Node2 [dir="back",color="midnightblue",fontsize="10",style="solid",fontname="Helvetica"];
  Node2 [label="pip._internal.commands.configuration.\lConfigurationCommand.set_name_value",height=0.2,width=0.4,color="black", fillcolor="white", style="filled",URL="$d7/d3b/classpip_1_1__internal_1_1commands_1_1configuration_1_1_configuration_command.html#aa9835214a83cf57ac88d222cae4dae19",tooltip=" "];
  Node2 -> Node3 [dir="back",color="midnightblue",fontsize="10",style="solid",fontname="Helvetica"];
  Node3 [label="pip._internal.commands.configuration.\lConfigurationCommand.run",height=0.2,width=0.4,color="black", fillcolor="white", style="filled",URL="$d7/d3b/classpip_1_1__internal_1_1commands_1_1configuration_1_1_configuration_command.html#a94d31df345a805f5ff97861d3b9c7f4d",tooltip=" "];
  Node1 -> Node4 [dir="back",color="midnightblue",fontsize="10",style="solid",fontname="Helvetica"];
  Node4 [label="pip._internal.commands.configuration.\lConfigurationCommand.unset_name",height=0.2,width=0.4,color="black", fillcolor="white", style="filled",URL="$d7/d3b/classpip_1_1__internal_1_1commands_1_1configuration_1_1_configuration_command.html#ab262e9b036c17e0d6d9a86eeb76ee600",tooltip=" "];
  Node4 -> Node3 [dir="back",color="midnightblue",fontsize="10",style="solid",fontname="Helvetica"];
}
