digraph "pip._internal.commands.configuration.ConfigurationCommand._get_n_args"
{
 // LATEX_PDF_SIZE
  edge [fontname="Helvetica",fontsize="10",labelfontname="Helvetica",labelfontsize="10"];
  node [fontname="Helvetica",fontsize="10",shape=record];
  rankdir="RL";
  Node1 [label="pip._internal.commands.configuration.\lConfigurationCommand._get_n_args",height=0.2,width=0.4,color="black", fillcolor="grey75", style="filled", fontcolor="black",tooltip=" "];
  Node1 -> Node2 [dir="back",color="midnightblue",fontsize="10",style="solid",fontname="Helvetica"];
  Node2 [label="pip._internal.commands.configuration.\lConfigurationCommand.get_name",height=0.2,width=0.4,color="black", fillcolor="white", style="filled",URL="$d7/d3b/classpip_1_1__internal_1_1commands_1_1configuration_1_1_configuration_command.html#a640f860aec8f0b69142e10d8ec0fb435",tooltip=" "];
  Node2 -> Node3 [dir="back",color="midnightblue",fontsize="10",style="solid",fontname="Helvetica"];
  Node3 [label="setuptools._distutils.dist.\lDistributionMetadata.get\l_fullname",height=0.2,width=0.4,color="black", fillcolor="white", style="filled",URL="$d9/d53/classsetuptools_1_1__distutils_1_1dist_1_1_distribution_metadata.html#a9cdb297b27eb88d04a94e8d62bc1555c",tooltip=" "];
  Node2 -> Node4 [dir="back",color="midnightblue",fontsize="10",style="solid",fontname="Helvetica"];
  Node4 [label="pip._internal.commands.configuration.\lConfigurationCommand.run",height=0.2,width=0.4,color="black", fillcolor="white", style="filled",URL="$d7/d3b/classpip_1_1__internal_1_1commands_1_1configuration_1_1_configuration_command.html#a94d31df345a805f5ff97861d3b9c7f4d",tooltip=" "];
  Node2 -> Node5 [dir="back",color="midnightblue",fontsize="10",style="solid",fontname="Helvetica"];
  Node5 [label="setuptools._distutils.dist.\lDistributionMetadata.write\l_pkg_file",height=0.2,width=0.4,color="black", fillcolor="white", style="filled",URL="$d9/d53/classsetuptools_1_1__distutils_1_1dist_1_1_distribution_metadata.html#a921d583635d0bc0574df79343e6ad60d",tooltip=" "];
  Node5 -> Node6 [dir="back",color="midnightblue",fontsize="10",style="solid",fontname="Helvetica"];
  Node6 [label="setuptools._distutils.dist.\lDistributionMetadata.write\l_pkg_info",height=0.2,width=0.4,color="black", fillcolor="white", style="filled",URL="$d9/d53/classsetuptools_1_1__distutils_1_1dist_1_1_distribution_metadata.html#a0991ae41b387cdfc66e684f1dcd7037f",tooltip=" "];
  Node1 -> Node7 [dir="back",color="midnightblue",fontsize="10",style="solid",fontname="Helvetica"];
  Node7 [label="pip._internal.commands.configuration.\lConfigurationCommand.list_config_values",height=0.2,width=0.4,color="black", fillcolor="white", style="filled",URL="$d7/d3b/classpip_1_1__internal_1_1commands_1_1configuration_1_1_configuration_command.html#aa8a58b1c9ef6abefef7b9aa445347ce1",tooltip=" "];
  Node7 -> Node4 [dir="back",color="midnightblue",fontsize="10",style="solid",fontname="Helvetica"];
  Node1 -> Node8 [dir="back",color="midnightblue",fontsize="10",style="solid",fontname="Helvetica"];
  Node8 [label="pip._internal.commands.configuration.\lConfigurationCommand.list_values",height=0.2,width=0.4,color="black", fillcolor="white", style="filled",URL="$d7/d3b/classpip_1_1__internal_1_1commands_1_1configuration_1_1_configuration_command.html#a310b6b88fae9678e9236c90221993a97",tooltip=" "];
  Node8 -> Node4 [dir="back",color="midnightblue",fontsize="10",style="solid",fontname="Helvetica"];
  Node1 -> Node9 [dir="back",color="midnightblue",fontsize="10",style="solid",fontname="Helvetica"];
  Node9 [label="pip._internal.commands.configuration.\lConfigurationCommand.set_name_value",height=0.2,width=0.4,color="black", fillcolor="white", style="filled",URL="$d7/d3b/classpip_1_1__internal_1_1commands_1_1configuration_1_1_configuration_command.html#aa9835214a83cf57ac88d222cae4dae19",tooltip=" "];
  Node9 -> Node4 [dir="back",color="midnightblue",fontsize="10",style="solid",fontname="Helvetica"];
  Node1 -> Node10 [dir="back",color="midnightblue",fontsize="10",style="solid",fontname="Helvetica"];
  Node10 [label="pip._internal.commands.configuration.\lConfigurationCommand.unset_name",height=0.2,width=0.4,color="black", fillcolor="white", style="filled",URL="$d7/d3b/classpip_1_1__internal_1_1commands_1_1configuration_1_1_configuration_command.html#ab262e9b036c17e0d6d9a86eeb76ee600",tooltip=" "];
  Node10 -> Node4 [dir="back",color="midnightblue",fontsize="10",style="solid",fontname="Helvetica"];
}
