digraph "pip._internal.commands.configuration.ConfigurationCommand._determine_editor"
{
 // LATEX_PDF_SIZE
  edge [fontname="Helvetica",fontsize="10",labelfontname="Helvetica",labelfontsize="10"];
  node [fontname="Helvetica",fontsize="10",shape=record];
  rankdir="RL";
  Node1 [label="pip._internal.commands.configuration.\lConfigurationCommand._determine_editor",height=0.2,width=0.4,color="black", fillcolor="grey75", style="filled", fontcolor="black",tooltip=" "];
  Node1 -> Node2 [dir="back",color="midnightblue",fontsize="10",style="solid",fontname="Helvetica"];
  Node2 [label="pip._internal.commands.configuration.\lConfigurationCommand.open_in_editor",height=0.2,width=0.4,color="black", fillcolor="white", style="filled",URL="$d7/d3b/classpip_1_1__internal_1_1commands_1_1configuration_1_1_configuration_command.html#ad253a982c7a51d5f9a9b1e3f0a04b029",tooltip=" "];
  Node2 -> Node3 [dir="back",color="midnightblue",fontsize="10",style="solid",fontname="Helvetica"];
  Node3 [label="pip._internal.commands.configuration.\lConfigurationCommand.run",height=0.2,width=0.4,color="black", fillcolor="white", style="filled",URL="$d7/d3b/classpip_1_1__internal_1_1commands_1_1configuration_1_1_configuration_command.html#a94d31df345a805f5ff97861d3b9c7f4d",tooltip=" "];
}
