digraph "pip._vendor.cachecontrol.filewrapper.CallbackFileWrapper"
{
 // LATEX_PDF_SIZE
  edge [fontname="Helvetica",fontsize="10",labelfontname="Helvetica",labelfontsize="10"];
  node [fontname="Helvetica",fontsize="10",shape=record];
  Node1 [label="{pip._vendor.cachecontrol.filewrapper.\lCallbackFileWrapper\n|- __buf\l- __fp\l- __callback\l|+ __init__()\l+ __getattr__()\l+ read()\l- __is_fp_closed()\l- _close()\l- _safe_read()\l}",height=0.2,width=0.4,color="black", fillcolor="grey75", style="filled", fontcolor="black",tooltip=" "];
  Node2 -> Node1 [dir="back",color="midnightblue",fontsize="10",style="solid",arrowtail="onormal",fontname="Helvetica"];
  Node2 [label="{object\n||}",height=0.2,width=0.4,color="grey75", fillcolor="white", style="filled",tooltip=" "];
}
