digraph "pip._vendor.html5lib._inputstream.HTMLUnicodeInputStream.char"
{
 // LATEX_PDF_SIZE
  edge [fontname="Helvetica",fontsize="10",labelfontname="Helvetica",labelfontsize="10"];
  node [fontname="Helvetica",fontsize="10",shape=record];
  rankdir="LR";
  Node1 [label="pip._vendor.html5lib.\l_inputstream.HTMLUnicodeInput\lStream.char",height=0.2,width=0.4,color="black", fillcolor="grey75", style="filled", fontcolor="black",tooltip=" "];
  Node1 -> Node2 [color="midnightblue",fontsize="10",style="solid",fontname="Helvetica"];
  Node2 [label="pip._vendor.html5lib.\l_inputstream.HTMLUnicodeInput\lStream.readChunk",height=0.2,width=0.4,color="black", fillcolor="white", style="filled",URL="$de/dab/classpip_1_1__vendor_1_1html5lib_1_1__inputstream_1_1_h_t_m_l_unicode_input_stream.html#ab00c009c094643cbf147905684053c1a",tooltip=" "];
  Node2 -> Node3 [color="midnightblue",fontsize="10",style="solid",fontname="Helvetica"];
  Node3 [label="pip._vendor.html5lib.\l_inputstream.HTMLUnicodeInput\lStream._position",height=0.2,width=0.4,color="black", fillcolor="white", style="filled",URL="$de/dab/classpip_1_1__vendor_1_1html5lib_1_1__inputstream_1_1_h_t_m_l_unicode_input_stream.html#a656d2457c4bd695bafda16a736b9a5c9",tooltip=" "];
}
