digraph "pip._vendor.appdirs.site_data_dir"
{
 // LATEX_PDF_SIZE
  edge [fontname="Helvetica",fontsize="10",labelfontname="Helvetica",labelfontsize="10"];
  node [fontname="Helvetica",fontsize="10",shape=record];
  rankdir="RL";
  Node1 [label="pip._vendor.appdirs.site\l_data_dir",height=0.2,width=0.4,color="black", fillcolor="grey75", style="filled", fontcolor="black",tooltip=" "];
  Node1 -> Node2 [dir="back",color="midnightblue",fontsize="10",style="solid"];
  Node2 [label="pip._vendor.appdirs.site\l_config_dir",height=0.2,width=0.4,color="black", fillcolor="white", style="filled",URL="$df/d94/namespacepip_1_1__vendor_1_1appdirs.html#ab09d66ec806f315bb8450d8188e19396",tooltip=" "];
}
