digraph "pip._internal.index.package_finder.CandidateEvaluator.sort_best_candidate"
{
 // LATEX_PDF_SIZE
  edge [fontname="Helvetica",fontsize="10",labelfontname="Helvetica",labelfontsize="10"];
  node [fontname="Helvetica",fontsize="10",shape=record];
  rankdir="LR";
  Node1 [label="pip._internal.index.package\l_finder.CandidateEvaluator.sort\l_best_candidate",height=0.2,width=0.4,color="black", fillcolor="grey75", style="filled", fontcolor="black",tooltip=" "];
  Node1 -> Node2 [color="midnightblue",fontsize="10",style="solid",fontname="Helvetica"];
  Node2 [label="pip._internal.index.package\l_finder.CandidateEvaluator.\l_sort_key",height=0.2,width=0.4,color="black", fillcolor="white", style="filled",URL="$d0/d30/classpip_1_1__internal_1_1index_1_1package__finder_1_1_candidate_evaluator.html#a030602d4dfb137ca70b1e2af6c09348b",tooltip=" "];
}
