digraph "pip._vendor.distlib.compat.OrderedDict"
{
 // LATEX_PDF_SIZE
  edge [fontname="Helvetica",fontsize="10",labelfontname="Helvetica",labelfontsize="10"];
  node [fontname="Helvetica",fontsize="10",shape=record];
  Node1 [label="{pip._vendor.distlib.compat.\lOrderedDict\n|- __root\l- __map\l- __update\l- __marker\l|+ __init__()\l+ __setitem__()\l+ __delitem__()\l+ __iter__()\l+ __reversed__()\l+ clear()\l+ popitem()\l+ keys()\l+ values()\l+ items()\land 15 more...\l}",height=0.2,width=0.4,color="black", fillcolor="grey75", style="filled", fontcolor="black",tooltip=" "];
  Node2 -> Node1 [dir="back",color="midnightblue",fontsize="10",style="solid",arrowtail="onormal"];
  Node2 [label="{dict\n||}",height=0.2,width=0.4,color="grey75", fillcolor="white", style="filled",tooltip=" "];
}
