digraph "pip._internal.utils.subprocess.make_command"
{
 // LATEX_PDF_SIZE
  edge [fontname="Helvetica",fontsize="10",labelfontname="Helvetica",labelfontsize="10"];
  node [fontname="Helvetica",fontsize="10",shape=record];
  rankdir="RL";
  Node1 [label="pip._internal.utils.subprocess.make\l_command",height=0.2,width=0.4,color="black", fillcolor="grey75", style="filled", fontcolor="black",tooltip=" "];
  Node1 -> Node2 [dir="back",color="midnightblue",fontsize="10",style="solid"];
  Node2 [label="pip._internal.vcs.bazaar.\lBazaar.export",height=0.2,width=0.4,color="black", fillcolor="white", style="filled",URL="$d6/de7/classpip_1_1__internal_1_1vcs_1_1bazaar_1_1_bazaar.html#ac3fde3b2e50faafa2ff10f865e787acb",tooltip=" "];
  Node1 -> Node3 [dir="back",color="midnightblue",fontsize="10",style="solid"];
  Node3 [label="pip._internal.vcs.subversion.\lSubversion.export",height=0.2,width=0.4,color="black", fillcolor="white", style="filled",URL="$d2/db0/classpip_1_1__internal_1_1vcs_1_1subversion_1_1_subversion.html#a4a09b6d0b7ffe53e34051cd0b2fca41b",tooltip=" "];
  Node1 -> Node4 [dir="back",color="midnightblue",fontsize="10",style="solid"];
  Node4 [label="pip._internal.vcs.bazaar.\lBazaar.fetch_new",height=0.2,width=0.4,color="black", fillcolor="white", style="filled",URL="$d6/de7/classpip_1_1__internal_1_1vcs_1_1bazaar_1_1_bazaar.html#ada94e9b2c4a6e90c813687f66c2b4746",tooltip=" "];
  Node4 -> Node5 [dir="back",color="midnightblue",fontsize="10",style="solid"];
  Node5 [label="pip._internal.vcs.versioncontrol.\lVersionControl.obtain",height=0.2,width=0.4,color="red", fillcolor="white", style="filled",URL="$d0/db7/classpip_1_1__internal_1_1vcs_1_1versioncontrol_1_1_version_control.html#a6cd1dc22e3948b839e553cefb9e56c18",tooltip=" "];
  Node1 -> Node11 [dir="back",color="midnightblue",fontsize="10",style="solid"];
  Node11 [label="pip._internal.vcs.git.Git.fetch_new",height=0.2,width=0.4,color="black", fillcolor="white", style="filled",URL="$d8/d4d/classpip_1_1__internal_1_1vcs_1_1git_1_1_git.html#a9fd6ec2415b1ac9910e80bdb61b91ec5",tooltip=" "];
  Node11 -> Node5 [dir="back",color="midnightblue",fontsize="10",style="solid"];
  Node1 -> Node12 [dir="back",color="midnightblue",fontsize="10",style="solid"];
  Node12 [label="pip._internal.vcs.mercurial.\lMercurial.fetch_new",height=0.2,width=0.4,color="black", fillcolor="white", style="filled",URL="$db/da0/classpip_1_1__internal_1_1vcs_1_1mercurial_1_1_mercurial.html#a7951bc33f0d4f7a510d41c5239c88cdf",tooltip=" "];
  Node12 -> Node5 [dir="back",color="midnightblue",fontsize="10",style="solid"];
  Node1 -> Node13 [dir="back",color="midnightblue",fontsize="10",style="solid"];
  Node13 [label="pip._internal.vcs.subversion.\lSubversion.fetch_new",height=0.2,width=0.4,color="black", fillcolor="white", style="filled",URL="$d2/db0/classpip_1_1__internal_1_1vcs_1_1subversion_1_1_subversion.html#a994fcc3f75133b0a74c8774b242069bb",tooltip=" "];
  Node13 -> Node5 [dir="back",color="midnightblue",fontsize="10",style="solid"];
  Node1 -> Node14 [dir="back",color="midnightblue",fontsize="10",style="solid"];
  Node14 [label="pip._internal.vcs.git.Git.resolve\l_revision",height=0.2,width=0.4,color="black", fillcolor="white", style="filled",URL="$d8/d4d/classpip_1_1__internal_1_1vcs_1_1git_1_1_git.html#a85b6fa33df082d3943a53f5507df3bb2",tooltip=" "];
  Node14 -> Node11 [dir="back",color="midnightblue",fontsize="10",style="solid"];
  Node14 -> Node15 [dir="back",color="midnightblue",fontsize="10",style="solid"];
  Node15 [label="pip._internal.vcs.git.Git.update",height=0.2,width=0.4,color="red", fillcolor="white", style="filled",URL="$d8/d4d/classpip_1_1__internal_1_1vcs_1_1git_1_1_git.html#aa5158c33dc4a263752d57a944939e196",tooltip=" "];
  Node15 -> Node5 [dir="back",color="midnightblue",fontsize="10",style="solid"];
  Node1 -> Node26 [dir="back",color="midnightblue",fontsize="10",style="solid"];
  Node26 [label="pip._internal.vcs.versioncontrol.\lVersionControl.run_command",height=0.2,width=0.4,color="red", fillcolor="white", style="filled",URL="$d0/db7/classpip_1_1__internal_1_1vcs_1_1versioncontrol_1_1_version_control.html#ad61672608a8af9f7250a5b52805e32da",tooltip=" "];
  Node26 -> Node27 [dir="back",color="midnightblue",fontsize="10",style="solid"];
  Node27 [label="pip._internal.vcs.subversion.\lSubversion._get_svn_url_rev",height=0.2,width=0.4,color="red", fillcolor="white", style="filled",URL="$d2/db0/classpip_1_1__internal_1_1vcs_1_1subversion_1_1_subversion.html#ad8db96a8353378bd6a9522ea1d91f5b2",tooltip=" "];
  Node26 -> Node32 [dir="back",color="midnightblue",fontsize="10",style="solid"];
  Node32 [label="setuptools._distutils.command.install\l_lib.install_lib.build",height=0.2,width=0.4,color="red", fillcolor="white", style="filled",URL="$de/d3b/classsetuptools_1_1__distutils_1_1command_1_1install__lib_1_1install__lib.html#a8be54c86c5c89436d295b32d917407fc",tooltip=" "];
  Node26 -> Node35 [dir="back",color="midnightblue",fontsize="10",style="solid"];
  Node35 [label="setuptools.command.bdist\l_egg.bdist_egg.call_command",height=0.2,width=0.4,color="red", fillcolor="white", style="filled",URL="$da/daa/classsetuptools_1_1command_1_1bdist__egg_1_1bdist__egg.html#a2271a29121d1ca3f5b5ff75da1888fc3",tooltip=" "];
  Node26 -> Node38 [dir="back",color="midnightblue",fontsize="10",style="solid"];
  Node38 [label="pip._internal.vcs.subversion.\lSubversion.call_vcs_version",height=0.2,width=0.4,color="red", fillcolor="white", style="filled",URL="$d2/db0/classpip_1_1__internal_1_1vcs_1_1subversion_1_1_subversion.html#a28eb0ea686f7fdfb26b3672e0d936be5",tooltip=" "];
  Node26 -> Node43 [dir="back",color="midnightblue",fontsize="10",style="solid"];
  Node43 [label="setuptools.command.install.install.do\l_egg_install",height=0.2,width=0.4,color="red", fillcolor="white", style="filled",URL="$d9/d45/classsetuptools_1_1command_1_1install_1_1install.html#a96fdffd6145de3296ee08ef3dd51ed2b",tooltip=" "];
  Node26 -> Node2 [dir="back",color="midnightblue",fontsize="10",style="solid"];
  Node26 -> Node9 [dir="back",color="midnightblue",fontsize="10",style="solid"];
  Node9 [label="pip._internal.vcs.git.Git.export",height=0.2,width=0.4,color="black", fillcolor="white", style="filled",URL="$d8/d4d/classpip_1_1__internal_1_1vcs_1_1git_1_1_git.html#a8563a0d34300f46657b9152266e0efd1",tooltip=" "];
  Node26 -> Node10 [dir="back",color="midnightblue",fontsize="10",style="solid"];
  Node10 [label="pip._internal.vcs.mercurial.\lMercurial.export",height=0.2,width=0.4,color="black", fillcolor="white", style="filled",URL="$db/da0/classpip_1_1__internal_1_1vcs_1_1mercurial_1_1_mercurial.html#af8b78ac25c5848b7abd5917b9ec76fe3",tooltip=" "];
  Node26 -> Node3 [dir="back",color="midnightblue",fontsize="10",style="solid"];
  Node26 -> Node4 [dir="back",color="midnightblue",fontsize="10",style="solid"];
  Node26 -> Node11 [dir="back",color="midnightblue",fontsize="10",style="solid"];
  Node26 -> Node12 [dir="back",color="midnightblue",fontsize="10",style="solid"];
  Node26 -> Node13 [dir="back",color="midnightblue",fontsize="10",style="solid"];
  Node26 -> Node45 [dir="back",color="midnightblue",fontsize="10",style="solid"];
  Node45 [label="pip._internal.vcs.git.Git.get\l_current_branch",height=0.2,width=0.4,color="black", fillcolor="white", style="filled",URL="$d8/d4d/classpip_1_1__internal_1_1vcs_1_1git_1_1_git.html#a6896a2a1e362867babff94b91aac356b",tooltip=" "];
  Node45 -> Node11 [dir="back",color="midnightblue",fontsize="10",style="solid"];
  Node26 -> Node46 [dir="back",color="midnightblue",fontsize="10",style="solid"];
  Node46 [label="pip._internal.vcs.git.Git.get\l_git_version",height=0.2,width=0.4,color="black", fillcolor="white", style="filled",URL="$d8/d4d/classpip_1_1__internal_1_1vcs_1_1git_1_1_git.html#ad237bd25668f1d0169ed3f5c1ddb7363",tooltip=" "];
  Node46 -> Node15 [dir="back",color="midnightblue",fontsize="10",style="solid"];
  Node26 -> Node47 [dir="back",color="midnightblue",fontsize="10",style="solid"];
  Node47 [label="pip._internal.vcs.bazaar.\lBazaar.get_remote_url",height=0.2,width=0.4,color="red", fillcolor="white", style="filled",URL="$d6/de7/classpip_1_1__internal_1_1vcs_1_1bazaar_1_1_bazaar.html#ac3b0249bbad8adce786c99bf28e817f6",tooltip=" "];
  Node47 -> Node5 [dir="back",color="midnightblue",fontsize="10",style="solid"];
  Node26 -> Node48 [dir="back",color="midnightblue",fontsize="10",style="solid"];
  Node48 [label="pip._internal.vcs.git.Git.get\l_remote_url",height=0.2,width=0.4,color="red", fillcolor="white", style="filled",URL="$d8/d4d/classpip_1_1__internal_1_1vcs_1_1git_1_1_git.html#aa3a873cb459126b2c2ff6af3b481ae01",tooltip=" "];
  Node48 -> Node5 [dir="back",color="midnightblue",fontsize="10",style="solid"];
  Node26 -> Node49 [dir="back",color="midnightblue",fontsize="10",style="solid"];
  Node49 [label="pip._internal.vcs.mercurial.\lMercurial.get_remote_url",height=0.2,width=0.4,color="red", fillcolor="white", style="filled",URL="$db/da0/classpip_1_1__internal_1_1vcs_1_1mercurial_1_1_mercurial.html#ac5ed5fbd8053ddc3e53be187130b40b1",tooltip=" "];
  Node49 -> Node5 [dir="back",color="midnightblue",fontsize="10",style="solid"];
  Node26 -> Node50 [dir="back",color="midnightblue",fontsize="10",style="solid"];
  Node50 [label="pip._internal.vcs.git.Git.get\l_repository_root",height=0.2,width=0.4,color="black", fillcolor="white", style="filled",URL="$d8/d4d/classpip_1_1__internal_1_1vcs_1_1git_1_1_git.html#a4dabca50902c3f705f254a8053a77ffc",tooltip=" "];
  Node26 -> Node51 [dir="back",color="midnightblue",fontsize="10",style="solid"];
  Node51 [label="pip._internal.vcs.mercurial.\lMercurial.get_repository_root",height=0.2,width=0.4,color="black", fillcolor="white", style="filled",URL="$db/da0/classpip_1_1__internal_1_1vcs_1_1mercurial_1_1_mercurial.html#ab6533858524d4db94a3152d526cc857e",tooltip=" "];
  Node26 -> Node52 [dir="back",color="midnightblue",fontsize="10",style="solid"];
  Node52 [label="pip._internal.vcs.mercurial.\lMercurial.get_requirement\l_revision",height=0.2,width=0.4,color="red", fillcolor="white", style="filled",URL="$db/da0/classpip_1_1__internal_1_1vcs_1_1mercurial_1_1_mercurial.html#ae06c07020f616fd116cd5e794e58024d",tooltip=" "];
  Node26 -> Node53 [dir="back",color="midnightblue",fontsize="10",style="solid"];
  Node53 [label="pip._internal.vcs.bazaar.\lBazaar.get_revision",height=0.2,width=0.4,color="red", fillcolor="white", style="filled",URL="$d6/de7/classpip_1_1__internal_1_1vcs_1_1bazaar_1_1_bazaar.html#a4b44437ab0ee8f6233737cf313fee76d",tooltip=" "];
  Node53 -> Node14 [dir="back",color="midnightblue",fontsize="10",style="solid"];
  Node26 -> Node56 [dir="back",color="midnightblue",fontsize="10",style="solid"];
  Node56 [label="pip._internal.vcs.mercurial.\lMercurial.get_revision",height=0.2,width=0.4,color="red", fillcolor="white", style="filled",URL="$db/da0/classpip_1_1__internal_1_1vcs_1_1mercurial_1_1_mercurial.html#a0d54acc1f07012dabd50da919be175a4",tooltip=" "];
  Node26 -> Node57 [dir="back",color="midnightblue",fontsize="10",style="solid"];
  Node57 [label="pip._internal.vcs.git.Git.get\l_revision",height=0.2,width=0.4,color="red", fillcolor="white", style="filled",URL="$d8/d4d/classpip_1_1__internal_1_1vcs_1_1git_1_1_git.html#a8d0a21c308892ce38a2f18d15c28927c",tooltip=" "];
  Node57 -> Node14 [dir="back",color="midnightblue",fontsize="10",style="solid"];
  Node26 -> Node58 [dir="back",color="midnightblue",fontsize="10",style="solid"];
  Node58 [label="pip._internal.vcs.git.Git.get\l_revision_sha",height=0.2,width=0.4,color="red", fillcolor="white", style="filled",URL="$d8/d4d/classpip_1_1__internal_1_1vcs_1_1git_1_1_git.html#a8b2d6bd99548e4ebd47035d9066c488b",tooltip=" "];
  Node58 -> Node14 [dir="back",color="midnightblue",fontsize="10",style="solid"];
  Node26 -> Node59 [dir="back",color="midnightblue",fontsize="10",style="solid"];
  Node59 [label="pip._internal.vcs.git.Git.get\l_subdirectory",height=0.2,width=0.4,color="red", fillcolor="white", style="filled",URL="$d8/d4d/classpip_1_1__internal_1_1vcs_1_1git_1_1_git.html#a495672bb014464b725f5353f04c64b02",tooltip=" "];
  Node26 -> Node60 [dir="back",color="midnightblue",fontsize="10",style="solid"];
  Node60 [label="pip._internal.vcs.mercurial.\lMercurial.get_subdirectory",height=0.2,width=0.4,color="red", fillcolor="white", style="filled",URL="$db/da0/classpip_1_1__internal_1_1vcs_1_1mercurial_1_1_mercurial.html#ac0f1b0065d98a02edc9d22eb5c90694b",tooltip=" "];
  Node26 -> Node61 [dir="back",color="midnightblue",fontsize="10",style="solid"];
  Node61 [label="setuptools.command.develop.develop.install\l_for_development",height=0.2,width=0.4,color="black", fillcolor="white", style="filled",URL="$d0/d3d/classsetuptools_1_1command_1_1develop_1_1develop.html#a0334bc03494f1c1b9361789a1f080b36",tooltip=" "];
  Node26 -> Node62 [dir="back",color="midnightblue",fontsize="10",style="solid"];
  Node62 [label="setuptools.command.test.test.project\l_on_sys_path",height=0.2,width=0.4,color="red", fillcolor="white", style="filled",URL="$de/d1e/classsetuptools_1_1command_1_1test_1_1test.html#a0b522fa707ccd2575e5db99d32cd5226",tooltip=" "];
  Node26 -> Node14 [dir="back",color="midnightblue",fontsize="10",style="solid"];
  Node26 -> Node65 [dir="back",color="midnightblue",fontsize="10",style="solid"];
  Node65 [label="setuptools._distutils.command.bdist.bdist.run",height=0.2,width=0.4,color="black", fillcolor="white", style="filled",URL="$db/d8c/classsetuptools_1_1__distutils_1_1command_1_1bdist_1_1bdist.html#ae911072daf9a639873de914654353dcb",tooltip=" "];
  Node26 -> Node66 [dir="back",color="midnightblue",fontsize="10",style="solid"];
  Node66 [label="setuptools._distutils.command.bdist\l_dumb.bdist_dumb.run",height=0.2,width=0.4,color="black", fillcolor="white", style="filled",URL="$de/dfd/classsetuptools_1_1__distutils_1_1command_1_1bdist__dumb_1_1bdist__dumb.html#a2c9f36cb7482612d496d19c2e41b9bec",tooltip=" "];
  Node26 -> Node67 [dir="back",color="midnightblue",fontsize="10",style="solid"];
  Node67 [label="setuptools._distutils.command.bdist\l_msi.bdist_msi.run",height=0.2,width=0.4,color="black", fillcolor="white", style="filled",URL="$d4/d63/classsetuptools_1_1__distutils_1_1command_1_1bdist__msi_1_1bdist__msi.html#aaf78383d7e076c7f940708682e1ded40",tooltip=" "];
  Node26 -> Node68 [dir="back",color="midnightblue",fontsize="10",style="solid"];
  Node68 [label="setuptools._distutils.command.bdist\l_rpm.bdist_rpm.run",height=0.2,width=0.4,color="black", fillcolor="white", style="filled",URL="$d7/d13/classsetuptools_1_1__distutils_1_1command_1_1bdist__rpm_1_1bdist__rpm.html#a35e31868300bbdbbf0bf38d2e3abb103",tooltip=" "];
  Node26 -> Node69 [dir="back",color="midnightblue",fontsize="10",style="solid"];
  Node69 [label="setuptools._distutils.command.bdist\l_wininst.bdist_wininst.run",height=0.2,width=0.4,color="black", fillcolor="white", style="filled",URL="$d5/df2/classsetuptools_1_1__distutils_1_1command_1_1bdist__wininst_1_1bdist__wininst.html#a399b918d1063236ea5e59a7884033fc6",tooltip=" "];
  Node26 -> Node70 [dir="back",color="midnightblue",fontsize="10",style="solid"];
  Node70 [label="setuptools._distutils.command.build.build.run",height=0.2,width=0.4,color="black", fillcolor="white", style="filled",URL="$d7/d39/classsetuptools_1_1__distutils_1_1command_1_1build_1_1build.html#a8629055596c257f39bad28eb04cc64d7",tooltip=" "];
  Node26 -> Node71 [dir="back",color="midnightblue",fontsize="10",style="solid"];
  Node71 [label="setuptools._distutils.command.install.install.run",height=0.2,width=0.4,color="black", fillcolor="white", style="filled",URL="$de/df7/classsetuptools_1_1__distutils_1_1command_1_1install_1_1install.html#ae12edd991819be7f8cb0ca36de30c3ed",tooltip=" "];
  Node26 -> Node72 [dir="back",color="midnightblue",fontsize="10",style="solid"];
  Node72 [label="setuptools._distutils.command.install\l_scripts.install_scripts.run",height=0.2,width=0.4,color="black", fillcolor="white", style="filled",URL="$d9/dcb/classsetuptools_1_1__distutils_1_1command_1_1install__scripts_1_1install__scripts.html#aafd2f192eafa5871a13809b78472b129",tooltip=" "];
  Node26 -> Node73 [dir="back",color="midnightblue",fontsize="10",style="solid"];
  Node73 [label="setuptools._distutils.command.register.register.run",height=0.2,width=0.4,color="black", fillcolor="white", style="filled",URL="$de/de8/classsetuptools_1_1__distutils_1_1command_1_1register_1_1register.html#abd5bb7740da36e4892bc45621a73d781",tooltip=" "];
  Node26 -> Node85 [dir="back",color="midnightblue",fontsize="10",style="solid"];
  Node85 [label="pip._internal.vcs.bazaar.\lBazaar.switch",height=0.2,width=0.4,color="black", fillcolor="white", style="filled",URL="$d6/de7/classpip_1_1__internal_1_1vcs_1_1bazaar_1_1_bazaar.html#a4b0582844e574b0f3aa4042e445ec338",tooltip=" "];
  Node85 -> Node5 [dir="back",color="midnightblue",fontsize="10",style="solid"];
  Node26 -> Node86 [dir="back",color="midnightblue",fontsize="10",style="solid"];
  Node86 [label="pip._internal.vcs.git.Git.switch",height=0.2,width=0.4,color="black", fillcolor="white", style="filled",URL="$d8/d4d/classpip_1_1__internal_1_1vcs_1_1git_1_1_git.html#a1816a618d6e7254c4588e3c9be3a60a2",tooltip=" "];
  Node86 -> Node5 [dir="back",color="midnightblue",fontsize="10",style="solid"];
  Node26 -> Node87 [dir="back",color="midnightblue",fontsize="10",style="solid"];
  Node87 [label="pip._internal.vcs.mercurial.\lMercurial.switch",height=0.2,width=0.4,color="black", fillcolor="white", style="filled",URL="$db/da0/classpip_1_1__internal_1_1vcs_1_1mercurial_1_1_mercurial.html#a28bb8fa9041775818ff9446a77c44146",tooltip=" "];
  Node87 -> Node5 [dir="back",color="midnightblue",fontsize="10",style="solid"];
  Node26 -> Node41 [dir="back",color="midnightblue",fontsize="10",style="solid"];
  Node41 [label="pip._internal.vcs.subversion.\lSubversion.switch",height=0.2,width=0.4,color="black", fillcolor="white", style="filled",URL="$d2/db0/classpip_1_1__internal_1_1vcs_1_1subversion_1_1_subversion.html#a0bdef65fc1bef9f97871c1911ed12faf",tooltip=" "];
  Node41 -> Node5 [dir="back",color="midnightblue",fontsize="10",style="solid"];
  Node26 -> Node88 [dir="back",color="midnightblue",fontsize="10",style="solid"];
  Node88 [label="pip._internal.vcs.bazaar.\lBazaar.update",height=0.2,width=0.4,color="red", fillcolor="white", style="filled",URL="$d6/de7/classpip_1_1__internal_1_1vcs_1_1bazaar_1_1_bazaar.html#a0ba5a90abd295871d8f9ccd190ac58d6",tooltip=" "];
  Node88 -> Node5 [dir="back",color="midnightblue",fontsize="10",style="solid"];
  Node26 -> Node15 [dir="back",color="midnightblue",fontsize="10",style="solid"];
  Node26 -> Node89 [dir="back",color="midnightblue",fontsize="10",style="solid"];
  Node89 [label="pip._internal.vcs.mercurial.\lMercurial.update",height=0.2,width=0.4,color="red", fillcolor="white", style="filled",URL="$db/da0/classpip_1_1__internal_1_1vcs_1_1mercurial_1_1_mercurial.html#a43f117f7c17f95fe847d20f08c608f58",tooltip=" "];
  Node89 -> Node5 [dir="back",color="midnightblue",fontsize="10",style="solid"];
  Node26 -> Node42 [dir="back",color="midnightblue",fontsize="10",style="solid"];
  Node42 [label="pip._internal.vcs.subversion.\lSubversion.update",height=0.2,width=0.4,color="red", fillcolor="white", style="filled",URL="$d2/db0/classpip_1_1__internal_1_1vcs_1_1subversion_1_1_subversion.html#af9efc6f286384fb3f4791c4c23a1633c",tooltip=" "];
  Node42 -> Node5 [dir="back",color="midnightblue",fontsize="10",style="solid"];
  Node1 -> Node85 [dir="back",color="midnightblue",fontsize="10",style="solid"];
  Node1 -> Node86 [dir="back",color="midnightblue",fontsize="10",style="solid"];
  Node1 -> Node87 [dir="back",color="midnightblue",fontsize="10",style="solid"];
  Node1 -> Node41 [dir="back",color="midnightblue",fontsize="10",style="solid"];
  Node1 -> Node88 [dir="back",color="midnightblue",fontsize="10",style="solid"];
  Node1 -> Node15 [dir="back",color="midnightblue",fontsize="10",style="solid"];
  Node1 -> Node89 [dir="back",color="midnightblue",fontsize="10",style="solid"];
  Node1 -> Node42 [dir="back",color="midnightblue",fontsize="10",style="solid"];
}
