digraph "pip._vendor.pkg_resources.ZipProvider._get_eager_resources"
{
 // LATEX_PDF_SIZE
  edge [fontname="Helvetica",fontsize="10",labelfontname="Helvetica",labelfontsize="10"];
  node [fontname="Helvetica",fontsize="10",shape=record];
  rankdir="RL";
  Node1 [label="pip._vendor.pkg_resources.\lZipProvider._get_eager\l_resources",height=0.2,width=0.4,color="black", fillcolor="grey75", style="filled", fontcolor="black",tooltip=" "];
  Node1 -> Node2 [dir="back",color="midnightblue",fontsize="10",style="solid"];
  Node2 [label="pip._vendor.pkg_resources.\lZipProvider.get_resource\l_filename",height=0.2,width=0.4,color="black", fillcolor="white", style="filled",URL="$de/dc9/classpip_1_1__vendor_1_1pkg__resources_1_1_zip_provider.html#a86f81d4504722cafa68dad0f29058450",tooltip=" "];
  Node1 -> Node3 [dir="back",color="midnightblue",fontsize="10",style="solid"];
  Node3 [label="pkg_resources.ZipProvider.get\l_resource_filename",height=0.2,width=0.4,color="black", fillcolor="white", style="filled",URL="$d3/d1e/classpkg__resources_1_1_zip_provider.html#afa80d21e26b8d79d8be636f3bfe5d94b",tooltip=" "];
}
