digraph "pip._vendor.pkg_resources.ZipProvider._listdir"
{
 // LATEX_PDF_SIZE
  edge [fontname="Helvetica",fontsize="10",labelfontname="Helvetica",labelfontsize="10"];
  node [fontname="Helvetica",fontsize="10",shape=record];
  rankdir="LR";
  Node1 [label="pip._vendor.pkg_resources.\lZipProvider._listdir",height=0.2,width=0.4,color="black", fillcolor="grey75", style="filled", fontcolor="black",tooltip=" "];
  Node1 -> Node2 [color="midnightblue",fontsize="10",style="solid"];
  Node2 [label="pip._vendor.pkg_resources.\lZipProvider._index",height=0.2,width=0.4,color="black", fillcolor="white", style="filled",URL="$de/dc9/classpip_1_1__vendor_1_1pkg__resources_1_1_zip_provider.html#a87997b2336cee7fa9b48312251f579e8",tooltip=" "];
  Node2 -> Node3 [color="midnightblue",fontsize="10",style="solid"];
  Node3 [label="pip._vendor.pkg_resources.\lZipProvider.zipinfo",height=0.2,width=0.4,color="black", fillcolor="white", style="filled",URL="$de/dc9/classpip_1_1__vendor_1_1pkg__resources_1_1_zip_provider.html#aa18eec9f792616d5ff701a41b3446585",tooltip=" "];
  Node1 -> Node4 [color="midnightblue",fontsize="10",style="solid"];
  Node4 [label="pip._vendor.pkg_resources.\lZipProvider._zipinfo_name",height=0.2,width=0.4,color="black", fillcolor="white", style="filled",URL="$de/dc9/classpip_1_1__vendor_1_1pkg__resources_1_1_zip_provider.html#a8051715fc360454e0d9aea05ec2bc492",tooltip=" "];
  Node1 -> Node5 [color="midnightblue",fontsize="10",style="solid"];
  Node5 [label="pip._vendor.requests.api.get",height=0.2,width=0.4,color="black", fillcolor="white", style="filled",URL="$de/db5/namespacepip_1_1__vendor_1_1requests_1_1api.html#af14e54be255a4489da5fa7e07a48cc63",tooltip=" "];
  Node5 -> Node6 [color="midnightblue",fontsize="10",style="solid"];
  Node6 [label="pip._vendor.requests.api.request",height=0.2,width=0.4,color="black", fillcolor="white", style="filled",URL="$de/db5/namespacepip_1_1__vendor_1_1requests_1_1api.html#a9fdead74de86ac05699e5f4d40aa8d1d",tooltip=" "];
}
