digraph "pip._vendor.pkg_resources.ZipProvider._index"
{
 // LATEX_PDF_SIZE
  edge [fontname="Helvetica",fontsize="10",labelfontname="Helvetica",labelfontsize="10"];
  node [fontname="Helvetica",fontsize="10",shape=record];
  rankdir="RL";
  Node1 [label="pip._vendor.pkg_resources.\lZipProvider._index",height=0.2,width=0.4,color="black", fillcolor="grey75", style="filled", fontcolor="black",tooltip=" "];
  Node1 -> Node2 [dir="back",color="midnightblue",fontsize="10",style="solid"];
  Node2 [label="pip._vendor.pkg_resources.\lZipProvider._extract_resource",height=0.2,width=0.4,color="black", fillcolor="white", style="filled",URL="$de/dc9/classpip_1_1__vendor_1_1pkg__resources_1_1_zip_provider.html#a27bbd41ba15ce33138bce0524d8a9dc2",tooltip=" "];
  Node2 -> Node2 [dir="back",color="midnightblue",fontsize="10",style="solid"];
  Node2 -> Node3 [dir="back",color="midnightblue",fontsize="10",style="solid"];
  Node3 [label="pkg_resources.ZipProvider.\l_extract_resource",height=0.2,width=0.4,color="black", fillcolor="white", style="filled",URL="$d3/d1e/classpkg__resources_1_1_zip_provider.html#ab8fb303e09fae4697ef4a8c2ef750a73",tooltip=" "];
  Node3 -> Node3 [dir="back",color="midnightblue",fontsize="10",style="solid"];
  Node3 -> Node4 [dir="back",color="midnightblue",fontsize="10",style="solid"];
  Node4 [label="pkg_resources.ZipProvider.get\l_resource_filename",height=0.2,width=0.4,color="black", fillcolor="white", style="filled",URL="$d3/d1e/classpkg__resources_1_1_zip_provider.html#afa80d21e26b8d79d8be636f3bfe5d94b",tooltip=" "];
  Node2 -> Node5 [dir="back",color="midnightblue",fontsize="10",style="solid"];
  Node5 [label="pip._vendor.pkg_resources.\lZipProvider.get_resource\l_filename",height=0.2,width=0.4,color="black", fillcolor="white", style="filled",URL="$de/dc9/classpip_1_1__vendor_1_1pkg__resources_1_1_zip_provider.html#a86f81d4504722cafa68dad0f29058450",tooltip=" "];
  Node2 -> Node4 [dir="back",color="midnightblue",fontsize="10",style="solid"];
  Node1 -> Node3 [dir="back",color="midnightblue",fontsize="10",style="solid"];
  Node1 -> Node6 [dir="back",color="midnightblue",fontsize="10",style="solid"];
  Node6 [label="pip._vendor.pkg_resources.\lZipProvider._has",height=0.2,width=0.4,color="black", fillcolor="white", style="filled",URL="$de/dc9/classpip_1_1__vendor_1_1pkg__resources_1_1_zip_provider.html#ab0124f416fcd91fa1c9a378e672b5651",tooltip=" "];
  Node6 -> Node7 [dir="back",color="midnightblue",fontsize="10",style="solid"];
  Node7 [label="pkg_resources.NullProvider.has\l_metadata",height=0.2,width=0.4,color="black", fillcolor="white", style="filled",URL="$d3/da0/classpkg__resources_1_1_null_provider.html#a670947a5ce4a05cbae651365c5294bbc",tooltip=" "];
  Node7 -> Node8 [dir="back",color="midnightblue",fontsize="10",style="solid"];
  Node8 [label="pkg_resources.ZipProvider.\l_get_eager_resources",height=0.2,width=0.4,color="black", fillcolor="white", style="filled",URL="$d3/d1e/classpkg__resources_1_1_zip_provider.html#ab59d9f67973ec7fee401d1ed38239b91",tooltip=" "];
  Node8 -> Node4 [dir="back",color="midnightblue",fontsize="10",style="solid"];
  Node7 -> Node9 [dir="back",color="midnightblue",fontsize="10",style="solid"];
  Node9 [label="pip._vendor.pkg_resources.\lDistribution._get_metadata",height=0.2,width=0.4,color="black", fillcolor="white", style="filled",URL="$d0/ddb/classpip_1_1__vendor_1_1pkg__resources_1_1_distribution.html#afb412e48215aa26610c2b5e8a2f7dedf",tooltip=" "];
  Node9 -> Node10 [dir="back",color="midnightblue",fontsize="10",style="solid"];
  Node10 [label="pip._vendor.pkg_resources.\lDistribution._build_dep_map",height=0.2,width=0.4,color="black", fillcolor="white", style="filled",URL="$d0/ddb/classpip_1_1__vendor_1_1pkg__resources_1_1_distribution.html#a2fd7e221db7d589996df637039aaec54",tooltip=" "];
  Node9 -> Node11 [dir="back",color="midnightblue",fontsize="10",style="solid"];
  Node11 [label="pkg_resources.Distribution.\l_build_dep_map",height=0.2,width=0.4,color="black", fillcolor="white", style="filled",URL="$d8/d25/classpkg__resources_1_1_distribution.html#a75b8ac998893d064a95a0a7da2d87cc7",tooltip=" "];
  Node9 -> Node12 [dir="back",color="midnightblue",fontsize="10",style="solid"];
  Node12 [label="pip._vendor.pkg_resources.\lDistribution._get_version",height=0.2,width=0.4,color="black", fillcolor="white", style="filled",URL="$d0/ddb/classpip_1_1__vendor_1_1pkg__resources_1_1_distribution.html#acdafee5cecb6b52e9e73bfc4e3624322",tooltip=" "];
  Node12 -> Node13 [dir="back",color="midnightblue",fontsize="10",style="solid"];
  Node13 [label="pip._vendor.pkg_resources.\lEggInfoDistribution._reload\l_version",height=0.2,width=0.4,color="black", fillcolor="white", style="filled",URL="$da/d9a/classpip_1_1__vendor_1_1pkg__resources_1_1_egg_info_distribution.html#aefecc9932672660de5c662beb8c98cbc",tooltip=" "];
  Node12 -> Node14 [dir="back",color="midnightblue",fontsize="10",style="solid"];
  Node14 [label="pkg_resources.EggInfoDistribution.\l_reload_version",height=0.2,width=0.4,color="black", fillcolor="white", style="filled",URL="$d4/dc5/classpkg__resources_1_1_egg_info_distribution.html#aef8f091a74e0ddd247286ed3ef2e43aa",tooltip=" "];
  Node12 -> Node15 [dir="back",color="midnightblue",fontsize="10",style="solid"];
  Node15 [label="pip._vendor.pkg_resources.\lDistribution.version",height=0.2,width=0.4,color="black", fillcolor="white", style="filled",URL="$d0/ddb/classpip_1_1__vendor_1_1pkg__resources_1_1_distribution.html#acd94a7f669ee4fc277245673ea39e748",tooltip=" "];
  Node15 -> Node16 [dir="back",color="midnightblue",fontsize="10",style="solid"];
  Node16 [label="pip._vendor.distlib.metadata.\lLegacyMetadata.__repr__",height=0.2,width=0.4,color="black", fillcolor="white", style="filled",URL="$d3/dc5/classpip_1_1__vendor_1_1distlib_1_1metadata_1_1_legacy_metadata.html#a368ff1d11ec3a0476833acdf59541d16",tooltip=" "];
  Node15 -> Node17 [dir="back",color="midnightblue",fontsize="10",style="solid"];
  Node17 [label="pip._vendor.distlib.metadata.\lMetadata.__repr__",height=0.2,width=0.4,color="black", fillcolor="white", style="filled",URL="$d3/df6/classpip_1_1__vendor_1_1distlib_1_1metadata_1_1_metadata.html#a08105ca0987f9e74cb1341a463d6cbe5",tooltip=" "];
  Node15 -> Node18 [dir="back",color="midnightblue",fontsize="10",style="solid"];
  Node18 [label="setuptools.wheel.Wheel.\l_install_as_egg",height=0.2,width=0.4,color="black", fillcolor="white", style="filled",URL="$d8/de5/classsetuptools_1_1wheel_1_1_wheel.html#af38ad98deb2dd9550fdb649d6394af38",tooltip=" "];
  Node18 -> Node19 [dir="back",color="midnightblue",fontsize="10",style="solid"];
  Node19 [label="setuptools.wheel.Wheel.install\l_as_egg",height=0.2,width=0.4,color="black", fillcolor="white", style="filled",URL="$d8/de5/classsetuptools_1_1wheel_1_1_wheel.html#a4d5d8dcde757279d6509a1f9137e595d",tooltip=" "];
  Node15 -> Node20 [dir="back",color="midnightblue",fontsize="10",style="solid"];
  Node20 [label="pip._vendor.pkg_resources.\lDistribution._warn_legacy\l_version",height=0.2,width=0.4,color="black", fillcolor="white", style="filled",URL="$d0/ddb/classpip_1_1__vendor_1_1pkg__resources_1_1_distribution.html#a1b072988ec5f6b3637bcb0d0be0a2772",tooltip=" "];
  Node15 -> Node21 [dir="back",color="midnightblue",fontsize="10",style="solid"];
  Node21 [label="pkg_resources.Distribution.\l_warn_legacy_version",height=0.2,width=0.4,color="black", fillcolor="white", style="filled",URL="$d8/d25/classpkg__resources_1_1_distribution.html#a65484374785d4460c6b92f015fe19a3c",tooltip=" "];
  Node15 -> Node22 [dir="back",color="midnightblue",fontsize="10",style="solid"];
  Node22 [label="pkg_resources._vendor.packaging.specifiers.\l_IndividualSpecifier.contains",height=0.2,width=0.4,color="black", fillcolor="white", style="filled",URL="$d7/d3d/classpkg__resources_1_1__vendor_1_1packaging_1_1specifiers_1_1___individual_specifier.html#afc614431c7e139a948866248f6f01bb4",tooltip=" "];
  Node22 -> Node23 [dir="back",color="midnightblue",fontsize="10",style="solid"];
  Node23 [label="setuptools._vendor.packaging.specifiers.\l_IndividualSpecifier.__contains__",height=0.2,width=0.4,color="black", fillcolor="white", style="filled",URL="$d2/dfa/classsetuptools_1_1__vendor_1_1packaging_1_1specifiers_1_1___individual_specifier.html#ac8c5634a825694d276f2cf5c4b3cb9bd",tooltip=" "];
  Node22 -> Node24 [dir="back",color="midnightblue",fontsize="10",style="solid"];
  Node24 [label="setuptools._vendor.packaging.specifiers.\lSpecifierSet.__contains__",height=0.2,width=0.4,color="black", fillcolor="white", style="filled",URL="$d6/d78/classsetuptools_1_1__vendor_1_1packaging_1_1specifiers_1_1_specifier_set.html#a883c1e784aebcb300e68cd5e08c7ea8a",tooltip=" "];
  Node22 -> Node25 [dir="back",color="midnightblue",fontsize="10",style="solid"];
  Node25 [label="setuptools._vendor.packaging.specifiers.\l_IndividualSpecifier.filter",height=0.2,width=0.4,color="black", fillcolor="white", style="filled",URL="$d2/dfa/classsetuptools_1_1__vendor_1_1packaging_1_1specifiers_1_1___individual_specifier.html#af07e3f018647cb7a004791b6436993e1",tooltip=" "];
  Node15 -> Node26 [dir="back",color="midnightblue",fontsize="10",style="solid"];
  Node26 [label="setuptools._vendor.packaging.specifiers.\l_IndividualSpecifier.contains",height=0.2,width=0.4,color="black", fillcolor="white", style="filled",URL="$d2/dfa/classsetuptools_1_1__vendor_1_1packaging_1_1specifiers_1_1___individual_specifier.html#add310771a2fd25ae2670e7ed15c81160",tooltip=" "];
  Node15 -> Node27 [dir="back",color="midnightblue",fontsize="10",style="solid"];
  Node27 [label="pip._vendor.pkg_resources.\lDistribution.egg_name",height=0.2,width=0.4,color="black", fillcolor="white", style="filled",URL="$d0/ddb/classpip_1_1__vendor_1_1pkg__resources_1_1_distribution.html#aa61d5600e0896e46b1708c4dcb9393f5",tooltip=" "];
  Node15 -> Node28 [dir="back",color="midnightblue",fontsize="10",style="solid"];
  Node28 [label="pkg_resources.Distribution.egg_name",height=0.2,width=0.4,color="black", fillcolor="white", style="filled",URL="$d8/d25/classpkg__resources_1_1_distribution.html#a229d424f62d10b7e83bba3b3efe6dbbb",tooltip=" "];
  Node15 -> Node29 [dir="back",color="midnightblue",fontsize="10",style="solid"];
  Node29 [label="setuptools.wheel.Wheel.egg_name",height=0.2,width=0.4,color="black", fillcolor="white", style="filled",URL="$d8/de5/classsetuptools_1_1wheel_1_1_wheel.html#a8003a0c439abab30a420897c391dfbe1",tooltip=" "];
  Node15 -> Node30 [dir="back",color="midnightblue",fontsize="10",style="solid"];
  Node30 [label="pip._vendor.pkg_resources.\lDistribution.has_version",height=0.2,width=0.4,color="black", fillcolor="white", style="filled",URL="$d0/ddb/classpip_1_1__vendor_1_1pkg__resources_1_1_distribution.html#acc58f778b2bb60f7b306e4d1bdef759e",tooltip=" "];
  Node15 -> Node31 [dir="back",color="midnightblue",fontsize="10",style="solid"];
  Node31 [label="pkg_resources.Distribution.has\l_version",height=0.2,width=0.4,color="black", fillcolor="white", style="filled",URL="$d8/d25/classpkg__resources_1_1_distribution.html#aa8b8ad9f54c86275b77b1966881df122",tooltip=" "];
  Node15 -> Node32 [dir="back",color="midnightblue",fontsize="10",style="solid"];
  Node32 [label="pip._vendor.distlib.metadata.\lMetadata.name_and_version",height=0.2,width=0.4,color="black", fillcolor="white", style="filled",URL="$d3/df6/classpip_1_1__vendor_1_1distlib_1_1metadata_1_1_metadata.html#a958dc84c5959001c3c94c99c262c8268",tooltip=" "];
  Node15 -> Node33 [dir="back",color="midnightblue",fontsize="10",style="solid"];
  Node33 [label="pip._vendor.distlib.metadata.\lMetadata.provides",height=0.2,width=0.4,color="red", fillcolor="white", style="filled",URL="$d3/df6/classpip_1_1__vendor_1_1distlib_1_1metadata_1_1_metadata.html#a700307186309aa299c50bbe7515cb58d",tooltip=" "];
  Node33 -> Node34 [dir="back",color="midnightblue",fontsize="10",style="solid"];
  Node34 [label="pip._vendor.distlib.metadata.\lMetadata._from_legacy",height=0.2,width=0.4,color="red", fillcolor="white", style="filled",URL="$d3/df6/classpip_1_1__vendor_1_1distlib_1_1metadata_1_1_metadata.html#a78ae3c1cd2c31e4376d991cba08ba678",tooltip=" "];
  Node12 -> Node43 [dir="back",color="midnightblue",fontsize="10",style="solid"];
  Node43 [label="pkg_resources.Distribution.version",height=0.2,width=0.4,color="black", fillcolor="white", style="filled",URL="$d8/d25/classpkg__resources_1_1_distribution.html#a454a1c3eae52dee89980a24d7c67f036",tooltip=" "];
  Node43 -> Node16 [dir="back",color="midnightblue",fontsize="10",style="solid"];
  Node43 -> Node17 [dir="back",color="midnightblue",fontsize="10",style="solid"];
  Node43 -> Node18 [dir="back",color="midnightblue",fontsize="10",style="solid"];
  Node43 -> Node21 [dir="back",color="midnightblue",fontsize="10",style="solid"];
  Node43 -> Node22 [dir="back",color="midnightblue",fontsize="10",style="solid"];
  Node43 -> Node26 [dir="back",color="midnightblue",fontsize="10",style="solid"];
  Node43 -> Node28 [dir="back",color="midnightblue",fontsize="10",style="solid"];
  Node43 -> Node29 [dir="back",color="midnightblue",fontsize="10",style="solid"];
  Node43 -> Node31 [dir="back",color="midnightblue",fontsize="10",style="solid"];
  Node43 -> Node32 [dir="back",color="midnightblue",fontsize="10",style="solid"];
  Node43 -> Node33 [dir="back",color="midnightblue",fontsize="10",style="solid"];
  Node9 -> Node44 [dir="back",color="midnightblue",fontsize="10",style="solid"];
  Node44 [label="pkg_resources.Distribution.\l_get_version",height=0.2,width=0.4,color="black", fillcolor="white", style="filled",URL="$d8/d25/classpkg__resources_1_1_distribution.html#af5dae4847c9577a7d705d347cee0050c",tooltip=" "];
  Node44 -> Node14 [dir="back",color="midnightblue",fontsize="10",style="solid"];
  Node44 -> Node43 [dir="back",color="midnightblue",fontsize="10",style="solid"];
  Node9 -> Node45 [dir="back",color="midnightblue",fontsize="10",style="solid"];
  Node45 [label="pip._vendor.pkg_resources.\lDistribution.activate",height=0.2,width=0.4,color="black", fillcolor="white", style="filled",URL="$d0/ddb/classpip_1_1__vendor_1_1pkg__resources_1_1_distribution.html#a01dcb36642b9cabcedd14c3f50a59657",tooltip=" "];
  Node9 -> Node46 [dir="back",color="midnightblue",fontsize="10",style="solid"];
  Node46 [label="pkg_resources.Distribution.activate",height=0.2,width=0.4,color="black", fillcolor="white", style="filled",URL="$d8/d25/classpkg__resources_1_1_distribution.html#a4c4474f066527ee18c2dc15af67911df",tooltip=" "];
  Node7 -> Node47 [dir="back",color="midnightblue",fontsize="10",style="solid"];
  Node47 [label="pkg_resources.Distribution.\l_get_metadata",height=0.2,width=0.4,color="black", fillcolor="white", style="filled",URL="$d8/d25/classpkg__resources_1_1_distribution.html#aef94e0673364008155aef7b4d2475601",tooltip=" "];
  Node47 -> Node11 [dir="back",color="midnightblue",fontsize="10",style="solid"];
  Node47 -> Node44 [dir="back",color="midnightblue",fontsize="10",style="solid"];
  Node47 -> Node46 [dir="back",color="midnightblue",fontsize="10",style="solid"];
  Node7 -> Node48 [dir="back",color="midnightblue",fontsize="10",style="solid"];
  Node48 [label="pkg_resources.NullProvider.run\l_script",height=0.2,width=0.4,color="black", fillcolor="white", style="filled",URL="$d3/da0/classpkg__resources_1_1_null_provider.html#a03ae8028263462bb68477eb92f1610a2",tooltip=" "];
  Node6 -> Node49 [dir="back",color="midnightblue",fontsize="10",style="solid"];
  Node49 [label="pkg_resources.NullProvider.has\l_resource",height=0.2,width=0.4,color="black", fillcolor="white", style="filled",URL="$d3/da0/classpkg__resources_1_1_null_provider.html#a34bb6a57b35a7b35dcadf2558333e152",tooltip=" "];
  Node1 -> Node50 [dir="back",color="midnightblue",fontsize="10",style="solid"];
  Node50 [label="pkg_resources.ZipProvider._has",height=0.2,width=0.4,color="black", fillcolor="white", style="filled",URL="$d3/d1e/classpkg__resources_1_1_zip_provider.html#ac356a31de896418b2f6bcda35d51ba84",tooltip=" "];
  Node1 -> Node51 [dir="back",color="midnightblue",fontsize="10",style="solid"];
  Node51 [label="pip._vendor.pkg_resources.\lZipProvider._isdir",height=0.2,width=0.4,color="black", fillcolor="white", style="filled",URL="$de/dc9/classpip_1_1__vendor_1_1pkg__resources_1_1_zip_provider.html#acc807589a698560763930ce6301be55f",tooltip=" "];
  Node51 -> Node52 [dir="back",color="midnightblue",fontsize="10",style="solid"];
  Node52 [label="pkg_resources.NullProvider.metadata\l_isdir",height=0.2,width=0.4,color="black", fillcolor="white", style="filled",URL="$d3/da0/classpkg__resources_1_1_null_provider.html#ac64fbb695098a3754d81882a6b3457da",tooltip=" "];
  Node51 -> Node53 [dir="back",color="midnightblue",fontsize="10",style="solid"];
  Node53 [label="pkg_resources.NullProvider.resource\l_isdir",height=0.2,width=0.4,color="black", fillcolor="white", style="filled",URL="$d3/da0/classpkg__resources_1_1_null_provider.html#af31acf6ad0520ee29b7713e2ad331a1a",tooltip=" "];
  Node1 -> Node54 [dir="back",color="midnightblue",fontsize="10",style="solid"];
  Node54 [label="pkg_resources.ZipProvider.\l_isdir",height=0.2,width=0.4,color="black", fillcolor="white", style="filled",URL="$d3/d1e/classpkg__resources_1_1_zip_provider.html#a3c1d8c1be64bab1ea141b2da668c3709",tooltip=" "];
  Node1 -> Node55 [dir="back",color="midnightblue",fontsize="10",style="solid"];
  Node55 [label="pip._vendor.pkg_resources.\lZipProvider._listdir",height=0.2,width=0.4,color="black", fillcolor="white", style="filled",URL="$de/dc9/classpip_1_1__vendor_1_1pkg__resources_1_1_zip_provider.html#a1a6785d6fc69670b2a6696d5c0819e25",tooltip=" "];
  Node55 -> Node56 [dir="back",color="midnightblue",fontsize="10",style="solid"];
  Node56 [label="pkg_resources.NullProvider.metadata\l_listdir",height=0.2,width=0.4,color="black", fillcolor="white", style="filled",URL="$d3/da0/classpkg__resources_1_1_null_provider.html#a3cb806ee524e9fe799811bb789d37591",tooltip=" "];
  Node55 -> Node57 [dir="back",color="midnightblue",fontsize="10",style="solid"];
  Node57 [label="pkg_resources.NullProvider.resource\l_listdir",height=0.2,width=0.4,color="black", fillcolor="white", style="filled",URL="$d3/da0/classpkg__resources_1_1_null_provider.html#acba3c4c30764a40146f28cc1be50808a",tooltip=" "];
  Node1 -> Node58 [dir="back",color="midnightblue",fontsize="10",style="solid"];
  Node58 [label="pkg_resources.ZipProvider.\l_listdir",height=0.2,width=0.4,color="black", fillcolor="white", style="filled",URL="$d3/d1e/classpkg__resources_1_1_zip_provider.html#ac8279d563de0865f8bf78d6204bde64c",tooltip=" "];
}
