digraph "pip._internal.network.cache.SafeFileCache.get"
{
 // LATEX_PDF_SIZE
  edge [fontname="Helvetica",fontsize="10",labelfontname="Helvetica",labelfontsize="10"];
  node [fontname="Helvetica",fontsize="10",shape=record];
  rankdir="LR";
  Node1 [label="pip._internal.network.cache.\lSafeFileCache.get",height=0.2,width=0.4,color="black", fillcolor="grey75", style="filled", fontcolor="black",tooltip=" "];
  Node1 -> Node2 [color="midnightblue",fontsize="10",style="solid"];
  Node2 [label="pip._internal.network.cache.\lSafeFileCache._get_cache_path",height=0.2,width=0.4,color="black", fillcolor="white", style="filled",URL="$d6/db2/classpip_1_1__internal_1_1network_1_1cache_1_1_safe_file_cache.html#a5fad24a457033ba45859c326f942cee8",tooltip=" "];
  Node1 -> Node3 [color="midnightblue",fontsize="10",style="solid"];
  Node3 [label="pip._internal.network.cache.suppressed\l_cache_errors",height=0.2,width=0.4,color="black", fillcolor="white", style="filled",URL="$d6/d3c/namespacepip_1_1__internal_1_1network_1_1cache.html#a9f176df75f4d12bd9d53d7bb66ea610d",tooltip=" "];
}
