digraph "pip._vendor.distlib._backport.tarfile.TarFile.chown"
{
 // LATEX_PDF_SIZE
  edge [fontname="Helvetica",fontsize="10",labelfontname="Helvetica",labelfontsize="10"];
  node [fontname="Helvetica",fontsize="10",shape=record];
  rankdir="RL";
  Node1 [label="pip._vendor.distlib.\l_backport.tarfile.TarFile.chown",height=0.2,width=0.4,color="black", fillcolor="grey75", style="filled", fontcolor="black",tooltip=" "];
  Node1 -> Node2 [dir="back",color="midnightblue",fontsize="10",style="solid"];
  Node2 [label="pip._vendor.distlib.\l_backport.tarfile.TarFile.\l_extract_member",height=0.2,width=0.4,color="black", fillcolor="white", style="filled",URL="$d7/d1d/classpip_1_1__vendor_1_1distlib_1_1__backport_1_1tarfile_1_1_tar_file.html#a2affe8c6578ba71386cf77d0b0ed3238",tooltip=" "];
  Node2 -> Node3 [dir="back",color="midnightblue",fontsize="10",style="solid"];
  Node3 [label="pip._vendor.distlib.\l_backport.tarfile.TarFile.extract",height=0.2,width=0.4,color="black", fillcolor="white", style="filled",URL="$d7/d1d/classpip_1_1__vendor_1_1distlib_1_1__backport_1_1tarfile_1_1_tar_file.html#a51599135272eb887f2c4204727b583b6",tooltip=" "];
  Node3 -> Node4 [dir="back",color="midnightblue",fontsize="10",style="solid"];
  Node4 [label="pip._vendor.distlib.\l_backport.tarfile.TarFile.extractall",height=0.2,width=0.4,color="black", fillcolor="white", style="filled",URL="$d7/d1d/classpip_1_1__vendor_1_1distlib_1_1__backport_1_1tarfile_1_1_tar_file.html#a4b5763d1d14190f34cf9654c77d903eb",tooltip=" "];
  Node2 -> Node5 [dir="back",color="midnightblue",fontsize="10",style="solid"];
  Node5 [label="pip._vendor.distlib.\l_backport.tarfile.TarFile.makelink",height=0.2,width=0.4,color="black", fillcolor="white", style="filled",URL="$d7/d1d/classpip_1_1__vendor_1_1distlib_1_1__backport_1_1tarfile_1_1_tar_file.html#a505f8985df12987de20efca1b885b25f",tooltip=" "];
  Node5 -> Node2 [dir="back",color="midnightblue",fontsize="10",style="solid"];
  Node1 -> Node4 [dir="back",color="midnightblue",fontsize="10",style="solid"];
}
