\relax 
\providecommand\hyper@newdestlabel[2]{}
\providecommand\HyperFirstAtBeginDocument{\AtBeginDocument}
\HyperFirstAtBeginDocument{\ifx\hyper@anchor\@undefined
\global\let\oldcontentsline\contentsline
\gdef\contentsline#1#2#3#4{\oldcontentsline{#1}{#2}{#3}}
\global\let\oldnewlabel\newlabel
\gdef\newlabel#1#2{\newlabelxx{#1}#2}
\gdef\newlabelxx#1#2#3#4#5#6{\oldnewlabel{#1}{{#2}{#3}}}
\AtEndDocument{\ifx\hyper@anchor\@undefined
\let\contentsline\oldcontentsline
\let\newlabel\oldnewlabel
\fi}
\fi}
\global\let\hyper@last\relax 
\gdef\HyperFirstAtBeginDocument#1{#1}
\providecommand\HyField@AuxAddToFields[1]{}
\providecommand\HyField@AuxAddToCoFields[2]{}
\providecommand \oddpage@label [2]{}
\@writefile{toc}{\@ifundefined {etoctocstyle}{\let \etoc@startlocaltoc \@gobble \let \etoc@settocdepth \@gobble \let \etoc@depthtag \@gobble \let \etoc@setlocaltop \@gobble }{}}
\@writefile{toc}{\contentsline {section}{\numberline {1}The Burridge Knopoff model}{1}{section.1}\protected@file@percent }
\newlabel{index}{{1}{1}{The Burridge Knopoff model}{section.1}{}}
\newlabel{index_md_README}{{1}{1}{The Burridge Knopoff model}{section.1}{}}
\@writefile{toc}{\contentsline {subsection}{\numberline {1.1}Descripton}{1}{subsection.1.1}\protected@file@percent }
\newlabel{index_autotoc_md1}{{1.1}{1}{Descripton}{subsection.1.1}{}}
\@writefile{toc}{\contentsline {subsection}{\numberline {1.2}Motivation}{2}{subsection.1.2}\protected@file@percent }
\newlabel{index_autotoc_md2}{{1.2}{2}{Motivation}{subsection.1.2}{}}
\@writefile{toc}{\contentsline {subsection}{\numberline {1.3}Directiories}{2}{subsection.1.3}\protected@file@percent }
\newlabel{index_autotoc_md3}{{1.3}{2}{Directiories}{subsection.1.3}{}}
\@writefile{toc}{\contentsline {subsubsection}{\numberline {1.3.1}yaml}{2}{subsubsection.1.3.1}\protected@file@percent }
\newlabel{index_autotoc_md4}{{1.3.1}{2}{yaml}{subsubsection.1.3.1}{}}
\@writefile{toc}{\contentsline {subsubsection}{\numberline {1.3.2}src}{2}{subsubsection.1.3.2}\protected@file@percent }
\newlabel{index_autotoc_md5}{{1.3.2}{2}{src}{subsubsection.1.3.2}{}}
\newlabel{index_autotoc_md6}{{1.3.2.1}{2}{src/simulation\+:}{paragraph.1.3.2.1}{}}
\@writefile{toc}{\contentsline {paragraph}{\numberline {1.3.2.1}src/simulation\discretionary {\mbox  {\scriptsize  $\DOTSB \leftarrow \joinrel  \rhook $}}{}{}:}{2}{paragraph.1.3.2.1}\protected@file@percent }
\newlabel{index_autotoc_md7}{{1.3.2.2}{2}{src/plots\+:}{paragraph.1.3.2.2}{}}
\@writefile{toc}{\contentsline {paragraph}{\numberline {1.3.2.2}src/plots\discretionary {\mbox  {\scriptsize  $\DOTSB \leftarrow \joinrel  \rhook $}}{}{}:}{2}{paragraph.1.3.2.2}\protected@file@percent }
\newlabel{index_autotoc_md8}{{1.3.2.3}{2}{src/archive\+:}{paragraph.1.3.2.3}{}}
\@writefile{toc}{\contentsline {paragraph}{\numberline {1.3.2.3}src/archive\discretionary {\mbox  {\scriptsize  $\DOTSB \leftarrow \joinrel  \rhook $}}{}{}:}{2}{paragraph.1.3.2.3}\protected@file@percent }
\@writefile{toc}{\contentsline {subsubsection}{\numberline {1.3.3}include}{2}{subsubsection.1.3.3}\protected@file@percent }
\newlabel{index_autotoc_md9}{{1.3.3}{2}{include}{subsubsection.1.3.3}{}}
\@writefile{toc}{\contentsline {subsubsection}{\numberline {1.3.4}results}{2}{subsubsection.1.3.4}\protected@file@percent }
\newlabel{index_autotoc_md10}{{1.3.4}{2}{results}{subsubsection.1.3.4}{}}
\@writefile{toc}{\contentsline {subsubsection}{\numberline {1.3.5}html, latex and .\discretionary {\mbox  {\scriptsize  $\DOTSB \leftarrow \joinrel  \rhook $}}{}{}vscode}{2}{subsubsection.1.3.5}\protected@file@percent }
\newlabel{index_autotoc_md11}{{1.3.5}{2}{html, latex and .\+vscode}{subsubsection.1.3.5}{}}
\@writefile{toc}{\contentsline {subsection}{\numberline {1.4}Installation}{3}{subsection.1.4}\protected@file@percent }
\newlabel{index_autotoc_md12}{{1.4}{3}{Installation}{subsection.1.4}{}}
\@writefile{toc}{\contentsline {subsubsection}{\numberline {1.4.1}Simulations (c++)}{3}{subsubsection.1.4.1}\protected@file@percent }
\newlabel{index_autotoc_md13}{{1.4.1}{3}{Simulations (c++)}{subsubsection.1.4.1}{}}
\@writefile{toc}{\contentsline {subsubsection}{\numberline {1.4.2}Compilation}{3}{subsubsection.1.4.2}\protected@file@percent }
\newlabel{index_autotoc_md14}{{1.4.2}{3}{Compilation}{subsubsection.1.4.2}{}}
\newlabel{index_autotoc_md15}{{1.4.2.1}{3}{If it wont compile\+:}{paragraph.1.4.2.1}{}}
\@writefile{toc}{\contentsline {paragraph}{\numberline {1.4.2.1}If it wont compile\discretionary {\mbox  {\scriptsize  $\DOTSB \leftarrow \joinrel  \rhook $}}{}{}:}{3}{paragraph.1.4.2.1}\protected@file@percent }
\@writefile{toc}{\contentsline {subsubsection}{\numberline {1.4.3}Pythonplots}{3}{subsubsection.1.4.3}\protected@file@percent }
\newlabel{index_autotoc_md16}{{1.4.3}{3}{Pythonplots}{subsubsection.1.4.3}{}}
\@writefile{toc}{\contentsline {section}{\numberline {2}src/simulation}{4}{section.2}\protected@file@percent }
\newlabel{md_src_simulation_readme}{{2}{4}{src/simulation}{section.2}{}}
\@writefile{toc}{\contentsline {subsection}{\numberline {2.1}Description}{4}{subsection.2.1}\protected@file@percent }
\newlabel{md_src_simulation_readme_autotoc_md18}{{2.1}{4}{Description}{subsection.2.1}{}}
\@writefile{toc}{\contentsline {subsubsection}{\numberline {2.1.1}Class Simulation}{4}{subsubsection.2.1.1}\protected@file@percent }
\newlabel{md_src_simulation_readme_autotoc_md19}{{2.1.1}{4}{Class Simulation}{subsubsection.2.1.1}{}}
\newlabel{md_src_simulation_readme_autotoc_md20}{{2.1.1.1}{4}{simulation.\+cpp}{paragraph.2.1.1.1}{}}
\@writefile{toc}{\contentsline {paragraph}{\numberline {2.1.1.1}simulation.\discretionary {\mbox  {\scriptsize  $\DOTSB \leftarrow \joinrel  \rhook $}}{}{}cpp}{4}{paragraph.2.1.1.1}\protected@file@percent }
\newlabel{md_src_simulation_readme_autotoc_md21}{{2.1.1.2}{4}{simulation\+\_\+setup.\+cpp}{paragraph.2.1.1.2}{}}
\@writefile{toc}{\contentsline {paragraph}{\numberline {2.1.1.2}simulation\discretionary {\mbox  {\scriptsize  $\DOTSB \leftarrow \joinrel  \rhook $}}{}{}\_\discretionary {\mbox  {\scriptsize  $\DOTSB \leftarrow \joinrel  \rhook $}}{}{}setup.\discretionary {\mbox  {\scriptsize  $\DOTSB \leftarrow \joinrel  \rhook $}}{}{}cpp}{4}{paragraph.2.1.1.2}\protected@file@percent }
\newlabel{md_src_simulation_readme_autotoc_md22}{{2.1.1.3}{4}{midpoint.\+cpp}{paragraph.2.1.1.3}{}}
\@writefile{toc}{\contentsline {paragraph}{\numberline {2.1.1.3}midpoint.\discretionary {\mbox  {\scriptsize  $\DOTSB \leftarrow \joinrel  \rhook $}}{}{}cpp}{4}{paragraph.2.1.1.3}\protected@file@percent }
\newlabel{md_src_simulation_readme_autotoc_md23}{{2.1.1.4}{4}{numerical.\+cpp}{paragraph.2.1.1.4}{}}
\@writefile{toc}{\contentsline {paragraph}{\numberline {2.1.1.4}numerical.\discretionary {\mbox  {\scriptsize  $\DOTSB \leftarrow \joinrel  \rhook $}}{}{}cpp}{4}{paragraph.2.1.1.4}\protected@file@percent }
\newlabel{md_src_simulation_readme_autotoc_md24}{{2.1.1.5}{4}{simulation\+\_\+paralell\+\_\+friction.\+cpp}{paragraph.2.1.1.5}{}}
\@writefile{toc}{\contentsline {paragraph}{\numberline {2.1.1.5}simulation\discretionary {\mbox  {\scriptsize  $\DOTSB \leftarrow \joinrel  \rhook $}}{}{}\_\discretionary {\mbox  {\scriptsize  $\DOTSB \leftarrow \joinrel  \rhook $}}{}{}paralell\discretionary {\mbox  {\scriptsize  $\DOTSB \leftarrow \joinrel  \rhook $}}{}{}\_\discretionary {\mbox  {\scriptsize  $\DOTSB \leftarrow \joinrel  \rhook $}}{}{}friction.\discretionary {\mbox  {\scriptsize  $\DOTSB \leftarrow \joinrel  \rhook $}}{}{}cpp}{4}{paragraph.2.1.1.5}\protected@file@percent }
\newlabel{md_src_simulation_readme_autotoc_md25}{{2.1.1.6}{4}{suimulation\+\_\+help\+\_\+functions.\+cpp}{paragraph.2.1.1.6}{}}
\@writefile{toc}{\contentsline {paragraph}{\numberline {2.1.1.6}suimulation\discretionary {\mbox  {\scriptsize  $\DOTSB \leftarrow \joinrel  \rhook $}}{}{}\_\discretionary {\mbox  {\scriptsize  $\DOTSB \leftarrow \joinrel  \rhook $}}{}{}help\discretionary {\mbox  {\scriptsize  $\DOTSB \leftarrow \joinrel  \rhook $}}{}{}\_\discretionary {\mbox  {\scriptsize  $\DOTSB \leftarrow \joinrel  \rhook $}}{}{}functions.\discretionary {\mbox  {\scriptsize  $\DOTSB \leftarrow \joinrel  \rhook $}}{}{}cpp}{4}{paragraph.2.1.1.6}\protected@file@percent }
\@writefile{toc}{\contentsline {subsubsection}{\numberline {2.1.2}Class Parameters}{4}{subsubsection.2.1.2}\protected@file@percent }
\newlabel{md_src_simulation_readme_autotoc_md26}{{2.1.2}{4}{Class Parameters}{subsubsection.2.1.2}{}}
\newlabel{md_src_simulation_readme_autotoc_md27}{{2.1.2.1}{4}{parameters.\+cpp}{paragraph.2.1.2.1}{}}
\@writefile{toc}{\contentsline {paragraph}{\numberline {2.1.2.1}parameters.\discretionary {\mbox  {\scriptsize  $\DOTSB \leftarrow \joinrel  \rhook $}}{}{}cpp}{4}{paragraph.2.1.2.1}\protected@file@percent }
\@writefile{toc}{\contentsline {subsubsection}{\numberline {2.1.3}Class Operations}{4}{subsubsection.2.1.3}\protected@file@percent }
\newlabel{md_src_simulation_readme_autotoc_md28}{{2.1.3}{4}{Class Operations}{subsubsection.2.1.3}{}}
\newlabel{md_src_simulation_readme_autotoc_md29}{{2.1.3.1}{4}{operations.\+cpp}{paragraph.2.1.3.1}{}}
\@writefile{toc}{\contentsline {paragraph}{\numberline {2.1.3.1}operations.\discretionary {\mbox  {\scriptsize  $\DOTSB \leftarrow \joinrel  \rhook $}}{}{}cpp}{4}{paragraph.2.1.3.1}\protected@file@percent }
\newlabel{md_src_simulation_readme_autotoc_md30}{{2.1.3.2}{4}{operation\+\_\+eigen.\+cpp}{paragraph.2.1.3.2}{}}
\@writefile{toc}{\contentsline {paragraph}{\numberline {2.1.3.2}operation\discretionary {\mbox  {\scriptsize  $\DOTSB \leftarrow \joinrel  \rhook $}}{}{}\_\discretionary {\mbox  {\scriptsize  $\DOTSB \leftarrow \joinrel  \rhook $}}{}{}eigen.\discretionary {\mbox  {\scriptsize  $\DOTSB \leftarrow \joinrel  \rhook $}}{}{}cpp}{4}{paragraph.2.1.3.2}\protected@file@percent }
\newlabel{md_src_simulation_readme_autotoc_md31}{{2.1.3.3}{4}{operation\+\_\+heat\+\_\+map.\+cpp}{paragraph.2.1.3.3}{}}
\@writefile{toc}{\contentsline {paragraph}{\numberline {2.1.3.3}operation\discretionary {\mbox  {\scriptsize  $\DOTSB \leftarrow \joinrel  \rhook $}}{}{}\_\discretionary {\mbox  {\scriptsize  $\DOTSB \leftarrow \joinrel  \rhook $}}{}{}heat\discretionary {\mbox  {\scriptsize  $\DOTSB \leftarrow \joinrel  \rhook $}}{}{}\_\discretionary {\mbox  {\scriptsize  $\DOTSB \leftarrow \joinrel  \rhook $}}{}{}map.\discretionary {\mbox  {\scriptsize  $\DOTSB \leftarrow \joinrel  \rhook $}}{}{}cpp}{4}{paragraph.2.1.3.3}\protected@file@percent }
\newlabel{md_src_simulation_readme_autotoc_md32}{{2.1.3.4}{5}{sort\+\_\+eigenvalues.\+py}{paragraph.2.1.3.4}{}}
\@writefile{toc}{\contentsline {paragraph}{\numberline {2.1.3.4}sort\discretionary {\mbox  {\scriptsize  $\DOTSB \leftarrow \joinrel  \rhook $}}{}{}\_\discretionary {\mbox  {\scriptsize  $\DOTSB \leftarrow \joinrel  \rhook $}}{}{}eigenvalues.\discretionary {\mbox  {\scriptsize  $\DOTSB \leftarrow \joinrel  \rhook $}}{}{}py}{5}{paragraph.2.1.3.4}\protected@file@percent }
\@writefile{toc}{\contentsline {subsubsection}{\numberline {2.1.4}makefile}{5}{subsubsection.2.1.4}\protected@file@percent }
\newlabel{md_src_simulation_readme_autotoc_md33}{{2.1.4}{5}{makefile}{subsubsection.2.1.4}{}}
\@writefile{toc}{\contentsline {subsection}{\numberline {2.2}Installation}{5}{subsection.2.2}\protected@file@percent }
\newlabel{md_src_simulation_readme_autotoc_md34}{{2.2}{5}{Installation}{subsection.2.2}{}}
\@writefile{toc}{\contentsline {subsubsection}{\numberline {2.2.1}Simulations packages (c++)}{5}{subsubsection.2.2.1}\protected@file@percent }
\newlabel{md_src_simulation_readme_autotoc_md35}{{2.2.1}{5}{Simulations packages (c++)}{subsubsection.2.2.1}{}}
\@writefile{toc}{\contentsline {subsubsection}{\numberline {2.2.2}Compilation}{5}{subsubsection.2.2.2}\protected@file@percent }
\newlabel{md_src_simulation_readme_autotoc_md36}{{2.2.2}{5}{Compilation}{subsubsection.2.2.2}{}}
\newlabel{md_src_simulation_readme_autotoc_md37}{{2.2.2.1}{5}{Problems?}{paragraph.2.2.2.1}{}}
\@writefile{toc}{\contentsline {paragraph}{\numberline {2.2.2.1}Problems?}{5}{paragraph.2.2.2.1}\protected@file@percent }
\@writefile{toc}{\contentsline {section}{\numberline {3}Namespace Index}{5}{section.3}\protected@file@percent }
\@writefile{toc}{\contentsline {subsection}{\numberline {3.1}Namespace List}{5}{subsection.3.1}\protected@file@percent }
\@writefile{toc}{\contentsline {section}{\numberline {4}Hierarchical Index}{6}{section.4}\protected@file@percent }
\@writefile{toc}{\contentsline {subsection}{\numberline {4.1}Class Hierarchy}{6}{subsection.4.1}\protected@file@percent }
\@writefile{toc}{\contentsline {section}{\numberline {5}Class Index}{6}{section.5}\protected@file@percent }
\@writefile{toc}{\contentsline {subsection}{\numberline {5.1}Class List}{6}{subsection.5.1}\protected@file@percent }
\@writefile{toc}{\contentsline {section}{\numberline {6}File Index}{6}{section.6}\protected@file@percent }
\@writefile{toc}{\contentsline {subsection}{\numberline {6.1}File List}{6}{subsection.6.1}\protected@file@percent }
\@writefile{toc}{\contentsline {section}{\numberline {7}Namespace Documentation}{7}{section.7}\protected@file@percent }
\@writefile{toc}{\contentsline {subsection}{\numberline {7.1}sort\discretionary {\mbox  {\scriptsize  $\DOTSB \leftarrow \joinrel  \rhook $}}{}{}\_\discretionary {\mbox  {\scriptsize  $\DOTSB \leftarrow \joinrel  \rhook $}}{}{}eigenvalues Namespace Reference}{7}{subsection.7.1}\protected@file@percent }
\newlabel{namespacesort__eigenvalues}{{7.1}{7}{sort\+\_\+eigenvalues Namespace Reference}{subsection.7.1}{}}
\@writefile{toc}{\contentsline {subsubsection}{\numberline {7.1.1}Function Documentation}{7}{subsubsection.7.1.1}\protected@file@percent }
\newlabel{namespacesort__eigenvalues_a15b1f601dcab6a9abc645924e034cd25}{{7.1.1}{7}{Function Documentation}{subsubsection.7.1.1}{}}
\@writefile{toc}{\contentsline {paragraph}{\numberline {7.1.1.1}load()}{7}{paragraph.7.1.1.1}\protected@file@percent }
\newlabel{namespacesort__eigenvalues_a7c2044d84adc30096314e33d8d730370}{{7.1.1.1}{7}{\texorpdfstring {load()}{load()}}{figure.caption.2}{}}
\@writefile{toc}{\contentsline {paragraph}{\numberline {7.1.1.2}run()}{8}{paragraph.7.1.1.2}\protected@file@percent }
\newlabel{namespacesort__eigenvalues_a80c1e284412d9ad04550e0d7d6efd889}{{7.1.1.2}{8}{\texorpdfstring {run()}{run()}}{figure.caption.4}{}}
\@writefile{toc}{\contentsline {paragraph}{\numberline {7.1.1.3}save()}{8}{paragraph.7.1.1.3}\protected@file@percent }
\newlabel{namespacesort__eigenvalues_af3499bc4556ffd140b56aa4b90be5bf8}{{7.1.1.3}{9}{\texorpdfstring {save()}{save()}}{figure.caption.6}{}}
\@writefile{toc}{\contentsline {paragraph}{\numberline {7.1.1.4}sort\_eigen\_values()}{9}{paragraph.7.1.1.4}\protected@file@percent }
\@writefile{toc}{\contentsline {section}{\numberline {8}Class Documentation}{9}{section.8}\protected@file@percent }
\@writefile{toc}{\contentsline {subsection}{\numberline {8.1}Debug\discretionary {\mbox  {\scriptsize  $\DOTSB \leftarrow \joinrel  \rhook $}}{}{}Parameters Class Reference}{9}{subsection.8.1}\protected@file@percent }
\newlabel{class_debug_parameters}{{8.1}{9}{Debug\+Parameters Class Reference}{subsection.8.1}{}}
\@writefile{toc}{\contentsline {subsubsection}{\numberline {8.1.1}Constructor \& Destructor Documentation}{11}{subsubsection.8.1.1}\protected@file@percent }
\newlabel{class_debug_parameters_afc2e07f07a1ddd3a5d00fe02041956eb}{{8.1.1}{11}{Constructor \& Destructor Documentation}{subsubsection.8.1.1}{}}
\@writefile{toc}{\contentsline {paragraph}{\numberline {8.1.1.1}DebugParameters()}{12}{paragraph.8.1.1.1}\protected@file@percent }
\@writefile{toc}{\contentsline {subsubsection}{\numberline {8.1.2}Member Function Documentation}{12}{subsubsection.8.1.2}\protected@file@percent }
\newlabel{class_debug_parameters_a9b91bea7b419c7e3f2fdd7d5ecce50c0}{{8.1.2}{12}{Member Function Documentation}{subsubsection.8.1.2}{}}
\@writefile{toc}{\contentsline {paragraph}{\numberline {8.1.2.1}debugTest()}{12}{paragraph.8.1.2.1}\protected@file@percent }
\newlabel{class_debug_parameters_a21b98aeb74845e68d9118dbba6175237}{{8.1.2.1}{12}{\texorpdfstring {debugTest()}{debugTest()}}{figure.caption.12}{}}
\@writefile{toc}{\contentsline {paragraph}{\numberline {8.1.2.2}printCurrentDirectory()}{12}{paragraph.8.1.2.2}\protected@file@percent }
\newlabel{class_debug_parameters_a5b4355434c90a71c27b44f9f72672b2b}{{8.1.2.2}{12}{\texorpdfstring {printCurrentDirectory()}{printCurrentDirectory()}}{paragraph.8.1.2.2}{}}
\@writefile{toc}{\contentsline {paragraph}{\numberline {8.1.2.3}printLoadedFile()}{12}{paragraph.8.1.2.3}\protected@file@percent }
\@writefile{toc}{\contentsline {subsection}{\numberline {8.2}Debug\discretionary {\mbox  {\scriptsize  $\DOTSB \leftarrow \joinrel  \rhook $}}{}{}Simulation Class Reference}{13}{subsection.8.2}\protected@file@percent }
\newlabel{class_debug_simulation}{{8.2}{13}{Debug\+Simulation Class Reference}{subsection.8.2}{}}
\@writefile{toc}{\contentsline {subsubsection}{\numberline {8.2.1}Constructor \& Destructor Documentation}{15}{subsubsection.8.2.1}\protected@file@percent }
\newlabel{class_debug_simulation_a3a78cf31a127715981070764156b886d}{{8.2.1}{15}{Constructor \& Destructor Documentation}{subsubsection.8.2.1}{}}
\@writefile{toc}{\contentsline {paragraph}{\numberline {8.2.1.1}DebugSimulation()}{15}{paragraph.8.2.1.1}\protected@file@percent }
\@writefile{toc}{\contentsline {subsubsection}{\numberline {8.2.2}Member Function Documentation}{15}{subsubsection.8.2.2}\protected@file@percent }
\newlabel{class_debug_simulation_a9f98cf737f46bd4dc206bb0aed154a34}{{8.2.2}{15}{Member Function Documentation}{subsubsection.8.2.2}{}}
\@writefile{toc}{\contentsline {paragraph}{\numberline {8.2.2.1}main()}{15}{paragraph.8.2.2.1}\protected@file@percent }
\newlabel{class_debug_simulation_a88f564af81c9c67fee4ff31c3933bd8f}{{8.2.2.1}{15}{\texorpdfstring {main()}{main()}}{figure.caption.20}{}}
\@writefile{toc}{\contentsline {paragraph}{\numberline {8.2.2.2}printMatrix()}{15}{paragraph.8.2.2.2}\protected@file@percent }
\gdef \LT@i {\LT@entry 
    {3}{63.40608pt}\LT@entry 
    {3}{207.08345pt}}
\gdef \LT@ii {\LT@entry 
    {3}{37.08156pt}\LT@entry 
    {3}{36.68156pt}}
\newlabel{class_debug_simulation_a97b32a3ee32c9c38efa58d27d66d352b}{{8.2.2.2}{16}{\texorpdfstring {printMatrix()}{printMatrix()}}{table.1}{}}
\@writefile{toc}{\contentsline {paragraph}{\numberline {8.2.2.3}printRowVector()}{16}{paragraph.8.2.2.3}\protected@file@percent }
\@writefile{toc}{\contentsline {subsection}{\numberline {8.3}Operation Class Reference}{16}{subsection.8.3}\protected@file@percent }
\newlabel{class_operation}{{8.3}{16}{Operation Class Reference}{subsection.8.3}{}}
\@writefile{toc}{\contentsline {subsubsection}{\numberline {8.3.1}Constructor \& Destructor Documentation}{18}{subsubsection.8.3.1}\protected@file@percent }
\newlabel{class_operation_af6079b7cd6a174a9891e16054e505fda}{{8.3.1}{18}{Constructor \& Destructor Documentation}{subsubsection.8.3.1}{}}
\@writefile{toc}{\contentsline {paragraph}{\numberline {8.3.1.1}Operation()}{19}{paragraph.8.3.1.1}\protected@file@percent }
\@writefile{toc}{\contentsline {subsubsection}{\numberline {8.3.2}Member Function Documentation}{19}{subsubsection.8.3.2}\protected@file@percent }
\newlabel{class_operation_a34f53ad53da858a54b431edb282a9ac6}{{8.3.2}{19}{Member Function Documentation}{subsubsection.8.3.2}{}}
\@writefile{toc}{\contentsline {paragraph}{\numberline {8.3.2.1}amplitudeModeZero()}{19}{paragraph.8.3.2.1}\protected@file@percent }
\newlabel{class_operation_a4ae5f0bf4ff2794da1fed0c4aab868f1}{{8.3.2.1}{19}{\texorpdfstring {amplitudeModeZero()}{amplitudeModeZero()}}{figure.caption.25}{}}
\@writefile{toc}{\contentsline {paragraph}{\numberline {8.3.2.2}calculateDiagonalMatrices()}{20}{paragraph.8.3.2.2}\protected@file@percent }
\newlabel{class_operation_a95b96acabab4ab6a109ffcb1cd4f57f2}{{8.3.2.2}{20}{\texorpdfstring {calculateDiagonalMatrices()}{calculateDiagonalMatrices()}}{figure.caption.26}{}}
\@writefile{toc}{\contentsline {paragraph}{\numberline {8.3.2.3}calculateEigenvaluePairs()}{20}{paragraph.8.3.2.3}\protected@file@percent }
\newlabel{class_operation_ad0d67d30e8f9b51b800b72e9055bf1e5}{{8.3.2.3}{20}{\texorpdfstring {calculateEigenvaluePairs()}{calculateEigenvaluePairs()}}{figure.caption.28}{}}
\@writefile{toc}{\contentsline {paragraph}{\numberline {8.3.2.4}createHeatMapMatrix()}{21}{paragraph.8.3.2.4}\protected@file@percent }
\newlabel{class_operation_af8237c2864aa6aa7a123e2717eefc7e2}{{8.3.2.4}{21}{\texorpdfstring {createHeatMapMatrix()}{createHeatMapMatrix()}}{figure.caption.29}{}}
\@writefile{toc}{\contentsline {paragraph}{\numberline {8.3.2.5}createMassMatrix()}{21}{paragraph.8.3.2.5}\protected@file@percent }
\newlabel{class_operation_a6c3cb4c538adac484828e9e96da57d96}{{8.3.2.5}{21}{\texorpdfstring {createMassMatrix()}{createMassMatrix()}}{figure.caption.30}{}}
\@writefile{toc}{\contentsline {paragraph}{\numberline {8.3.2.6}createMassMatrixBK()}{21}{paragraph.8.3.2.6}\protected@file@percent }
\newlabel{class_operation_a8cb1b8ca3541a8aa8d078e431f395305}{{8.3.2.6}{21}{\texorpdfstring {createMassMatrixBK()}{createMassMatrixBK()}}{figure.caption.31}{}}
\@writefile{toc}{\contentsline {paragraph}{\numberline {8.3.2.7}createStiffnessMatrix()}{22}{paragraph.8.3.2.7}\protected@file@percent }
\newlabel{class_operation_a6de8aa91c260d94901fa260eb29d47aa}{{8.3.2.7}{22}{\texorpdfstring {createStiffnessMatrix()}{createStiffnessMatrix()}}{figure.caption.33}{}}
\@writefile{toc}{\contentsline {paragraph}{\numberline {8.3.2.8}createStiffnessMatrixBK()}{22}{paragraph.8.3.2.8}\protected@file@percent }
\newlabel{class_operation_af9824c47dde2c0c41f8139d35104a25e}{{8.3.2.8}{22}{\texorpdfstring {createStiffnessMatrixBK()}{createStiffnessMatrixBK()}}{figure.caption.34}{}}
\@writefile{toc}{\contentsline {paragraph}{\numberline {8.3.2.9}createStiffnessMatrixOneBlock()}{22}{paragraph.8.3.2.9}\protected@file@percent }
\newlabel{class_operation_a045c75e898e41bc0394458daaeefbc79}{{8.3.2.9}{22}{\texorpdfstring {createStiffnessMatrixOneBlock()}{createStiffnessMatrixOneBlock()}}{figure.caption.35}{}}
\@writefile{toc}{\contentsline {paragraph}{\numberline {8.3.2.10}createZeroEigenMatrices()}{23}{paragraph.8.3.2.10}\protected@file@percent }
\newlabel{class_operation_a98b1182add8a3d2f35321496de71325b}{{8.3.2.10}{23}{\texorpdfstring {createZeroEigenMatrices()}{createZeroEigenMatrices()}}{figure.caption.36}{}}
\@writefile{toc}{\contentsline {paragraph}{\numberline {8.3.2.11}heat\_map\_main()}{23}{paragraph.8.3.2.11}\protected@file@percent }
\newlabel{class_operation_a2873fa35826fec425f619fe23db0a7ec}{{8.3.2.11}{23}{\texorpdfstring {heat\_map\_main()}{heat\_map\_main()}}{figure.caption.38}{}}
\gdef \LT@iii {\LT@entry 
    {3}{37.43245pt}\LT@entry 
    {3}{62.04297pt}}
\gdef \LT@iv {\LT@entry 
    {3}{63.9371pt}\LT@entry 
    {3}{63.53711pt}}
\@writefile{toc}{\contentsline {paragraph}{\numberline {8.3.2.12}isSymmetric()}{24}{paragraph.8.3.2.12}\protected@file@percent }
\newlabel{class_operation_a7dfc81bb9e8eb30b001f151612e61825}{{8.3.2.12}{24}{\texorpdfstring {isSymmetric()}{isSymmetric()}}{table.3}{}}
\@writefile{toc}{\contentsline {paragraph}{\numberline {8.3.2.13}merge\_block\_pad()}{24}{paragraph.8.3.2.13}\protected@file@percent }
\newlabel{class_operation_a9ee0c5f1c6f646fea899128051d7a046}{{8.3.2.13}{24}{\texorpdfstring {merge\_block\_pad()}{merge\_block\_pad()}}{figure.caption.39}{}}
\@writefile{toc}{\contentsline {paragraph}{\numberline {8.3.2.14}modeZeroRemoveMean()}{24}{paragraph.8.3.2.14}\protected@file@percent }
\newlabel{class_operation_a458f88cc4bfaef34f6d2642ea990e358}{{8.3.2.14}{24}{\texorpdfstring {modeZeroRemoveMean()}{modeZeroRemoveMean()}}{figure.caption.40}{}}
\@writefile{toc}{\contentsline {paragraph}{\numberline {8.3.2.15}normalize()}{24}{paragraph.8.3.2.15}\protected@file@percent }
\newlabel{class_operation_a0114165cc0d2a3cff71151edfdadd59b}{{8.3.2.15}{25}{\texorpdfstring {normalize()}{normalize()}}{figure.caption.41}{}}
\@writefile{toc}{\contentsline {paragraph}{\numberline {8.3.2.16}saveEigenvalues()}{25}{paragraph.8.3.2.16}\protected@file@percent }
\newlabel{class_operation_ae50188ebd5aff46240882e5cb7544bd7}{{8.3.2.16}{25}{\texorpdfstring {saveEigenvalues()}{saveEigenvalues()}}{figure.caption.42}{}}
\@writefile{toc}{\contentsline {paragraph}{\numberline {8.3.2.17}saveHeatMapMatrices()}{25}{paragraph.8.3.2.17}\protected@file@percent }
\newlabel{class_operation_a8a200b415a9c761ca395227bc8e10858}{{8.3.2.17}{25}{\texorpdfstring {saveHeatMapMatrices()}{saveHeatMapMatrices()}}{figure.caption.43}{}}
\@writefile{toc}{\contentsline {paragraph}{\numberline {8.3.2.18}sortEigenvectors()}{25}{paragraph.8.3.2.18}\protected@file@percent }
\newlabel{class_operation_aa998e5bc620a3415a42d3e65071952de}{{8.3.2.18}{25}{\texorpdfstring {sortEigenvectors()}{sortEigenvectors()}}{figure.caption.44}{}}
\@writefile{toc}{\contentsline {paragraph}{\numberline {8.3.2.19}steadyStateSolutuion()}{26}{paragraph.8.3.2.19}\protected@file@percent }
\newlabel{class_operation_a6cec17bdb684ede8c1224cf6e6c005cc}{{8.3.2.19}{26}{\texorpdfstring {steadyStateSolutuion()}{steadyStateSolutuion()}}{figure.caption.45}{}}
\@writefile{toc}{\contentsline {paragraph}{\numberline {8.3.2.20}testEigen()}{26}{paragraph.8.3.2.20}\protected@file@percent }
\@writefile{toc}{\contentsline {subsubsection}{\numberline {8.3.3}Member Data Documentation}{26}{subsubsection.8.3.3}\protected@file@percent }
\newlabel{class_operation_a2ae4627a19a092947b480e70af917959}{{8.3.3}{26}{Member Data Documentation}{subsubsection.8.3.3}{}}
\@writefile{toc}{\contentsline {paragraph}{\numberline {8.3.3.1}block\_pad\_position}{26}{paragraph.8.3.3.1}\protected@file@percent }
\newlabel{class_operation_afd1771d5c03846bc1ebe2ea145b3729e}{{8.3.3.1}{26}{\texorpdfstring {block\_pad\_position}{block\_pad\_position}}{paragraph.8.3.3.1}{}}
\@writefile{toc}{\contentsline {paragraph}{\numberline {8.3.3.2}block\_pad\_velocity}{26}{paragraph.8.3.3.2}\protected@file@percent }
\newlabel{class_operation_affb42e0a8197846e278087b64e6196b9}{{8.3.3.2}{26}{\texorpdfstring {block\_pad\_velocity}{block\_pad\_velocity}}{paragraph.8.3.3.2}{}}
\@writefile{toc}{\contentsline {paragraph}{\numberline {8.3.3.3}block\_position\_to\_file}{26}{paragraph.8.3.3.3}\protected@file@percent }
\newlabel{class_operation_a1777eef6122a94f413805d564f7ea312}{{8.3.3.3}{26}{\texorpdfstring {block\_position\_to\_file}{block\_position\_to\_file}}{paragraph.8.3.3.3}{}}
\@writefile{toc}{\contentsline {paragraph}{\numberline {8.3.3.4}block\_velocity\_to\_file}{26}{paragraph.8.3.3.4}\protected@file@percent }
\newlabel{class_operation_a4a10f482103ce50d83cce08ac6dd79f8}{{8.3.3.4}{26}{\texorpdfstring {block\_velocity\_to\_file}{block\_velocity\_to\_file}}{paragraph.8.3.3.4}{}}
\@writefile{toc}{\contentsline {paragraph}{\numberline {8.3.3.5}degrees\_freedom}{26}{paragraph.8.3.3.5}\protected@file@percent }
\newlabel{class_operation_a907ba138bbdfd0d4942af066711919df}{{8.3.3.5}{26}{\texorpdfstring {degrees\_freedom}{degrees\_freedom}}{paragraph.8.3.3.5}{}}
\@writefile{toc}{\contentsline {paragraph}{\numberline {8.3.3.6}diagonal\_mass\_matrix}{26}{paragraph.8.3.3.6}\protected@file@percent }
\newlabel{class_operation_a74cc8d4d51dcc63fde92c0176a13a5ee}{{8.3.3.6}{26}{\texorpdfstring {diagonal\_mass\_matrix}{diagonal\_mass\_matrix}}{paragraph.8.3.3.6}{}}
\@writefile{toc}{\contentsline {paragraph}{\numberline {8.3.3.7}diagonal\_stiffness\_matrix}{27}{paragraph.8.3.3.7}\protected@file@percent }
\newlabel{class_operation_aca59dfc36dba646e81e7ba3e1085ff58}{{8.3.3.7}{27}{\texorpdfstring {diagonal\_stiffness\_matrix}{diagonal\_stiffness\_matrix}}{paragraph.8.3.3.7}{}}
\@writefile{toc}{\contentsline {paragraph}{\numberline {8.3.3.8}eigval}{27}{paragraph.8.3.3.8}\protected@file@percent }
\newlabel{class_operation_a9fc88ef3abfda586d1481717c74b54d7}{{8.3.3.8}{27}{\texorpdfstring {eigval}{eigval}}{paragraph.8.3.3.8}{}}
\@writefile{toc}{\contentsline {paragraph}{\numberline {8.3.3.9}eigvec}{27}{paragraph.8.3.3.9}\protected@file@percent }
\newlabel{class_operation_ad63c6523b82027eb664c2815247ea7c8}{{8.3.3.9}{27}{\texorpdfstring {eigvec}{eigvec}}{paragraph.8.3.3.9}{}}
\@writefile{toc}{\contentsline {paragraph}{\numberline {8.3.3.10}energy\_matrix\_heat}{27}{paragraph.8.3.3.10}\protected@file@percent }
\newlabel{class_operation_a5ce3217f0a68e3750beb3a7c95551486}{{8.3.3.10}{27}{\texorpdfstring {energy\_matrix\_heat}{energy\_matrix\_heat}}{paragraph.8.3.3.10}{}}
\@writefile{toc}{\contentsline {paragraph}{\numberline {8.3.3.11}input\_parameters}{27}{paragraph.8.3.3.11}\protected@file@percent }
\newlabel{class_operation_a96a68779c6c8ccc8b01ef09378df8007}{{8.3.3.11}{27}{\texorpdfstring {input\_parameters}{input\_parameters}}{paragraph.8.3.3.11}{}}
\@writefile{toc}{\contentsline {paragraph}{\numberline {8.3.3.12}k\_c}{27}{paragraph.8.3.3.12}\protected@file@percent }
\newlabel{class_operation_a2434b3405e55160ee93b354833ac36ff}{{8.3.3.12}{27}{\texorpdfstring {k\_c}{k\_c}}{paragraph.8.3.3.12}{}}
\@writefile{toc}{\contentsline {paragraph}{\numberline {8.3.3.13}k\_p}{27}{paragraph.8.3.3.13}\protected@file@percent }
\newlabel{class_operation_a3f48aa524c0fe23d4a97501579e3c703}{{8.3.3.13}{27}{\texorpdfstring {k\_p}{k\_p}}{paragraph.8.3.3.13}{}}
\@writefile{toc}{\contentsline {paragraph}{\numberline {8.3.3.14}m\_u}{27}{paragraph.8.3.3.14}\protected@file@percent }
\newlabel{class_operation_a67458794cb0c2fe3916ace83eff5c651}{{8.3.3.14}{27}{\texorpdfstring {m\_u}{m\_u}}{paragraph.8.3.3.14}{}}
\@writefile{toc}{\contentsline {paragraph}{\numberline {8.3.3.15}mass\_matrix}{27}{paragraph.8.3.3.15}\protected@file@percent }
\newlabel{class_operation_a9c8e85ba9f5a0a0b014d06e88f0337a0}{{8.3.3.15}{27}{\texorpdfstring {mass\_matrix}{mass\_matrix}}{paragraph.8.3.3.15}{}}
\@writefile{toc}{\contentsline {paragraph}{\numberline {8.3.3.16}number\_of\_save\_steps}{27}{paragraph.8.3.3.16}\protected@file@percent }
\newlabel{class_operation_ae08cdf0ac9cb66fd8a4c0945ddd84650}{{8.3.3.16}{27}{\texorpdfstring {number\_of\_save\_steps}{number\_of\_save\_steps}}{paragraph.8.3.3.16}{}}
\@writefile{toc}{\contentsline {paragraph}{\numberline {8.3.3.17}pad\_friction\_to\_file}{27}{paragraph.8.3.3.17}\protected@file@percent }
\newlabel{class_operation_a14ec2c6fe1d9e632cf8b40a988cbc835}{{8.3.3.17}{27}{\texorpdfstring {pad\_friction\_to\_file}{pad\_friction\_to\_file}}{paragraph.8.3.3.17}{}}
\@writefile{toc}{\contentsline {paragraph}{\numberline {8.3.3.18}pad\_position\_to\_file}{28}{paragraph.8.3.3.18}\protected@file@percent }
\newlabel{class_operation_adc25c95b35faf661a289bba6581c7d0e}{{8.3.3.18}{28}{\texorpdfstring {pad\_position\_to\_file}{pad\_position\_to\_file}}{paragraph.8.3.3.18}{}}
\@writefile{toc}{\contentsline {paragraph}{\numberline {8.3.3.19}pad\_velocity\_to\_file}{28}{paragraph.8.3.3.19}\protected@file@percent }
\newlabel{class_operation_ae7c2437438a2ec025574d9640f176216}{{8.3.3.19}{28}{\texorpdfstring {pad\_velocity\_to\_file}{pad\_velocity\_to\_file}}{paragraph.8.3.3.19}{}}
\@writefile{toc}{\contentsline {paragraph}{\numberline {8.3.3.20}position\_matrix\_heat}{28}{paragraph.8.3.3.20}\protected@file@percent }
\newlabel{class_operation_ab2b1b5d962ebbac9352d094e278c9780}{{8.3.3.20}{28}{\texorpdfstring {position\_matrix\_heat}{position\_matrix\_heat}}{paragraph.8.3.3.20}{}}
\@writefile{toc}{\contentsline {paragraph}{\numberline {8.3.3.21}real\_eig\_values}{28}{paragraph.8.3.3.21}\protected@file@percent }
\newlabel{class_operation_a6768609fc97788fc8f8ce74fc81d781b}{{8.3.3.21}{28}{\texorpdfstring {real\_eig\_values}{real\_eig\_values}}{paragraph.8.3.3.21}{}}
\@writefile{toc}{\contentsline {paragraph}{\numberline {8.3.3.22}real\_eig\_vectors}{28}{paragraph.8.3.3.22}\protected@file@percent }
\newlabel{class_operation_a8ef77aab2840472db839daf84c523738}{{8.3.3.22}{28}{\texorpdfstring {real\_eig\_vectors}{real\_eig\_vectors}}{paragraph.8.3.3.22}{}}
\@writefile{toc}{\contentsline {paragraph}{\numberline {8.3.3.23}result\_folder}{28}{paragraph.8.3.3.23}\protected@file@percent }
\newlabel{class_operation_aaaaa6197adb27d1fd586a26afcba371c}{{8.3.3.23}{28}{\texorpdfstring {result\_folder}{result\_folder}}{paragraph.8.3.3.23}{}}
\@writefile{toc}{\contentsline {paragraph}{\numberline {8.3.3.24}result\_path}{28}{paragraph.8.3.3.24}\protected@file@percent }
\newlabel{class_operation_a02a40bc9e9d55997cbcf301b876c45cc}{{8.3.3.24}{28}{\texorpdfstring {result\_path}{result\_path}}{paragraph.8.3.3.24}{}}
\@writefile{toc}{\contentsline {paragraph}{\numberline {8.3.3.25}stiffness\_matrix}{28}{paragraph.8.3.3.25}\protected@file@percent }
\newlabel{class_operation_ad356c2ea660499866ce948cd6e19e617}{{8.3.3.25}{28}{\texorpdfstring {stiffness\_matrix}{stiffness\_matrix}}{paragraph.8.3.3.25}{}}
\@writefile{toc}{\contentsline {paragraph}{\numberline {8.3.3.26}velocity\_matrix\_heat}{28}{paragraph.8.3.3.26}\protected@file@percent }
\@writefile{toc}{\contentsline {subsection}{\numberline {8.4}Parameters Class Reference}{29}{subsection.8.4}\protected@file@percent }
\newlabel{class_parameters}{{8.4}{29}{Parameters Class Reference}{subsection.8.4}{}}
\@writefile{toc}{\contentsline {subsubsection}{\numberline {8.4.1}Constructor \& Destructor Documentation}{31}{subsubsection.8.4.1}\protected@file@percent }
\newlabel{class_parameters_af4d94ee360ac0157d9065f78797fe9a1}{{8.4.1}{31}{Constructor \& Destructor Documentation}{subsubsection.8.4.1}{}}
\@writefile{toc}{\contentsline {paragraph}{\numberline {8.4.1.1}Parameters()\hspace  {0.1cm}{\footnotesize  \ttfamily  [1/2]}}{32}{paragraph.8.4.1.1}\protected@file@percent }
\newlabel{class_parameters_ad35f72fb63956d46db10c7fb6ec2f82a}{{8.4.1.1}{32}{\texorpdfstring {Parameters()}{Parameters()}\hspace {0.1cm}{\footnotesize \ttfamily [1/2]}}{paragraph.8.4.1.1}{}}
\@writefile{toc}{\contentsline {paragraph}{\numberline {8.4.1.2}Parameters()\hspace  {0.1cm}{\footnotesize  \ttfamily  [2/2]}}{32}{paragraph.8.4.1.2}\protected@file@percent }
\@writefile{toc}{\contentsline {subsubsection}{\numberline {8.4.2}Member Function Documentation}{32}{subsubsection.8.4.2}\protected@file@percent }
\newlabel{class_parameters_ab8e28a70206135aa4f6b7bab43cc44ed}{{8.4.2}{32}{Member Function Documentation}{subsubsection.8.4.2}{}}
\@writefile{toc}{\contentsline {paragraph}{\numberline {8.4.2.1}assign\_parameters()}{32}{paragraph.8.4.2.1}\protected@file@percent }
\newlabel{class_parameters_a1003c883b84c67c6b0c85e2ac74be582}{{8.4.2.1}{33}{\texorpdfstring {assign\_parameters()}{assign\_parameters()}}{figure.caption.52}{}}
\@writefile{toc}{\contentsline {paragraph}{\numberline {8.4.2.2}load\_file()}{33}{paragraph.8.4.2.2}\protected@file@percent }
\newlabel{class_parameters_a3d399fb9f8a0928b7d1bc22d2c1688c3}{{8.4.2.2}{33}{\texorpdfstring {load\_file()}{load\_file()}}{figure.caption.53}{}}
\@writefile{toc}{\contentsline {paragraph}{\numberline {8.4.2.3}readDebugParameterBool()}{33}{paragraph.8.4.2.3}\protected@file@percent }
\newlabel{class_parameters_a82aae4df6ed6c62135471b76699389a3}{{8.4.2.3}{33}{\texorpdfstring {readDebugParameterBool()}{readDebugParameterBool()}}{figure.caption.54}{}}
\@writefile{toc}{\contentsline {paragraph}{\numberline {8.4.2.4}readParameterBool()}{34}{paragraph.8.4.2.4}\protected@file@percent }
\newlabel{class_parameters_a7346110cc6f379e2135d14758669b3c9}{{8.4.2.4}{34}{\texorpdfstring {readParameterBool()}{readParameterBool()}}{figure.caption.55}{}}
\@writefile{toc}{\contentsline {paragraph}{\numberline {8.4.2.5}readParameterDouble()}{34}{paragraph.8.4.2.5}\protected@file@percent }
\newlabel{class_parameters_ae120078371fa83632305acd939e2f81b}{{8.4.2.5}{34}{\texorpdfstring {readParameterDouble()}{readParameterDouble()}}{figure.caption.56}{}}
\@writefile{toc}{\contentsline {paragraph}{\numberline {8.4.2.6}readParameterInt()}{34}{paragraph.8.4.2.6}\protected@file@percent }
\newlabel{class_parameters_aa60d5f8218f44d6c0803da93faa6d7d9}{{8.4.2.6}{34}{\texorpdfstring {readParameterInt()}{readParameterInt()}}{figure.caption.57}{}}
\@writefile{toc}{\contentsline {paragraph}{\numberline {8.4.2.7}readParameterIntList()}{35}{paragraph.8.4.2.7}\protected@file@percent }
\newlabel{class_parameters_ac49f7f3b2637038cb0bcc4f86aa06a01}{{8.4.2.7}{35}{\texorpdfstring {readParameterIntList()}{readParameterIntList()}}{figure.caption.59}{}}
\@writefile{toc}{\contentsline {paragraph}{\numberline {8.4.2.8}readParameterString()}{35}{paragraph.8.4.2.8}\protected@file@percent }
\newlabel{class_parameters_abcb43e92c0807a6aa9edb7ee0532d11b}{{8.4.2.8}{35}{\texorpdfstring {readParameterString()}{readParameterString()}}{figure.caption.60}{}}
\@writefile{toc}{\contentsline {paragraph}{\numberline {8.4.2.9}yamlListToArmadilloVector()}{35}{paragraph.8.4.2.9}\protected@file@percent }
\@writefile{toc}{\contentsline {subsubsection}{\numberline {8.4.3}Member Data Documentation}{36}{subsubsection.8.4.3}\protected@file@percent }
\newlabel{class_parameters_a64d65079360a7c48459904d160f20736}{{8.4.3}{36}{Member Data Documentation}{subsubsection.8.4.3}{}}
\@writefile{toc}{\contentsline {paragraph}{\numberline {8.4.3.1}calculate\_Lyapunov}{36}{paragraph.8.4.3.1}\protected@file@percent }
\newlabel{class_parameters_a95d3d328b08997bc4ce53a152148fd39}{{8.4.3.1}{36}{\texorpdfstring {calculate\_Lyapunov}{calculate\_Lyapunov}}{paragraph.8.4.3.1}{}}
\@writefile{toc}{\contentsline {paragraph}{\numberline {8.4.3.2}debug\_continuous\_slider\_speed}{36}{paragraph.8.4.3.2}\protected@file@percent }
\newlabel{class_parameters_ac82912412752773afcf6390aa56ec212}{{8.4.3.2}{36}{\texorpdfstring {debug\_continuous\_slider\_speed}{debug\_continuous\_slider\_speed}}{paragraph.8.4.3.2}{}}
\@writefile{toc}{\contentsline {paragraph}{\numberline {8.4.3.3}debug\_damp\_all\_blocks}{36}{paragraph.8.4.3.3}\protected@file@percent }
\newlabel{class_parameters_ae56f8182a4f2440aee5d36e3feef1b98}{{8.4.3.3}{36}{\texorpdfstring {debug\_damp\_all\_blocks}{debug\_damp\_all\_blocks}}{paragraph.8.4.3.3}{}}
\@writefile{toc}{\contentsline {paragraph}{\numberline {8.4.3.4}debug\_negative\_intial\_values}{36}{paragraph.8.4.3.4}\protected@file@percent }
\newlabel{class_parameters_a9842736a79cbeb15587a0b96fc227166}{{8.4.3.4}{36}{\texorpdfstring {debug\_negative\_intial\_values}{debug\_negative\_intial\_values}}{paragraph.8.4.3.4}{}}
\@writefile{toc}{\contentsline {paragraph}{\numberline {8.4.3.5}debug\_no\_damper}{36}{paragraph.8.4.3.5}\protected@file@percent }
\newlabel{class_parameters_aca1fa4b5a513f45908d760a118a2bb9a}{{8.4.3.5}{36}{\texorpdfstring {debug\_no\_damper}{debug\_no\_damper}}{paragraph.8.4.3.5}{}}
\@writefile{toc}{\contentsline {paragraph}{\numberline {8.4.3.6}debug\_no\_friction}{36}{paragraph.8.4.3.6}\protected@file@percent }
\newlabel{class_parameters_a06f513fa0a3d2e7bbba81b7e8bd56bec}{{8.4.3.6}{36}{\texorpdfstring {debug\_no\_friction}{debug\_no\_friction}}{paragraph.8.4.3.6}{}}
\@writefile{toc}{\contentsline {paragraph}{\numberline {8.4.3.7}debug\_no\_min\_speed}{36}{paragraph.8.4.3.7}\protected@file@percent }
\newlabel{class_parameters_a7d5e7496091a1ecc2b6fe4494bb0b70b}{{8.4.3.7}{36}{\texorpdfstring {debug\_no\_min\_speed}{debug\_no\_min\_speed}}{paragraph.8.4.3.7}{}}
\@writefile{toc}{\contentsline {paragraph}{\numberline {8.4.3.8}debug\_no\_neighbor\_springs}{36}{paragraph.8.4.3.8}\protected@file@percent }
\newlabel{class_parameters_a45e9ef8429f2f7a87b7dbc86d40fae42}{{8.4.3.8}{36}{\texorpdfstring {debug\_no\_neighbor\_springs}{debug\_no\_neighbor\_springs}}{paragraph.8.4.3.8}{}}
\@writefile{toc}{\contentsline {paragraph}{\numberline {8.4.3.9}debug\_no\_pad}{36}{paragraph.8.4.3.9}\protected@file@percent }
\newlabel{class_parameters_a757a777751e055723031e7de16027a63}{{8.4.3.9}{36}{\texorpdfstring {debug\_no\_pad}{debug\_no\_pad}}{paragraph.8.4.3.9}{}}
\@writefile{toc}{\contentsline {paragraph}{\numberline {8.4.3.10}debug\_no\_random\_displacements}{36}{paragraph.8.4.3.10}\protected@file@percent }
\newlabel{class_parameters_af4fe093b78f517e4359b6b6acb083699}{{8.4.3.10}{36}{\texorpdfstring {debug\_no\_random\_displacements}{debug\_no\_random\_displacements}}{paragraph.8.4.3.10}{}}
\@writefile{toc}{\contentsline {paragraph}{\numberline {8.4.3.11}debug\_no\_stationary\_springs}{37}{paragraph.8.4.3.11}\protected@file@percent }
\newlabel{class_parameters_a7f1a4a77b37a0da5f098530f0aa28415}{{8.4.3.11}{37}{\texorpdfstring {debug\_no\_stationary\_springs}{debug\_no\_stationary\_springs}}{paragraph.8.4.3.11}{}}
\@writefile{toc}{\contentsline {paragraph}{\numberline {8.4.3.12}debug\_one\_degree\_freedom\_mode}{37}{paragraph.8.4.3.12}\protected@file@percent }
\newlabel{class_parameters_a813eadaa4e5857c04feeea4f374b79c7}{{8.4.3.12}{37}{\texorpdfstring {debug\_one\_degree\_freedom\_mode}{debug\_one\_degree\_freedom\_mode}}{paragraph.8.4.3.12}{}}
\@writefile{toc}{\contentsline {paragraph}{\numberline {8.4.3.13}debug\_only\_negative\_initial}{37}{paragraph.8.4.3.13}\protected@file@percent }
\newlabel{class_parameters_aa32ed11eb6354d5db3ca5f47000c1f3d}{{8.4.3.13}{37}{\texorpdfstring {debug\_only\_negative\_initial}{debug\_only\_negative\_initial}}{paragraph.8.4.3.13}{}}
\@writefile{toc}{\contentsline {paragraph}{\numberline {8.4.3.14}debug\_only\_write\_friction}{37}{paragraph.8.4.3.14}\protected@file@percent }
\newlabel{class_parameters_aff43db7ddaf1da65266c92ecd9a9c096}{{8.4.3.14}{37}{\texorpdfstring {debug\_only\_write\_friction}{debug\_only\_write\_friction}}{paragraph.8.4.3.14}{}}
\@writefile{toc}{\contentsline {paragraph}{\numberline {8.4.3.15}debug\_pad\_as\_block}{37}{paragraph.8.4.3.15}\protected@file@percent }
\newlabel{class_parameters_a8733a166af3aea3a01591f8e1367ffd4}{{8.4.3.15}{37}{\texorpdfstring {debug\_pad\_as\_block}{debug\_pad\_as\_block}}{paragraph.8.4.3.15}{}}
\@writefile{toc}{\contentsline {paragraph}{\numberline {8.4.3.16}debug\_parameters}{37}{paragraph.8.4.3.16}\protected@file@percent }
\newlabel{class_parameters_a49760dfc03d174b12c0f4a580f692802}{{8.4.3.16}{37}{\texorpdfstring {debug\_parameters}{debug\_parameters}}{paragraph.8.4.3.16}{}}
\@writefile{toc}{\contentsline {paragraph}{\numberline {8.4.3.17}debug\_print}{37}{paragraph.8.4.3.17}\protected@file@percent }
\newlabel{class_parameters_a4a803122d7e3f350f21867629c311ba9}{{8.4.3.17}{37}{\texorpdfstring {debug\_print}{debug\_print}}{paragraph.8.4.3.17}{}}
\@writefile{toc}{\contentsline {paragraph}{\numberline {8.4.3.18}debug\_print\_event}{37}{paragraph.8.4.3.18}\protected@file@percent }
\newlabel{class_parameters_afbab0536ff748bb42d9d2d31d2b1bf75}{{8.4.3.18}{37}{\texorpdfstring {debug\_print\_event}{debug\_print\_event}}{paragraph.8.4.3.18}{}}
\@writefile{toc}{\contentsline {paragraph}{\numberline {8.4.3.19}debug\_special\_phi}{37}{paragraph.8.4.3.19}\protected@file@percent }
\newlabel{class_parameters_a9dcc317a5156c966d3796961ddb5380a}{{8.4.3.19}{37}{\texorpdfstring {debug\_special\_phi}{debug\_special\_phi}}{paragraph.8.4.3.19}{}}
\@writefile{toc}{\contentsline {paragraph}{\numberline {8.4.3.20}debug\_stick\_blocks}{37}{paragraph.8.4.3.20}\protected@file@percent }
\newlabel{class_parameters_af39e8a47b172d2a0a2a341ba1252b131}{{8.4.3.20}{37}{\texorpdfstring {debug\_stick\_blocks}{debug\_stick\_blocks}}{paragraph.8.4.3.20}{}}
\@writefile{toc}{\contentsline {paragraph}{\numberline {8.4.3.21}debug\_stop\_slider}{37}{paragraph.8.4.3.21}\protected@file@percent }
\newlabel{class_parameters_ab71a4d8dcc9286888baed0445f3a196b}{{8.4.3.21}{37}{\texorpdfstring {debug\_stop\_slider}{debug\_stop\_slider}}{paragraph.8.4.3.21}{}}
\@writefile{toc}{\contentsline {paragraph}{\numberline {8.4.3.22}debug\_write\_blocks}{38}{paragraph.8.4.3.22}\protected@file@percent }
\newlabel{class_parameters_a139bd5d85ec11d4411105f4e820cbdbc}{{8.4.3.22}{38}{\texorpdfstring {debug\_write\_blocks}{debug\_write\_blocks}}{paragraph.8.4.3.22}{}}
\@writefile{toc}{\contentsline {paragraph}{\numberline {8.4.3.23}dt}{38}{paragraph.8.4.3.23}\protected@file@percent }
\newlabel{class_parameters_a7ea8ae5b2cfc4e404735e1555d407391}{{8.4.3.23}{38}{\texorpdfstring {dt}{dt}}{paragraph.8.4.3.23}{}}
\@writefile{toc}{\contentsline {paragraph}{\numberline {8.4.3.24}end\_speed\_continuous}{38}{paragraph.8.4.3.24}\protected@file@percent }
\newlabel{class_parameters_a0d7b74828081737712b83bd907ebcc42}{{8.4.3.24}{38}{\texorpdfstring {end\_speed\_continuous}{end\_speed\_continuous}}{paragraph.8.4.3.24}{}}
\@writefile{toc}{\contentsline {paragraph}{\numberline {8.4.3.25}file\_name}{38}{paragraph.8.4.3.25}\protected@file@percent }
\newlabel{class_parameters_a62f70690d5b9e45d7629fce7bbecd92e}{{8.4.3.25}{38}{\texorpdfstring {file\_name}{file\_name}}{paragraph.8.4.3.25}{}}
\@writefile{toc}{\contentsline {paragraph}{\numberline {8.4.3.26}increment}{38}{paragraph.8.4.3.26}\protected@file@percent }
\newlabel{class_parameters_ab1c0eab0a7f2edf0805adc952aab81ad}{{8.4.3.26}{38}{\texorpdfstring {increment}{increment}}{paragraph.8.4.3.26}{}}
\@writefile{toc}{\contentsline {paragraph}{\numberline {8.4.3.27}interval}{38}{paragraph.8.4.3.27}\protected@file@percent }
\newlabel{class_parameters_af644da662dd45c2c1859f1cb1b10523b}{{8.4.3.27}{38}{\texorpdfstring {interval}{interval}}{paragraph.8.4.3.27}{}}
\@writefile{toc}{\contentsline {paragraph}{\numberline {8.4.3.28}loggedBlocks}{38}{paragraph.8.4.3.28}\protected@file@percent }
\newlabel{class_parameters_a3108876d887e4c4a8a4a271b1ee87309}{{8.4.3.28}{38}{\texorpdfstring {loggedBlocks}{loggedBlocks}}{paragraph.8.4.3.28}{}}
\@writefile{toc}{\contentsline {paragraph}{\numberline {8.4.3.29}lyapunov\_delta}{38}{paragraph.8.4.3.29}\protected@file@percent }
\newlabel{class_parameters_a32ad2aeb01f7aa6a89f8043c34c74b10}{{8.4.3.29}{38}{\texorpdfstring {lyapunov\_delta}{lyapunov\_delta}}{paragraph.8.4.3.29}{}}
\@writefile{toc}{\contentsline {paragraph}{\numberline {8.4.3.30}m\_alpha}{38}{paragraph.8.4.3.30}\protected@file@percent }
\newlabel{class_parameters_acf98152a02fec3b62e2a22c4bb6fb714}{{8.4.3.30}{38}{\texorpdfstring {m\_alpha}{m\_alpha}}{paragraph.8.4.3.30}{}}
\@writefile{toc}{\contentsline {paragraph}{\numberline {8.4.3.31}m\_delta}{38}{paragraph.8.4.3.31}\protected@file@percent }
\newlabel{class_parameters_ab5335fddc40d127f776f3bbad3815285}{{8.4.3.31}{38}{\texorpdfstring {m\_delta}{m\_delta}}{paragraph.8.4.3.31}{}}
\@writefile{toc}{\contentsline {paragraph}{\numberline {8.4.3.32}m\_eta}{38}{paragraph.8.4.3.32}\protected@file@percent }
\newlabel{class_parameters_a0b01f8eae90233851cd01bb05a61930b}{{8.4.3.32}{38}{\texorpdfstring {m\_eta}{m\_eta}}{paragraph.8.4.3.32}{}}
\@writefile{toc}{\contentsline {paragraph}{\numberline {8.4.3.33}m\_F0}{39}{paragraph.8.4.3.33}\protected@file@percent }
\newlabel{class_parameters_a2c403c88dfa8078caccee25aa9b95824}{{8.4.3.33}{39}{\texorpdfstring {m\_F0}{m\_F0}}{paragraph.8.4.3.33}{}}
\@writefile{toc}{\contentsline {paragraph}{\numberline {8.4.3.34}m\_k\_P0}{39}{paragraph.8.4.3.34}\protected@file@percent }
\newlabel{class_parameters_ac3dccd30bb7d4224717a5a9a0306b7ea}{{8.4.3.34}{39}{\texorpdfstring {m\_k\_P0}{m\_k\_P0}}{paragraph.8.4.3.34}{}}
\@writefile{toc}{\contentsline {paragraph}{\numberline {8.4.3.35}m\_mass\_x}{39}{paragraph.8.4.3.35}\protected@file@percent }
\newlabel{class_parameters_ac9ed74aedd0a2f7e96990efe9eb4fe28}{{8.4.3.35}{39}{\texorpdfstring {m\_mass\_x}{m\_mass\_x}}{paragraph.8.4.3.35}{}}
\@writefile{toc}{\contentsline {paragraph}{\numberline {8.4.3.36}m\_scale\_C}{39}{paragraph.8.4.3.36}\protected@file@percent }
\newlabel{class_parameters_ab73575d44183ca7fe70bedb3db863f2c}{{8.4.3.36}{39}{\texorpdfstring {m\_scale\_C}{m\_scale\_C}}{paragraph.8.4.3.36}{}}
\@writefile{toc}{\contentsline {paragraph}{\numberline {8.4.3.37}m\_scale\_mass}{39}{paragraph.8.4.3.37}\protected@file@percent }
\newlabel{class_parameters_aaa650e14659c5e151d86c009ae00bce4}{{8.4.3.37}{39}{\texorpdfstring {m\_scale\_mass}{m\_scale\_mass}}{paragraph.8.4.3.37}{}}
\@writefile{toc}{\contentsline {paragraph}{\numberline {8.4.3.38}m\_scale\_P}{39}{paragraph.8.4.3.38}\protected@file@percent }
\newlabel{class_parameters_a793b9af3c9b00dba89e5aeda1cb4941b}{{8.4.3.38}{39}{\texorpdfstring {m\_scale\_P}{m\_scale\_P}}{paragraph.8.4.3.38}{}}
\@writefile{toc}{\contentsline {paragraph}{\numberline {8.4.3.39}m\_sigma}{39}{paragraph.8.4.3.39}\protected@file@percent }
\newlabel{class_parameters_acdb5783a85776f1c5685a08b519d7f72}{{8.4.3.39}{39}{\texorpdfstring {m\_sigma}{m\_sigma}}{paragraph.8.4.3.39}{}}
\@writefile{toc}{\contentsline {paragraph}{\numberline {8.4.3.40}m\_t}{39}{paragraph.8.4.3.40}\protected@file@percent }
\newlabel{class_parameters_a6b33cd0e145bc6c7375d44124347c1ae}{{8.4.3.40}{39}{\texorpdfstring {m\_t}{m\_t}}{paragraph.8.4.3.40}{}}
\@writefile{toc}{\contentsline {paragraph}{\numberline {8.4.3.41}m\_u\_min}{39}{paragraph.8.4.3.41}\protected@file@percent }
\newlabel{class_parameters_a801b0f989cea0054a91b7ab5588d2ad8}{{8.4.3.41}{39}{\texorpdfstring {m\_u\_min}{m\_u\_min}}{paragraph.8.4.3.41}{}}
\@writefile{toc}{\contentsline {paragraph}{\numberline {8.4.3.42}m\_v0}{39}{paragraph.8.4.3.42}\protected@file@percent }
\newlabel{class_parameters_a45e6d0526098cabaa21738f548c110c1}{{8.4.3.42}{39}{\texorpdfstring {m\_v0}{m\_v0}}{paragraph.8.4.3.42}{}}
\@writefile{toc}{\contentsline {paragraph}{\numberline {8.4.3.43}m\_zeta}{39}{paragraph.8.4.3.43}\protected@file@percent }
\newlabel{class_parameters_ac190ba7e67f3180c67475e969c0bb70d}{{8.4.3.43}{39}{\texorpdfstring {m\_zeta}{m\_zeta}}{paragraph.8.4.3.43}{}}
\@writefile{toc}{\contentsline {paragraph}{\numberline {8.4.3.44}max\_time}{40}{paragraph.8.4.3.44}\protected@file@percent }
\newlabel{class_parameters_a37a6e660bf503575fe40ff2a28676284}{{8.4.3.44}{40}{\texorpdfstring {max\_time}{max\_time}}{paragraph.8.4.3.44}{}}
\@writefile{toc}{\contentsline {paragraph}{\numberline {8.4.3.45}N}{40}{paragraph.8.4.3.45}\protected@file@percent }
\newlabel{class_parameters_a9911385ed716790b815bf12363020b18}{{8.4.3.45}{40}{\texorpdfstring {N}{N}}{paragraph.8.4.3.45}{}}
\@writefile{toc}{\contentsline {paragraph}{\numberline {8.4.3.46}num\_events}{40}{paragraph.8.4.3.46}\protected@file@percent }
\newlabel{class_parameters_a628bdb84ca8054b82c4e4de86f43999c}{{8.4.3.46}{40}{\texorpdfstring {num\_events}{num\_events}}{paragraph.8.4.3.46}{}}
\@writefile{toc}{\contentsline {paragraph}{\numberline {8.4.3.47}parameters}{40}{paragraph.8.4.3.47}\protected@file@percent }
\newlabel{class_parameters_a9e62120f4b2afe7f2365848881e294dd}{{8.4.3.47}{40}{\texorpdfstring {parameters}{parameters}}{paragraph.8.4.3.47}{}}
\@writefile{toc}{\contentsline {paragraph}{\numberline {8.4.3.48}progress\_indicator}{40}{paragraph.8.4.3.48}\protected@file@percent }
\newlabel{class_parameters_a14efb3416c9a05d8525966fd5b653272}{{8.4.3.48}{40}{\texorpdfstring {progress\_indicator}{progress\_indicator}}{paragraph.8.4.3.48}{}}
\@writefile{toc}{\contentsline {paragraph}{\numberline {8.4.3.49}rayleigh\_damping}{40}{paragraph.8.4.3.49}\protected@file@percent }
\newlabel{class_parameters_a88b8df2c572c4721b99c67a06e45ae00}{{8.4.3.49}{40}{\texorpdfstring {rayleigh\_damping}{rayleigh\_damping}}{paragraph.8.4.3.49}{}}
\@writefile{toc}{\contentsline {paragraph}{\numberline {8.4.3.50}read\_parameters}{40}{paragraph.8.4.3.50}\protected@file@percent }
\newlabel{class_parameters_a9a1c154783f3e5edcaf3ae09d53c2299}{{8.4.3.50}{40}{\texorpdfstring {read\_parameters}{read\_parameters}}{paragraph.8.4.3.50}{}}
\@writefile{toc}{\contentsline {paragraph}{\numberline {8.4.3.51}save\_interval\_dt}{40}{paragraph.8.4.3.51}\protected@file@percent }
\newlabel{class_parameters_af5380a145fdbb8653034ecdd0792fc9a}{{8.4.3.51}{40}{\texorpdfstring {save\_interval\_dt}{save\_interval\_dt}}{paragraph.8.4.3.51}{}}
\@writefile{toc}{\contentsline {paragraph}{\numberline {8.4.3.52}seed}{40}{paragraph.8.4.3.52}\protected@file@percent }
\newlabel{class_parameters_a9931a18cf94b5a639b696f83b333d374}{{8.4.3.52}{40}{\texorpdfstring {seed}{seed}}{paragraph.8.4.3.52}{}}
\@writefile{toc}{\contentsline {paragraph}{\numberline {8.4.3.53}slider\_speed}{40}{paragraph.8.4.3.53}\protected@file@percent }
\newlabel{class_parameters_a52978b63b3fc1860a3fbe04a4f5335d1}{{8.4.3.53}{40}{\texorpdfstring {slider\_speed}{slider\_speed}}{paragraph.8.4.3.53}{}}
\@writefile{toc}{\contentsline {paragraph}{\numberline {8.4.3.54}start\_speed\_continuous}{40}{paragraph.8.4.3.54}\protected@file@percent }
\newlabel{class_parameters_a56c201102e1d38a4b133f22e66b88935}{{8.4.3.54}{40}{\texorpdfstring {start\_speed\_continuous}{start\_speed\_continuous}}{paragraph.8.4.3.54}{}}
\@writefile{toc}{\contentsline {paragraph}{\numberline {8.4.3.55}threshold\_speed}{41}{paragraph.8.4.3.55}\protected@file@percent }
\@writefile{toc}{\contentsline {subsection}{\numberline {8.5}Simulation Class Reference}{41}{subsection.8.5}\protected@file@percent }
\newlabel{class_simulation}{{8.5}{41}{Simulation Class Reference}{subsection.8.5}{}}
\@writefile{toc}{\contentsline {subsubsection}{\numberline {8.5.1}Constructor \& Destructor Documentation}{44}{subsubsection.8.5.1}\protected@file@percent }
\newlabel{class_simulation_a5b224cc5b36bcc8eb29689aff223de41}{{8.5.1}{44}{Constructor \& Destructor Documentation}{subsubsection.8.5.1}{}}
\@writefile{toc}{\contentsline {paragraph}{\numberline {8.5.1.1}Simulation()\hspace  {0.1cm}{\footnotesize  \ttfamily  [1/3]}}{44}{paragraph.8.5.1.1}\protected@file@percent }
\newlabel{class_simulation_a7a5a10e8971916b92d6afaa9e8efec48}{{8.5.1.1}{44}{\texorpdfstring {Simulation()}{Simulation()}\hspace {0.1cm}{\footnotesize \ttfamily [1/3]}}{figure.caption.66}{}}
\@writefile{toc}{\contentsline {paragraph}{\numberline {8.5.1.2}Simulation()\hspace  {0.1cm}{\footnotesize  \ttfamily  [2/3]}}{45}{paragraph.8.5.1.2}\protected@file@percent }
\newlabel{class_simulation_a679f6557058395a6f8a1d106be1fabb0}{{8.5.1.2}{45}{\texorpdfstring {Simulation()}{Simulation()}\hspace {0.1cm}{\footnotesize \ttfamily [2/3]}}{paragraph.8.5.1.2}{}}
\@writefile{toc}{\contentsline {paragraph}{\numberline {8.5.1.3}Simulation()\hspace  {0.1cm}{\footnotesize  \ttfamily  [3/3]}}{45}{paragraph.8.5.1.3}\protected@file@percent }
\@writefile{toc}{\contentsline {subsubsection}{\numberline {8.5.2}Member Function Documentation}{45}{subsubsection.8.5.2}\protected@file@percent }
\newlabel{class_simulation_a34caa445495dc946c96426b3defd488a}{{8.5.2}{45}{Member Function Documentation}{subsubsection.8.5.2}{}}
\@writefile{toc}{\contentsline {paragraph}{\numberline {8.5.2.1}calculateDiagonalMatrices()}{45}{paragraph.8.5.2.1}\protected@file@percent }
\newlabel{class_simulation_a55df2a2e44457d6d8dd8efe2bcc90d19}{{8.5.2.1}{45}{\texorpdfstring {calculateDiagonalMatrices()}{calculateDiagonalMatrices()}}{paragraph.8.5.2.1}{}}
\@writefile{toc}{\contentsline {paragraph}{\numberline {8.5.2.2}calculateEigenvaluePairs()}{45}{paragraph.8.5.2.2}\protected@file@percent }
\newlabel{class_simulation_ae6772cbaaf1f554b1b901112222b0f23}{{8.5.2.2}{45}{\texorpdfstring {calculateEigenvaluePairs()}{calculateEigenvaluePairs()}}{paragraph.8.5.2.2}{}}
\@writefile{toc}{\contentsline {paragraph}{\numberline {8.5.2.3}calculateFrictionInParallel()}{45}{paragraph.8.5.2.3}\protected@file@percent }
\newlabel{class_simulation_ad0eb64e77b59af0bc2b2767085183eba}{{8.5.2.3}{46}{\texorpdfstring {calculateFrictionInParallel()}{calculateFrictionInParallel()}}{figure.caption.69}{}}
\@writefile{toc}{\contentsline {paragraph}{\numberline {8.5.2.4}calculatePadFriction()}{46}{paragraph.8.5.2.4}\protected@file@percent }
\newlabel{class_simulation_a91fadd19ce5f7a7e57d9971f0ca4d8d0}{{8.5.2.4}{46}{\texorpdfstring {calculatePadFriction()}{calculatePadFriction()}}{figure.caption.70}{}}
\@writefile{toc}{\contentsline {paragraph}{\numberline {8.5.2.5}calculatePadSupportDamper()}{46}{paragraph.8.5.2.5}\protected@file@percent }
\newlabel{class_simulation_a4255f746fe9c4016d4b35caeb0a0f982}{{8.5.2.5}{46}{\texorpdfstring {calculatePadSupportDamper()}{calculatePadSupportDamper()}}{figure.caption.71}{}}
\@writefile{toc}{\contentsline {paragraph}{\numberline {8.5.2.6}calculateStick()}{46}{paragraph.8.5.2.6}\protected@file@percent }
\newlabel{class_simulation_ade8dfc9e002f8e8321cc452f7f21b8b8}{{8.5.2.6}{46}{\texorpdfstring {calculateStick()}{calculateStick()}}{figure.caption.72}{}}
\@writefile{toc}{\contentsline {paragraph}{\numberline {8.5.2.7}copyYamlFile()}{47}{paragraph.8.5.2.7}\protected@file@percent }
\newlabel{class_simulation_aecc4e892f6f6b28d5c883bab7f33f41a}{{8.5.2.7}{47}{\texorpdfstring {copyYamlFile()}{copyYamlFile()}}{figure.caption.73}{}}
\@writefile{toc}{\contentsline {paragraph}{\numberline {8.5.2.8}createFolder()}{47}{paragraph.8.5.2.8}\protected@file@percent }
\newlabel{class_simulation_ae15922cf9e5b11289e267ecf9d250172}{{8.5.2.8}{47}{\texorpdfstring {createFolder()}{createFolder()}}{figure.caption.74}{}}
\@writefile{toc}{\contentsline {paragraph}{\numberline {8.5.2.9}createMassMatrix()}{47}{paragraph.8.5.2.9}\protected@file@percent }
\newlabel{class_simulation_a866ce8f83aded428523113f89769c7fe}{{8.5.2.9}{47}{\texorpdfstring {createMassMatrix()}{createMassMatrix()}}{paragraph.8.5.2.9}{}}
\@writefile{toc}{\contentsline {paragraph}{\numberline {8.5.2.10}createStiffnessMatrix()}{47}{paragraph.8.5.2.10}\protected@file@percent }
\newlabel{class_simulation_a942fdcb175d1ceced3877c63dc6ffdc9}{{8.5.2.10}{47}{\texorpdfstring {createStiffnessMatrix()}{createStiffnessMatrix()}}{paragraph.8.5.2.10}{}}
\@writefile{toc}{\contentsline {paragraph}{\numberline {8.5.2.11}function\_u()}{47}{paragraph.8.5.2.11}\protected@file@percent }
\newlabel{class_simulation_a555a4923c68031fd3d93257c2f086e24}{{8.5.2.11}{48}{\texorpdfstring {function\_u()}{function\_u()}}{figure.caption.76}{}}
\@writefile{toc}{\contentsline {paragraph}{\numberline {8.5.2.12}function\_x()}{48}{paragraph.8.5.2.12}\protected@file@percent }
\newlabel{class_simulation_ad3076d153691ec6da27f57d0281378b4}{{8.5.2.12}{48}{\texorpdfstring {function\_x()}{function\_x()}}{figure.caption.78}{}}
\@writefile{toc}{\contentsline {paragraph}{\numberline {8.5.2.13}function\_x\_odof()}{49}{paragraph.8.5.2.13}\protected@file@percent }
\newlabel{class_simulation_af1dbd77920312e5b59967d6d983cd77e}{{8.5.2.13}{49}{\texorpdfstring {function\_x\_odof()}{function\_x\_odof()}}{figure.caption.80}{}}
\@writefile{toc}{\contentsline {paragraph}{\numberline {8.5.2.14}increaseStick()}{49}{paragraph.8.5.2.14}\protected@file@percent }
\newlabel{class_simulation_a498b57b8e92cae01cff6aac346ce4212}{{8.5.2.14}{49}{\texorpdfstring {increaseStick()}{increaseStick()}}{figure.caption.81}{}}
\@writefile{toc}{\contentsline {paragraph}{\numberline {8.5.2.15}init()}{49}{paragraph.8.5.2.15}\protected@file@percent }
\newlabel{class_simulation_a648ec391ac6c1283eae65d9f75799677}{{8.5.2.15}{50}{\texorpdfstring {init()}{init()}}{figure.caption.83}{}}
\@writefile{toc}{\contentsline {paragraph}{\numberline {8.5.2.16}isSymmetric()}{50}{paragraph.8.5.2.16}\protected@file@percent }
\newlabel{class_simulation_a5460faa0e7bf9679eb2d7aa764703ef6}{{8.5.2.16}{50}{\texorpdfstring {isSymmetric()}{isSymmetric()}}{paragraph.8.5.2.16}{}}
\@writefile{toc}{\contentsline {paragraph}{\numberline {8.5.2.17}midpointMethod()}{50}{paragraph.8.5.2.17}\protected@file@percent }
\newlabel{class_simulation_a50285c686d89c9932d68283116a09eb1}{{8.5.2.17}{51}{\texorpdfstring {midpointMethod()}{midpointMethod()}}{figure.caption.85}{}}
\@writefile{toc}{\contentsline {paragraph}{\numberline {8.5.2.18}midpointMethodParallel()}{51}{paragraph.8.5.2.18}\protected@file@percent }
\newlabel{class_simulation_a6509ce731b03f294cb293cbc8e242d1e}{{8.5.2.18}{52}{\texorpdfstring {midpointMethodParallel()}{midpointMethodParallel()}}{figure.caption.87}{}}
\@writefile{toc}{\contentsline {paragraph}{\numberline {8.5.2.19}oneDegreeOfFreedomMidpointMethod()}{52}{paragraph.8.5.2.19}\protected@file@percent }
\newlabel{class_simulation_a87546975a689691515e30bbde56296f6}{{8.5.2.19}{52}{\texorpdfstring {oneDegreeOfFreedomMidpointMethod()}{oneDegreeOfFreedomMidpointMethod()}}{figure.caption.89}{}}
\@writefile{toc}{\contentsline {paragraph}{\numberline {8.5.2.20}phi()}{52}{paragraph.8.5.2.20}\protected@file@percent }
\newlabel{class_simulation_a77c0c696ffbd2cbf1e020af4ff620588}{{8.5.2.20}{52}{\texorpdfstring {phi()}{phi()}}{figure.caption.90}{}}
\@writefile{toc}{\contentsline {paragraph}{\numberline {8.5.2.21}printMidPointMethod()}{52}{paragraph.8.5.2.21}\protected@file@percent }
\newlabel{class_simulation_aebbf75b2018a937b0262218cdaf0bd54}{{8.5.2.21}{52}{\texorpdfstring {printMidPointMethod()}{printMidPointMethod()}}{paragraph.8.5.2.21}{}}
\@writefile{toc}{\contentsline {paragraph}{\numberline {8.5.2.22}runMidpointMethod()}{53}{paragraph.8.5.2.22}\protected@file@percent }
\newlabel{class_simulation_a7e8d8bc314e5b742c170635cc446b229}{{8.5.2.22}{53}{\texorpdfstring {runMidpointMethod()}{runMidpointMethod()}}{figure.caption.92}{}}
\@writefile{toc}{\contentsline {paragraph}{\numberline {8.5.2.23}saveEigenvalues()}{53}{paragraph.8.5.2.23}\protected@file@percent }
\newlabel{class_simulation_a7a62ae6fdaaa0f8d488a529025db2776}{{8.5.2.23}{53}{\texorpdfstring {saveEigenvalues()}{saveEigenvalues()}}{paragraph.8.5.2.23}{}}
\@writefile{toc}{\contentsline {paragraph}{\numberline {8.5.2.24}saveSteadyState()}{53}{paragraph.8.5.2.24}\protected@file@percent }
\newlabel{class_simulation_a79fc9d3e6445c21079f62460ac74d736}{{8.5.2.24}{53}{\texorpdfstring {saveSteadyState()}{saveSteadyState()}}{figure.caption.93}{}}
\@writefile{toc}{\contentsline {paragraph}{\numberline {8.5.2.25}saveToCsv()}{54}{paragraph.8.5.2.25}\protected@file@percent }
\newlabel{class_simulation_a72fb21f8ccb101c37794f560b115d194}{{8.5.2.25}{54}{\texorpdfstring {saveToCsv()}{saveToCsv()}}{figure.caption.95}{}}
\@writefile{toc}{\contentsline {paragraph}{\numberline {8.5.2.26}saveToCsvParallel()}{54}{paragraph.8.5.2.26}\protected@file@percent }
\newlabel{class_simulation_a0a24aab7fd2c43674be4b9bcc497423a}{{8.5.2.26}{54}{\texorpdfstring {saveToCsvParallel()}{saveToCsvParallel()}}{figure.caption.96}{}}
\@writefile{toc}{\contentsline {paragraph}{\numberline {8.5.2.27}setSpeedAfterThreshold()}{54}{paragraph.8.5.2.27}\protected@file@percent }
\newlabel{class_simulation_a1a75a31ba08d73fce70037974511af16}{{8.5.2.27}{54}{\texorpdfstring {setSpeedAfterThreshold()}{setSpeedAfterThreshold()}}{figure.caption.97}{}}
\@writefile{toc}{\contentsline {paragraph}{\numberline {8.5.2.28}setupAndRunFrictionInParallel()}{55}{paragraph.8.5.2.28}\protected@file@percent }
\newlabel{class_simulation_a681f247b9eebc2f1e8bb71602f0f9668}{{8.5.2.28}{55}{\texorpdfstring {setupAndRunFrictionInParallel()}{setupAndRunFrictionInParallel()}}{figure.caption.99}{}}
\@writefile{toc}{\contentsline {paragraph}{\numberline {8.5.2.29}setupBlockMatrix()}{55}{paragraph.8.5.2.29}\protected@file@percent }
\newlabel{class_simulation_a968d89b90df51ceef223cdb9796abc6d}{{8.5.2.29}{55}{\texorpdfstring {setupBlockMatrix()}{setupBlockMatrix()}}{figure.caption.100}{}}
\@writefile{toc}{\contentsline {paragraph}{\numberline {8.5.2.30}setupBlockMatrixDerivative()}{55}{paragraph.8.5.2.30}\protected@file@percent }
\newlabel{class_simulation_ab4eea28ba6fd46df49c0147a4f86d4ad}{{8.5.2.30}{55}{\texorpdfstring {setupBlockMatrixDerivative()}{setupBlockMatrixDerivative()}}{figure.caption.101}{}}
\@writefile{toc}{\contentsline {paragraph}{\numberline {8.5.2.31}setupConstants()}{56}{paragraph.8.5.2.31}\protected@file@percent }
\newlabel{class_simulation_a1fa5e09948c779db3acf8518a4c4f380}{{8.5.2.31}{56}{\texorpdfstring {setupConstants()}{setupConstants()}}{figure.caption.103}{}}
\@writefile{toc}{\contentsline {paragraph}{\numberline {8.5.2.32}setupLyapunov()}{56}{paragraph.8.5.2.32}\protected@file@percent }
\newlabel{class_simulation_a0843d4956985a80db01ca1636b1d496f}{{8.5.2.32}{56}{\texorpdfstring {setupLyapunov()}{setupLyapunov()}}{figure.caption.104}{}}
\@writefile{toc}{\contentsline {paragraph}{\numberline {8.5.2.33}setupModelVectorsMatrices()}{56}{paragraph.8.5.2.33}\protected@file@percent }
\newlabel{class_simulation_a2e3659531c17bff0f50187f4fcb0e86d}{{8.5.2.33}{57}{\texorpdfstring {setupModelVectorsMatrices()}{setupModelVectorsMatrices()}}{figure.caption.106}{}}
\@writefile{toc}{\contentsline {paragraph}{\numberline {8.5.2.34}setupPadVector()}{57}{paragraph.8.5.2.34}\protected@file@percent }
\newlabel{class_simulation_a2824970f4a4455df365a8ead2d3773ab}{{8.5.2.34}{57}{\texorpdfstring {setupPadVector()}{setupPadVector()}}{figure.caption.107}{}}
\@writefile{toc}{\contentsline {paragraph}{\numberline {8.5.2.35}setupPadVectorDerivative()}{58}{paragraph.8.5.2.35}\protected@file@percent }
\newlabel{class_simulation_aa90460771152261c5091a19c385ac5ed}{{8.5.2.35}{58}{\texorpdfstring {setupPadVectorDerivative()}{setupPadVectorDerivative()}}{figure.caption.108}{}}
\@writefile{toc}{\contentsline {paragraph}{\numberline {8.5.2.36}setupSaveVectorsMatrices()}{58}{paragraph.8.5.2.36}\protected@file@percent }
\newlabel{class_simulation_afa2dee5115f73a51688650704c7163de}{{8.5.2.36}{58}{\texorpdfstring {setupSaveVectorsMatrices()}{setupSaveVectorsMatrices()}}{figure.caption.109}{}}
\@writefile{toc}{\contentsline {paragraph}{\numberline {8.5.2.37}setupSliderSpeedMode()}{58}{paragraph.8.5.2.37}\protected@file@percent }
\newlabel{class_simulation_a5ca327a981b53477dd03d3d5708c3bbe}{{8.5.2.37}{58}{\texorpdfstring {setupSliderSpeedMode()}{setupSliderSpeedMode()}}{figure.caption.110}{}}
\@writefile{toc}{\contentsline {paragraph}{\numberline {8.5.2.38}steadyStateSolutuion()}{58}{paragraph.8.5.2.38}\protected@file@percent }
\newlabel{class_simulation_a467b4a3397d958152f369b598e28263a}{{8.5.2.38}{58}{\texorpdfstring {steadyStateSolutuion()}{steadyStateSolutuion()}}{figure.caption.111}{}}
\@writefile{toc}{\contentsline {paragraph}{\numberline {8.5.2.39}testEigen()}{59}{paragraph.8.5.2.39}\protected@file@percent }
\newlabel{class_simulation_abd2feb3d9265ebb9f77fa56b683cc9b6}{{8.5.2.39}{59}{\texorpdfstring {testEigen()}{testEigen()}}{paragraph.8.5.2.39}{}}
\@writefile{toc}{\contentsline {paragraph}{\numberline {8.5.2.40}updateSliderSpeed()}{59}{paragraph.8.5.2.40}\protected@file@percent }
\newlabel{class_simulation_a29f1dd717133a53f4691c6d0cc7a363d}{{8.5.2.40}{59}{\texorpdfstring {updateSliderSpeed()}{updateSliderSpeed()}}{figure.caption.113}{}}
\@writefile{toc}{\contentsline {paragraph}{\numberline {8.5.2.41}writeValuesToLoggers()}{59}{paragraph.8.5.2.41}\protected@file@percent }
\@writefile{toc}{\contentsline {subsubsection}{\numberline {8.5.3}Member Data Documentation}{60}{subsubsection.8.5.3}\protected@file@percent }
\newlabel{class_simulation_ace48bebeb18a98f0cca990b5f4ea56b4}{{8.5.3}{60}{Member Data Documentation}{subsubsection.8.5.3}{}}
\@writefile{toc}{\contentsline {paragraph}{\numberline {8.5.3.1}alpha}{60}{paragraph.8.5.3.1}\protected@file@percent }
\newlabel{class_simulation_a633666610aa6d84c8ef055f226159702}{{8.5.3.1}{60}{\texorpdfstring {alpha}{alpha}}{paragraph.8.5.3.1}{}}
\@writefile{toc}{\contentsline {paragraph}{\numberline {8.5.3.2}block\_matrix}{60}{paragraph.8.5.3.2}\protected@file@percent }
\newlabel{class_simulation_a338345313d636dd5978106be13aa93d8}{{8.5.3.2}{60}{\texorpdfstring {block\_matrix}{block\_matrix}}{paragraph.8.5.3.2}{}}
\@writefile{toc}{\contentsline {paragraph}{\numberline {8.5.3.3}block\_matrix\_derivative}{60}{paragraph.8.5.3.3}\protected@file@percent }
\newlabel{class_simulation_a293c11321509d0a66b111c038fbd26de}{{8.5.3.3}{60}{\texorpdfstring {block\_matrix\_derivative}{block\_matrix\_derivative}}{paragraph.8.5.3.3}{}}
\@writefile{toc}{\contentsline {paragraph}{\numberline {8.5.3.4}block\_matrix\_derivative\_lyapunov}{60}{paragraph.8.5.3.4}\protected@file@percent }
\newlabel{class_simulation_a8136463943e1404adf0d1af596d14c3e}{{8.5.3.4}{60}{\texorpdfstring {block\_matrix\_derivative\_lyapunov}{block\_matrix\_derivative\_lyapunov}}{paragraph.8.5.3.4}{}}
\@writefile{toc}{\contentsline {paragraph}{\numberline {8.5.3.5}block\_matrix\_lyapunov}{60}{paragraph.8.5.3.5}\protected@file@percent }
\newlabel{class_simulation_a16783510208df97463405b936d485e59}{{8.5.3.5}{60}{\texorpdfstring {block\_matrix\_lyapunov}{block\_matrix\_lyapunov}}{paragraph.8.5.3.5}{}}
\@writefile{toc}{\contentsline {paragraph}{\numberline {8.5.3.6}block\_position\_column\_index}{60}{paragraph.8.5.3.6}\protected@file@percent }
\newlabel{class_simulation_a9d74558fa1b145f11bdf37076729b827}{{8.5.3.6}{60}{\texorpdfstring {block\_position\_column\_index}{block\_position\_column\_index}}{paragraph.8.5.3.6}{}}
\@writefile{toc}{\contentsline {paragraph}{\numberline {8.5.3.7}block\_position\_to\_file}{60}{paragraph.8.5.3.7}\protected@file@percent }
\newlabel{class_simulation_a37e6c9c307a0dde72e924cf4f8659b63}{{8.5.3.7}{60}{\texorpdfstring {block\_position\_to\_file}{block\_position\_to\_file}}{paragraph.8.5.3.7}{}}
\@writefile{toc}{\contentsline {paragraph}{\numberline {8.5.3.8}block\_velocity\_column\_index}{60}{paragraph.8.5.3.8}\protected@file@percent }
\newlabel{class_simulation_a0b0931da30ba9f8caa5ce9ff67d63584}{{8.5.3.8}{60}{\texorpdfstring {block\_velocity\_column\_index}{block\_velocity\_column\_index}}{paragraph.8.5.3.8}{}}
\@writefile{toc}{\contentsline {paragraph}{\numberline {8.5.3.9}block\_velocity\_to\_file}{60}{paragraph.8.5.3.9}\protected@file@percent }
\newlabel{class_simulation_af7b55fbda8672f67080e72bbd92552f2}{{8.5.3.9}{60}{\texorpdfstring {block\_velocity\_to\_file}{block\_velocity\_to\_file}}{paragraph.8.5.3.9}{}}
\@writefile{toc}{\contentsline {paragraph}{\numberline {8.5.3.10}c\_p}{60}{paragraph.8.5.3.10}\protected@file@percent }
\newlabel{class_simulation_a7f4653183bd1d1322357483ac521b5cb}{{8.5.3.10}{60}{\texorpdfstring {c\_p}{c\_p}}{paragraph.8.5.3.10}{}}
\@writefile{toc}{\contentsline {paragraph}{\numberline {8.5.3.11}delta\_gamma\_new}{61}{paragraph.8.5.3.11}\protected@file@percent }
\newlabel{class_simulation_af5840f151228b86ab8ecd234f54d341a}{{8.5.3.11}{61}{\texorpdfstring {delta\_gamma\_new}{delta\_gamma\_new}}{paragraph.8.5.3.11}{}}
\@writefile{toc}{\contentsline {paragraph}{\numberline {8.5.3.12}delta\_gamma\_prev}{61}{paragraph.8.5.3.12}\protected@file@percent }
\newlabel{class_simulation_acd13d43daff031f803c6bcb476b38d8f}{{8.5.3.12}{61}{\texorpdfstring {delta\_gamma\_prev}{delta\_gamma\_prev}}{paragraph.8.5.3.12}{}}
\@writefile{toc}{\contentsline {paragraph}{\numberline {8.5.3.13}eigval}{61}{paragraph.8.5.3.13}\protected@file@percent }
\newlabel{class_simulation_aed9cd08f7a0c7ab446dd10943928a810}{{8.5.3.13}{61}{\texorpdfstring {eigval}{eigval}}{paragraph.8.5.3.13}{}}
\@writefile{toc}{\contentsline {paragraph}{\numberline {8.5.3.14}eigvec}{61}{paragraph.8.5.3.14}\protected@file@percent }
\newlabel{class_simulation_ad94103294ba02b4bcb47c4afa9b4bee3}{{8.5.3.14}{61}{\texorpdfstring {eigvec}{eigvec}}{paragraph.8.5.3.14}{}}
\@writefile{toc}{\contentsline {paragraph}{\numberline {8.5.3.15}friction\_zero\_counter}{61}{paragraph.8.5.3.15}\protected@file@percent }
\newlabel{class_simulation_ac1403e94d627817cae6d1e588ca4c597}{{8.5.3.15}{61}{\texorpdfstring {friction\_zero\_counter}{friction\_zero\_counter}}{paragraph.8.5.3.15}{}}
\@writefile{toc}{\contentsline {paragraph}{\numberline {8.5.3.16}index\_pad\_friction\_to\_file}{61}{paragraph.8.5.3.16}\protected@file@percent }
\newlabel{class_simulation_a3d600f2bfb85b084f28fb40ca563910a}{{8.5.3.16}{61}{\texorpdfstring {index\_pad\_friction\_to\_file}{index\_pad\_friction\_to\_file}}{paragraph.8.5.3.16}{}}
\@writefile{toc}{\contentsline {paragraph}{\numberline {8.5.3.17}index\_to\_file}{61}{paragraph.8.5.3.17}\protected@file@percent }
\newlabel{class_simulation_a55abff7b5d03fb516c701504c4bbf30f}{{8.5.3.17}{61}{\texorpdfstring {index\_to\_file}{index\_to\_file}}{paragraph.8.5.3.17}{}}
\@writefile{toc}{\contentsline {paragraph}{\numberline {8.5.3.18}input\_parameters}{61}{paragraph.8.5.3.18}\protected@file@percent }
\newlabel{class_simulation_a84704e9d11e02cf2f59b908bb9abcbc4}{{8.5.3.18}{61}{\texorpdfstring {input\_parameters}{input\_parameters}}{paragraph.8.5.3.18}{}}
\@writefile{toc}{\contentsline {paragraph}{\numberline {8.5.3.19}input\_parameters\_path}{61}{paragraph.8.5.3.19}\protected@file@percent }
\newlabel{class_simulation_a750f66ff0622c04720c1241f0350b0e5}{{8.5.3.19}{61}{\texorpdfstring {input\_parameters\_path}{input\_parameters\_path}}{paragraph.8.5.3.19}{}}
\@writefile{toc}{\contentsline {paragraph}{\numberline {8.5.3.20}k\_c}{61}{paragraph.8.5.3.20}\protected@file@percent }
\newlabel{class_simulation_ab6cad0170937ff08ae10c81962bc6761}{{8.5.3.20}{61}{\texorpdfstring {k\_c}{k\_c}}{paragraph.8.5.3.20}{}}
\@writefile{toc}{\contentsline {paragraph}{\numberline {8.5.3.21}k\_p}{61}{paragraph.8.5.3.21}\protected@file@percent }
\newlabel{class_simulation_abe5f31b0de55b124d1a1166805c58e94}{{8.5.3.21}{61}{\texorpdfstring {k\_p}{k\_p}}{paragraph.8.5.3.21}{}}
\@writefile{toc}{\contentsline {paragraph}{\numberline {8.5.3.22}loggingSpecificBlocks}{62}{paragraph.8.5.3.22}\protected@file@percent }
\newlabel{class_simulation_a07f997839e21ad857496afb8cf08ec79}{{8.5.3.22}{62}{\texorpdfstring {loggingSpecificBlocks}{loggingSpecificBlocks}}{paragraph.8.5.3.22}{}}
\@writefile{toc}{\contentsline {paragraph}{\numberline {8.5.3.23}m\_c\_crit}{62}{paragraph.8.5.3.23}\protected@file@percent }
\newlabel{class_simulation_aafd9391b4034201c817bc7d2686795a2}{{8.5.3.23}{62}{\texorpdfstring {m\_c\_crit}{m\_c\_crit}}{paragraph.8.5.3.23}{}}
\@writefile{toc}{\contentsline {paragraph}{\numberline {8.5.3.24}m\_u}{62}{paragraph.8.5.3.24}\protected@file@percent }
\newlabel{class_simulation_a5c7e213eb90fe4ddd3fb2199799f04ce}{{8.5.3.24}{62}{\texorpdfstring {m\_u}{m\_u}}{paragraph.8.5.3.24}{}}
\@writefile{toc}{\contentsline {paragraph}{\numberline {8.5.3.25}number\_of\_interval\_save\_step}{62}{paragraph.8.5.3.25}\protected@file@percent }
\newlabel{class_simulation_ab4d7711bc37a0229e541f3cd6b22a19f}{{8.5.3.25}{62}{\texorpdfstring {number\_of\_interval\_save\_step}{number\_of\_interval\_save\_step}}{paragraph.8.5.3.25}{}}
\@writefile{toc}{\contentsline {paragraph}{\numberline {8.5.3.26}number\_of\_save\_steps}{62}{paragraph.8.5.3.26}\protected@file@percent }
\newlabel{class_simulation_a73247f1ed3d43e0308cb8a84f4faeca6}{{8.5.3.26}{62}{\texorpdfstring {number\_of\_save\_steps}{number\_of\_save\_steps}}{paragraph.8.5.3.26}{}}
\@writefile{toc}{\contentsline {paragraph}{\numberline {8.5.3.27}number\_of\_time\_steps}{62}{paragraph.8.5.3.27}\protected@file@percent }
\newlabel{class_simulation_a3c11a6e3bfada9108923876983113312}{{8.5.3.27}{62}{\texorpdfstring {number\_of\_time\_steps}{number\_of\_time\_steps}}{paragraph.8.5.3.27}{}}
\@writefile{toc}{\contentsline {paragraph}{\numberline {8.5.3.28}pad\_friction\_to\_file}{62}{paragraph.8.5.3.28}\protected@file@percent }
\newlabel{class_simulation_a832a33e146718874b2d4d04979694d52}{{8.5.3.28}{62}{\texorpdfstring {pad\_friction\_to\_file}{pad\_friction\_to\_file}}{paragraph.8.5.3.28}{}}
\@writefile{toc}{\contentsline {paragraph}{\numberline {8.5.3.29}pad\_position\_to\_file}{62}{paragraph.8.5.3.29}\protected@file@percent }
\newlabel{class_simulation_a826fb8a4359765b693f142b6a1d6e753}{{8.5.3.29}{62}{\texorpdfstring {pad\_position\_to\_file}{pad\_position\_to\_file}}{paragraph.8.5.3.29}{}}
\@writefile{toc}{\contentsline {paragraph}{\numberline {8.5.3.30}pad\_vector}{62}{paragraph.8.5.3.30}\protected@file@percent }
\newlabel{class_simulation_a5c4ed8756f15cbfe08e863f0c96a901a}{{8.5.3.30}{62}{\texorpdfstring {pad\_vector}{pad\_vector}}{paragraph.8.5.3.30}{}}
\@writefile{toc}{\contentsline {paragraph}{\numberline {8.5.3.31}pad\_vector\_derivative}{62}{paragraph.8.5.3.31}\protected@file@percent }
\newlabel{class_simulation_a7be137a86b07da44dc8ccea6b79de0f8}{{8.5.3.31}{62}{\texorpdfstring {pad\_vector\_derivative}{pad\_vector\_derivative}}{paragraph.8.5.3.31}{}}
\@writefile{toc}{\contentsline {paragraph}{\numberline {8.5.3.32}pad\_vector\_derivative\_lyapunov}{62}{paragraph.8.5.3.32}\protected@file@percent }
\newlabel{class_simulation_a6747bce390c0f15f3e7ad620286efbc4}{{8.5.3.32}{62}{\texorpdfstring {pad\_vector\_derivative\_lyapunov}{pad\_vector\_derivative\_lyapunov}}{paragraph.8.5.3.32}{}}
\@writefile{toc}{\contentsline {paragraph}{\numberline {8.5.3.33}pad\_vector\_lyapunov}{63}{paragraph.8.5.3.33}\protected@file@percent }
\newlabel{class_simulation_a47128b2f415fe8fa1547aaf8a868e9b8}{{8.5.3.33}{63}{\texorpdfstring {pad\_vector\_lyapunov}{pad\_vector\_lyapunov}}{paragraph.8.5.3.33}{}}
\@writefile{toc}{\contentsline {paragraph}{\numberline {8.5.3.34}pad\_velocity\_to\_file}{63}{paragraph.8.5.3.34}\protected@file@percent }
\newlabel{class_simulation_a1d31986db3bb8686c0bfdea2fa893b0b}{{8.5.3.34}{63}{\texorpdfstring {pad\_velocity\_to\_file}{pad\_velocity\_to\_file}}{paragraph.8.5.3.34}{}}
\@writefile{toc}{\contentsline {paragraph}{\numberline {8.5.3.35}real\_eig\_values}{63}{paragraph.8.5.3.35}\protected@file@percent }
\newlabel{class_simulation_abb9079cdcd5ec22f1642ec7efb77b63b}{{8.5.3.35}{63}{\texorpdfstring {real\_eig\_values}{real\_eig\_values}}{paragraph.8.5.3.35}{}}
\@writefile{toc}{\contentsline {paragraph}{\numberline {8.5.3.36}real\_eig\_vectors}{63}{paragraph.8.5.3.36}\protected@file@percent }
\newlabel{class_simulation_ad88607293c07ae9bb5f58625680c2d55}{{8.5.3.36}{63}{\texorpdfstring {real\_eig\_vectors}{real\_eig\_vectors}}{paragraph.8.5.3.36}{}}
\@writefile{toc}{\contentsline {paragraph}{\numberline {8.5.3.37}result\_folder}{63}{paragraph.8.5.3.37}\protected@file@percent }
\newlabel{class_simulation_adc524fe9b7ec63a42482aae8fe1ceec4}{{8.5.3.37}{63}{\texorpdfstring {result\_folder}{result\_folder}}{paragraph.8.5.3.37}{}}
\@writefile{toc}{\contentsline {paragraph}{\numberline {8.5.3.38}result\_path}{63}{paragraph.8.5.3.38}\protected@file@percent }
\newlabel{class_simulation_a675735d874a10ed6156255be29a86f2b}{{8.5.3.38}{63}{\texorpdfstring {result\_path}{result\_path}}{paragraph.8.5.3.38}{}}
\@writefile{toc}{\contentsline {paragraph}{\numberline {8.5.3.39}stick\_counter}{63}{paragraph.8.5.3.39}\protected@file@percent }
\newlabel{class_simulation_abac51485c26bc9bda3cb135c603dacfc}{{8.5.3.39}{63}{\texorpdfstring {stick\_counter}{stick\_counter}}{paragraph.8.5.3.39}{}}
\@writefile{toc}{\contentsline {paragraph}{\numberline {8.5.3.40}total\_stick\_counter}{63}{paragraph.8.5.3.40}\protected@file@percent }
\newlabel{class_simulation_a199bd1c1e5671f720fa38d15fc9bc776}{{8.5.3.40}{63}{\texorpdfstring {total\_stick\_counter}{total\_stick\_counter}}{paragraph.8.5.3.40}{}}
\@writefile{toc}{\contentsline {paragraph}{\numberline {8.5.3.41}updateSliderSpeedDtInterval}{63}{paragraph.8.5.3.41}\protected@file@percent }
\newlabel{class_simulation_ad582037e1c79988f7f55c61a8ad46287}{{8.5.3.41}{63}{\texorpdfstring {updateSliderSpeedDtInterval}{updateSliderSpeedDtInterval}}{paragraph.8.5.3.41}{}}
\@writefile{toc}{\contentsline {paragraph}{\numberline {8.5.3.42}yaml\_path}{63}{paragraph.8.5.3.42}\protected@file@percent }
\@writefile{toc}{\contentsline {section}{\numberline {9}File Documentation}{64}{section.9}\protected@file@percent }
\@writefile{toc}{\contentsline {subsection}{\numberline {9.1}include/operations.hpp File Reference}{64}{subsection.9.1}\protected@file@percent }
\newlabel{operations_8hpp}{{9.1}{64}{include/operations.hpp File Reference}{subsection.9.1}{}}
\@writefile{toc}{\contentsline {subsubsection}{\numberline {9.1.1}Macro Definition Documentation}{65}{subsubsection.9.1.1}\protected@file@percent }
\newlabel{operations_8hpp_a32c08469940a939beac7000bbbfbab94}{{9.1.1}{65}{Macro Definition Documentation}{subsubsection.9.1.1}{}}
\@writefile{toc}{\contentsline {paragraph}{\numberline {9.1.1.1}OPERATION}{65}{paragraph.9.1.1.1}\protected@file@percent }
\@writefile{toc}{\contentsline {subsection}{\numberline {9.2}include/parameters.hpp File Reference}{65}{subsection.9.2}\protected@file@percent }
\newlabel{parameters_8hpp}{{9.2}{65}{include/parameters.hpp File Reference}{subsection.9.2}{}}
\@writefile{toc}{\contentsline {subsection}{\numberline {9.3}include/simulation.hpp File Reference}{66}{subsection.9.3}\protected@file@percent }
\newlabel{simulation_8hpp}{{9.3}{66}{include/simulation.hpp File Reference}{subsection.9.3}{}}
\@writefile{toc}{\contentsline {subsection}{\numberline {9.4}R\discretionary {\mbox  {\scriptsize  $\DOTSB \leftarrow \joinrel  \rhook $}}{}{}E\discretionary {\mbox  {\scriptsize  $\DOTSB \leftarrow \joinrel  \rhook $}}{}{}A\discretionary {\mbox  {\scriptsize  $\DOTSB \leftarrow \joinrel  \rhook $}}{}{}D\discretionary {\mbox  {\scriptsize  $\DOTSB \leftarrow \joinrel  \rhook $}}{}{}M\discretionary {\mbox  {\scriptsize  $\DOTSB \leftarrow \joinrel  \rhook $}}{}{}E.\discretionary {\mbox  {\scriptsize  $\DOTSB \leftarrow \joinrel  \rhook $}}{}{}md File Reference}{66}{subsection.9.4}\protected@file@percent }
\newlabel{_r_e_a_d_m_e_8md}{{9.4}{66}{R\+E\+A\+D\+M\+E.\+md File Reference}{subsection.9.4}{}}
\@writefile{toc}{\contentsline {subsection}{\numberline {9.5}src/simulation/debug\discretionary {\mbox  {\scriptsize  $\DOTSB \leftarrow \joinrel  \rhook $}}{}{}\_\discretionary {\mbox  {\scriptsize  $\DOTSB \leftarrow \joinrel  \rhook $}}{}{}functions.cpp File Reference}{66}{subsection.9.5}\protected@file@percent }
\newlabel{debug__functions_8cpp}{{9.5}{66}{src/simulation/debug\+\_\+functions.cpp File Reference}{subsection.9.5}{}}
\@writefile{toc}{\contentsline {subsection}{\numberline {9.6}src/simulation/debug\discretionary {\mbox  {\scriptsize  $\DOTSB \leftarrow \joinrel  \rhook $}}{}{}\_\discretionary {\mbox  {\scriptsize  $\DOTSB \leftarrow \joinrel  \rhook $}}{}{}parameters.cpp File Reference}{67}{subsection.9.6}\protected@file@percent }
\newlabel{debug__parameters_8cpp}{{9.6}{67}{src/simulation/debug\+\_\+parameters.cpp File Reference}{subsection.9.6}{}}
\gdef \LT@v {\LT@entry 
    {3}{30.3047pt}\LT@entry 
    {3}{119.72281pt}}
\@writefile{toc}{\contentsline {subsection}{\numberline {9.7}src/simulation/main.cpp File Reference}{68}{subsection.9.7}\protected@file@percent }
\newlabel{main_8cpp}{{9.7}{68}{src/simulation/main.cpp File Reference}{subsection.9.7}{}}
\@writefile{toc}{\contentsline {subsubsection}{\numberline {9.7.1}Function Documentation}{68}{subsubsection.9.7.1}\protected@file@percent }
\newlabel{main_8cpp_a0ddf1224851353fc92bfbff6f499fa97}{{9.7.1}{68}{Function Documentation}{subsubsection.9.7.1}{}}
\@writefile{toc}{\contentsline {paragraph}{\numberline {9.7.1.1}main()}{68}{paragraph.9.7.1.1}\protected@file@percent }
\@writefile{toc}{\contentsline {subsection}{\numberline {9.8}src/simulation/operation\discretionary {\mbox  {\scriptsize  $\DOTSB \leftarrow \joinrel  \rhook $}}{}{}\_\discretionary {\mbox  {\scriptsize  $\DOTSB \leftarrow \joinrel  \rhook $}}{}{}eigen.cpp File Reference}{69}{subsection.9.8}\protected@file@percent }
\newlabel{operation__eigen_8cpp}{{9.8}{69}{src/simulation/operation\+\_\+eigen.cpp File Reference}{subsection.9.8}{}}
\@writefile{toc}{\contentsline {subsection}{\numberline {9.9}src/simulation/operation\discretionary {\mbox  {\scriptsize  $\DOTSB \leftarrow \joinrel  \rhook $}}{}{}\_\discretionary {\mbox  {\scriptsize  $\DOTSB \leftarrow \joinrel  \rhook $}}{}{}heat\discretionary {\mbox  {\scriptsize  $\DOTSB \leftarrow \joinrel  \rhook $}}{}{}\_\discretionary {\mbox  {\scriptsize  $\DOTSB \leftarrow \joinrel  \rhook $}}{}{}map.cpp File Reference}{70}{subsection.9.9}\protected@file@percent }
\newlabel{operation__heat__map_8cpp}{{9.9}{70}{src/simulation/operation\+\_\+heat\+\_\+map.cpp File Reference}{subsection.9.9}{}}
\@writefile{toc}{\contentsline {subsection}{\numberline {9.10}src/simulation/operations.cpp File Reference}{70}{subsection.9.10}\protected@file@percent }
\newlabel{operations_8cpp}{{9.10}{70}{src/simulation/operations.cpp File Reference}{subsection.9.10}{}}
\@writefile{toc}{\contentsline {subsection}{\numberline {9.11}src/simulation/parameters.cpp File Reference}{71}{subsection.9.11}\protected@file@percent }
\newlabel{parameters_8cpp}{{9.11}{71}{src/simulation/parameters.cpp File Reference}{subsection.9.11}{}}
\@writefile{toc}{\contentsline {subsection}{\numberline {9.12}src/simulation/readme.md File Reference}{72}{subsection.9.12}\protected@file@percent }
\newlabel{readme_8md}{{9.12}{72}{src/simulation/readme.md File Reference}{subsection.9.12}{}}
\@writefile{toc}{\contentsline {subsection}{\numberline {9.13}src/simulation/simulation.cpp File Reference}{72}{subsection.9.13}\protected@file@percent }
\newlabel{simulation_8cpp}{{9.13}{72}{src/simulation/simulation.cpp File Reference}{subsection.9.13}{}}
\@writefile{toc}{\contentsline {subsection}{\numberline {9.14}src/simulation/simulation\discretionary {\mbox  {\scriptsize  $\DOTSB \leftarrow \joinrel  \rhook $}}{}{}\_\discretionary {\mbox  {\scriptsize  $\DOTSB \leftarrow \joinrel  \rhook $}}{}{}help\discretionary {\mbox  {\scriptsize  $\DOTSB \leftarrow \joinrel  \rhook $}}{}{}\_\discretionary {\mbox  {\scriptsize  $\DOTSB \leftarrow \joinrel  \rhook $}}{}{}functions.cpp File Reference}{72}{subsection.9.14}\protected@file@percent }
\newlabel{simulation__help__functions_8cpp}{{9.14}{72}{src/simulation/simulation\+\_\+help\+\_\+functions.cpp File Reference}{subsection.9.14}{}}
\@writefile{toc}{\contentsline {subsection}{\numberline {9.15}src/simulation/simulation\discretionary {\mbox  {\scriptsize  $\DOTSB \leftarrow \joinrel  \rhook $}}{}{}\_\discretionary {\mbox  {\scriptsize  $\DOTSB \leftarrow \joinrel  \rhook $}}{}{}midpoint.cpp File Reference}{73}{subsection.9.15}\protected@file@percent }
\newlabel{simulation__midpoint_8cpp}{{9.15}{73}{src/simulation/simulation\+\_\+midpoint.cpp File Reference}{subsection.9.15}{}}
\@writefile{toc}{\contentsline {subsection}{\numberline {9.16}src/simulation/simulation\discretionary {\mbox  {\scriptsize  $\DOTSB \leftarrow \joinrel  \rhook $}}{}{}\_\discretionary {\mbox  {\scriptsize  $\DOTSB \leftarrow \joinrel  \rhook $}}{}{}numerical.cpp File Reference}{73}{subsection.9.16}\protected@file@percent }
\newlabel{simulation__numerical_8cpp}{{9.16}{73}{src/simulation/simulation\+\_\+numerical.cpp File Reference}{subsection.9.16}{}}
\@writefile{toc}{\contentsline {subsection}{\numberline {9.17}src/simulation/simulation\discretionary {\mbox  {\scriptsize  $\DOTSB \leftarrow \joinrel  \rhook $}}{}{}\_\discretionary {\mbox  {\scriptsize  $\DOTSB \leftarrow \joinrel  \rhook $}}{}{}parallel\discretionary {\mbox  {\scriptsize  $\DOTSB \leftarrow \joinrel  \rhook $}}{}{}\_\discretionary {\mbox  {\scriptsize  $\DOTSB \leftarrow \joinrel  \rhook $}}{}{}friction.cpp File Reference}{74}{subsection.9.17}\protected@file@percent }
\newlabel{simulation__parallel__friction_8cpp}{{9.17}{74}{src/simulation/simulation\+\_\+parallel\+\_\+friction.cpp File Reference}{subsection.9.17}{}}
\@writefile{toc}{\contentsline {subsection}{\numberline {9.18}src/simulation/simulation\discretionary {\mbox  {\scriptsize  $\DOTSB \leftarrow \joinrel  \rhook $}}{}{}\_\discretionary {\mbox  {\scriptsize  $\DOTSB \leftarrow \joinrel  \rhook $}}{}{}setup.cpp File Reference}{75}{subsection.9.18}\protected@file@percent }
\newlabel{simulation__setup_8cpp}{{9.18}{75}{src/simulation/simulation\+\_\+setup.cpp File Reference}{subsection.9.18}{}}
\@writefile{toc}{\contentsline {subsection}{\numberline {9.19}src/simulation/sort\discretionary {\mbox  {\scriptsize  $\DOTSB \leftarrow \joinrel  \rhook $}}{}{}\_\discretionary {\mbox  {\scriptsize  $\DOTSB \leftarrow \joinrel  \rhook $}}{}{}eigenvalues.py File Reference}{75}{subsection.9.19}\protected@file@percent }
\newlabel{sort__eigenvalues_8py}{{9.19}{75}{src/simulation/sort\+\_\+eigenvalues.py File Reference}{subsection.9.19}{}}
