digraph "pip._vendor.pyparsing.ParseExpression.leaveWhitespace"
{
 // LATEX_PDF_SIZE
  edge [fontname="Helvetica",fontsize="10",labelfontname="Helvetica",labelfontsize="10"];
  node [fontname="Helvetica",fontsize="10",shape=record];
  rankdir="RL";
  Node1 [label="pip._vendor.pyparsing.Parse\lExpression.leaveWhitespace",height=0.2,width=0.4,color="black", fillcolor="grey75", style="filled", fontcolor="black",tooltip=" "];
  Node1 -> Node2 [dir="back",color="midnightblue",fontsize="10",style="solid",fontname="Helvetica"];
  Node2 [label="pkg_resources._vendor.pyparsing.\lCombine.__init__",height=0.2,width=0.4,color="black", fillcolor="white", style="filled",URL="$d6/de7/classpkg__resources_1_1__vendor_1_1pyparsing_1_1_combine.html#ac486d333729481aca8d159b774785864",tooltip=" "];
  Node2 -> Node3 [dir="back",color="midnightblue",fontsize="10",style="solid",fontname="Helvetica"];
  Node3 [label="setuptools._vendor.ordered\l_set.OrderedSet.__setstate__",height=0.2,width=0.4,color="black", fillcolor="white", style="filled",URL="$d0/d40/classsetuptools_1_1__vendor_1_1ordered__set_1_1_ordered_set.html#a852740634ccd2e3158b599082cf086de",tooltip=" "];
  Node1 -> Node4 [dir="back",color="midnightblue",fontsize="10",style="solid",fontname="Helvetica"];
  Node4 [label="setuptools._vendor.pyparsing.\lCombine.__init__",height=0.2,width=0.4,color="black", fillcolor="white", style="filled",URL="$d7/d3e/classsetuptools_1_1__vendor_1_1pyparsing_1_1_combine.html#a6bc0f189d26a4ac6a5986cafb15641b5",tooltip=" "];
}
