digraph "pip._vendor.pyparsing.ParseExpression.append"
{
 // LATEX_PDF_SIZE
  edge [fontname="Helvetica",fontsize="10",labelfontname="Helvetica",labelfontsize="10"];
  node [fontname="Helvetica",fontsize="10",shape=record];
  rankdir="RL";
  Node1 [label="pip._vendor.pyparsing.Parse\lExpression.append",height=0.2,width=0.4,color="black", fillcolor="grey75", style="filled", fontcolor="black",tooltip=" "];
  Node1 -> Node2 [dir="back",color="midnightblue",fontsize="10",style="solid",fontname="Helvetica"];
  Node2 [label="pip._vendor.pyparsing.And.\l__iadd__",height=0.2,width=0.4,color="black", fillcolor="white", style="filled",URL="$d7/d75/classpip_1_1__vendor_1_1pyparsing_1_1_and.html#aed06063711527027f539322ed846dfdd",tooltip=" "];
  Node1 -> Node3 [dir="back",color="midnightblue",fontsize="10",style="solid",fontname="Helvetica"];
  Node3 [label="pkg_resources._vendor.pyparsing.\lAnd.__iadd__",height=0.2,width=0.4,color="black", fillcolor="white", style="filled",URL="$d3/dbf/classpkg__resources_1_1__vendor_1_1pyparsing_1_1_and.html#aab46d1c623b48f6b5556975df8b97aba",tooltip=" "];
  Node1 -> Node4 [dir="back",color="midnightblue",fontsize="10",style="solid",fontname="Helvetica"];
  Node4 [label="setuptools._vendor.pyparsing.\lAnd.__iadd__",height=0.2,width=0.4,color="black", fillcolor="white", style="filled",URL="$d4/d33/classsetuptools_1_1__vendor_1_1pyparsing_1_1_and.html#abd80bd1cba05b111f1c56661ced6f228",tooltip=" "];
  Node1 -> Node5 [dir="back",color="midnightblue",fontsize="10",style="solid",fontname="Helvetica"];
  Node5 [label="pip._vendor.pyparsing.Match\lFirst.__ior__",height=0.2,width=0.4,color="black", fillcolor="white", style="filled",URL="$d6/d76/classpip_1_1__vendor_1_1pyparsing_1_1_match_first.html#a6b9546fc831474039b8074a14c6d9ec2",tooltip=" "];
  Node1 -> Node6 [dir="back",color="midnightblue",fontsize="10",style="solid",fontname="Helvetica"];
  Node6 [label="pkg_resources._vendor.pyparsing.\lMatchFirst.__ior__",height=0.2,width=0.4,color="black", fillcolor="white", style="filled",URL="$d6/d2c/classpkg__resources_1_1__vendor_1_1pyparsing_1_1_match_first.html#a685ce1ceb8cb54316cced1e61638a85b",tooltip=" "];
  Node1 -> Node7 [dir="back",color="midnightblue",fontsize="10",style="solid",fontname="Helvetica"];
  Node7 [label="setuptools._vendor.pyparsing.\lMatchFirst.__ior__",height=0.2,width=0.4,color="black", fillcolor="white", style="filled",URL="$d1/d81/classsetuptools_1_1__vendor_1_1pyparsing_1_1_match_first.html#a438540bf6ab18d10e6f87804e73a44cc",tooltip=" "];
  Node1 -> Node8 [dir="back",color="midnightblue",fontsize="10",style="solid",fontname="Helvetica"];
  Node8 [label="pip._vendor.pyparsing.Or.\l__ixor__",height=0.2,width=0.4,color="black", fillcolor="white", style="filled",URL="$dd/d35/classpip_1_1__vendor_1_1pyparsing_1_1_or.html#aaf839e2959fe88953c3026226a1c9e99",tooltip=" "];
  Node1 -> Node9 [dir="back",color="midnightblue",fontsize="10",style="solid",fontname="Helvetica"];
  Node9 [label="pkg_resources._vendor.pyparsing.\lOr.__ixor__",height=0.2,width=0.4,color="black", fillcolor="white", style="filled",URL="$d8/d5b/classpkg__resources_1_1__vendor_1_1pyparsing_1_1_or.html#a6a15222b5a1759e4e7a222d1a3e33b88",tooltip=" "];
  Node1 -> Node10 [dir="back",color="midnightblue",fontsize="10",style="solid",fontname="Helvetica"];
  Node10 [label="setuptools._vendor.pyparsing.\lOr.__ixor__",height=0.2,width=0.4,color="black", fillcolor="white", style="filled",URL="$dd/dba/classsetuptools_1_1__vendor_1_1pyparsing_1_1_or.html#a18953323a799c8234ef73ce10a4afb72",tooltip=" "];
}
