digraph "pip._vendor.distlib._backport.tarfile.TarFile.addfile"
{
 // LATEX_PDF_SIZE
  edge [fontname="Helvetica",fontsize="10",labelfontname="Helvetica",labelfontsize="10"];
  node [fontname="Helvetica",fontsize="10",shape=record];
  rankdir="LR";
  Node1 [label="pip._vendor.distlib.\l_backport.tarfile.TarFile.addfile",height=0.2,width=0.4,color="black", fillcolor="grey75", style="filled", fontcolor="black",tooltip=" "];
  Node1 -> Node2 [color="midnightblue",fontsize="10",style="solid",fontname="Helvetica"];
  Node2 [label="pip._vendor.distlib.\l_backport.tarfile.TarFile._check",height=0.2,width=0.4,color="black", fillcolor="white", style="filled",URL="$d7/d1d/classpip_1_1__vendor_1_1distlib_1_1__backport_1_1tarfile_1_1_tar_file.html#a8c4c13b51e4d116208c6340eb1d655f1",tooltip=" "];
  Node1 -> Node3 [color="midnightblue",fontsize="10",style="solid",fontname="Helvetica"];
  Node3 [label="pip._vendor.distlib.\l_backport.tarfile.copyfileobj",height=0.2,width=0.4,color="black", fillcolor="white", style="filled",URL="$d4/df2/namespacepip_1_1__vendor_1_1distlib_1_1__backport_1_1tarfile.html#a312ebc45af40f624a30a0538759d802a",tooltip=" "];
}
