digraph "pip._vendor.distlib.database.DistributionPath._generate_cache"
{
 // LATEX_PDF_SIZE
  edge [fontname="Helvetica",fontsize="10",labelfontname="Helvetica",labelfontsize="10"];
  node [fontname="Helvetica",fontsize="10",shape=record];
  rankdir="RL";
  Node1 [label="pip._vendor.distlib.database.\lDistributionPath._generate_cache",height=0.2,width=0.4,color="black", fillcolor="grey75", style="filled", fontcolor="black",tooltip=" "];
  Node1 -> Node2 [dir="back",color="midnightblue",fontsize="10",style="solid"];
  Node2 [label="pip._vendor.distlib.database.\lDistributionPath.get_distribution",height=0.2,width=0.4,color="black", fillcolor="white", style="filled",URL="$d3/d8a/classpip_1_1__vendor_1_1distlib_1_1database_1_1_distribution_path.html#af76df55542d7cd100793ca54b893c808",tooltip=" "];
  Node2 -> Node3 [dir="back",color="midnightblue",fontsize="10",style="solid"];
  Node3 [label="pip._vendor.distlib.database.\lDistributionPath.get_file_path",height=0.2,width=0.4,color="black", fillcolor="white", style="filled",URL="$d3/d8a/classpip_1_1__vendor_1_1distlib_1_1database_1_1_distribution_path.html#aad37e3c8f1659cb307dcd5472a563f96",tooltip=" "];
  Node1 -> Node4 [dir="back",color="midnightblue",fontsize="10",style="solid"];
  Node4 [label="pip._vendor.distlib.database.\lDistributionPath.get_distributions",height=0.2,width=0.4,color="black", fillcolor="white", style="filled",URL="$d3/d8a/classpip_1_1__vendor_1_1distlib_1_1database_1_1_distribution_path.html#a7648bdf2f1bf2a7e9f9e55aea3e1b1b3",tooltip=" "];
  Node4 -> Node5 [dir="back",color="midnightblue",fontsize="10",style="solid"];
  Node5 [label="pip._vendor.distlib.database.\lDistributionPath.get_exported\l_entries",height=0.2,width=0.4,color="black", fillcolor="white", style="filled",URL="$d3/d8a/classpip_1_1__vendor_1_1distlib_1_1database_1_1_distribution_path.html#a69e5ea3ce433f4ff77e0fae760f09605",tooltip=" "];
  Node4 -> Node6 [dir="back",color="midnightblue",fontsize="10",style="solid"];
  Node6 [label="pip._vendor.distlib.database.\lDistributionPath.provides\l_distribution",height=0.2,width=0.4,color="black", fillcolor="white", style="filled",URL="$d3/d8a/classpip_1_1__vendor_1_1distlib_1_1database_1_1_distribution_path.html#a149d6da691331a1302cad987fd42d23e",tooltip=" "];
}
