digraph "pip._vendor.distlib.database.DistributionPath.get_file_path"
{
 // LATEX_PDF_SIZE
  edge [fontname="Helvetica",fontsize="10",labelfontname="Helvetica",labelfontsize="10"];
  node [fontname="Helvetica",fontsize="10",shape=record];
  rankdir="LR";
  Node1 [label="pip._vendor.distlib.database.\lDistributionPath.get_file_path",height=0.2,width=0.4,color="black", fillcolor="grey75", style="filled", fontcolor="black",tooltip=" "];
  Node1 -> Node2 [color="midnightblue",fontsize="10",style="solid"];
  Node2 [label="pip._vendor.distlib.database.\lDistributionPath.get_distribution",height=0.2,width=0.4,color="black", fillcolor="white", style="filled",URL="$d3/d8a/classpip_1_1__vendor_1_1distlib_1_1database_1_1_distribution_path.html#af76df55542d7cd100793ca54b893c808",tooltip=" "];
  Node2 -> Node3 [color="midnightblue",fontsize="10",style="solid"];
  Node3 [label="pip._vendor.distlib.database.\lDistributionPath._generate_cache",height=0.2,width=0.4,color="black", fillcolor="white", style="filled",URL="$d3/d8a/classpip_1_1__vendor_1_1distlib_1_1database_1_1_distribution_path.html#aa6855bd612097ab26a9671744ab4813f",tooltip=" "];
  Node3 -> Node4 [color="midnightblue",fontsize="10",style="solid"];
  Node4 [label="pip._vendor.distlib.database.\lDistributionPath._yield_distributions",height=0.2,width=0.4,color="black", fillcolor="white", style="filled",URL="$d3/d8a/classpip_1_1__vendor_1_1distlib_1_1database_1_1_distribution_path.html#abddb318d5358d0b5ea8a1ef3d496c31a",tooltip=" "];
  Node2 -> Node4 [color="midnightblue",fontsize="10",style="solid"];
}
