digraph "pip._internal.req.req_uninstall.UninstallPathSet"
{
 // LATEX_PDF_SIZE
  edge [fontname="Helvetica",fontsize="10",labelfontname="Helvetica",labelfontsize="10"];
  node [fontname="Helvetica",fontsize="10",shape=record];
  Node1 [label="{pip._internal.req.req\l_uninstall.UninstallPathSet\n|+ paths\l+ pth\l+ dist\l- _refuse\l- _moved_paths\l|+ __init__()\l+ add()\l+ add_pth()\l+ remove()\l+ rollback()\l+ commit()\l+ from_dist()\l- _permitted()\l- _allowed_to_proceed()\l}",height=0.2,width=0.4,color="black", fillcolor="grey75", style="filled", fontcolor="black",tooltip=" "];
  Node2 -> Node1 [dir="back",color="midnightblue",fontsize="10",style="solid",arrowtail="onormal",fontname="Helvetica"];
  Node2 [label="{object\n||}",height=0.2,width=0.4,color="grey75", fillcolor="white", style="filled",tooltip=" "];
}
