digraph "pip._internal.network.auth.MultiDomainBasicAuth._get_url_and_credentials"
{
 // LATEX_PDF_SIZE
  edge [fontname="Helvetica",fontsize="10",labelfontname="Helvetica",labelfontsize="10"];
  node [fontname="Helvetica",fontsize="10",shape=record];
  rankdir="RL";
  Node1 [label="pip._internal.network.auth.\lMultiDomainBasicAuth._get\l_url_and_credentials",height=0.2,width=0.4,color="black", fillcolor="grey75", style="filled", fontcolor="black",tooltip=" "];
  Node1 -> Node2 [dir="back",color="midnightblue",fontsize="10",style="solid"];
  Node2 [label="pip._internal.network.auth.\lMultiDomainBasicAuth.__call__",height=0.2,width=0.4,color="black", fillcolor="white", style="filled",URL="$df/d98/classpip_1_1__internal_1_1network_1_1auth_1_1_multi_domain_basic_auth.html#a1d477fa0f5daf311dc5f278d9e067dd8",tooltip=" "];
}
