digraph "pip._internal.network.auth.MultiDomainBasicAuth._get_new_credentials"
{
 // LATEX_PDF_SIZE
  edge [fontname="Helvetica",fontsize="10",labelfontname="Helvetica",labelfontsize="10"];
  node [fontname="Helvetica",fontsize="10",shape=record];
  rankdir="LR";
  Node1 [label="pip._internal.network.auth.\lMultiDomainBasicAuth._get\l_new_credentials",height=0.2,width=0.4,color="black", fillcolor="grey75", style="filled", fontcolor="black",tooltip=" "];
  Node1 -> Node2 [color="midnightblue",fontsize="10",style="solid"];
  Node2 [label="pip._internal.network.auth.\lMultiDomainBasicAuth._get\l_index_url",height=0.2,width=0.4,color="black", fillcolor="white", style="filled",URL="$df/d98/classpip_1_1__internal_1_1network_1_1auth_1_1_multi_domain_basic_auth.html#ae19019984224b94282c7ccc40a998e14",tooltip=" "];
  Node2 -> Node3 [color="midnightblue",fontsize="10",style="solid"];
  Node3 [label="pip._internal.utils.misc.remove\l_auth_from_url",height=0.2,width=0.4,color="black", fillcolor="white", style="filled",URL="$de/dc3/namespacepip_1_1__internal_1_1utils_1_1misc.html#ab86409360d3b9ff8c6e22c43783244f9",tooltip=" "];
  Node3 -> Node4 [color="midnightblue",fontsize="10",style="solid"];
  Node4 [label="pip._internal.utils.misc.\l_transform_url",height=0.2,width=0.4,color="black", fillcolor="white", style="filled",URL="$de/dc3/namespacepip_1_1__internal_1_1utils_1_1misc.html#a575f6e83d31c674204096baf6fdeb4ec",tooltip=" "];
  Node1 -> Node5 [color="midnightblue",fontsize="10",style="solid"];
  Node5 [label="pip._internal.network.auth.get\l_keyring_auth",height=0.2,width=0.4,color="black", fillcolor="white", style="filled",URL="$d1/dab/namespacepip_1_1__internal_1_1network_1_1auth.html#af54b01f52654a5a132fb3f333a23e4aa",tooltip=" "];
  Node1 -> Node6 [color="midnightblue",fontsize="10",style="solid"];
  Node6 [label="pip._vendor.requests.utils.get\l_netrc_auth",height=0.2,width=0.4,color="black", fillcolor="white", style="filled",URL="$da/dae/namespacepip_1_1__vendor_1_1requests_1_1utils.html#a5d3ffafa29cafc9f1bd209036b9b8277",tooltip=" "];
  Node1 -> Node7 [color="midnightblue",fontsize="10",style="solid"];
  Node7 [label="pip._internal.utils.misc.split\l_auth_netloc_from_url",height=0.2,width=0.4,color="black", fillcolor="white", style="filled",URL="$de/dc3/namespacepip_1_1__internal_1_1utils_1_1misc.html#ac00e7e8295d8c5fd6e30534a3ef457ca",tooltip=" "];
  Node7 -> Node4 [color="midnightblue",fontsize="10",style="solid"];
}
