digraph "pip._internal.network.auth.MultiDomainBasicAuth.save_credentials"
{
 // LATEX_PDF_SIZE
  edge [fontname="Helvetica",fontsize="10",labelfontname="Helvetica",labelfontsize="10"];
  node [fontname="Helvetica",fontsize="10",shape=record];
  rankdir="RL";
  Node1 [label="pip._internal.network.auth.\lMultiDomainBasicAuth.save\l_credentials",height=0.2,width=0.4,color="black", fillcolor="grey75", style="filled", fontcolor="black",tooltip=" "];
  Node1 -> Node2 [dir="back",color="midnightblue",fontsize="10",style="solid"];
  Node2 [label="pip._internal.network.auth.\lMultiDomainBasicAuth.handle_401",height=0.2,width=0.4,color="black", fillcolor="white", style="filled",URL="$df/d98/classpip_1_1__internal_1_1network_1_1auth_1_1_multi_domain_basic_auth.html#a38434a9bbacb20115977099e171a8aca",tooltip=" "];
  Node2 -> Node3 [dir="back",color="midnightblue",fontsize="10",style="solid"];
  Node3 [label="pip._vendor.requests.auth.\lHTTPDigestAuth.__call__",height=0.2,width=0.4,color="black", fillcolor="white", style="filled",URL="$d2/de6/classpip_1_1__vendor_1_1requests_1_1auth_1_1_h_t_t_p_digest_auth.html#a403b3cedf8530a7cc8e01e9185ba0f75",tooltip=" "];
  Node2 -> Node4 [dir="back",color="midnightblue",fontsize="10",style="solid"];
  Node4 [label="pip._internal.network.auth.\lMultiDomainBasicAuth.__call__",height=0.2,width=0.4,color="black", fillcolor="white", style="filled",URL="$df/d98/classpip_1_1__internal_1_1network_1_1auth_1_1_multi_domain_basic_auth.html#a1d477fa0f5daf311dc5f278d9e067dd8",tooltip=" "];
}
