digraph "pip._vendor.progress.Progress.eta_td"
{
 // LATEX_PDF_SIZE
  edge [fontname="Helvetica",fontsize="10",labelfontname="Helvetica",labelfontsize="10"];
  node [fontname="Helvetica",fontsize="10",shape=record];
  rankdir="RL";
  Node1 [label="pip._vendor.progress.Progress.eta_td",height=0.2,width=0.4,color="black", fillcolor="grey75", style="filled", fontcolor="black",tooltip=" "];
  Node1 -> Node2 [dir="back",color="midnightblue",fontsize="10",style="solid",fontname="Helvetica"];
  Node2 [label="pip._internal.cli.progress\l_bars.DownloadProgressMixin.pretty_eta",height=0.2,width=0.4,color="black", fillcolor="white", style="filled",URL="$df/d54/classpip_1_1__internal_1_1cli_1_1progress__bars_1_1_download_progress_mixin.html#a13cb4271a6e7c91edd65cc66c0326b36",tooltip=" "];
}
