digraph "pip._vendor.progress.Progress.start"
{
 // LATEX_PDF_SIZE
  edge [fontname="Helvetica",fontsize="10",labelfontname="Helvetica",labelfontsize="10"];
  node [fontname="Helvetica",fontsize="10",shape=record];
  rankdir="LR";
  Node1 [label="pip._vendor.progress.Progress.start",height=0.2,width=0.4,color="black", fillcolor="grey75", style="filled", fontcolor="black",tooltip=" "];
  Node1 -> Node2 [color="midnightblue",fontsize="10",style="solid",fontname="Helvetica"];
  Node2 [label="pip._vendor.distlib.compat.\lOrderedDict.update",height=0.2,width=0.4,color="black", fillcolor="white", style="filled",URL="$d8/dae/classpip_1_1__vendor_1_1distlib_1_1compat_1_1_ordered_dict.html#ad86dd64571a978faf9ccaa7e2e3d688f",tooltip=" "];
  Node1 -> Node3 [color="midnightblue",fontsize="10",style="solid",fontname="Helvetica"];
  Node3 [label="pip._internal.cli.progress\l_bars.SilentBar.update",height=0.2,width=0.4,color="black", fillcolor="white", style="filled",URL="$d5/d7d/classpip_1_1__internal_1_1cli_1_1progress__bars_1_1_silent_bar.html#a2576a60f623d878edebbac9d03112ab9",tooltip=" "];
  Node1 -> Node4 [color="midnightblue",fontsize="10",style="solid",fontname="Helvetica"];
  Node4 [label="pip._internal.cli.progress\l_bars.DownloadProgressSpinner.update",height=0.2,width=0.4,color="black", fillcolor="white", style="filled",URL="$d7/d79/classpip_1_1__internal_1_1cli_1_1progress__bars_1_1_download_progress_spinner.html#ad89eb5dd5b755a1716693ee57534a5ff",tooltip=" "];
  Node4 -> Node5 [color="midnightblue",fontsize="10",style="solid",fontname="Helvetica"];
  Node5 [label="pip._internal.cli.progress\l_bars.DownloadProgressSpinner.next_phase",height=0.2,width=0.4,color="black", fillcolor="white", style="filled",URL="$d7/d79/classpip_1_1__internal_1_1cli_1_1progress__bars_1_1_download_progress_spinner.html#a8f5e7dcb2e9cb3073a3e428c7814a277",tooltip=" "];
  Node4 -> Node6 [color="midnightblue",fontsize="10",style="solid",fontname="Helvetica"];
  Node6 [label="pip._vendor.progress.Infinite.writeln",height=0.2,width=0.4,color="black", fillcolor="white", style="filled",URL="$d0/da8/classpip_1_1__vendor_1_1progress_1_1_infinite.html#aa8656c55c84ad3f0722d7e4c835036dc",tooltip=" "];
  Node6 -> Node7 [color="midnightblue",fontsize="10",style="solid",fontname="Helvetica"];
  Node7 [label="pip._vendor.progress.Infinite.clearln",height=0.2,width=0.4,color="black", fillcolor="white", style="filled",URL="$d0/da8/classpip_1_1__vendor_1_1progress_1_1_infinite.html#aaddc9da3c935ed1dc1775259ff37c657",tooltip=" "];
  Node6 -> Node8 [color="midnightblue",fontsize="10",style="solid",fontname="Helvetica"];
  Node8 [label="pip._vendor.progress.Infinite.is_tty",height=0.2,width=0.4,color="black", fillcolor="white", style="filled",URL="$d0/da8/classpip_1_1__vendor_1_1progress_1_1_infinite.html#acb2f63aeaa69421962c9272843da1974",tooltip=" "];
  Node1 -> Node9 [color="midnightblue",fontsize="10",style="solid",fontname="Helvetica"];
  Node9 [label="pip._vendor.progress.Infinite.update",height=0.2,width=0.4,color="black", fillcolor="white", style="filled",URL="$d0/da8/classpip_1_1__vendor_1_1progress_1_1_infinite.html#a9dfb83a7d59007b4dc13cbbe64e05661",tooltip=" "];
  Node1 -> Node10 [color="midnightblue",fontsize="10",style="solid",fontname="Helvetica"];
  Node10 [label="pip._vendor.distlib.util.\lProgress.update",height=0.2,width=0.4,color="black", fillcolor="white", style="filled",URL="$db/d8e/classpip_1_1__vendor_1_1distlib_1_1util_1_1_progress.html#a0e2c7e6e0640762949d9493550a192e8",tooltip=" "];
  Node1 -> Node11 [color="midnightblue",fontsize="10",style="solid",fontname="Helvetica"];
  Node11 [label="pip._internal.vcs.bazaar.\lBazaar.update",height=0.2,width=0.4,color="black", fillcolor="white", style="filled",URL="$d6/de7/classpip_1_1__internal_1_1vcs_1_1bazaar_1_1_bazaar.html#a0ba5a90abd295871d8f9ccd190ac58d6",tooltip=" "];
  Node11 -> Node12 [color="midnightblue",fontsize="10",style="solid",fontname="Helvetica"];
  Node12 [label="pip._internal.utils.subprocess.make\l_command",height=0.2,width=0.4,color="black", fillcolor="white", style="filled",URL="$de/d4d/namespacepip_1_1__internal_1_1utils_1_1subprocess.html#a943de158c89fb35ee9e6956dc4025cd8",tooltip=" "];
  Node11 -> Node13 [color="midnightblue",fontsize="10",style="solid",fontname="Helvetica"];
  Node13 [label="pip._internal.vcs.versioncontrol.\lVersionControl.run_command",height=0.2,width=0.4,color="black", fillcolor="white", style="filled",URL="$d0/db7/classpip_1_1__internal_1_1vcs_1_1versioncontrol_1_1_version_control.html#ad61672608a8af9f7250a5b52805e32da",tooltip=" "];
  Node13 -> Node14 [color="midnightblue",fontsize="10",style="solid",fontname="Helvetica"];
  Node14 [label="pip._internal.vcs.versioncontrol.call\l_subprocess",height=0.2,width=0.4,color="red", fillcolor="white", style="filled",URL="$d1/d2c/namespacepip_1_1__internal_1_1vcs_1_1versioncontrol.html#aee5031c77b49541d4363c8a519c8e45e",tooltip=" "];
  Node13 -> Node12 [color="midnightblue",fontsize="10",style="solid",fontname="Helvetica"];
  Node1 -> Node21 [color="midnightblue",fontsize="10",style="solid",fontname="Helvetica"];
  Node21 [label="pip._internal.vcs.git.Git.update",height=0.2,width=0.4,color="black", fillcolor="white", style="filled",URL="$d8/d4d/classpip_1_1__internal_1_1vcs_1_1git_1_1_git.html#aa5158c33dc4a263752d57a944939e196",tooltip=" "];
  Node21 -> Node22 [color="midnightblue",fontsize="10",style="solid",fontname="Helvetica"];
  Node22 [label="pip._internal.vcs.git.Git.get\l_git_version",height=0.2,width=0.4,color="black", fillcolor="white", style="filled",URL="$d8/d4d/classpip_1_1__internal_1_1vcs_1_1git_1_1_git.html#ad237bd25668f1d0169ed3f5c1ddb7363",tooltip=" "];
  Node22 -> Node23 [color="midnightblue",fontsize="10",style="solid",fontname="Helvetica"];
  Node23 [label="pip._vendor.pkg_resources.parse\l_version",height=0.2,width=0.4,color="black", fillcolor="white", style="filled",URL="$d7/dcc/namespacepip_1_1__vendor_1_1pkg__resources.html#a92bc2b76ba59a7f7e2c264890b280a65",tooltip=" "];
  Node22 -> Node13 [color="midnightblue",fontsize="10",style="solid",fontname="Helvetica"];
  Node21 -> Node12 [color="midnightblue",fontsize="10",style="solid",fontname="Helvetica"];
  Node21 -> Node23 [color="midnightblue",fontsize="10",style="solid",fontname="Helvetica"];
  Node21 -> Node24 [color="midnightblue",fontsize="10",style="solid",fontname="Helvetica"];
  Node24 [label="pip._internal.vcs.git.Git.resolve\l_revision",height=0.2,width=0.4,color="black", fillcolor="white", style="filled",URL="$d8/d4d/classpip_1_1__internal_1_1vcs_1_1git_1_1_git.html#a85b6fa33df082d3943a53f5507df3bb2",tooltip=" "];
  Node24 -> Node25 [color="midnightblue",fontsize="10",style="solid",fontname="Helvetica"];
  Node25 [label="pip._internal.vcs.bazaar.\lBazaar.get_revision",height=0.2,width=0.4,color="black", fillcolor="white", style="filled",URL="$d6/de7/classpip_1_1__internal_1_1vcs_1_1bazaar_1_1_bazaar.html#a4b44437ab0ee8f6233737cf313fee76d",tooltip=" "];
  Node25 -> Node13 [color="midnightblue",fontsize="10",style="solid",fontname="Helvetica"];
  Node24 -> Node26 [color="midnightblue",fontsize="10",style="solid",fontname="Helvetica"];
  Node26 [label="pip._internal.vcs.git.Git.get\l_revision",height=0.2,width=0.4,color="black", fillcolor="white", style="filled",URL="$d8/d4d/classpip_1_1__internal_1_1vcs_1_1git_1_1_git.html#a8d0a21c308892ce38a2f18d15c28927c",tooltip=" "];
  Node26 -> Node13 [color="midnightblue",fontsize="10",style="solid",fontname="Helvetica"];
  Node24 -> Node27 [color="midnightblue",fontsize="10",style="solid",fontname="Helvetica"];
  Node27 [label="pip._internal.vcs.git.Git.get\l_revision_sha",height=0.2,width=0.4,color="black", fillcolor="white", style="filled",URL="$d8/d4d/classpip_1_1__internal_1_1vcs_1_1git_1_1_git.html#a8b2d6bd99548e4ebd47035d9066c488b",tooltip=" "];
  Node27 -> Node13 [color="midnightblue",fontsize="10",style="solid",fontname="Helvetica"];
  Node24 -> Node28 [color="midnightblue",fontsize="10",style="solid",fontname="Helvetica"];
  Node28 [label="pip._internal.vcs.git.looks\l_like_hash",height=0.2,width=0.4,color="black", fillcolor="white", style="filled",URL="$dd/d51/namespacepip_1_1__internal_1_1vcs_1_1git.html#a52638865863aa71b7b1c65c46f9fa398",tooltip=" "];
  Node24 -> Node12 [color="midnightblue",fontsize="10",style="solid",fontname="Helvetica"];
  Node24 -> Node13 [color="midnightblue",fontsize="10",style="solid",fontname="Helvetica"];
  Node21 -> Node13 [color="midnightblue",fontsize="10",style="solid",fontname="Helvetica"];
  Node21 -> Node29 [color="midnightblue",fontsize="10",style="solid",fontname="Helvetica"];
  Node29 [label="pip._internal.vcs.git.Git.update\l_submodules",height=0.2,width=0.4,color="black", fillcolor="white", style="filled",URL="$d8/d4d/classpip_1_1__internal_1_1vcs_1_1git_1_1_git.html#a6cd58ea4608a75bdfb07e06f0137e07f",tooltip=" "];
  Node29 -> Node13 [color="midnightblue",fontsize="10",style="solid",fontname="Helvetica"];
  Node1 -> Node30 [color="midnightblue",fontsize="10",style="solid",fontname="Helvetica"];
  Node30 [label="pip._internal.vcs.mercurial.\lMercurial.update",height=0.2,width=0.4,color="black", fillcolor="white", style="filled",URL="$db/da0/classpip_1_1__internal_1_1vcs_1_1mercurial_1_1_mercurial.html#a43f117f7c17f95fe847d20f08c608f58",tooltip=" "];
  Node30 -> Node12 [color="midnightblue",fontsize="10",style="solid",fontname="Helvetica"];
  Node30 -> Node13 [color="midnightblue",fontsize="10",style="solid",fontname="Helvetica"];
  Node1 -> Node31 [color="midnightblue",fontsize="10",style="solid",fontname="Helvetica"];
  Node31 [label="pip._internal.vcs.subversion.\lSubversion.update",height=0.2,width=0.4,color="black", fillcolor="white", style="filled",URL="$d2/db0/classpip_1_1__internal_1_1vcs_1_1subversion_1_1_subversion.html#af9efc6f286384fb3f4791c4c23a1633c",tooltip=" "];
  Node31 -> Node32 [color="midnightblue",fontsize="10",style="solid",fontname="Helvetica"];
  Node32 [label="pip._internal.vcs.subversion.\lSubversion.get_remote_call\l_options",height=0.2,width=0.4,color="black", fillcolor="white", style="filled",URL="$d2/db0/classpip_1_1__internal_1_1vcs_1_1subversion_1_1_subversion.html#a894ac76a60631cd377d58eec97f92772",tooltip=" "];
  Node32 -> Node33 [color="midnightblue",fontsize="10",style="solid",fontname="Helvetica"];
  Node33 [label="pip._internal.vcs.subversion.\lSubversion.get_vcs_version",height=0.2,width=0.4,color="red", fillcolor="white", style="filled",URL="$d2/db0/classpip_1_1__internal_1_1vcs_1_1subversion_1_1_subversion.html#a07d700bdb9e85e2709ecedc54344a0b8",tooltip=" "];
  Node31 -> Node12 [color="midnightblue",fontsize="10",style="solid",fontname="Helvetica"];
  Node31 -> Node13 [color="midnightblue",fontsize="10",style="solid",fontname="Helvetica"];
  Node1 -> Node35 [color="midnightblue",fontsize="10",style="solid",fontname="Helvetica"];
  Node35 [label="pip._internal.vcs.versioncontrol.\lVersionControl.update",height=0.2,width=0.4,color="black", fillcolor="white", style="filled",URL="$d0/db7/classpip_1_1__internal_1_1vcs_1_1versioncontrol_1_1_version_control.html#a5c081d6a71565d9b4b090af740c4c597",tooltip=" "];
  Node1 -> Node36 [color="midnightblue",fontsize="10",style="solid",fontname="Helvetica"];
  Node36 [label="pip._vendor.distlib.wheel.\lWheel.update",height=0.2,width=0.4,color="black", fillcolor="white", style="filled",URL="$d1/d0b/classpip_1_1__vendor_1_1distlib_1_1wheel_1_1_wheel.html#ac7e58a7d70d5ef6abd9102c379d88360",tooltip=" "];
  Node36 -> Node37 [color="midnightblue",fontsize="10",style="solid",fontname="Helvetica"];
  Node37 [label="pip._vendor.distlib.wheel.\lWheel.build_zip",height=0.2,width=0.4,color="black", fillcolor="white", style="filled",URL="$d1/d0b/classpip_1_1__vendor_1_1distlib_1_1wheel_1_1_wheel.html#ad77b3d32f4917bff298040e6e7756c75",tooltip=" "];
  Node36 -> Node38 [color="midnightblue",fontsize="10",style="solid",fontname="Helvetica"];
  Node38 [label="pip._vendor.distlib.util.convert_path",height=0.2,width=0.4,color="black", fillcolor="white", style="filled",URL="$d6/d99/namespacepip_1_1__vendor_1_1distlib_1_1util.html#a0935a67d848f4420d9c2250f5abfb56b",tooltip=" "];
  Node36 -> Node39 [color="midnightblue",fontsize="10",style="solid",fontname="Helvetica"];
  Node39 [label="pip._internal.models.link.\lLink.filename",height=0.2,width=0.4,color="black", fillcolor="white", style="filled",URL="$de/da5/classpip_1_1__internal_1_1models_1_1link_1_1_link.html#ae1daa5521205c1e735c9ffc1d9305d80",tooltip=" "];
  Node39 -> Node40 [color="midnightblue",fontsize="10",style="solid",fontname="Helvetica"];
  Node40 [label="pip._internal.models.link.\lLink.netloc",height=0.2,width=0.4,color="black", fillcolor="white", style="filled",URL="$de/da5/classpip_1_1__internal_1_1models_1_1link_1_1_link.html#a67c4e7c416f4464b2cf43f69a4fd32d5",tooltip=" "];
  Node39 -> Node41 [color="midnightblue",fontsize="10",style="solid",fontname="Helvetica"];
  Node41 [label="pip._internal.models.link.\lLink.path",height=0.2,width=0.4,color="black", fillcolor="white", style="filled",URL="$de/da5/classpip_1_1__internal_1_1models_1_1link_1_1_link.html#a92cb97c6d8284494fb9993217d96f562",tooltip=" "];
  Node39 -> Node42 [color="midnightblue",fontsize="10",style="solid",fontname="Helvetica"];
  Node42 [label="pip._internal.utils.misc.split\l_auth_from_netloc",height=0.2,width=0.4,color="black", fillcolor="white", style="filled",URL="$de/dc3/namespacepip_1_1__internal_1_1utils_1_1misc.html#a4f7ed628264a14243cddbdbddf4b36e8",tooltip=" "];
  Node36 -> Node43 [color="midnightblue",fontsize="10",style="solid",fontname="Helvetica"];
  Node43 [label="pip._vendor.distlib.wheel.\lWheel.filename",height=0.2,width=0.4,color="black", fillcolor="white", style="filled",URL="$d1/d0b/classpip_1_1__vendor_1_1distlib_1_1wheel_1_1_wheel.html#a6110ed047c86b977e51a75f43323485e",tooltip=" "];
  Node36 -> Node44 [color="midnightblue",fontsize="10",style="solid",fontname="Helvetica"];
  Node44 [label="pip._vendor.distlib.util.tempdir",height=0.2,width=0.4,color="black", fillcolor="white", style="filled",URL="$d6/d99/namespacepip_1_1__vendor_1_1distlib_1_1util.html#ac673f767106dfff08d0c1a4e857e64bc",tooltip=" "];
  Node36 -> Node45 [color="midnightblue",fontsize="10",style="solid",fontname="Helvetica"];
  Node45 [label="pip._vendor.distlib.wheel.\lWheel.write_records",height=0.2,width=0.4,color="black", fillcolor="white", style="filled",URL="$d1/d0b/classpip_1_1__vendor_1_1distlib_1_1wheel_1_1_wheel.html#adc805b0d0ec56a7e8c56570cced65bef",tooltip=" "];
  Node45 -> Node46 [color="midnightblue",fontsize="10",style="solid",fontname="Helvetica"];
  Node46 [label="pip._vendor.distlib.wheel.\lWheel.get_hash",height=0.2,width=0.4,color="red", fillcolor="white", style="filled",URL="$d1/d0b/classpip_1_1__vendor_1_1distlib_1_1wheel_1_1_wheel.html#a1089055ba5c5306618dc438ce9c69b7f",tooltip=" "];
  Node45 -> Node63 [color="midnightblue",fontsize="10",style="solid",fontname="Helvetica"];
  Node63 [label="pip._vendor.distlib.database.\lBaseInstalledDistribution.get_hash",height=0.2,width=0.4,color="red", fillcolor="white", style="filled",URL="$d3/d43/classpip_1_1__vendor_1_1distlib_1_1database_1_1_base_installed_distribution.html#a0db639ac83f057f61eae7b8c6a38d603",tooltip=" "];
  Node45 -> Node64 [color="midnightblue",fontsize="10",style="solid",fontname="Helvetica"];
  Node64 [label="pip._vendor.distlib.wheel.\lWheel.write_record",height=0.2,width=0.4,color="black", fillcolor="white", style="filled",URL="$d1/d0b/classpip_1_1__vendor_1_1distlib_1_1wheel_1_1_wheel.html#a4d29542158c7cef59f91784a5e358449",tooltip=" "];
  Node1 -> Node65 [color="midnightblue",fontsize="10",style="solid",fontname="Helvetica"];
  Node65 [label="pip._vendor.distlib.metadata.\lLegacyMetadata.update",height=0.2,width=0.4,color="black", fillcolor="white", style="filled",URL="$d3/dc5/classpip_1_1__vendor_1_1distlib_1_1metadata_1_1_legacy_metadata.html#aa2c1a87cda9979f35ca5a669f6d7bb21",tooltip=" "];
  Node65 -> Node66 [color="midnightblue",fontsize="10",style="solid",fontname="Helvetica"];
  Node66 [label="pip._vendor.distlib.metadata.\lLegacyMetadata._convert_name",height=0.2,width=0.4,color="black", fillcolor="white", style="filled",URL="$d3/dc5/classpip_1_1__vendor_1_1distlib_1_1metadata_1_1_legacy_metadata.html#aba85ccc920e493d76cea58d2061a9501",tooltip=" "];
  Node65 -> Node67 [color="midnightblue",fontsize="10",style="solid",fontname="Helvetica"];
  Node67 [label="pip._internal.network.cache.\lSafeFileCache.set",height=0.2,width=0.4,color="red", fillcolor="white", style="filled",URL="$d6/db2/classpip_1_1__internal_1_1network_1_1cache_1_1_safe_file_cache.html#a34ad2a642c27b2833057d791ddc4ec0f",tooltip=" "];
  Node67 -> Node68 [color="midnightblue",fontsize="10",style="solid",fontname="Helvetica"];
  Node68 [label="pip._internal.network.cache.\lSafeFileCache._get_cache_path",height=0.2,width=0.4,color="black", fillcolor="white", style="filled",URL="$d6/db2/classpip_1_1__internal_1_1network_1_1cache_1_1_safe_file_cache.html#a5fad24a457033ba45859c326f942cee8",tooltip=" "];
  Node65 -> Node73 [color="midnightblue",fontsize="10",style="solid",fontname="Helvetica"];
  Node73 [label="pip._vendor.cachecontrol.cache.\lBaseCache.set",height=0.2,width=0.4,color="black", fillcolor="white", style="filled",URL="$da/d8a/classpip_1_1__vendor_1_1cachecontrol_1_1cache_1_1_base_cache.html#aa36247ddf4e818de3a025bcc3170145c",tooltip=" "];
  Node65 -> Node74 [color="midnightblue",fontsize="10",style="solid",fontname="Helvetica"];
  Node74 [label="pip._vendor.cachecontrol.cache.\lDictCache.set",height=0.2,width=0.4,color="black", fillcolor="white", style="filled",URL="$da/d77/classpip_1_1__vendor_1_1cachecontrol_1_1cache_1_1_dict_cache.html#a9b5614f237eb177116da66a9c12bf63d",tooltip=" "];
  Node65 -> Node75 [color="midnightblue",fontsize="10",style="solid",fontname="Helvetica"];
  Node75 [label="pip._vendor.cachecontrol.caches.file\l_cache.FileCache.set",height=0.2,width=0.4,color="red", fillcolor="white", style="filled",URL="$d4/d5e/classpip_1_1__vendor_1_1cachecontrol_1_1caches_1_1file__cache_1_1_file_cache.html#a7cd74c84895c0914d0561d7ad47a9288",tooltip=" "];
  Node65 -> Node79 [color="midnightblue",fontsize="10",style="solid",fontname="Helvetica"];
  Node79 [label="pip._vendor.cachecontrol.caches.redis\l_cache.RedisCache.set",height=0.2,width=0.4,color="black", fillcolor="white", style="filled",URL="$dd/d2e/classpip_1_1__vendor_1_1cachecontrol_1_1caches_1_1redis__cache_1_1_redis_cache.html#a3f3a9ca3c48de65c314cabb497e403de",tooltip=" "];
  Node65 -> Node80 [color="midnightblue",fontsize="10",style="solid",fontname="Helvetica"];
  Node80 [label="pip._vendor.distlib.metadata.\lLegacyMetadata.set",height=0.2,width=0.4,color="red", fillcolor="white", style="filled",URL="$d3/dc5/classpip_1_1__vendor_1_1distlib_1_1metadata_1_1_legacy_metadata.html#a2c135b8e7ca6361e1ebb6506e0fc5070",tooltip=" "];
  Node80 -> Node66 [color="midnightblue",fontsize="10",style="solid",fontname="Helvetica"];
}
