digraph "pip._internal.models.link.Link.hash"
{
 // LATEX_PDF_SIZE
  edge [fontname="Helvetica",fontsize="10",labelfontname="Helvetica",labelfontsize="10"];
  node [fontname="Helvetica",fontsize="10",shape=record];
  rankdir="RL";
  Node1 [label="pip._internal.models.link.\lLink.hash",height=0.2,width=0.4,color="black", fillcolor="grey75", style="filled", fontcolor="black",tooltip=" "];
  Node1 -> Node2 [dir="back",color="midnightblue",fontsize="10",style="solid",fontname="Helvetica"];
  Node2 [label="pip._internal.models.link.\lLink.is_hash_allowed",height=0.2,width=0.4,color="black", fillcolor="white", style="filled",URL="$de/da5/classpip_1_1__internal_1_1models_1_1link_1_1_link.html#a03434a34911c804d781f2d554d27d296",tooltip=" "];
}
