digraph "pip._internal.cli.progress_bars.InterruptibleMixin.handle_sigint"
{
 // LATEX_PDF_SIZE
  edge [fontname="Helvetica",fontsize="10",labelfontname="Helvetica",labelfontsize="10"];
  node [fontname="Helvetica",fontsize="10",shape=record];
  rankdir="LR";
  Node1 [label="pip._internal.cli.progress\l_bars.InterruptibleMixin.handle_sigint",height=0.2,width=0.4,color="black", fillcolor="grey75", style="filled", fontcolor="black",tooltip=" "];
  Node1 -> Node2 [color="midnightblue",fontsize="10",style="solid"];
  Node2 [label="pip._internal.cli.progress\l_bars.InterruptibleMixin.finish",height=0.2,width=0.4,color="black", fillcolor="white", style="filled",URL="$d0/d2a/classpip_1_1__internal_1_1cli_1_1progress__bars_1_1_interruptible_mixin.html#ac1d9459a8b58f1d12b3335e169457771",tooltip=" "];
}
