digraph "pip._internal.cli.progress_bars.InterruptibleMixin.finish"
{
 // LATEX_PDF_SIZE
  edge [fontname="Helvetica",fontsize="10",labelfontname="Helvetica",labelfontsize="10"];
  node [fontname="Helvetica",fontsize="10",shape=record];
  rankdir="RL";
  Node1 [label="pip._internal.cli.progress\l_bars.InterruptibleMixin.finish",height=0.2,width=0.4,color="black", fillcolor="grey75", style="filled", fontcolor="black",tooltip=" "];
  Node1 -> Node2 [dir="back",color="midnightblue",fontsize="10",style="solid"];
  Node2 [label="pip._vendor.progress.Infinite.\l__exit__",height=0.2,width=0.4,color="black", fillcolor="white", style="filled",URL="$d0/da8/classpip_1_1__vendor_1_1progress_1_1_infinite.html#a043b068b5cbfabc765b3d8dbebf081fc",tooltip=" "];
  Node1 -> Node3 [dir="back",color="midnightblue",fontsize="10",style="solid"];
  Node3 [label="pip._internal.cli.progress\l_bars.InterruptibleMixin.handle_sigint",height=0.2,width=0.4,color="black", fillcolor="white", style="filled",URL="$d0/d2a/classpip_1_1__internal_1_1cli_1_1progress__bars_1_1_interruptible_mixin.html#a34e51c4e78987d66d0ec66f03bd60b4d",tooltip=" "];
  Node1 -> Node4 [dir="back",color="midnightblue",fontsize="10",style="solid"];
  Node4 [label="pip._internal.cli.progress\l_bars.DownloadProgressMixin.iter",height=0.2,width=0.4,color="black", fillcolor="white", style="filled",URL="$df/d54/classpip_1_1__internal_1_1cli_1_1progress__bars_1_1_download_progress_mixin.html#a37eab0ec657772189925ac4621198a88",tooltip=" "];
}
