digraph "pip._vendor.distlib.database.DependencyGraph.repr_node"
{
 // LATEX_PDF_SIZE
  edge [fontname="Helvetica",fontsize="10",labelfontname="Helvetica",labelfontsize="10"];
  node [fontname="Helvetica",fontsize="10",shape=record];
  rankdir="RL";
  Node1 [label="pip._vendor.distlib.database.\lDependencyGraph.repr_node",height=0.2,width=0.4,color="black", fillcolor="grey75", style="filled", fontcolor="black",tooltip=" "];
  Node1 -> Node2 [dir="back",color="midnightblue",fontsize="10",style="solid",fontname="Helvetica"];
  Node2 [label="pip._vendor.distlib.database.\lDependencyGraph.__repr__",height=0.2,width=0.4,color="black", fillcolor="white", style="filled",URL="$d6/d1f/classpip_1_1__vendor_1_1distlib_1_1database_1_1_dependency_graph.html#a552032dc5099b46a72a7542fc28c4bd8",tooltip=" "];
  Node1 -> Node1 [dir="back",color="midnightblue",fontsize="10",style="solid",fontname="Helvetica"];
}
