digraph "pip._vendor.distlib.util.get_cache_base"
{
 // LATEX_PDF_SIZE
  edge [fontname="Helvetica",fontsize="10",labelfontname="Helvetica",labelfontsize="10"];
  node [fontname="Helvetica",fontsize="10",shape=record];
  rankdir="RL";
  Node1 [label="pip._vendor.distlib.util.get\l_cache_base",height=0.2,width=0.4,color="black", fillcolor="grey75", style="filled", fontcolor="black",tooltip=" "];
  Node1 -> Node2 [dir="back",color="midnightblue",fontsize="10",style="solid"];
  Node2 [label="pip._vendor.distlib.resources.\lResourceCache.__init__",height=0.2,width=0.4,color="black", fillcolor="white", style="filled",URL="$d7/d00/classpip_1_1__vendor_1_1distlib_1_1resources_1_1_resource_cache.html#a713fdc9b704f754d67b09f04cb2faf63",tooltip=" "];
  Node2 -> Node3 [dir="back",color="midnightblue",fontsize="10",style="solid"];
  Node3 [label="setuptools._vendor.ordered\l_set.OrderedSet.__setstate__",height=0.2,width=0.4,color="black", fillcolor="white", style="filled",URL="$d0/d40/classsetuptools_1_1__vendor_1_1ordered__set_1_1_ordered_set.html#a852740634ccd2e3158b599082cf086de",tooltip=" "];
  Node1 -> Node4 [dir="back",color="midnightblue",fontsize="10",style="solid"];
  Node4 [label="pip._vendor.distlib.wheel.\lWheel._get_dylib_cache",height=0.2,width=0.4,color="black", fillcolor="white", style="filled",URL="$d1/d0b/classpip_1_1__vendor_1_1distlib_1_1wheel_1_1_wheel.html#aace990054b18f24acce7376a22e5283f",tooltip=" "];
  Node4 -> Node5 [dir="back",color="midnightblue",fontsize="10",style="solid"];
  Node5 [label="pip._vendor.distlib.wheel.\lWheel._get_extensions",height=0.2,width=0.4,color="black", fillcolor="white", style="filled",URL="$d1/d0b/classpip_1_1__vendor_1_1distlib_1_1wheel_1_1_wheel.html#a2441302c04d5c493eb719c9dd02ca7f5",tooltip=" "];
  Node5 -> Node6 [dir="back",color="midnightblue",fontsize="10",style="solid"];
  Node6 [label="pip._vendor.distlib.wheel.\lWheel.mount",height=0.2,width=0.4,color="black", fillcolor="white", style="filled",URL="$d1/d0b/classpip_1_1__vendor_1_1distlib_1_1wheel_1_1_wheel.html#a63bb3e266ae4ce08b7856466b24f7de8",tooltip=" "];
}
