digraph "pip._vendor.distlib.database.DistributionPath.get_distribution"
{
 // LATEX_PDF_SIZE
  edge [fontname="Helvetica",fontsize="10",labelfontname="Helvetica",labelfontsize="10"];
  node [fontname="Helvetica",fontsize="10",shape=record];
  rankdir="RL";
  Node1 [label="pip._vendor.distlib.database.\lDistributionPath.get_distribution",height=0.2,width=0.4,color="black", fillcolor="grey75", style="filled", fontcolor="black",tooltip=" "];
  Node1 -> Node2 [dir="back",color="midnightblue",fontsize="10",style="solid",fontname="Helvetica"];
  Node2 [label="pip._vendor.distlib.database.\lDistributionPath.get_file_path",height=0.2,width=0.4,color="black", fillcolor="white", style="filled",URL="$d3/d8a/classpip_1_1__vendor_1_1distlib_1_1database_1_1_distribution_path.html#aad37e3c8f1659cb307dcd5472a563f96",tooltip=" "];
}
