digraph "pip._vendor.contextlib2._RedirectStream"
{
 // LATEX_PDF_SIZE
  edge [fontname="Helvetica",fontsize="10",labelfontname="Helvetica",labelfontsize="10"];
  node [fontname="Helvetica",fontsize="10",shape=record];
  Node1 [label="{pip._vendor.contextlib2.\l_RedirectStream\n|- _new_target\l- _old_targets\l- _stream\l|+ __init__()\l+ __enter__()\l+ __exit__()\l}",height=0.2,width=0.4,color="black", fillcolor="grey75", style="filled", fontcolor="black",tooltip=" "];
  Node2 -> Node1 [dir="back",color="midnightblue",fontsize="10",style="solid",arrowtail="onormal"];
  Node2 [label="{object\n||}",height=0.2,width=0.4,color="grey75", fillcolor="white", style="filled",tooltip=" "];
  Node1 -> Node3 [dir="back",color="midnightblue",fontsize="10",style="solid",arrowtail="onormal"];
  Node3 [label="{pip._vendor.contextlib2.redirect\l_stderr\n|- _stream\l|}",height=0.2,width=0.4,color="black", fillcolor="white", style="filled",URL="$dc/df9/classpip_1_1__vendor_1_1contextlib2_1_1redirect__stderr.html",tooltip=" "];
  Node1 -> Node4 [dir="back",color="midnightblue",fontsize="10",style="solid",arrowtail="onormal"];
  Node4 [label="{pip._vendor.contextlib2.redirect\l_stdout\n|- _stream\l|}",height=0.2,width=0.4,color="black", fillcolor="white", style="filled",URL="$d8/d8b/classpip_1_1__vendor_1_1contextlib2_1_1redirect__stdout.html",tooltip=" "];
}
