digraph "pip._internal.models.direct_url.DirInfo._from_dict"
{
 // LATEX_PDF_SIZE
  edge [fontname="Helvetica",fontsize="10",labelfontname="Helvetica",labelfontsize="10"];
  node [fontname="Helvetica",fontsize="10",shape=record];
  rankdir="LR";
  Node1 [label="pip._internal.models.direct\l_url.DirInfo._from_dict",height=0.2,width=0.4,color="black", fillcolor="grey75", style="filled", fontcolor="black",tooltip=" "];
  Node1 -> Node2 [color="midnightblue",fontsize="10",style="solid"];
  Node2 [label="pip._internal.models.direct\l_url._get_required",height=0.2,width=0.4,color="black", fillcolor="white", style="filled",URL="$d8/d24/namespacepip_1_1__internal_1_1models_1_1direct__url.html#ae1a2c128709c4c637701865eb753fb38",tooltip=" "];
  Node2 -> Node3 [color="midnightblue",fontsize="10",style="solid"];
  Node3 [label="pip._internal.models.direct\l_url._get",height=0.2,width=0.4,color="black", fillcolor="white", style="filled",URL="$d8/d24/namespacepip_1_1__internal_1_1models_1_1direct__url.html#a9466dec7383573996b2a7e436268e424",tooltip=" "];
}
