digraph "pip._internal.utils.hashes.Hashes"
{
 // LATEX_PDF_SIZE
  edge [fontname="Helvetica",fontsize="10",labelfontname="Helvetica",labelfontsize="10"];
  node [fontname="Helvetica",fontsize="10",shape=record];
  Node1 [label="{pip._internal.utils.hashes.\lHashes\n|- _allowed\l|+ __init__()\l+ __and__()\l+ digest_count()\l+ is_hash_allowed()\l+ check_against_chunks()\l+ check_against_file()\l+ check_against_path()\l+ __nonzero__()\l+ __bool__()\l- _raise()\l}",height=0.2,width=0.4,color="black", fillcolor="grey75", style="filled", fontcolor="black",tooltip=" "];
  Node2 -> Node1 [dir="back",color="midnightblue",fontsize="10",style="solid",arrowtail="onormal",fontname="Helvetica"];
  Node2 [label="{object\n||}",height=0.2,width=0.4,color="grey75", fillcolor="white", style="filled",tooltip=" "];
}
