digraph "pip._vendor.distlib.version.SemanticVersion"
{
 // LATEX_PDF_SIZE
  edge [fontname="Helvetica",fontsize="10",labelfontname="Helvetica",labelfontsize="10"];
  node [fontname="Helvetica",fontsize="10",shape=record];
  Node1 [label="{pip._vendor.distlib.version.\lSemanticVersion\n||+ parse()\l+ is_prerelease()\l}",height=0.2,width=0.4,color="black", fillcolor="grey75", style="filled", fontcolor="black",tooltip=" "];
  Node2 -> Node1 [dir="back",color="midnightblue",fontsize="10",style="solid",arrowtail="onormal",fontname="Helvetica"];
  Node2 [label="{pip._vendor.distlib.version.\lVersion\n|- _string\l- _parts\l|+ __init__()\l+ parse()\l+ __eq__()\l+ __ne__()\l+ __lt__()\l+ __gt__()\l+ __le__()\l+ __ge__()\l+ __hash__()\l+ __repr__()\l+ __str__()\l+ is_prerelease()\l- _check_compatible()\l}",height=0.2,width=0.4,color="black", fillcolor="white", style="filled",URL="$da/d0e/classpip_1_1__vendor_1_1distlib_1_1version_1_1_version.html",tooltip=" "];
  Node3 -> Node2 [dir="back",color="midnightblue",fontsize="10",style="solid",arrowtail="onormal",fontname="Helvetica"];
  Node3 [label="{object\n||}",height=0.2,width=0.4,color="grey75", fillcolor="white", style="filled",tooltip=" "];
}
