digraph "pip._internal.cli.parser.CustomOptionParser"
{
 // LATEX_PDF_SIZE
  edge [fontname="Helvetica",fontsize="10",labelfontname="Helvetica",labelfontsize="10"];
  node [fontname="Helvetica",fontsize="10",shape=record];
  Node1 [label="{pip._internal.cli.parser.\lCustomOptionParser\n||+ insert_option_group()\l+ option_list_all()\l}",height=0.2,width=0.4,color="black", fillcolor="grey75", style="filled", fontcolor="black",tooltip=" "];
  Node2 -> Node1 [dir="back",color="midnightblue",fontsize="10",style="solid",arrowtail="onormal"];
  Node2 [label="{optparse::OptionParser\n||}",height=0.2,width=0.4,color="grey75", fillcolor="white", style="filled",tooltip=" "];
  Node1 -> Node3 [dir="back",color="midnightblue",fontsize="10",style="solid",arrowtail="onormal"];
  Node3 [label="{pip._internal.cli.parser.\lConfigOptionParser\n|+ name\l+ config\l+ values\l|+ __init__()\l+ check_default()\l+ get_default_values()\l+ error()\l- _get_ordered_configuration\l_items()\l- _update_defaults()\l}",height=0.2,width=0.4,color="black", fillcolor="white", style="filled",URL="$d5/da5/classpip_1_1__internal_1_1cli_1_1parser_1_1_config_option_parser.html",tooltip=" "];
}
