digraph "pip._internal.utils.logging.ColorizedStreamHandler"
{
 // LATEX_PDF_SIZE
  edge [fontname="Helvetica",fontsize="10",labelfontname="Helvetica",labelfontsize="10"];
  node [fontname="Helvetica",fontsize="10",shape=record];
  Node1 [label="{pip._internal.utils.logging.\lColorizedStreamHandler\n|+ stream\l+ COLORS\l- _no_color\l|+ __init__()\l+ should_color()\l+ format()\l+ handleError()\l- _using_stdout()\l}",height=0.2,width=0.4,color="black", fillcolor="grey75", style="filled", fontcolor="black",tooltip=" "];
  Node2 -> Node1 [dir="back",color="midnightblue",fontsize="10",style="solid",arrowtail="onormal"];
  Node2 [label="{logging::StreamHandler\n||}",height=0.2,width=0.4,color="grey75", fillcolor="white", style="filled",tooltip=" "];
}
