digraph "pip._vendor.cachecontrol.cache.DictCache.delete"
{
 // LATEX_PDF_SIZE
  edge [fontname="Helvetica",fontsize="10",labelfontname="Helvetica",labelfontsize="10"];
  node [fontname="Helvetica",fontsize="10",shape=record];
  rankdir="LR";
  Node1 [label="pip._vendor.cachecontrol.cache.\lDictCache.delete",height=0.2,width=0.4,color="black", fillcolor="grey75", style="filled", fontcolor="black",tooltip=" "];
  Node1 -> Node2 [color="midnightblue",fontsize="10",style="solid",fontname="Helvetica"];
  Node2 [label="pip._vendor.distlib.compat.pop",height=0.2,width=0.4,color="black", fillcolor="white", style="filled",URL="$d1/d99/namespacepip_1_1__vendor_1_1distlib_1_1compat.html#af2de87d4eb4e5f0c5107ef23aeeb40fa",tooltip=" "];
  Node2 -> Node3 [color="midnightblue",fontsize="10",style="solid",fontname="Helvetica"];
  Node3 [label="wheel.cli.convert.convert",height=0.2,width=0.4,color="black", fillcolor="white", style="filled",URL="$d9/dd7/namespacewheel_1_1cli_1_1convert.html#af3bc802d1311c120a48e97d90de58fde",tooltip=" "];
  Node3 -> Node4 [color="midnightblue",fontsize="10",style="solid",fontname="Helvetica"];
  Node4 [label="pip._vendor.distlib.util.iglob",height=0.2,width=0.4,color="black", fillcolor="white", style="filled",URL="$d6/d99/namespacepip_1_1__vendor_1_1distlib_1_1util.html#a01e026ce674216cb9a30feec8d96f7cd",tooltip=" "];
  Node4 -> Node5 [color="midnightblue",fontsize="10",style="solid",fontname="Helvetica"];
  Node5 [label="pip._vendor.distlib.util.\l_iglob",height=0.2,width=0.4,color="black", fillcolor="white", style="filled",URL="$d6/d99/namespacepip_1_1__vendor_1_1distlib_1_1util.html#af493b4e69cabea8d54839c3255d12f1d",tooltip=" "];
  Node3 -> Node6 [color="midnightblue",fontsize="10",style="solid",fontname="Helvetica"];
  Node6 [label="wheel.cli.require_pkgresources",height=0.2,width=0.4,color="black", fillcolor="white", style="filled",URL="$d4/da6/namespacewheel_1_1cli.html#a0eedbfc56bb01006797f610f2e59d20b",tooltip=" "];
}
