digraph "pip._vendor.cachecontrol.caches.file_cache.FileCache.get"
{
 // LATEX_PDF_SIZE
  edge [fontname="Helvetica",fontsize="10",labelfontname="Helvetica",labelfontsize="10"];
  node [fontname="Helvetica",fontsize="10",shape=record];
  rankdir="LR";
  Node1 [label="pip._vendor.cachecontrol.caches.file\l_cache.FileCache.get",height=0.2,width=0.4,color="black", fillcolor="grey75", style="filled", fontcolor="black",tooltip=" "];
  Node1 -> Node2 [color="midnightblue",fontsize="10",style="solid"];
  Node2 [label="pip._vendor.cachecontrol.caches.file\l_cache.FileCache._fn",height=0.2,width=0.4,color="black", fillcolor="white", style="filled",URL="$d4/d5e/classpip_1_1__vendor_1_1cachecontrol_1_1caches_1_1file__cache_1_1_file_cache.html#acc032338fee1e604f8e74c43b836a045",tooltip=" "];
  Node2 -> Node3 [color="midnightblue",fontsize="10",style="solid"];
  Node3 [label="pip._vendor.cachecontrol.caches.file\l_cache.FileCache.encode",height=0.2,width=0.4,color="black", fillcolor="white", style="filled",URL="$d4/d5e/classpip_1_1__vendor_1_1cachecontrol_1_1caches_1_1file__cache_1_1_file_cache.html#a332cb83da1e988931abc75e2634718de",tooltip=" "];
}
