digraph "pip._vendor.cachecontrol.heuristics.BaseHeuristic.apply"
{
 // LATEX_PDF_SIZE
  edge [fontname="Helvetica",fontsize="10",labelfontname="Helvetica",labelfontsize="10"];
  node [fontname="Helvetica",fontsize="10",shape=record];
  rankdir="LR";
  Node1 [label="pip._vendor.cachecontrol.heuristics.\lBaseHeuristic.apply",height=0.2,width=0.4,color="black", fillcolor="grey75", style="filled", fontcolor="black",tooltip=" "];
  Node1 -> Node2 [color="midnightblue",fontsize="10",style="solid",fontname="Helvetica"];
  Node2 [label="pip._vendor.cachecontrol.heuristics.\lBaseHeuristic.update_headers",height=0.2,width=0.4,color="black", fillcolor="white", style="filled",URL="$de/dba/classpip_1_1__vendor_1_1cachecontrol_1_1heuristics_1_1_base_heuristic.html#a497b372f9450576afb8ebfcdbb9a8930",tooltip=" "];
  Node1 -> Node3 [color="midnightblue",fontsize="10",style="solid",fontname="Helvetica"];
  Node3 [label="pip._vendor.cachecontrol.heuristics.\lBaseHeuristic.warning",height=0.2,width=0.4,color="black", fillcolor="white", style="filled",URL="$de/dba/classpip_1_1__vendor_1_1cachecontrol_1_1heuristics_1_1_base_heuristic.html#a60981da360ad1a5e7d01adc126f52b58",tooltip=" "];
}
