digraph "pip._vendor.cachecontrol.heuristics.BaseHeuristic.update_headers"
{
 // LATEX_PDF_SIZE
  edge [fontname="Helvetica",fontsize="10",labelfontname="Helvetica",labelfontsize="10"];
  node [fontname="Helvetica",fontsize="10",shape=record];
  rankdir="RL";
  Node1 [label="pip._vendor.cachecontrol.heuristics.\lBaseHeuristic.update_headers",height=0.2,width=0.4,color="black", fillcolor="grey75", style="filled", fontcolor="black",tooltip=" "];
  Node1 -> Node2 [dir="back",color="midnightblue",fontsize="10",style="solid",fontname="Helvetica"];
  Node2 [label="pip._vendor.cachecontrol.heuristics.\lBaseHeuristic.apply",height=0.2,width=0.4,color="black", fillcolor="white", style="filled",URL="$de/dba/classpip_1_1__vendor_1_1cachecontrol_1_1heuristics_1_1_base_heuristic.html#a71faff258b36ba951716a724386d4d06",tooltip=" "];
}
