digraph "pip._vendor.chardet.gb2312prober.GB2312Prober.language"
{
 // LATEX_PDF_SIZE
  edge [fontname="Helvetica",fontsize="10",labelfontname="Helvetica",labelfontsize="10"];
  node [fontname="Helvetica",fontsize="10",shape=record];
  rankdir="RL";
  Node1 [label="pip._vendor.chardet.gb2312prober.\lGB2312Prober.language",height=0.2,width=0.4,color="black", fillcolor="grey75", style="filled", fontcolor="black",tooltip=" "];
  Node1 -> Node2 [dir="back",color="midnightblue",fontsize="10",style="solid",fontname="Helvetica"];
  Node2 [label="setuptools.extension.Extension.\l_convert_pyx_sources_to_lang",height=0.2,width=0.4,color="black", fillcolor="white", style="filled",URL="$d2/da3/classsetuptools_1_1extension_1_1_extension.html#aec80a43b695b8fb397bcf80d89a62737",tooltip=" "];
  Node1 -> Node3 [dir="back",color="midnightblue",fontsize="10",style="solid",fontname="Helvetica"];
  Node3 [label="pip._vendor.chardet.mbcharsetprober.\lMultiByteCharSetProber.feed",height=0.2,width=0.4,color="black", fillcolor="white", style="filled",URL="$df/d40/classpip_1_1__vendor_1_1chardet_1_1mbcharsetprober_1_1_multi_byte_char_set_prober.html#ad57b10650bc13b5edbb278b4488369e7",tooltip=" "];
  Node1 -> Node4 [dir="back",color="midnightblue",fontsize="10",style="solid",fontname="Helvetica"];
  Node4 [label="pip._vendor.chardet.sjisprober.\lSJISProber.feed",height=0.2,width=0.4,color="black", fillcolor="white", style="filled",URL="$dc/dba/classpip_1_1__vendor_1_1chardet_1_1sjisprober_1_1_s_j_i_s_prober.html#a95af2daa6b9396f65da6f6197a1dbfb8",tooltip=" "];
}
