digraph "pip._internal.resolution.resolvelib.candidates.make_install_req_from_dist"
{
 // LATEX_PDF_SIZE
  edge [fontname="Helvetica",fontsize="10",labelfontname="Helvetica",labelfontsize="10"];
  node [fontname="Helvetica",fontsize="10",shape=record];
  rankdir="LR";
  Node1 [label="pip._internal.resolution.resolvelib.candidates.make\l_install_req_from_dist",height=0.2,width=0.4,color="black", fillcolor="grey75", style="filled", fontcolor="black",tooltip=" "];
  Node1 -> Node2 [color="midnightblue",fontsize="10",style="solid",fontname="Helvetica"];
  Node2 [label="pip._vendor.packaging.utils.canonicalize_name",height=0.2,width=0.4,color="black", fillcolor="white", style="filled",URL="$dc/da8/namespacepip_1_1__vendor_1_1packaging_1_1utils.html#af20daae928523ea0ae9d2c4215887232",tooltip=" "];
  Node2 -> Node3 [color="midnightblue",fontsize="10",style="solid",fontname="Helvetica"];
  Node3 [label="pip._internal.utils.typing.cast",height=0.2,width=0.4,color="black", fillcolor="white", style="filled",URL="$d9/d56/namespacepip_1_1__internal_1_1utils_1_1typing.html#ab37e3e9039b01929d8ac2bd74d7c37db",tooltip=" "];
  Node1 -> Node4 [color="midnightblue",fontsize="10",style="solid",fontname="Helvetica"];
  Node4 [label="pip._internal.req.constructors.install\l_req_from_line",height=0.2,width=0.4,color="black", fillcolor="white", style="filled",URL="$df/dd2/namespacepip_1_1__internal_1_1req_1_1constructors.html#a627ed3c7246a72ae1e9c5aa38120a497",tooltip=" "];
  Node4 -> Node5 [color="midnightblue",fontsize="10",style="solid",fontname="Helvetica"];
  Node5 [label="pip._internal.req.constructors.parse\l_req_from_line",height=0.2,width=0.4,color="black", fillcolor="white", style="filled",URL="$df/dd2/namespacepip_1_1__internal_1_1req_1_1constructors.html#acfb2162125bb400c1b7d8a9abbe1771d",tooltip=" "];
  Node5 -> Node6 [color="midnightblue",fontsize="10",style="solid",fontname="Helvetica"];
  Node6 [label="pip._internal.req.constructors.\l_get_url_from_path",height=0.2,width=0.4,color="black", fillcolor="white", style="filled",URL="$df/dd2/namespacepip_1_1__internal_1_1req_1_1constructors.html#a7c6b770e45fa26d341bb67477c1ffe36",tooltip=" "];
  Node6 -> Node7 [color="midnightblue",fontsize="10",style="solid",fontname="Helvetica"];
  Node7 [label="pip._internal.req.constructors.\l_looks_like_path",height=0.2,width=0.4,color="black", fillcolor="white", style="filled",URL="$df/dd2/namespacepip_1_1__internal_1_1req_1_1constructors.html#a95ce5b118c03d61ee7f4482ce9db3415",tooltip=" "];
  Node6 -> Node8 [color="midnightblue",fontsize="10",style="solid",fontname="Helvetica"];
  Node8 [label="pip._internal.req.constructors.is\l_archive_file",height=0.2,width=0.4,color="black", fillcolor="white", style="filled",URL="$df/dd2/namespacepip_1_1__internal_1_1req_1_1constructors.html#ab664d504bab236974a158a88984fe657",tooltip=" "];
  Node8 -> Node9 [color="midnightblue",fontsize="10",style="solid",fontname="Helvetica"];
  Node9 [label="pip._internal.utils.misc.splitext",height=0.2,width=0.4,color="black", fillcolor="white", style="filled",URL="$de/dc3/namespacepip_1_1__internal_1_1utils_1_1misc.html#a6060934981bde6e18b7e138df65640ec",tooltip=" "];
  Node6 -> Node10 [color="midnightblue",fontsize="10",style="solid",fontname="Helvetica"];
  Node10 [label="pip._internal.utils.misc.is\l_installable_dir",height=0.2,width=0.4,color="black", fillcolor="white", style="filled",URL="$de/dc3/namespacepip_1_1__internal_1_1utils_1_1misc.html#aa0a3f4f5231d8f6fe06e209c36e4710f",tooltip=" "];
  Node6 -> Node11 [color="midnightblue",fontsize="10",style="solid",fontname="Helvetica"];
  Node11 [label="pip._internal.utils.urls.path\l_to_url",height=0.2,width=0.4,color="black", fillcolor="white", style="filled",URL="$d7/d48/namespacepip_1_1__internal_1_1utils_1_1urls.html#a789117f8d3114e952ead88416e5493d9",tooltip=" "];
  Node5 -> Node12 [color="midnightblue",fontsize="10",style="solid",fontname="Helvetica"];
  Node12 [label="pip._internal.req.constructors.\l_strip_extras",height=0.2,width=0.4,color="black", fillcolor="white", style="filled",URL="$df/dd2/namespacepip_1_1__internal_1_1req_1_1constructors.html#ac966ea668059516ba80fe95838e1d2ec",tooltip=" "];
  Node5 -> Node13 [color="midnightblue",fontsize="10",style="solid",fontname="Helvetica"];
  Node13 [label="pip._internal.req.constructors.convert\l_extras",height=0.2,width=0.4,color="black", fillcolor="white", style="filled",URL="$df/dd2/namespacepip_1_1__internal_1_1req_1_1constructors.html#a29955c4bc32fc2f80ca49ebb585100af",tooltip=" "];
  Node5 -> Node14 [color="midnightblue",fontsize="10",style="solid",fontname="Helvetica"];
  Node14 [label="pip._internal.req.constructors.deduce\l_helpful_msg",height=0.2,width=0.4,color="black", fillcolor="white", style="filled",URL="$df/dd2/namespacepip_1_1__internal_1_1req_1_1constructors.html#a361bce2fe5fcf2c86d37f602878d096b",tooltip=" "];
  Node14 -> Node15 [color="midnightblue",fontsize="10",style="solid",fontname="Helvetica"];
  Node15 [label="pip._internal.req.req\l_file.parse_requirements",height=0.2,width=0.4,color="black", fillcolor="white", style="filled",URL="$d9/d27/namespacepip_1_1__internal_1_1req_1_1req__file.html#a26157dbab79dc73771f38f1eb08d29c8",tooltip=" "];
  Node15 -> Node16 [color="midnightblue",fontsize="10",style="solid",fontname="Helvetica"];
  Node16 [label="pip._internal.req.req\l_file.get_line_parser",height=0.2,width=0.4,color="black", fillcolor="white", style="filled",URL="$d9/d27/namespacepip_1_1__internal_1_1req_1_1req__file.html#ab28e7931f03ea251630e063377a33936",tooltip=" "];
  Node16 -> Node17 [color="midnightblue",fontsize="10",style="solid",fontname="Helvetica"];
  Node17 [label="pip._internal.req.req\l_file.break_args_options",height=0.2,width=0.4,color="black", fillcolor="white", style="filled",URL="$d9/d27/namespacepip_1_1__internal_1_1req_1_1req__file.html#a4af0019abe61898b2e2556bfd9c103f9",tooltip=" "];
  Node16 -> Node18 [color="midnightblue",fontsize="10",style="solid",fontname="Helvetica"];
  Node18 [label="pip._internal.req.req\l_file.build_parser",height=0.2,width=0.4,color="black", fillcolor="white", style="filled",URL="$d9/d27/namespacepip_1_1__internal_1_1req_1_1req__file.html#ad877f09761f42a82cda8fe3630689b20",tooltip=" "];
  Node15 -> Node19 [color="midnightblue",fontsize="10",style="solid",fontname="Helvetica"];
  Node19 [label="pip._internal.req.req\l_file.handle_line",height=0.2,width=0.4,color="black", fillcolor="white", style="filled",URL="$d9/d27/namespacepip_1_1__internal_1_1req_1_1req__file.html#a84c3d53ffb4cac1346b54ab540ef58be",tooltip=" "];
  Node19 -> Node20 [color="midnightblue",fontsize="10",style="solid",fontname="Helvetica"];
  Node20 [label="pip._internal.req.req\l_file.handle_option_line",height=0.2,width=0.4,color="black", fillcolor="white", style="filled",URL="$d9/d27/namespacepip_1_1__internal_1_1req_1_1req__file.html#a54d25df51acbdd71432aadb2af1df991",tooltip=" "];
  Node19 -> Node21 [color="midnightblue",fontsize="10",style="solid",fontname="Helvetica"];
  Node21 [label="pip._internal.req.req\l_file.handle_requirement_line",height=0.2,width=0.4,color="black", fillcolor="white", style="filled",URL="$d9/d27/namespacepip_1_1__internal_1_1req_1_1req__file.html#a08eb89957cfc2e8ceaead212f682b756",tooltip=" "];
  Node5 -> Node22 [color="midnightblue",fontsize="10",style="solid",fontname="Helvetica"];
  Node22 [label="pip._internal.utils.deprecation.deprecated",height=0.2,width=0.4,color="black", fillcolor="white", style="filled",URL="$da/df1/namespacepip_1_1__internal_1_1utils_1_1deprecation.html#a7f64ef4a2a3e8999461e6d63b6929543",tooltip=" "];
  Node22 -> Node23 [color="midnightblue",fontsize="10",style="solid",fontname="Helvetica"];
  Node23 [label="pip._vendor.html5lib.html5parser.parse",height=0.2,width=0.4,color="black", fillcolor="white", style="filled",URL="$d2/d86/namespacepip_1_1__vendor_1_1html5lib_1_1html5parser.html#a2987549a868788409adca199412a27e4",tooltip=" "];
  Node5 -> Node24 [color="midnightblue",fontsize="10",style="solid",fontname="Helvetica"];
  Node24 [label="pip._internal.vcs.versioncontrol.is_url",height=0.2,width=0.4,color="black", fillcolor="white", style="filled",URL="$d1/d2c/namespacepip_1_1__internal_1_1vcs_1_1versioncontrol.html#a885afc288d59bd52197f024fa2fb779c",tooltip=" "];
  Node24 -> Node25 [color="midnightblue",fontsize="10",style="solid",fontname="Helvetica"];
  Node25 [label="pip._internal.utils.urls.get\l_url_scheme",height=0.2,width=0.4,color="black", fillcolor="white", style="filled",URL="$d7/d48/namespacepip_1_1__internal_1_1utils_1_1urls.html#ad87043afb534368959c3a324598b96f5",tooltip=" "];
  Node5 -> Node11 [color="midnightblue",fontsize="10",style="solid",fontname="Helvetica"];
}
