digraph "pip._vendor.msgpack.fallback.Unpacker._unpack"
{
 // LATEX_PDF_SIZE
  edge [fontname="Helvetica",fontsize="10",labelfontname="Helvetica",labelfontsize="10"];
  node [fontname="Helvetica",fontsize="10",shape=record];
  rankdir="RL";
  Node1 [label="pip._vendor.msgpack.fallback.\lUnpacker._unpack",height=0.2,width=0.4,color="black", fillcolor="grey75", style="filled", fontcolor="black",tooltip=" "];
  Node1 -> Node2 [dir="back",color="midnightblue",fontsize="10",style="solid"];
  Node2 [label="pip._vendor.msgpack.fallback.\lUnpacker.__next__",height=0.2,width=0.4,color="black", fillcolor="white", style="filled",URL="$d1/d3d/classpip_1_1__vendor_1_1msgpack_1_1fallback_1_1_unpacker.html#acf1141aad67e740403cbaaf71de0ef44",tooltip=" "];
  Node1 -> Node1 [dir="back",color="midnightblue",fontsize="10",style="solid"];
  Node1 -> Node3 [dir="back",color="midnightblue",fontsize="10",style="solid"];
  Node3 [label="pip._vendor.msgpack.fallback.\lUnpacker.read_array_header",height=0.2,width=0.4,color="black", fillcolor="white", style="filled",URL="$d1/d3d/classpip_1_1__vendor_1_1msgpack_1_1fallback_1_1_unpacker.html#a31d3db0cecbb067973b67674fc41df42",tooltip=" "];
  Node1 -> Node4 [dir="back",color="midnightblue",fontsize="10",style="solid"];
  Node4 [label="pip._vendor.msgpack.fallback.\lUnpacker.read_map_header",height=0.2,width=0.4,color="black", fillcolor="white", style="filled",URL="$d1/d3d/classpip_1_1__vendor_1_1msgpack_1_1fallback_1_1_unpacker.html#afa2dc33a0fb42c52cace4cb5ef4a2355",tooltip=" "];
  Node1 -> Node5 [dir="back",color="midnightblue",fontsize="10",style="solid"];
  Node5 [label="pip._vendor.msgpack.fallback.\lUnpacker.skip",height=0.2,width=0.4,color="black", fillcolor="white", style="filled",URL="$d1/d3d/classpip_1_1__vendor_1_1msgpack_1_1fallback_1_1_unpacker.html#acca264a46a3b28c6905f79962a7e56f9",tooltip=" "];
  Node1 -> Node6 [dir="back",color="midnightblue",fontsize="10",style="solid"];
  Node6 [label="pip._vendor.msgpack.fallback.\lUnpacker.unpack",height=0.2,width=0.4,color="black", fillcolor="white", style="filled",URL="$d1/d3d/classpip_1_1__vendor_1_1msgpack_1_1fallback_1_1_unpacker.html#a5879154aa0c51b6d9277b6a82b0bf35b",tooltip=" "];
}
