digraph "pip._vendor.distlib.util.HTTPSHandler"
{
 // LATEX_PDF_SIZE
  edge [fontname="Helvetica",fontsize="10",labelfontname="Helvetica",labelfontsize="10"];
  node [fontname="Helvetica",fontsize="10",shape=record];
  Node1 [label="{pip._vendor.distlib.util.\lHTTPSHandler\n|+ ca_certs\l+ check_domain\l|+ __init__()\l+ https_open()\l- _conn_maker()\l}",height=0.2,width=0.4,color="black", fillcolor="grey75", style="filled", fontcolor="black",tooltip=" "];
  Node2 -> Node1 [dir="back",color="midnightblue",fontsize="10",style="solid",arrowtail="onormal"];
  Node2 [label="{BaseHTTPSHandler\n||}",height=0.2,width=0.4,color="grey75", fillcolor="white", style="filled",tooltip=" "];
  Node1 -> Node3 [dir="back",color="midnightblue",fontsize="10",style="solid",arrowtail="onormal"];
  Node3 [label="{pip._vendor.distlib.util.\lHTTPSOnlyHandler\n||+ http_open()\l}",height=0.2,width=0.4,color="black", fillcolor="white", style="filled",URL="$de/d9f/classpip_1_1__vendor_1_1distlib_1_1util_1_1_h_t_t_p_s_only_handler.html",tooltip=" "];
}
