digraph "pip._internal.commands.debug.get_vendor_version_from_module"
{
 // LATEX_PDF_SIZE
  edge [fontname="Helvetica",fontsize="10",labelfontname="Helvetica",labelfontsize="10"];
  node [fontname="Helvetica",fontsize="10",shape=record];
  rankdir="LR";
  Node1 [label="pip._internal.commands.debug.get\l_vendor_version_from_module",height=0.2,width=0.4,color="black", fillcolor="grey75", style="filled", fontcolor="black",tooltip=" "];
  Node1 -> Node2 [color="midnightblue",fontsize="10",style="solid",fontname="Helvetica"];
  Node2 [label="pip._internal.commands.debug.get\l_module_from_module_name",height=0.2,width=0.4,color="black", fillcolor="white", style="filled",URL="$df/d72/namespacepip_1_1__internal_1_1commands_1_1debug.html#a3c241f0ef8f235201814614297c76141",tooltip=" "];
  Node1 -> Node3 [color="midnightblue",fontsize="10",style="solid",fontname="Helvetica"];
  Node3 [label="pkg_resources.Requirement.parse",height=0.2,width=0.4,color="black", fillcolor="white", style="filled",URL="$da/d63/classpkg__resources_1_1_requirement.html#a9be7f45af99c94ec9ca24807ecef986b",tooltip=" "];
  Node3 -> Node4 [color="midnightblue",fontsize="10",style="solid",fontname="Helvetica"];
  Node4 [label="pkg_resources.parse\l_requirements",height=0.2,width=0.4,color="black", fillcolor="white", style="filled",URL="$d0/de1/namespacepkg__resources.html#a2f0871c15153dc97a4a5b22c363a541e",tooltip=" "];
  Node4 -> Node5 [color="midnightblue",fontsize="10",style="solid",fontname="Helvetica"];
  Node5 [label="pkg_resources.yield\l_lines",height=0.2,width=0.4,color="black", fillcolor="white", style="filled",URL="$d0/de1/namespacepkg__resources.html#a0eafea5b96ff98a74cd3340af8bc1cc6",tooltip=" "];
}
