digraph "pip._vendor.distro.LinuxDistribution.build_number"
{
 // LATEX_PDF_SIZE
  edge [fontname="Helvetica",fontsize="10",labelfontname="Helvetica",labelfontsize="10"];
  node [fontname="Helvetica",fontsize="10",shape=record];
  rankdir="LR";
  Node1 [label="pip._vendor.distro.Linux\lDistribution.build_number",height=0.2,width=0.4,color="black", fillcolor="grey75", style="filled", fontcolor="black",tooltip=" "];
  Node1 -> Node2 [color="midnightblue",fontsize="10",style="solid"];
  Node2 [label="pip._vendor.distro.Linux\lDistribution.version_parts",height=0.2,width=0.4,color="black", fillcolor="white", style="filled",URL="$db/dc1/classpip_1_1__vendor_1_1distro_1_1_linux_distribution.html#a75cf0bb28d95514dc96425ef8c192660",tooltip=" "];
  Node2 -> Node3 [color="midnightblue",fontsize="10",style="solid"];
  Node3 [label="pip._internal.resolution.resolvelib.base.\lCandidate.version",height=0.2,width=0.4,color="black", fillcolor="white", style="filled",URL="$db/d18/classpip_1_1__internal_1_1resolution_1_1resolvelib_1_1base_1_1_candidate.html#a3438563e0acd16869e50ac3b3f0e754c",tooltip=" "];
  Node2 -> Node4 [color="midnightblue",fontsize="10",style="solid"];
  Node4 [label="pip._internal.resolution.resolvelib.candidates.\l_InstallRequirementBackedCandidate.version",height=0.2,width=0.4,color="black", fillcolor="white", style="filled",URL="$dc/d03/classpip_1_1__internal_1_1resolution_1_1resolvelib_1_1candidates_1_1___install_requirement_backed_candidate.html#a84e4b295977cbe12099db867a3c182dd",tooltip=" "];
  Node4 -> Node5 [color="midnightblue",fontsize="10",style="solid"];
  Node5 [label="pip._internal.resolution.resolvelib.candidates.\l_InstallRequirementBackedCandidate.dist",height=0.2,width=0.4,color="black", fillcolor="white", style="filled",URL="$dc/d03/classpip_1_1__internal_1_1resolution_1_1resolvelib_1_1candidates_1_1___install_requirement_backed_candidate.html#aa6d5af80d994f28e44534ad4a73dbb23",tooltip=" "];
  Node5 -> Node6 [color="midnightblue",fontsize="10",style="solid"];
  Node6 [label="pip._internal.resolution.resolvelib.candidates.\l_InstallRequirementBackedCandidate.\l_fetch_metadata",height=0.2,width=0.4,color="black", fillcolor="white", style="filled",URL="$dc/d03/classpip_1_1__internal_1_1resolution_1_1resolvelib_1_1candidates_1_1___install_requirement_backed_candidate.html#a1e35381549cf5ffbb5c0ec7cb0c3104a",tooltip=" "];
  Node6 -> Node7 [color="midnightblue",fontsize="10",style="solid"];
  Node7 [label="pip._internal.resolution.resolvelib.candidates.\l_InstallRequirementBackedCandidate.\l_check_metadata_consistency",height=0.2,width=0.4,color="black", fillcolor="white", style="filled",URL="$dc/d03/classpip_1_1__internal_1_1resolution_1_1resolvelib_1_1candidates_1_1___install_requirement_backed_candidate.html#a9788859d3e680a1f91399e237cfc4e0b",tooltip=" "];
  Node7 -> Node8 [color="midnightblue",fontsize="10",style="solid"];
  Node8 [label="pip._vendor.packaging.utils.canonicalize_name",height=0.2,width=0.4,color="black", fillcolor="white", style="filled",URL="$dc/da8/namespacepip_1_1__vendor_1_1packaging_1_1utils.html#af20daae928523ea0ae9d2c4215887232",tooltip=" "];
  Node8 -> Node9 [color="midnightblue",fontsize="10",style="solid"];
  Node9 [label="pip._internal.utils.typing.cast",height=0.2,width=0.4,color="black", fillcolor="white", style="filled",URL="$d9/d56/namespacepip_1_1__internal_1_1utils_1_1typing.html#ab37e3e9039b01929d8ac2bd74d7c37db",tooltip=" "];
  Node6 -> Node10 [color="midnightblue",fontsize="10",style="solid"];
  Node10 [label="pip._internal.resolution.resolvelib.candidates.\l_InstallRequirementBackedCandidate._prepare",height=0.2,width=0.4,color="black", fillcolor="white", style="filled",URL="$dc/d03/classpip_1_1__internal_1_1resolution_1_1resolvelib_1_1candidates_1_1___install_requirement_backed_candidate.html#a552452ed4b9faa6b400c9cd48b2e98bf",tooltip=" "];
  Node10 -> Node7 [color="midnightblue",fontsize="10",style="solid"];
  Node10 -> Node11 [color="midnightblue",fontsize="10",style="solid"];
  Node11 [label="pip._internal.resolution.resolvelib.candidates.\l_InstallRequirementBackedCandidate.\l_prepare_abstract_distribution",height=0.2,width=0.4,color="black", fillcolor="white", style="filled",URL="$dc/d03/classpip_1_1__internal_1_1resolution_1_1resolvelib_1_1candidates_1_1___install_requirement_backed_candidate.html#a710c5b62ed82fc1479504323da33bbd9",tooltip=" "];
  Node6 -> Node12 [color="midnightblue",fontsize="10",style="solid"];
  Node12 [label="pip._internal.network.lazy\l_wheel.dist_from_wheel_url",height=0.2,width=0.4,color="black", fillcolor="white", style="filled",URL="$d2/d8c/namespacepip_1_1__internal_1_1network_1_1lazy__wheel.html#a35a4bbb63205e75fdf71a52a2f0af374",tooltip=" "];
  Node6 -> Node13 [color="midnightblue",fontsize="10",style="solid"];
  Node13 [label="pip._internal.utils.logging.indent_log",height=0.2,width=0.4,color="black", fillcolor="white", style="filled",URL="$d2/d7f/namespacepip_1_1__internal_1_1utils_1_1logging.html#a085a5d65b0702800d0a9d48a0a4615a8",tooltip=" "];
  Node13 -> Node14 [color="midnightblue",fontsize="10",style="solid"];
  Node14 [label="pip._internal.utils.logging.get\l_indentation",height=0.2,width=0.4,color="black", fillcolor="white", style="filled",URL="$d2/d7f/namespacepip_1_1__internal_1_1utils_1_1logging.html#a44d946c100e5712775abb26dc67d1c51",tooltip=" "];
  Node2 -> Node15 [color="midnightblue",fontsize="10",style="solid"];
  Node15 [label="pip._internal.resolution.resolvelib.candidates.\lExtrasCandidate.version",height=0.2,width=0.4,color="black", fillcolor="white", style="filled",URL="$d8/df7/classpip_1_1__internal_1_1resolution_1_1resolvelib_1_1candidates_1_1_extras_candidate.html#a022f947eaaa0ed18ed6dc2d295117d01",tooltip=" "];
  Node2 -> Node16 [color="midnightblue",fontsize="10",style="solid"];
  Node16 [label="pip._internal.resolution.resolvelib.candidates.\lRequiresPythonCandidate.version",height=0.2,width=0.4,color="black", fillcolor="white", style="filled",URL="$db/d0a/classpip_1_1__internal_1_1resolution_1_1resolvelib_1_1candidates_1_1_requires_python_candidate.html#af16bb188496e6e10928c39b856dc7da1",tooltip=" "];
  Node2 -> Node17 [color="midnightblue",fontsize="10",style="solid"];
  Node17 [label="pip._vendor.distro.Linux\lDistribution.version",height=0.2,width=0.4,color="black", fillcolor="white", style="filled",URL="$db/dc1/classpip_1_1__vendor_1_1distro_1_1_linux_distribution.html#a0c37e11aca02766e25025a395c09dd8b",tooltip=" "];
  Node17 -> Node18 [color="midnightblue",fontsize="10",style="solid"];
  Node18 [label="pip._vendor.distro.Linux\lDistribution._parse_distro\l_release_content",height=0.2,width=0.4,color="black", fillcolor="white", style="filled",URL="$db/dc1/classpip_1_1__vendor_1_1distro_1_1_linux_distribution.html#aa74c8b8f216e13c0f0d81f2b952ed689",tooltip=" "];
  Node17 -> Node19 [color="midnightblue",fontsize="10",style="solid"];
  Node19 [label="pip._vendor.distro.Linux\lDistribution.codename",height=0.2,width=0.4,color="black", fillcolor="white", style="filled",URL="$db/dc1/classpip_1_1__vendor_1_1distro_1_1_linux_distribution.html#a8b01fa5c9b2883dab710ca528927a6d2",tooltip=" "];
  Node19 -> Node20 [color="midnightblue",fontsize="10",style="solid"];
  Node20 [label="pip._vendor.distro.Linux\lDistribution._os_release_info",height=0.2,width=0.4,color="black", fillcolor="white", style="filled",URL="$db/dc1/classpip_1_1__vendor_1_1distro_1_1_linux_distribution.html#a9e99d08a1ee6d485377d8a6f72c5fca9",tooltip=" "];
  Node20 -> Node21 [color="midnightblue",fontsize="10",style="solid"];
  Node21 [label="pip._vendor.distro.Linux\lDistribution._parse_os\l_release_content",height=0.2,width=0.4,color="black", fillcolor="white", style="filled",URL="$db/dc1/classpip_1_1__vendor_1_1distro_1_1_linux_distribution.html#a4655249020d118550be9366ca10e6160",tooltip=" "];
  Node19 -> Node22 [color="midnightblue",fontsize="10",style="solid"];
  Node22 [label="pip._vendor.distro.Linux\lDistribution.distro_release_attr",height=0.2,width=0.4,color="black", fillcolor="white", style="filled",URL="$db/dc1/classpip_1_1__vendor_1_1distro_1_1_linux_distribution.html#a783e432baf3c43e5c59d94715abe882d",tooltip=" "];
  Node22 -> Node23 [color="midnightblue",fontsize="10",style="solid"];
  Node23 [label="pip._vendor.distro.Linux\lDistribution._distro_release_info",height=0.2,width=0.4,color="black", fillcolor="white", style="filled",URL="$db/dc1/classpip_1_1__vendor_1_1distro_1_1_linux_distribution.html#a0455782d9bf0abff28527e1cc22af86e",tooltip=" "];
  Node23 -> Node24 [color="midnightblue",fontsize="10",style="solid"];
  Node24 [label="pip._vendor.distro.Linux\lDistribution._parse_distro\l_release_file",height=0.2,width=0.4,color="black", fillcolor="white", style="filled",URL="$db/dc1/classpip_1_1__vendor_1_1distro_1_1_linux_distribution.html#ad45007cf2352023cbf2b1f66d528720d",tooltip=" "];
  Node24 -> Node18 [color="midnightblue",fontsize="10",style="solid"];
  Node22 -> Node25 [color="midnightblue",fontsize="10",style="solid"];
  Node25 [label="pip._vendor.requests.api.get",height=0.2,width=0.4,color="black", fillcolor="white", style="filled",URL="$de/db5/namespacepip_1_1__vendor_1_1requests_1_1api.html#af14e54be255a4489da5fa7e07a48cc63",tooltip=" "];
  Node25 -> Node26 [color="midnightblue",fontsize="10",style="solid"];
  Node26 [label="pip._vendor.requests.api.request",height=0.2,width=0.4,color="black", fillcolor="white", style="filled",URL="$de/db5/namespacepip_1_1__vendor_1_1requests_1_1api.html#a9fdead74de86ac05699e5f4d40aa8d1d",tooltip=" "];
  Node19 -> Node27 [color="midnightblue",fontsize="10",style="solid"];
  Node27 [label="pip._vendor.distro.Linux\lDistribution.lsb_release_attr",height=0.2,width=0.4,color="black", fillcolor="white", style="filled",URL="$db/dc1/classpip_1_1__vendor_1_1distro_1_1_linux_distribution.html#a2fb20b28b68f25e4868e8d4b517bb710",tooltip=" "];
  Node27 -> Node28 [color="midnightblue",fontsize="10",style="solid"];
  Node28 [label="pip._vendor.distro.Linux\lDistribution._lsb_release_info",height=0.2,width=0.4,color="black", fillcolor="white", style="filled",URL="$db/dc1/classpip_1_1__vendor_1_1distro_1_1_linux_distribution.html#a0cbc9117e4ae04e173d26260d517dea1",tooltip=" "];
  Node28 -> Node29 [color="midnightblue",fontsize="10",style="solid"];
  Node29 [label="pip._vendor.distro.Linux\lDistribution._parse_lsb\l_release_content",height=0.2,width=0.4,color="black", fillcolor="white", style="filled",URL="$db/dc1/classpip_1_1__vendor_1_1distro_1_1_linux_distribution.html#a263d93dbdf8e1f0790d8e99ce3e44ae1",tooltip=" "];
  Node28 -> Node30 [color="midnightblue",fontsize="10",style="solid"];
  Node30 [label="pip._vendor.distro.Linux\lDistribution._to_str",height=0.2,width=0.4,color="black", fillcolor="white", style="filled",URL="$db/dc1/classpip_1_1__vendor_1_1distro_1_1_linux_distribution.html#a41af716f62e9615713e2a8848edfb485",tooltip=" "];
  Node27 -> Node25 [color="midnightblue",fontsize="10",style="solid"];
  Node17 -> Node22 [color="midnightblue",fontsize="10",style="solid"];
  Node17 -> Node25 [color="midnightblue",fontsize="10",style="solid"];
  Node17 -> Node27 [color="midnightblue",fontsize="10",style="solid"];
  Node17 -> Node31 [color="midnightblue",fontsize="10",style="solid"];
  Node31 [label="pip._vendor.distro.Linux\lDistribution.os_release_attr",height=0.2,width=0.4,color="black", fillcolor="white", style="filled",URL="$db/dc1/classpip_1_1__vendor_1_1distro_1_1_linux_distribution.html#a2c980e7f2faf33563d32e0a0b1309cfa",tooltip=" "];
  Node31 -> Node20 [color="midnightblue",fontsize="10",style="solid"];
  Node31 -> Node25 [color="midnightblue",fontsize="10",style="solid"];
  Node17 -> Node32 [color="midnightblue",fontsize="10",style="solid"];
  Node32 [label="pip._vendor.distro.Linux\lDistribution.uname_attr",height=0.2,width=0.4,color="black", fillcolor="white", style="filled",URL="$db/dc1/classpip_1_1__vendor_1_1distro_1_1_linux_distribution.html#a82939a6850962797338a64083a30a2ec",tooltip=" "];
  Node32 -> Node33 [color="midnightblue",fontsize="10",style="solid"];
  Node33 [label="pip._vendor.distro.Linux\lDistribution._uname_info",height=0.2,width=0.4,color="black", fillcolor="white", style="filled",URL="$db/dc1/classpip_1_1__vendor_1_1distro_1_1_linux_distribution.html#ab5a3479e28ad6fb9c4073c353b62c56b",tooltip=" "];
  Node33 -> Node34 [color="midnightblue",fontsize="10",style="solid"];
  Node34 [label="pip._vendor.distro.Linux\lDistribution._parse_uname\l_content",height=0.2,width=0.4,color="black", fillcolor="white", style="filled",URL="$db/dc1/classpip_1_1__vendor_1_1distro_1_1_linux_distribution.html#a35b4e47c369768ad7576e8958944ec14",tooltip=" "];
  Node33 -> Node30 [color="midnightblue",fontsize="10",style="solid"];
  Node32 -> Node25 [color="midnightblue",fontsize="10",style="solid"];
}
