digraph "pip._vendor.distro.LinuxDistribution._parse_os_release_content"
{
 // LATEX_PDF_SIZE
  edge [fontname="Helvetica",fontsize="10",labelfontname="Helvetica",labelfontsize="10"];
  node [fontname="Helvetica",fontsize="10",shape=record];
  rankdir="RL";
  Node1 [label="pip._vendor.distro.Linux\lDistribution._parse_os\l_release_content",height=0.2,width=0.4,color="black", fillcolor="grey75", style="filled", fontcolor="black",tooltip=" "];
  Node1 -> Node2 [dir="back",color="midnightblue",fontsize="10",style="solid"];
  Node2 [label="pip._vendor.distro.Linux\lDistribution._os_release_info",height=0.2,width=0.4,color="black", fillcolor="white", style="filled",URL="$db/dc1/classpip_1_1__vendor_1_1distro_1_1_linux_distribution.html#a9e99d08a1ee6d485377d8a6f72c5fca9",tooltip=" "];
  Node2 -> Node3 [dir="back",color="midnightblue",fontsize="10",style="solid"];
  Node3 [label="pip._vendor.distro.Linux\lDistribution.codename",height=0.2,width=0.4,color="black", fillcolor="white", style="filled",URL="$db/dc1/classpip_1_1__vendor_1_1distro_1_1_linux_distribution.html#a8b01fa5c9b2883dab710ca528927a6d2",tooltip=" "];
  Node3 -> Node4 [dir="back",color="midnightblue",fontsize="10",style="solid"];
  Node4 [label="pip._vendor.distro.Linux\lDistribution.info",height=0.2,width=0.4,color="black", fillcolor="white", style="filled",URL="$db/dc1/classpip_1_1__vendor_1_1distro_1_1_linux_distribution.html#a8d936e9ec6198181f15f5b1bf07f065d",tooltip=" "];
  Node4 -> Node5 [dir="back",color="midnightblue",fontsize="10",style="solid"];
  Node5 [label="setuptools.package\l_index.PackageIndex.\l_download_git",height=0.2,width=0.4,color="black", fillcolor="white", style="filled",URL="$d4/dea/classsetuptools_1_1package__index_1_1_package_index.html#a3675196dae930ae7b2ebaea89e20d932",tooltip=" "];
  Node5 -> Node6 [dir="back",color="midnightblue",fontsize="10",style="solid"];
  Node6 [label="setuptools.package\l_index.PackageIndex.\l_download_url",height=0.2,width=0.4,color="black", fillcolor="white", style="filled",URL="$d4/dea/classsetuptools_1_1package__index_1_1_package_index.html#a003952b00c51bae4fb32fdcdd03b348e",tooltip=" "];
  Node6 -> Node7 [dir="back",color="midnightblue",fontsize="10",style="solid"];
  Node7 [label="setuptools.package\l_index.PackageIndex.download",height=0.2,width=0.4,color="black", fillcolor="white", style="filled",URL="$d4/dea/classsetuptools_1_1package__index_1_1_package_index.html#a100de731e036d1fc5e9604355e02deed",tooltip=" "];
  Node7 -> Node8 [dir="back",color="midnightblue",fontsize="10",style="solid"];
  Node8 [label="setuptools.package\l_index.PackageIndex.fetch\l_distribution",height=0.2,width=0.4,color="black", fillcolor="white", style="filled",URL="$d4/dea/classsetuptools_1_1package__index_1_1_package_index.html#a991bcc357db71bc05773ce3bb03c85a4",tooltip=" "];
  Node8 -> Node7 [dir="back",color="midnightblue",fontsize="10",style="solid"];
  Node8 -> Node9 [dir="back",color="midnightblue",fontsize="10",style="solid"];
  Node9 [label="setuptools.package\l_index.PackageIndex.fetch",height=0.2,width=0.4,color="black", fillcolor="white", style="filled",URL="$d4/dea/classsetuptools_1_1package__index_1_1_package_index.html#a4fa8a0112703f75c6af17996ce6eb66e",tooltip=" "];
  Node4 -> Node10 [dir="back",color="midnightblue",fontsize="10",style="solid"];
  Node10 [label="setuptools.package\l_index.PackageIndex.\l_download_hg",height=0.2,width=0.4,color="black", fillcolor="white", style="filled",URL="$d4/dea/classsetuptools_1_1package__index_1_1_package_index.html#a072151d15d9b627f8396b1d9467d8314",tooltip=" "];
  Node10 -> Node6 [dir="back",color="midnightblue",fontsize="10",style="solid"];
  Node4 -> Node11 [dir="back",color="midnightblue",fontsize="10",style="solid"];
  Node11 [label="setuptools.package\l_index.PackageIndex.\l_download_svn",height=0.2,width=0.4,color="black", fillcolor="white", style="filled",URL="$d4/dea/classsetuptools_1_1package__index_1_1_package_index.html#ad1dbd1b8256bf39e4b3cb46f27117513",tooltip=" "];
  Node11 -> Node12 [dir="back",color="midnightblue",fontsize="10",style="solid"];
  Node12 [label="setuptools.package\l_index.PackageIndex.\l_download_html",height=0.2,width=0.4,color="black", fillcolor="white", style="filled",URL="$d4/dea/classsetuptools_1_1package__index_1_1_package_index.html#ad506f8741a9f632d63e5afe267f5dd5f",tooltip=" "];
  Node12 -> Node13 [dir="back",color="midnightblue",fontsize="10",style="solid"];
  Node13 [label="setuptools.package\l_index.PackageIndex.\l_attempt_download",height=0.2,width=0.4,color="black", fillcolor="white", style="filled",URL="$d4/dea/classsetuptools_1_1package__index_1_1_package_index.html#a6e828e56d8b6cc1cf9956acad28116ba",tooltip=" "];
  Node13 -> Node6 [dir="back",color="midnightblue",fontsize="10",style="solid"];
  Node11 -> Node6 [dir="back",color="midnightblue",fontsize="10",style="solid"];
  Node4 -> Node14 [dir="back",color="midnightblue",fontsize="10",style="solid"];
  Node14 [label="setuptools.package\l_index.PackageIndex.\l_download_to",height=0.2,width=0.4,color="black", fillcolor="white", style="filled",URL="$d4/dea/classsetuptools_1_1package__index_1_1_package_index.html#a13766a8fc49f1efd5dff77f0d5d7e7f3",tooltip=" "];
  Node14 -> Node13 [dir="back",color="midnightblue",fontsize="10",style="solid"];
  Node4 -> Node8 [dir="back",color="midnightblue",fontsize="10",style="solid"];
  Node4 -> Node15 [dir="back",color="midnightblue",fontsize="10",style="solid"];
  Node15 [label="setuptools.package\l_index.PackageIndex.not\l_found_in_index",height=0.2,width=0.4,color="black", fillcolor="white", style="filled",URL="$d4/dea/classsetuptools_1_1package__index_1_1_package_index.html#a368455ef8e28ab626077dce7ced8d44e",tooltip=" "];
  Node15 -> Node16 [dir="back",color="midnightblue",fontsize="10",style="solid"];
  Node16 [label="setuptools.package\l_index.PackageIndex.find\l_packages",height=0.2,width=0.4,color="red", fillcolor="white", style="filled",URL="$d4/dea/classsetuptools_1_1package__index_1_1_package_index.html#ac6b53cacdec1d717c42a4412cb0bc10f",tooltip=" "];
  Node16 -> Node8 [dir="back",color="midnightblue",fontsize="10",style="solid"];
  Node4 -> Node18 [dir="back",color="midnightblue",fontsize="10",style="solid"];
  Node18 [label="setuptools.package\l_index.PackageIndex.process_url",height=0.2,width=0.4,color="black", fillcolor="white", style="filled",URL="$d4/dea/classsetuptools_1_1package__index_1_1_package_index.html#a537fc87df159c2474b7fa0ccac56513d",tooltip=" "];
  Node18 -> Node18 [dir="back",color="midnightblue",fontsize="10",style="solid"];
  Node18 -> Node19 [dir="back",color="midnightblue",fontsize="10",style="solid"];
  Node19 [label="setuptools.package\l_index.PackageIndex.scan_url",height=0.2,width=0.4,color="red", fillcolor="white", style="filled",URL="$d4/dea/classsetuptools_1_1package__index_1_1_package_index.html#a34fd05e6bd70cb5fb45df6089a9a0d88",tooltip=" "];
  Node19 -> Node16 [dir="back",color="midnightblue",fontsize="10",style="solid"];
  Node19 -> Node23 [dir="back",color="midnightblue",fontsize="10",style="solid"];
  Node23 [label="setuptools.package\l_index.PackageIndex.scan_all",height=0.2,width=0.4,color="black", fillcolor="white", style="filled",URL="$d4/dea/classsetuptools_1_1package__index_1_1_package_index.html#a8ece2bde59e0845f58d8ca216d57d1ef",tooltip=" "];
  Node23 -> Node24 [dir="back",color="midnightblue",fontsize="10",style="solid"];
  Node24 [label="setuptools.package\l_index.PackageIndex.need\l_version_info",height=0.2,width=0.4,color="red", fillcolor="white", style="filled",URL="$d4/dea/classsetuptools_1_1package__index_1_1_package_index.html#af387b1796d6cf3a4542782cf936ee854",tooltip=" "];
  Node23 -> Node15 [dir="back",color="midnightblue",fontsize="10",style="solid"];
  Node4 -> Node23 [dir="back",color="midnightblue",fontsize="10",style="solid"];
  Node3 -> Node25 [dir="back",color="midnightblue",fontsize="10",style="solid"];
  Node25 [label="pip._vendor.distro.Linux\lDistribution.linux_distribution",height=0.2,width=0.4,color="black", fillcolor="white", style="filled",URL="$db/dc1/classpip_1_1__vendor_1_1distro_1_1_linux_distribution.html#a9deb9d70ba82d370ba5fd4b1ac7473e6",tooltip=" "];
  Node3 -> Node26 [dir="back",color="midnightblue",fontsize="10",style="solid"];
  Node26 [label="pip._vendor.distro.Linux\lDistribution.version",height=0.2,width=0.4,color="black", fillcolor="white", style="filled",URL="$db/dc1/classpip_1_1__vendor_1_1distro_1_1_linux_distribution.html#a0c37e11aca02766e25025a395c09dd8b",tooltip=" "];
  Node26 -> Node27 [dir="back",color="midnightblue",fontsize="10",style="solid"];
  Node27 [label="pip._vendor.distlib.metadata.\lLegacyMetadata.__repr__",height=0.2,width=0.4,color="black", fillcolor="white", style="filled",URL="$d3/dc5/classpip_1_1__vendor_1_1distlib_1_1metadata_1_1_legacy_metadata.html#a368ff1d11ec3a0476833acdf59541d16",tooltip=" "];
  Node26 -> Node28 [dir="back",color="midnightblue",fontsize="10",style="solid"];
  Node28 [label="pip._vendor.distlib.metadata.\lMetadata.__repr__",height=0.2,width=0.4,color="black", fillcolor="white", style="filled",URL="$d3/df6/classpip_1_1__vendor_1_1distlib_1_1metadata_1_1_metadata.html#a08105ca0987f9e74cb1341a463d6cbe5",tooltip=" "];
  Node26 -> Node29 [dir="back",color="midnightblue",fontsize="10",style="solid"];
  Node29 [label="setuptools.wheel.Wheel.\l_install_as_egg",height=0.2,width=0.4,color="black", fillcolor="white", style="filled",URL="$d8/de5/classsetuptools_1_1wheel_1_1_wheel.html#af38ad98deb2dd9550fdb649d6394af38",tooltip=" "];
  Node29 -> Node30 [dir="back",color="midnightblue",fontsize="10",style="solid"];
  Node30 [label="setuptools.wheel.Wheel.install\l_as_egg",height=0.2,width=0.4,color="black", fillcolor="white", style="filled",URL="$d8/de5/classsetuptools_1_1wheel_1_1_wheel.html#a4d5d8dcde757279d6509a1f9137e595d",tooltip=" "];
  Node26 -> Node31 [dir="back",color="midnightblue",fontsize="10",style="solid"];
  Node31 [label="pip._vendor.pkg_resources.\lDistribution._warn_legacy\l_version",height=0.2,width=0.4,color="black", fillcolor="white", style="filled",URL="$d0/ddb/classpip_1_1__vendor_1_1pkg__resources_1_1_distribution.html#a1b072988ec5f6b3637bcb0d0be0a2772",tooltip=" "];
  Node26 -> Node32 [dir="back",color="midnightblue",fontsize="10",style="solid"];
  Node32 [label="pkg_resources.Distribution.\l_warn_legacy_version",height=0.2,width=0.4,color="black", fillcolor="white", style="filled",URL="$d8/d25/classpkg__resources_1_1_distribution.html#a65484374785d4460c6b92f015fe19a3c",tooltip=" "];
  Node26 -> Node33 [dir="back",color="midnightblue",fontsize="10",style="solid"];
  Node33 [label="pip._vendor.packaging.specifiers.\l_IndividualSpecifier.contains",height=0.2,width=0.4,color="red", fillcolor="white", style="filled",URL="$d9/d98/classpip_1_1__vendor_1_1packaging_1_1specifiers_1_1___individual_specifier.html#a3463e67496c28c09997aa61fa02fbcd6",tooltip=" "];
  Node33 -> Node34 [dir="back",color="midnightblue",fontsize="10",style="solid"];
  Node34 [label="pkg_resources._vendor.packaging.specifiers.\l_IndividualSpecifier.__contains__",height=0.2,width=0.4,color="black", fillcolor="white", style="filled",URL="$d7/d3d/classpkg__resources_1_1__vendor_1_1packaging_1_1specifiers_1_1___individual_specifier.html#a998cb585da2ce2cbddd8788ab1dec2e9",tooltip=" "];
  Node26 -> Node40 [dir="back",color="midnightblue",fontsize="10",style="solid"];
  Node40 [label="pkg_resources._vendor.packaging.specifiers.\l_IndividualSpecifier.contains",height=0.2,width=0.4,color="red", fillcolor="white", style="filled",URL="$d7/d3d/classpkg__resources_1_1__vendor_1_1packaging_1_1specifiers_1_1___individual_specifier.html#afc614431c7e139a948866248f6f01bb4",tooltip=" "];
  Node26 -> Node41 [dir="back",color="midnightblue",fontsize="10",style="solid"];
  Node41 [label="setuptools._vendor.packaging.specifiers.\l_IndividualSpecifier.contains",height=0.2,width=0.4,color="black", fillcolor="white", style="filled",URL="$d2/dfa/classsetuptools_1_1__vendor_1_1packaging_1_1specifiers_1_1___individual_specifier.html#add310771a2fd25ae2670e7ed15c81160",tooltip=" "];
  Node26 -> Node42 [dir="back",color="midnightblue",fontsize="10",style="solid"];
  Node42 [label="pip._vendor.pkg_resources.\lDistribution.egg_name",height=0.2,width=0.4,color="black", fillcolor="white", style="filled",URL="$d0/ddb/classpip_1_1__vendor_1_1pkg__resources_1_1_distribution.html#aa61d5600e0896e46b1708c4dcb9393f5",tooltip=" "];
  Node26 -> Node43 [dir="back",color="midnightblue",fontsize="10",style="solid"];
  Node43 [label="pkg_resources.Distribution.egg_name",height=0.2,width=0.4,color="black", fillcolor="white", style="filled",URL="$d8/d25/classpkg__resources_1_1_distribution.html#a229d424f62d10b7e83bba3b3efe6dbbb",tooltip=" "];
  Node26 -> Node44 [dir="back",color="midnightblue",fontsize="10",style="solid"];
  Node44 [label="setuptools.wheel.Wheel.egg_name",height=0.2,width=0.4,color="black", fillcolor="white", style="filled",URL="$d8/de5/classsetuptools_1_1wheel_1_1_wheel.html#a8003a0c439abab30a420897c391dfbe1",tooltip=" "];
  Node26 -> Node45 [dir="back",color="midnightblue",fontsize="10",style="solid"];
  Node45 [label="pip._vendor.pkg_resources.\lDistribution.has_version",height=0.2,width=0.4,color="black", fillcolor="white", style="filled",URL="$d0/ddb/classpip_1_1__vendor_1_1pkg__resources_1_1_distribution.html#acc58f778b2bb60f7b306e4d1bdef759e",tooltip=" "];
  Node26 -> Node46 [dir="back",color="midnightblue",fontsize="10",style="solid"];
  Node46 [label="pkg_resources.Distribution.has\l_version",height=0.2,width=0.4,color="black", fillcolor="white", style="filled",URL="$d8/d25/classpkg__resources_1_1_distribution.html#aa8b8ad9f54c86275b77b1966881df122",tooltip=" "];
  Node26 -> Node4 [dir="back",color="midnightblue",fontsize="10",style="solid"];
  Node26 -> Node25 [dir="back",color="midnightblue",fontsize="10",style="solid"];
  Node26 -> Node47 [dir="back",color="midnightblue",fontsize="10",style="solid"];
  Node47 [label="pip._vendor.distro.Linux\lDistribution.name",height=0.2,width=0.4,color="black", fillcolor="white", style="filled",URL="$db/dc1/classpip_1_1__vendor_1_1distro_1_1_linux_distribution.html#a7bbcbb9f1bf561b231f594b5bb251dbc",tooltip=" "];
  Node47 -> Node48 [dir="back",color="midnightblue",fontsize="10",style="solid"];
  Node48 [label="setuptools._distutils.versionpredicate.\lVersionPredicate.__init__",height=0.2,width=0.4,color="red", fillcolor="white", style="filled",URL="$de/da4/classsetuptools_1_1__distutils_1_1versionpredicate_1_1_version_predicate.html#a50b7ef93717276fd4d7ea45efe206b1f",tooltip=" "];
  Node47 -> Node27 [dir="back",color="midnightblue",fontsize="10",style="solid"];
  Node47 -> Node28 [dir="back",color="midnightblue",fontsize="10",style="solid"];
  Node47 -> Node50 [dir="back",color="midnightblue",fontsize="10",style="solid"];
  Node50 [label="setuptools._distutils.versionpredicate.\lVersionPredicate.__str__",height=0.2,width=0.4,color="black", fillcolor="white", style="filled",URL="$de/da4/classsetuptools_1_1__distutils_1_1versionpredicate_1_1_version_predicate.html#abd1b824f167ab2c1b646159d1d3539f1",tooltip=" "];
  Node47 -> Node51 [dir="back",color="midnightblue",fontsize="10",style="solid"];
  Node51 [label="setuptools.command.egg\l_info.egg_info.finalize\l_options",height=0.2,width=0.4,color="black", fillcolor="white", style="filled",URL="$d4/dd5/classsetuptools_1_1command_1_1egg__info_1_1egg__info.html#ab62dc812cd7873e55721c014fcf3207f",tooltip=" "];
  Node47 -> Node52 [dir="back",color="midnightblue",fontsize="10",style="solid"];
  Node52 [label="setuptools.depends.Require.full_name",height=0.2,width=0.4,color="black", fillcolor="white", style="filled",URL="$d2/d91/classsetuptools_1_1depends_1_1_require.html#aafeb6a0853fe7b53c649a90b4860aa1b",tooltip=" "];
  Node47 -> Node25 [dir="back",color="midnightblue",fontsize="10",style="solid"];
  Node47 -> Node53 [dir="back",color="midnightblue",fontsize="10",style="solid"];
  Node53 [label="pip._vendor.distlib.metadata.\lMetadata.name_and_version",height=0.2,width=0.4,color="black", fillcolor="white", style="filled",URL="$d3/df6/classpip_1_1__vendor_1_1distlib_1_1metadata_1_1_metadata.html#a958dc84c5959001c3c94c99c262c8268",tooltip=" "];
  Node47 -> Node54 [dir="back",color="midnightblue",fontsize="10",style="solid"];
  Node54 [label="pip._vendor.distlib.metadata.\lMetadata.provides",height=0.2,width=0.4,color="red", fillcolor="white", style="filled",URL="$d3/df6/classpip_1_1__vendor_1_1distlib_1_1metadata_1_1_metadata.html#a700307186309aa299c50bbe7515cb58d",tooltip=" "];
  Node47 -> Node64 [dir="back",color="midnightblue",fontsize="10",style="solid"];
  Node64 [label="pip._internal.vcs.versioncontrol.\lVcsSupport.register",height=0.2,width=0.4,color="black", fillcolor="white", style="filled",URL="$df/dff/classpip_1_1__internal_1_1vcs_1_1versioncontrol_1_1_vcs_support.html#a69650573cc250eef73d42fa803e8f402",tooltip=" "];
  Node26 -> Node53 [dir="back",color="midnightblue",fontsize="10",style="solid"];
  Node26 -> Node54 [dir="back",color="midnightblue",fontsize="10",style="solid"];
  Node26 -> Node65 [dir="back",color="midnightblue",fontsize="10",style="solid"];
  Node65 [label="pip._vendor.distro.Linux\lDistribution.version_parts",height=0.2,width=0.4,color="red", fillcolor="white", style="filled",URL="$db/dc1/classpip_1_1__vendor_1_1distro_1_1_linux_distribution.html#a75cf0bb28d95514dc96425ef8c192660",tooltip=" "];
  Node2 -> Node69 [dir="back",color="midnightblue",fontsize="10",style="solid"];
  Node69 [label="pip._vendor.distro.Linux\lDistribution.os_release_attr",height=0.2,width=0.4,color="black", fillcolor="white", style="filled",URL="$db/dc1/classpip_1_1__vendor_1_1distro_1_1_linux_distribution.html#a2c980e7f2faf33563d32e0a0b1309cfa",tooltip=" "];
  Node69 -> Node70 [dir="back",color="midnightblue",fontsize="10",style="solid"];
  Node70 [label="pip._vendor.distro.Linux\lDistribution.id",height=0.2,width=0.4,color="black", fillcolor="white", style="filled",URL="$db/dc1/classpip_1_1__vendor_1_1distro_1_1_linux_distribution.html#a116be2692b0f408214126c823ce11add",tooltip=" "];
  Node70 -> Node4 [dir="back",color="midnightblue",fontsize="10",style="solid"];
  Node70 -> Node25 [dir="back",color="midnightblue",fontsize="10",style="solid"];
  Node69 -> Node71 [dir="back",color="midnightblue",fontsize="10",style="solid"];
  Node71 [label="pip._vendor.distro.Linux\lDistribution.like",height=0.2,width=0.4,color="black", fillcolor="white", style="filled",URL="$db/dc1/classpip_1_1__vendor_1_1distro_1_1_linux_distribution.html#a65bc00eb33209666ff0bda45659b31fe",tooltip=" "];
  Node71 -> Node4 [dir="back",color="midnightblue",fontsize="10",style="solid"];
  Node69 -> Node47 [dir="back",color="midnightblue",fontsize="10",style="solid"];
  Node69 -> Node26 [dir="back",color="midnightblue",fontsize="10",style="solid"];
  Node2 -> Node72 [dir="back",color="midnightblue",fontsize="10",style="solid"];
  Node72 [label="pip._vendor.distro.Linux\lDistribution.os_release_info",height=0.2,width=0.4,color="black", fillcolor="white", style="filled",URL="$db/dc1/classpip_1_1__vendor_1_1distro_1_1_linux_distribution.html#ae22f1ae28f0b6f8a20b0ffd3ddea6af6",tooltip=" "];
}
