digraph "pip._vendor.html5lib._tokenizer.HTMLTokenizer.scriptDataEndTagOpenState"
{
 // LATEX_PDF_SIZE
  edge [fontname="Helvetica",fontsize="10",labelfontname="Helvetica",labelfontsize="10"];
  node [fontname="Helvetica",fontsize="10",shape=record];
  rankdir="LR";
  Node1 [label="pip._vendor.html5lib.\l_tokenizer.HTMLTokenizer.script\lDataEndTagOpenState",height=0.2,width=0.4,color="black", fillcolor="grey75", style="filled", fontcolor="black",tooltip=" "];
  Node1 -> Node2 [color="midnightblue",fontsize="10",style="solid"];
  Node2 [label="pip._vendor.html5lib.\l_tokenizer.HTMLTokenizer.script\lDataEndTagNameState",height=0.2,width=0.4,color="black", fillcolor="white", style="filled",URL="$d1/d15/classpip_1_1__vendor_1_1html5lib_1_1__tokenizer_1_1_h_t_m_l_tokenizer.html#add268458ace6581fdd03ef63cbeee75e",tooltip=" "];
  Node2 -> Node3 [color="midnightblue",fontsize="10",style="solid"];
  Node3 [label="pip._vendor.html5lib.\l_tokenizer.HTMLTokenizer.before\lAttributeNameState",height=0.2,width=0.4,color="black", fillcolor="white", style="filled",URL="$d1/d15/classpip_1_1__vendor_1_1html5lib_1_1__tokenizer_1_1_h_t_m_l_tokenizer.html#a75947dab8d198648f83f047b7bb33474",tooltip=" "];
  Node3 -> Node4 [color="midnightblue",fontsize="10",style="solid"];
  Node4 [label="pip._vendor.html5lib.\l_tokenizer.HTMLTokenizer.attribute\lNameState",height=0.2,width=0.4,color="black", fillcolor="white", style="filled",URL="$d1/d15/classpip_1_1__vendor_1_1html5lib_1_1__tokenizer_1_1_h_t_m_l_tokenizer.html#a721955f1490609f2397578f37ade5b98",tooltip=" "];
  Node4 -> Node5 [color="midnightblue",fontsize="10",style="solid"];
  Node5 [label="pip._vendor.html5lib.\l_tokenizer.HTMLTokenizer.after\lAttributeNameState",height=0.2,width=0.4,color="black", fillcolor="white", style="filled",URL="$d1/d15/classpip_1_1__vendor_1_1html5lib_1_1__tokenizer_1_1_h_t_m_l_tokenizer.html#ab7a81e41688058d7442ab32f6d90405c",tooltip=" "];
  Node5 -> Node4 [color="midnightblue",fontsize="10",style="solid"];
  Node5 -> Node6 [color="midnightblue",fontsize="10",style="solid"];
  Node6 [label="pip._vendor.html5lib.\l_tokenizer.HTMLTokenizer.before\lAttributeValueState",height=0.2,width=0.4,color="black", fillcolor="white", style="filled",URL="$d1/d15/classpip_1_1__vendor_1_1html5lib_1_1__tokenizer_1_1_h_t_m_l_tokenizer.html#a0afdc918edc55b9af9f1746ca7e13dd5",tooltip=" "];
  Node6 -> Node7 [color="midnightblue",fontsize="10",style="solid"];
  Node7 [label="pip._vendor.html5lib.\l_tokenizer.HTMLTokenizer.attribute\lValueDoubleQuotedState",height=0.2,width=0.4,color="black", fillcolor="white", style="filled",URL="$d1/d15/classpip_1_1__vendor_1_1html5lib_1_1__tokenizer_1_1_h_t_m_l_tokenizer.html#aada4bae10c7bd0910b75c9356ecb27bf",tooltip=" "];
  Node7 -> Node8 [color="midnightblue",fontsize="10",style="solid"];
  Node8 [label="pip._vendor.html5lib.\l_tokenizer.HTMLTokenizer.after\lAttributeValueState",height=0.2,width=0.4,color="black", fillcolor="white", style="filled",URL="$d1/d15/classpip_1_1__vendor_1_1html5lib_1_1__tokenizer_1_1_h_t_m_l_tokenizer.html#a40513b48271e23c6aa6b59bc7d0e2156",tooltip=" "];
  Node8 -> Node3 [color="midnightblue",fontsize="10",style="solid"];
  Node8 -> Node9 [color="midnightblue",fontsize="10",style="solid"];
  Node9 [label="pip._vendor.html5lib.\l_tokenizer.HTMLTokenizer.data\lState",height=0.2,width=0.4,color="black", fillcolor="white", style="filled",URL="$d1/d15/classpip_1_1__vendor_1_1html5lib_1_1__tokenizer_1_1_h_t_m_l_tokenizer.html#affad458a1ca066c41bcd58d57b489c4a",tooltip=" "];
  Node9 -> Node10 [color="midnightblue",fontsize="10",style="solid"];
  Node10 [label="pip._vendor.html5lib.\l_tokenizer.HTMLTokenizer.entity\lDataState",height=0.2,width=0.4,color="black", fillcolor="white", style="filled",URL="$d1/d15/classpip_1_1__vendor_1_1html5lib_1_1__tokenizer_1_1_h_t_m_l_tokenizer.html#af78047999ff55f9b2d17a1c5e4530657",tooltip=" "];
  Node10 -> Node11 [color="midnightblue",fontsize="10",style="solid"];
  Node11 [label="pip._vendor.html5lib.\l_tokenizer.HTMLTokenizer.consume\lEntity",height=0.2,width=0.4,color="black", fillcolor="white", style="filled",URL="$d1/d15/classpip_1_1__vendor_1_1html5lib_1_1__tokenizer_1_1_h_t_m_l_tokenizer.html#a13e1e65dd097cb582d5e7e0f364562ea",tooltip=" "];
  Node11 -> Node12 [color="midnightblue",fontsize="10",style="solid"];
  Node12 [label="pip._vendor.html5lib.\l_tokenizer.HTMLTokenizer.consume\lNumberEntity",height=0.2,width=0.4,color="black", fillcolor="white", style="filled",URL="$d1/d15/classpip_1_1__vendor_1_1html5lib_1_1__tokenizer_1_1_h_t_m_l_tokenizer.html#a2f68fca6b9812d733ec6bb83ffb12afd",tooltip=" "];
  Node10 -> Node9 [color="midnightblue",fontsize="10",style="solid"];
  Node9 -> Node13 [color="midnightblue",fontsize="10",style="solid"];
  Node13 [label="pip._vendor.html5lib.\l_tokenizer.HTMLTokenizer.tag\lOpenState",height=0.2,width=0.4,color="black", fillcolor="white", style="filled",URL="$d1/d15/classpip_1_1__vendor_1_1html5lib_1_1__tokenizer_1_1_h_t_m_l_tokenizer.html#add701dff4d1ada0a52ae333d50a72d84",tooltip=" "];
  Node13 -> Node14 [color="midnightblue",fontsize="10",style="solid"];
  Node14 [label="pip._vendor.html5lib.\l_tokenizer.HTMLTokenizer.bogus\lCommentState",height=0.2,width=0.4,color="black", fillcolor="white", style="filled",URL="$d1/d15/classpip_1_1__vendor_1_1html5lib_1_1__tokenizer_1_1_h_t_m_l_tokenizer.html#ac0aa9cf3f362e8f08ff778f78e5f9dc9",tooltip=" "];
  Node14 -> Node9 [color="midnightblue",fontsize="10",style="solid"];
  Node13 -> Node15 [color="midnightblue",fontsize="10",style="solid"];
  Node15 [label="pip._vendor.html5lib.\l_tokenizer.HTMLTokenizer.close\lTagOpenState",height=0.2,width=0.4,color="black", fillcolor="white", style="filled",URL="$d1/d15/classpip_1_1__vendor_1_1html5lib_1_1__tokenizer_1_1_h_t_m_l_tokenizer.html#aab95d2ca82202a18b159a08b84637c19",tooltip=" "];
  Node15 -> Node14 [color="midnightblue",fontsize="10",style="solid"];
  Node15 -> Node9 [color="midnightblue",fontsize="10",style="solid"];
  Node15 -> Node16 [color="midnightblue",fontsize="10",style="solid"];
  Node16 [label="pip._vendor.html5lib.\l_tokenizer.HTMLTokenizer.tag\lNameState",height=0.2,width=0.4,color="black", fillcolor="white", style="filled",URL="$d1/d15/classpip_1_1__vendor_1_1html5lib_1_1__tokenizer_1_1_h_t_m_l_tokenizer.html#a12051100f2d4f1045b834a4b303e8f8b",tooltip=" "];
  Node16 -> Node3 [color="midnightblue",fontsize="10",style="solid"];
  Node16 -> Node9 [color="midnightblue",fontsize="10",style="solid"];
  Node16 -> Node17 [color="midnightblue",fontsize="10",style="solid"];
  Node17 [label="pip._vendor.html5lib.\l_tokenizer.HTMLTokenizer.emit\lCurrentToken",height=0.2,width=0.4,color="black", fillcolor="white", style="filled",URL="$d1/d15/classpip_1_1__vendor_1_1html5lib_1_1__tokenizer_1_1_h_t_m_l_tokenizer.html#a2764bdec69294eb88309e2f12a9bb6df",tooltip=" "];
  Node17 -> Node9 [color="midnightblue",fontsize="10",style="solid"];
  Node16 -> Node18 [color="midnightblue",fontsize="10",style="solid"];
  Node18 [label="pip._vendor.html5lib.\l_tokenizer.HTMLTokenizer.self\lClosingStartTagState",height=0.2,width=0.4,color="black", fillcolor="white", style="filled",URL="$d1/d15/classpip_1_1__vendor_1_1html5lib_1_1__tokenizer_1_1_h_t_m_l_tokenizer.html#a580af8a1781ce38d388b405d56db940e",tooltip=" "];
  Node18 -> Node3 [color="midnightblue",fontsize="10",style="solid"];
  Node18 -> Node9 [color="midnightblue",fontsize="10",style="solid"];
  Node18 -> Node17 [color="midnightblue",fontsize="10",style="solid"];
  Node13 -> Node9 [color="midnightblue",fontsize="10",style="solid"];
  Node13 -> Node19 [color="midnightblue",fontsize="10",style="solid"];
  Node19 [label="pip._vendor.html5lib.\l_tokenizer.HTMLTokenizer.markup\lDeclarationOpenState",height=0.2,width=0.4,color="black", fillcolor="white", style="filled",URL="$d1/d15/classpip_1_1__vendor_1_1html5lib_1_1__tokenizer_1_1_h_t_m_l_tokenizer.html#a778d110b87f171b2075034f01d235e2b",tooltip=" "];
  Node19 -> Node14 [color="midnightblue",fontsize="10",style="solid"];
  Node19 -> Node20 [color="midnightblue",fontsize="10",style="solid"];
  Node20 [label="pip._vendor.html5lib.\l_tokenizer.HTMLTokenizer.cdata\lSectionState",height=0.2,width=0.4,color="black", fillcolor="white", style="filled",URL="$d1/d15/classpip_1_1__vendor_1_1html5lib_1_1__tokenizer_1_1_h_t_m_l_tokenizer.html#a7dc11e41a0f2a56964ac7ba6fb215a38",tooltip=" "];
  Node20 -> Node9 [color="midnightblue",fontsize="10",style="solid"];
  Node19 -> Node21 [color="midnightblue",fontsize="10",style="solid"];
  Node21 [label="pip._vendor.html5lib.\l_tokenizer.HTMLTokenizer.comment\lStartState",height=0.2,width=0.4,color="black", fillcolor="white", style="filled",URL="$d1/d15/classpip_1_1__vendor_1_1html5lib_1_1__tokenizer_1_1_h_t_m_l_tokenizer.html#a0feb931b0e479d162005f8338e7de52e",tooltip=" "];
  Node21 -> Node22 [color="midnightblue",fontsize="10",style="solid"];
  Node22 [label="pip._vendor.html5lib.\l_tokenizer.HTMLTokenizer.comment\lStartDashState",height=0.2,width=0.4,color="black", fillcolor="white", style="filled",URL="$d1/d15/classpip_1_1__vendor_1_1html5lib_1_1__tokenizer_1_1_h_t_m_l_tokenizer.html#a7298e7d8ba32e9cb5c0b71b0d7f21f98",tooltip=" "];
  Node22 -> Node23 [color="midnightblue",fontsize="10",style="solid"];
  Node23 [label="pip._vendor.html5lib.\l_tokenizer.HTMLTokenizer.comment\lEndState",height=0.2,width=0.4,color="black", fillcolor="white", style="filled",URL="$d1/d15/classpip_1_1__vendor_1_1html5lib_1_1__tokenizer_1_1_h_t_m_l_tokenizer.html#a7f1c054f8262619ebe026c1c4c4edf1d",tooltip=" "];
  Node23 -> Node24 [color="midnightblue",fontsize="10",style="solid"];
  Node24 [label="pip._vendor.html5lib.\l_tokenizer.HTMLTokenizer.comment\lEndBangState",height=0.2,width=0.4,color="black", fillcolor="white", style="filled",URL="$d1/d15/classpip_1_1__vendor_1_1html5lib_1_1__tokenizer_1_1_h_t_m_l_tokenizer.html#a3eafaa79048473e54cff32c3737f84db",tooltip=" "];
  Node24 -> Node25 [color="midnightblue",fontsize="10",style="solid"];
  Node25 [label="pip._vendor.html5lib.\l_tokenizer.HTMLTokenizer.comment\lEndDashState",height=0.2,width=0.4,color="black", fillcolor="white", style="filled",URL="$d1/d15/classpip_1_1__vendor_1_1html5lib_1_1__tokenizer_1_1_h_t_m_l_tokenizer.html#a69c493c0458133c83de8e3ca0984e34c",tooltip=" "];
  Node25 -> Node23 [color="midnightblue",fontsize="10",style="solid"];
  Node25 -> Node26 [color="midnightblue",fontsize="10",style="solid"];
  Node26 [label="pip._vendor.html5lib.\l_tokenizer.HTMLTokenizer.comment\lState",height=0.2,width=0.4,color="black", fillcolor="white", style="filled",URL="$d1/d15/classpip_1_1__vendor_1_1html5lib_1_1__tokenizer_1_1_h_t_m_l_tokenizer.html#aa372516e2fec3159940b40be58f12142",tooltip=" "];
  Node26 -> Node25 [color="midnightblue",fontsize="10",style="solid"];
  Node26 -> Node9 [color="midnightblue",fontsize="10",style="solid"];
  Node25 -> Node9 [color="midnightblue",fontsize="10",style="solid"];
  Node24 -> Node26 [color="midnightblue",fontsize="10",style="solid"];
  Node24 -> Node9 [color="midnightblue",fontsize="10",style="solid"];
  Node23 -> Node26 [color="midnightblue",fontsize="10",style="solid"];
  Node23 -> Node9 [color="midnightblue",fontsize="10",style="solid"];
  Node22 -> Node26 [color="midnightblue",fontsize="10",style="solid"];
  Node22 -> Node9 [color="midnightblue",fontsize="10",style="solid"];
  Node21 -> Node26 [color="midnightblue",fontsize="10",style="solid"];
  Node21 -> Node9 [color="midnightblue",fontsize="10",style="solid"];
  Node19 -> Node27 [color="midnightblue",fontsize="10",style="solid"];
  Node27 [label="pip._vendor.html5lib.\l_tokenizer.HTMLTokenizer.doctype\lState",height=0.2,width=0.4,color="black", fillcolor="white", style="filled",URL="$d1/d15/classpip_1_1__vendor_1_1html5lib_1_1__tokenizer_1_1_h_t_m_l_tokenizer.html#afb1768bd3408e887cdfa490fb464cd1e",tooltip=" "];
  Node27 -> Node28 [color="midnightblue",fontsize="10",style="solid"];
  Node28 [label="pip._vendor.html5lib.\l_tokenizer.HTMLTokenizer.before\lDoctypeNameState",height=0.2,width=0.4,color="black", fillcolor="white", style="filled",URL="$d1/d15/classpip_1_1__vendor_1_1html5lib_1_1__tokenizer_1_1_h_t_m_l_tokenizer.html#a5825bca2482af283b93eaff7df8ce06d",tooltip=" "];
  Node28 -> Node9 [color="midnightblue",fontsize="10",style="solid"];
  Node28 -> Node29 [color="midnightblue",fontsize="10",style="solid"];
  Node29 [label="pip._vendor.html5lib.\l_tokenizer.HTMLTokenizer.doctype\lNameState",height=0.2,width=0.4,color="black", fillcolor="white", style="filled",URL="$d1/d15/classpip_1_1__vendor_1_1html5lib_1_1__tokenizer_1_1_h_t_m_l_tokenizer.html#a75e83ba0343c595e42a7d77909d23441",tooltip=" "];
  Node29 -> Node30 [color="midnightblue",fontsize="10",style="solid"];
  Node30 [label="pip._vendor.html5lib.\l_tokenizer.HTMLTokenizer.after\lDoctypeNameState",height=0.2,width=0.4,color="black", fillcolor="white", style="filled",URL="$d1/d15/classpip_1_1__vendor_1_1html5lib_1_1__tokenizer_1_1_h_t_m_l_tokenizer.html#a3705ea49281e4f8f48e62ad21e42087d",tooltip=" "];
  Node30 -> Node31 [color="midnightblue",fontsize="10",style="solid"];
  Node31 [label="pip._vendor.html5lib.\l_tokenizer.HTMLTokenizer.after\lDoctypePublicKeywordState",height=0.2,width=0.4,color="red", fillcolor="white", style="filled",URL="$d1/d15/classpip_1_1__vendor_1_1html5lib_1_1__tokenizer_1_1_h_t_m_l_tokenizer.html#a85375ec13d048b11cd3cc5c098a7d09d",tooltip=" "];
  Node31 -> Node9 [color="midnightblue",fontsize="10",style="solid"];
  Node30 -> Node41 [color="midnightblue",fontsize="10",style="solid"];
  Node41 [label="pip._vendor.html5lib.\l_tokenizer.HTMLTokenizer.after\lDoctypeSystemKeywordState",height=0.2,width=0.4,color="red", fillcolor="white", style="filled",URL="$d1/d15/classpip_1_1__vendor_1_1html5lib_1_1__tokenizer_1_1_h_t_m_l_tokenizer.html#a7dd4b1fcb9173bf34affcb6a0e0cfaed",tooltip=" "];
  Node41 -> Node9 [color="midnightblue",fontsize="10",style="solid"];
  Node30 -> Node33 [color="midnightblue",fontsize="10",style="solid"];
  Node33 [label="pip._vendor.html5lib.\l_tokenizer.HTMLTokenizer.bogus\lDoctypeState",height=0.2,width=0.4,color="black", fillcolor="white", style="filled",URL="$d1/d15/classpip_1_1__vendor_1_1html5lib_1_1__tokenizer_1_1_h_t_m_l_tokenizer.html#a855bf68db7e67ffd4dcc8be5ec283630",tooltip=" "];
  Node33 -> Node9 [color="midnightblue",fontsize="10",style="solid"];
  Node30 -> Node9 [color="midnightblue",fontsize="10",style="solid"];
  Node29 -> Node9 [color="midnightblue",fontsize="10",style="solid"];
  Node29 -> Node29 [color="midnightblue",fontsize="10",style="solid"];
  Node27 -> Node9 [color="midnightblue",fontsize="10",style="solid"];
  Node13 -> Node16 [color="midnightblue",fontsize="10",style="solid"];
  Node8 -> Node17 [color="midnightblue",fontsize="10",style="solid"];
  Node8 -> Node18 [color="midnightblue",fontsize="10",style="solid"];
  Node7 -> Node9 [color="midnightblue",fontsize="10",style="solid"];
  Node7 -> Node43 [color="midnightblue",fontsize="10",style="solid"];
  Node43 [label="pip._vendor.html5lib.\l_tokenizer.HTMLTokenizer.process\lEntityInAttribute",height=0.2,width=0.4,color="black", fillcolor="white", style="filled",URL="$d1/d15/classpip_1_1__vendor_1_1html5lib_1_1__tokenizer_1_1_h_t_m_l_tokenizer.html#a5d9b0344c3beca7c36219ebe38aca000",tooltip=" "];
  Node43 -> Node11 [color="midnightblue",fontsize="10",style="solid"];
  Node6 -> Node44 [color="midnightblue",fontsize="10",style="solid"];
  Node44 [label="pip._vendor.html5lib.\l_tokenizer.HTMLTokenizer.attribute\lValueSingleQuotedState",height=0.2,width=0.4,color="black", fillcolor="white", style="filled",URL="$d1/d15/classpip_1_1__vendor_1_1html5lib_1_1__tokenizer_1_1_h_t_m_l_tokenizer.html#a15a7dc634202c1a345875e08fdb46b5b",tooltip=" "];
  Node44 -> Node8 [color="midnightblue",fontsize="10",style="solid"];
  Node44 -> Node9 [color="midnightblue",fontsize="10",style="solid"];
  Node44 -> Node43 [color="midnightblue",fontsize="10",style="solid"];
  Node6 -> Node45 [color="midnightblue",fontsize="10",style="solid"];
  Node45 [label="pip._vendor.html5lib.\l_tokenizer.HTMLTokenizer.attribute\lValueUnQuotedState",height=0.2,width=0.4,color="black", fillcolor="white", style="filled",URL="$d1/d15/classpip_1_1__vendor_1_1html5lib_1_1__tokenizer_1_1_h_t_m_l_tokenizer.html#ade3e299a92cfe35edd4d8bd017e9ca98",tooltip=" "];
  Node45 -> Node3 [color="midnightblue",fontsize="10",style="solid"];
  Node45 -> Node9 [color="midnightblue",fontsize="10",style="solid"];
  Node45 -> Node17 [color="midnightblue",fontsize="10",style="solid"];
  Node45 -> Node43 [color="midnightblue",fontsize="10",style="solid"];
  Node6 -> Node9 [color="midnightblue",fontsize="10",style="solid"];
  Node6 -> Node17 [color="midnightblue",fontsize="10",style="solid"];
  Node5 -> Node9 [color="midnightblue",fontsize="10",style="solid"];
  Node5 -> Node17 [color="midnightblue",fontsize="10",style="solid"];
  Node5 -> Node18 [color="midnightblue",fontsize="10",style="solid"];
  Node4 -> Node6 [color="midnightblue",fontsize="10",style="solid"];
  Node4 -> Node9 [color="midnightblue",fontsize="10",style="solid"];
  Node4 -> Node17 [color="midnightblue",fontsize="10",style="solid"];
  Node4 -> Node18 [color="midnightblue",fontsize="10",style="solid"];
  Node3 -> Node9 [color="midnightblue",fontsize="10",style="solid"];
  Node3 -> Node17 [color="midnightblue",fontsize="10",style="solid"];
  Node3 -> Node18 [color="midnightblue",fontsize="10",style="solid"];
  Node2 -> Node9 [color="midnightblue",fontsize="10",style="solid"];
  Node2 -> Node17 [color="midnightblue",fontsize="10",style="solid"];
  Node2 -> Node46 [color="midnightblue",fontsize="10",style="solid"];
  Node46 [label="pip._vendor.html5lib.\l_tokenizer.HTMLTokenizer.script\lDataState",height=0.2,width=0.4,color="black", fillcolor="white", style="filled",URL="$d1/d15/classpip_1_1__vendor_1_1html5lib_1_1__tokenizer_1_1_h_t_m_l_tokenizer.html#aa1bab871ba6b1561d74cb7b2d7028b49",tooltip=" "];
  Node46 -> Node47 [color="midnightblue",fontsize="10",style="solid"];
  Node47 [label="pip._vendor.html5lib.\l_tokenizer.HTMLTokenizer.script\lDataLessThanSignState",height=0.2,width=0.4,color="black", fillcolor="white", style="filled",URL="$d1/d15/classpip_1_1__vendor_1_1html5lib_1_1__tokenizer_1_1_h_t_m_l_tokenizer.html#a7cee7978efebf1fbdae8d6750c799aba",tooltip=" "];
  Node47 -> Node1 [color="midnightblue",fontsize="10",style="solid"];
  Node47 -> Node48 [color="midnightblue",fontsize="10",style="solid"];
  Node48 [label="pip._vendor.html5lib.\l_tokenizer.HTMLTokenizer.script\lDataEscapeStartState",height=0.2,width=0.4,color="black", fillcolor="white", style="filled",URL="$d1/d15/classpip_1_1__vendor_1_1html5lib_1_1__tokenizer_1_1_h_t_m_l_tokenizer.html#a0b6b0ce8fd315f1ecc9e5db13c6118ba",tooltip=" "];
  Node48 -> Node49 [color="midnightblue",fontsize="10",style="solid"];
  Node49 [label="pip._vendor.html5lib.\l_tokenizer.HTMLTokenizer.script\lDataEscapeStartDashState",height=0.2,width=0.4,color="black", fillcolor="white", style="filled",URL="$d1/d15/classpip_1_1__vendor_1_1html5lib_1_1__tokenizer_1_1_h_t_m_l_tokenizer.html#a32ec556ae25d287022f485a3113599f9",tooltip=" "];
  Node49 -> Node50 [color="midnightblue",fontsize="10",style="solid"];
  Node50 [label="pip._vendor.html5lib.\l_tokenizer.HTMLTokenizer.script\lDataEscapedDashDashState",height=0.2,width=0.4,color="black", fillcolor="white", style="filled",URL="$d1/d15/classpip_1_1__vendor_1_1html5lib_1_1__tokenizer_1_1_h_t_m_l_tokenizer.html#a9cc43c181b8818e138e16349c5c816b0",tooltip=" "];
  Node50 -> Node9 [color="midnightblue",fontsize="10",style="solid"];
  Node50 -> Node51 [color="midnightblue",fontsize="10",style="solid"];
  Node51 [label="pip._vendor.html5lib.\l_tokenizer.HTMLTokenizer.script\lDataEscapedLessThanSignState",height=0.2,width=0.4,color="black", fillcolor="white", style="filled",URL="$d1/d15/classpip_1_1__vendor_1_1html5lib_1_1__tokenizer_1_1_h_t_m_l_tokenizer.html#ac61539fbef24af40395cbf23f2fcf8a6",tooltip=" "];
  Node51 -> Node52 [color="midnightblue",fontsize="10",style="solid"];
  Node52 [label="pip._vendor.html5lib.\l_tokenizer.HTMLTokenizer.script\lDataDoubleEscapeStartState",height=0.2,width=0.4,color="black", fillcolor="white", style="filled",URL="$d1/d15/classpip_1_1__vendor_1_1html5lib_1_1__tokenizer_1_1_h_t_m_l_tokenizer.html#a14ad368562619e5d757e7acf910d18a8",tooltip=" "];
  Node52 -> Node53 [color="midnightblue",fontsize="10",style="solid"];
  Node53 [label="pip._vendor.html5lib.\l_tokenizer.HTMLTokenizer.script\lDataDoubleEscapedState",height=0.2,width=0.4,color="black", fillcolor="white", style="filled",URL="$d1/d15/classpip_1_1__vendor_1_1html5lib_1_1__tokenizer_1_1_h_t_m_l_tokenizer.html#a12074fe2e5969b354c0947056f72e44a",tooltip=" "];
  Node53 -> Node9 [color="midnightblue",fontsize="10",style="solid"];
  Node53 -> Node54 [color="midnightblue",fontsize="10",style="solid"];
  Node54 [label="pip._vendor.html5lib.\l_tokenizer.HTMLTokenizer.script\lDataDoubleEscapedDashState",height=0.2,width=0.4,color="red", fillcolor="white", style="filled",URL="$d1/d15/classpip_1_1__vendor_1_1html5lib_1_1__tokenizer_1_1_h_t_m_l_tokenizer.html#ad6b3a31475cf29c9cc54c584efd90c8e",tooltip=" "];
  Node54 -> Node9 [color="midnightblue",fontsize="10",style="solid"];
  Node54 -> Node56 [color="midnightblue",fontsize="10",style="solid"];
  Node56 [label="pip._vendor.html5lib.\l_tokenizer.HTMLTokenizer.script\lDataDoubleEscapedLessThanSignState",height=0.2,width=0.4,color="red", fillcolor="white", style="filled",URL="$d1/d15/classpip_1_1__vendor_1_1html5lib_1_1__tokenizer_1_1_h_t_m_l_tokenizer.html#ac624f50fbb377df7e5bf2c5fabffd042",tooltip=" "];
  Node56 -> Node53 [color="midnightblue",fontsize="10",style="solid"];
  Node54 -> Node53 [color="midnightblue",fontsize="10",style="solid"];
  Node53 -> Node56 [color="midnightblue",fontsize="10",style="solid"];
  Node52 -> Node58 [color="midnightblue",fontsize="10",style="solid"];
  Node58 [label="pip._vendor.html5lib.\l_tokenizer.HTMLTokenizer.script\lDataEscapedState",height=0.2,width=0.4,color="black", fillcolor="white", style="filled",URL="$d1/d15/classpip_1_1__vendor_1_1html5lib_1_1__tokenizer_1_1_h_t_m_l_tokenizer.html#ade2a0986d939b76868f140564a45418d",tooltip=" "];
  Node58 -> Node9 [color="midnightblue",fontsize="10",style="solid"];
  Node58 -> Node59 [color="midnightblue",fontsize="10",style="solid"];
  Node59 [label="pip._vendor.html5lib.\l_tokenizer.HTMLTokenizer.script\lDataEscapedDashState",height=0.2,width=0.4,color="black", fillcolor="white", style="filled",URL="$d1/d15/classpip_1_1__vendor_1_1html5lib_1_1__tokenizer_1_1_h_t_m_l_tokenizer.html#a659b3dc3e0726fe964a432be7e267015",tooltip=" "];
  Node59 -> Node9 [color="midnightblue",fontsize="10",style="solid"];
  Node59 -> Node50 [color="midnightblue",fontsize="10",style="solid"];
  Node59 -> Node51 [color="midnightblue",fontsize="10",style="solid"];
  Node59 -> Node58 [color="midnightblue",fontsize="10",style="solid"];
  Node58 -> Node51 [color="midnightblue",fontsize="10",style="solid"];
  Node51 -> Node60 [color="midnightblue",fontsize="10",style="solid"];
  Node60 [label="pip._vendor.html5lib.\l_tokenizer.HTMLTokenizer.script\lDataEscapedEndTagOpenState",height=0.2,width=0.4,color="black", fillcolor="white", style="filled",URL="$d1/d15/classpip_1_1__vendor_1_1html5lib_1_1__tokenizer_1_1_h_t_m_l_tokenizer.html#a44f8477a916259c56e22398479f46679",tooltip=" "];
  Node60 -> Node61 [color="midnightblue",fontsize="10",style="solid"];
  Node61 [label="pip._vendor.html5lib.\l_tokenizer.HTMLTokenizer.script\lDataEscapedEndTagNameState",height=0.2,width=0.4,color="black", fillcolor="white", style="filled",URL="$d1/d15/classpip_1_1__vendor_1_1html5lib_1_1__tokenizer_1_1_h_t_m_l_tokenizer.html#a28844de32a0c4634a9767614536a6948",tooltip=" "];
  Node61 -> Node3 [color="midnightblue",fontsize="10",style="solid"];
  Node61 -> Node9 [color="midnightblue",fontsize="10",style="solid"];
  Node61 -> Node17 [color="midnightblue",fontsize="10",style="solid"];
  Node61 -> Node58 [color="midnightblue",fontsize="10",style="solid"];
  Node61 -> Node18 [color="midnightblue",fontsize="10",style="solid"];
  Node60 -> Node58 [color="midnightblue",fontsize="10",style="solid"];
  Node51 -> Node58 [color="midnightblue",fontsize="10",style="solid"];
  Node50 -> Node58 [color="midnightblue",fontsize="10",style="solid"];
  Node50 -> Node46 [color="midnightblue",fontsize="10",style="solid"];
  Node49 -> Node46 [color="midnightblue",fontsize="10",style="solid"];
  Node48 -> Node46 [color="midnightblue",fontsize="10",style="solid"];
  Node47 -> Node46 [color="midnightblue",fontsize="10",style="solid"];
  Node2 -> Node18 [color="midnightblue",fontsize="10",style="solid"];
  Node1 -> Node46 [color="midnightblue",fontsize="10",style="solid"];
}
