digraph "pip._vendor.html5lib._tokenizer.HTMLTokenizer.scriptDataDoubleEscapeEndState"
{
 // LATEX_PDF_SIZE
  edge [fontname="Helvetica",fontsize="10",labelfontname="Helvetica",labelfontsize="10"];
  node [fontname="Helvetica",fontsize="10",shape=record];
  rankdir="RL";
  Node1 [label="pip._vendor.html5lib.\l_tokenizer.HTMLTokenizer.script\lDataDoubleEscapeEndState",height=0.2,width=0.4,color="black", fillcolor="grey75", style="filled", fontcolor="black",tooltip=" "];
  Node1 -> Node2 [dir="back",color="midnightblue",fontsize="10",style="solid"];
  Node2 [label="pip._vendor.html5lib.\l_tokenizer.HTMLTokenizer.script\lDataDoubleEscapedLessThanSignState",height=0.2,width=0.4,color="black", fillcolor="white", style="filled",URL="$d1/d15/classpip_1_1__vendor_1_1html5lib_1_1__tokenizer_1_1_h_t_m_l_tokenizer.html#ac624f50fbb377df7e5bf2c5fabffd042",tooltip=" "];
  Node2 -> Node3 [dir="back",color="midnightblue",fontsize="10",style="solid"];
  Node3 [label="pip._vendor.html5lib.\l_tokenizer.HTMLTokenizer.script\lDataDoubleEscapedDashDashState",height=0.2,width=0.4,color="black", fillcolor="white", style="filled",URL="$d1/d15/classpip_1_1__vendor_1_1html5lib_1_1__tokenizer_1_1_h_t_m_l_tokenizer.html#a24f1d17718847f0b9fe606afd7a72f2d",tooltip=" "];
  Node3 -> Node4 [dir="back",color="midnightblue",fontsize="10",style="solid"];
  Node4 [label="pip._vendor.html5lib.\l_tokenizer.HTMLTokenizer.script\lDataDoubleEscapedDashState",height=0.2,width=0.4,color="black", fillcolor="white", style="filled",URL="$d1/d15/classpip_1_1__vendor_1_1html5lib_1_1__tokenizer_1_1_h_t_m_l_tokenizer.html#ad6b3a31475cf29c9cc54c584efd90c8e",tooltip=" "];
  Node4 -> Node5 [dir="back",color="midnightblue",fontsize="10",style="solid"];
  Node5 [label="pip._vendor.html5lib.\l_tokenizer.HTMLTokenizer.script\lDataDoubleEscapedState",height=0.2,width=0.4,color="black", fillcolor="white", style="filled",URL="$d1/d15/classpip_1_1__vendor_1_1html5lib_1_1__tokenizer_1_1_h_t_m_l_tokenizer.html#a12074fe2e5969b354c0947056f72e44a",tooltip=" "];
  Node5 -> Node3 [dir="back",color="midnightblue",fontsize="10",style="solid"];
  Node5 -> Node4 [dir="back",color="midnightblue",fontsize="10",style="solid"];
  Node5 -> Node2 [dir="back",color="midnightblue",fontsize="10",style="solid"];
  Node5 -> Node1 [dir="back",color="midnightblue",fontsize="10",style="solid"];
  Node5 -> Node6 [dir="back",color="midnightblue",fontsize="10",style="solid"];
  Node6 [label="pip._vendor.html5lib.\l_tokenizer.HTMLTokenizer.script\lDataDoubleEscapeStartState",height=0.2,width=0.4,color="black", fillcolor="white", style="filled",URL="$d1/d15/classpip_1_1__vendor_1_1html5lib_1_1__tokenizer_1_1_h_t_m_l_tokenizer.html#a14ad368562619e5d757e7acf910d18a8",tooltip=" "];
  Node6 -> Node7 [dir="back",color="midnightblue",fontsize="10",style="solid"];
  Node7 [label="pip._vendor.html5lib.\l_tokenizer.HTMLTokenizer.script\lDataEscapedLessThanSignState",height=0.2,width=0.4,color="black", fillcolor="white", style="filled",URL="$d1/d15/classpip_1_1__vendor_1_1html5lib_1_1__tokenizer_1_1_h_t_m_l_tokenizer.html#ac61539fbef24af40395cbf23f2fcf8a6",tooltip=" "];
  Node7 -> Node8 [dir="back",color="midnightblue",fontsize="10",style="solid"];
  Node8 [label="pip._vendor.html5lib.\l_tokenizer.HTMLTokenizer.script\lDataEscapedDashDashState",height=0.2,width=0.4,color="black", fillcolor="white", style="filled",URL="$d1/d15/classpip_1_1__vendor_1_1html5lib_1_1__tokenizer_1_1_h_t_m_l_tokenizer.html#a9cc43c181b8818e138e16349c5c816b0",tooltip=" "];
  Node8 -> Node9 [dir="back",color="midnightblue",fontsize="10",style="solid"];
  Node9 [label="pip._vendor.html5lib.\l_tokenizer.HTMLTokenizer.script\lDataEscapedDashState",height=0.2,width=0.4,color="black", fillcolor="white", style="filled",URL="$d1/d15/classpip_1_1__vendor_1_1html5lib_1_1__tokenizer_1_1_h_t_m_l_tokenizer.html#a659b3dc3e0726fe964a432be7e267015",tooltip=" "];
  Node9 -> Node10 [dir="back",color="midnightblue",fontsize="10",style="solid"];
  Node10 [label="pip._vendor.html5lib.\l_tokenizer.HTMLTokenizer.script\lDataEscapedState",height=0.2,width=0.4,color="black", fillcolor="white", style="filled",URL="$d1/d15/classpip_1_1__vendor_1_1html5lib_1_1__tokenizer_1_1_h_t_m_l_tokenizer.html#ade2a0986d939b76868f140564a45418d",tooltip=" "];
  Node10 -> Node1 [dir="back",color="midnightblue",fontsize="10",style="solid"];
  Node10 -> Node6 [dir="back",color="midnightblue",fontsize="10",style="solid"];
  Node10 -> Node8 [dir="back",color="midnightblue",fontsize="10",style="solid"];
  Node10 -> Node9 [dir="back",color="midnightblue",fontsize="10",style="solid"];
  Node10 -> Node11 [dir="back",color="midnightblue",fontsize="10",style="solid"];
  Node11 [label="pip._vendor.html5lib.\l_tokenizer.HTMLTokenizer.script\lDataEscapedEndTagNameState",height=0.2,width=0.4,color="black", fillcolor="white", style="filled",URL="$d1/d15/classpip_1_1__vendor_1_1html5lib_1_1__tokenizer_1_1_h_t_m_l_tokenizer.html#a28844de32a0c4634a9767614536a6948",tooltip=" "];
  Node11 -> Node12 [dir="back",color="midnightblue",fontsize="10",style="solid"];
  Node12 [label="pip._vendor.html5lib.\l_tokenizer.HTMLTokenizer.script\lDataEscapedEndTagOpenState",height=0.2,width=0.4,color="black", fillcolor="white", style="filled",URL="$d1/d15/classpip_1_1__vendor_1_1html5lib_1_1__tokenizer_1_1_h_t_m_l_tokenizer.html#a44f8477a916259c56e22398479f46679",tooltip=" "];
  Node12 -> Node7 [dir="back",color="midnightblue",fontsize="10",style="solid"];
  Node10 -> Node12 [dir="back",color="midnightblue",fontsize="10",style="solid"];
  Node10 -> Node7 [dir="back",color="midnightblue",fontsize="10",style="solid"];
  Node8 -> Node13 [dir="back",color="midnightblue",fontsize="10",style="solid"];
  Node13 [label="pip._vendor.html5lib.\l_tokenizer.HTMLTokenizer.script\lDataEscapeStartDashState",height=0.2,width=0.4,color="black", fillcolor="white", style="filled",URL="$d1/d15/classpip_1_1__vendor_1_1html5lib_1_1__tokenizer_1_1_h_t_m_l_tokenizer.html#a32ec556ae25d287022f485a3113599f9",tooltip=" "];
  Node13 -> Node14 [dir="back",color="midnightblue",fontsize="10",style="solid"];
  Node14 [label="pip._vendor.html5lib.\l_tokenizer.HTMLTokenizer.script\lDataEscapeStartState",height=0.2,width=0.4,color="black", fillcolor="white", style="filled",URL="$d1/d15/classpip_1_1__vendor_1_1html5lib_1_1__tokenizer_1_1_h_t_m_l_tokenizer.html#a0b6b0ce8fd315f1ecc9e5db13c6118ba",tooltip=" "];
  Node14 -> Node15 [dir="back",color="midnightblue",fontsize="10",style="solid"];
  Node15 [label="pip._vendor.html5lib.\l_tokenizer.HTMLTokenizer.script\lDataLessThanSignState",height=0.2,width=0.4,color="black", fillcolor="white", style="filled",URL="$d1/d15/classpip_1_1__vendor_1_1html5lib_1_1__tokenizer_1_1_h_t_m_l_tokenizer.html#a7cee7978efebf1fbdae8d6750c799aba",tooltip=" "];
  Node15 -> Node16 [dir="back",color="midnightblue",fontsize="10",style="solid"];
  Node16 [label="pip._vendor.html5lib.\l_tokenizer.HTMLTokenizer.script\lDataState",height=0.2,width=0.4,color="black", fillcolor="white", style="filled",URL="$d1/d15/classpip_1_1__vendor_1_1html5lib_1_1__tokenizer_1_1_h_t_m_l_tokenizer.html#aa1bab871ba6b1561d74cb7b2d7028b49",tooltip=" "];
  Node16 -> Node3 [dir="back",color="midnightblue",fontsize="10",style="solid"];
  Node16 -> Node17 [dir="back",color="midnightblue",fontsize="10",style="solid"];
  Node17 [label="pip._vendor.html5lib.\l_tokenizer.HTMLTokenizer.script\lDataEndTagNameState",height=0.2,width=0.4,color="black", fillcolor="white", style="filled",URL="$d1/d15/classpip_1_1__vendor_1_1html5lib_1_1__tokenizer_1_1_h_t_m_l_tokenizer.html#add268458ace6581fdd03ef63cbeee75e",tooltip=" "];
  Node17 -> Node18 [dir="back",color="midnightblue",fontsize="10",style="solid"];
  Node18 [label="pip._vendor.html5lib.\l_tokenizer.HTMLTokenizer.script\lDataEndTagOpenState",height=0.2,width=0.4,color="black", fillcolor="white", style="filled",URL="$d1/d15/classpip_1_1__vendor_1_1html5lib_1_1__tokenizer_1_1_h_t_m_l_tokenizer.html#ab5b6e73986004debe7890f3f3f504009",tooltip=" "];
  Node18 -> Node15 [dir="back",color="midnightblue",fontsize="10",style="solid"];
  Node16 -> Node18 [dir="back",color="midnightblue",fontsize="10",style="solid"];
  Node16 -> Node8 [dir="back",color="midnightblue",fontsize="10",style="solid"];
  Node16 -> Node13 [dir="back",color="midnightblue",fontsize="10",style="solid"];
  Node16 -> Node14 [dir="back",color="midnightblue",fontsize="10",style="solid"];
  Node16 -> Node15 [dir="back",color="midnightblue",fontsize="10",style="solid"];
  Node7 -> Node9 [dir="back",color="midnightblue",fontsize="10",style="solid"];
  Node7 -> Node10 [dir="back",color="midnightblue",fontsize="10",style="solid"];
  Node2 -> Node4 [dir="back",color="midnightblue",fontsize="10",style="solid"];
  Node2 -> Node5 [dir="back",color="midnightblue",fontsize="10",style="solid"];
}
