digraph "pip._vendor.html5lib._tokenizer.HTMLTokenizer.selfClosingStartTagState"
{
 // LATEX_PDF_SIZE
  edge [fontname="Helvetica",fontsize="10",labelfontname="Helvetica",labelfontsize="10"];
  node [fontname="Helvetica",fontsize="10",shape=record];
  rankdir="RL";
  Node1 [label="pip._vendor.html5lib.\l_tokenizer.HTMLTokenizer.self\lClosingStartTagState",height=0.2,width=0.4,color="black", fillcolor="grey75", style="filled", fontcolor="black",tooltip=" "];
  Node1 -> Node2 [dir="back",color="midnightblue",fontsize="10",style="solid"];
  Node2 [label="pip._vendor.html5lib.\l_tokenizer.HTMLTokenizer.after\lAttributeNameState",height=0.2,width=0.4,color="black", fillcolor="white", style="filled",URL="$d1/d15/classpip_1_1__vendor_1_1html5lib_1_1__tokenizer_1_1_h_t_m_l_tokenizer.html#ab7a81e41688058d7442ab32f6d90405c",tooltip=" "];
  Node2 -> Node3 [dir="back",color="midnightblue",fontsize="10",style="solid"];
  Node3 [label="pip._vendor.html5lib.\l_tokenizer.HTMLTokenizer.attribute\lNameState",height=0.2,width=0.4,color="black", fillcolor="white", style="filled",URL="$d1/d15/classpip_1_1__vendor_1_1html5lib_1_1__tokenizer_1_1_h_t_m_l_tokenizer.html#a721955f1490609f2397578f37ade5b98",tooltip=" "];
  Node3 -> Node2 [dir="back",color="midnightblue",fontsize="10",style="solid"];
  Node3 -> Node4 [dir="back",color="midnightblue",fontsize="10",style="solid"];
  Node4 [label="pip._vendor.html5lib.\l_tokenizer.HTMLTokenizer.before\lAttributeNameState",height=0.2,width=0.4,color="black", fillcolor="white", style="filled",URL="$d1/d15/classpip_1_1__vendor_1_1html5lib_1_1__tokenizer_1_1_h_t_m_l_tokenizer.html#a75947dab8d198648f83f047b7bb33474",tooltip=" "];
  Node4 -> Node5 [dir="back",color="midnightblue",fontsize="10",style="solid"];
  Node5 [label="pip._vendor.html5lib.\l_tokenizer.HTMLTokenizer.after\lAttributeValueState",height=0.2,width=0.4,color="black", fillcolor="white", style="filled",URL="$d1/d15/classpip_1_1__vendor_1_1html5lib_1_1__tokenizer_1_1_h_t_m_l_tokenizer.html#a40513b48271e23c6aa6b59bc7d0e2156",tooltip=" "];
  Node5 -> Node6 [dir="back",color="midnightblue",fontsize="10",style="solid"];
  Node6 [label="pip._vendor.html5lib.\l_tokenizer.HTMLTokenizer.attribute\lValueDoubleQuotedState",height=0.2,width=0.4,color="black", fillcolor="white", style="filled",URL="$d1/d15/classpip_1_1__vendor_1_1html5lib_1_1__tokenizer_1_1_h_t_m_l_tokenizer.html#aada4bae10c7bd0910b75c9356ecb27bf",tooltip=" "];
  Node6 -> Node7 [dir="back",color="midnightblue",fontsize="10",style="solid"];
  Node7 [label="pip._vendor.html5lib.\l_tokenizer.HTMLTokenizer.before\lAttributeValueState",height=0.2,width=0.4,color="black", fillcolor="white", style="filled",URL="$d1/d15/classpip_1_1__vendor_1_1html5lib_1_1__tokenizer_1_1_h_t_m_l_tokenizer.html#a0afdc918edc55b9af9f1746ca7e13dd5",tooltip=" "];
  Node7 -> Node2 [dir="back",color="midnightblue",fontsize="10",style="solid"];
  Node7 -> Node3 [dir="back",color="midnightblue",fontsize="10",style="solid"];
  Node5 -> Node8 [dir="back",color="midnightblue",fontsize="10",style="solid"];
  Node8 [label="pip._vendor.html5lib.\l_tokenizer.HTMLTokenizer.attribute\lValueSingleQuotedState",height=0.2,width=0.4,color="black", fillcolor="white", style="filled",URL="$d1/d15/classpip_1_1__vendor_1_1html5lib_1_1__tokenizer_1_1_h_t_m_l_tokenizer.html#a15a7dc634202c1a345875e08fdb46b5b",tooltip=" "];
  Node8 -> Node7 [dir="back",color="midnightblue",fontsize="10",style="solid"];
  Node4 -> Node9 [dir="back",color="midnightblue",fontsize="10",style="solid"];
  Node9 [label="pip._vendor.html5lib.\l_tokenizer.HTMLTokenizer.attribute\lValueUnQuotedState",height=0.2,width=0.4,color="black", fillcolor="white", style="filled",URL="$d1/d15/classpip_1_1__vendor_1_1html5lib_1_1__tokenizer_1_1_h_t_m_l_tokenizer.html#ade3e299a92cfe35edd4d8bd017e9ca98",tooltip=" "];
  Node9 -> Node7 [dir="back",color="midnightblue",fontsize="10",style="solid"];
  Node4 -> Node10 [dir="back",color="midnightblue",fontsize="10",style="solid"];
  Node10 [label="pip._vendor.html5lib.\l_tokenizer.HTMLTokenizer.rawtext\lEndTagNameState",height=0.2,width=0.4,color="black", fillcolor="white", style="filled",URL="$d1/d15/classpip_1_1__vendor_1_1html5lib_1_1__tokenizer_1_1_h_t_m_l_tokenizer.html#aa68056f6b638d3e064aacfe9bf154835",tooltip=" "];
  Node10 -> Node11 [dir="back",color="midnightblue",fontsize="10",style="solid"];
  Node11 [label="pip._vendor.html5lib.\l_tokenizer.HTMLTokenizer.rawtext\lEndTagOpenState",height=0.2,width=0.4,color="black", fillcolor="white", style="filled",URL="$d1/d15/classpip_1_1__vendor_1_1html5lib_1_1__tokenizer_1_1_h_t_m_l_tokenizer.html#af9ebc3327e1568b7a85ddd2ad01e696b",tooltip=" "];
  Node11 -> Node12 [dir="back",color="midnightblue",fontsize="10",style="solid"];
  Node12 [label="pip._vendor.html5lib.\l_tokenizer.HTMLTokenizer.rawtext\lLessThanSignState",height=0.2,width=0.4,color="black", fillcolor="white", style="filled",URL="$d1/d15/classpip_1_1__vendor_1_1html5lib_1_1__tokenizer_1_1_h_t_m_l_tokenizer.html#a0212c1f85a437899f2f74d105c406cba",tooltip=" "];
  Node12 -> Node13 [dir="back",color="midnightblue",fontsize="10",style="solid"];
  Node13 [label="pip._vendor.html5lib.\l_tokenizer.HTMLTokenizer.rawtext\lState",height=0.2,width=0.4,color="black", fillcolor="white", style="filled",URL="$d1/d15/classpip_1_1__vendor_1_1html5lib_1_1__tokenizer_1_1_h_t_m_l_tokenizer.html#ab1bb5e7c93edcd518178631af1f3f398",tooltip=" "];
  Node13 -> Node10 [dir="back",color="midnightblue",fontsize="10",style="solid"];
  Node13 -> Node11 [dir="back",color="midnightblue",fontsize="10",style="solid"];
  Node13 -> Node12 [dir="back",color="midnightblue",fontsize="10",style="solid"];
  Node4 -> Node14 [dir="back",color="midnightblue",fontsize="10",style="solid"];
  Node14 [label="pip._vendor.html5lib.\l_tokenizer.HTMLTokenizer.rcdata\lEndTagNameState",height=0.2,width=0.4,color="black", fillcolor="white", style="filled",URL="$d1/d15/classpip_1_1__vendor_1_1html5lib_1_1__tokenizer_1_1_h_t_m_l_tokenizer.html#ab5926d805a5e77dca0e497be3282f521",tooltip=" "];
  Node14 -> Node15 [dir="back",color="midnightblue",fontsize="10",style="solid"];
  Node15 [label="pip._vendor.html5lib.\l_tokenizer.HTMLTokenizer.rcdata\lEndTagOpenState",height=0.2,width=0.4,color="black", fillcolor="white", style="filled",URL="$d1/d15/classpip_1_1__vendor_1_1html5lib_1_1__tokenizer_1_1_h_t_m_l_tokenizer.html#a5d5c6b10b714d578f1df405a3fb45b51",tooltip=" "];
  Node4 -> Node16 [dir="back",color="midnightblue",fontsize="10",style="solid"];
  Node16 [label="pip._vendor.html5lib.\l_tokenizer.HTMLTokenizer.script\lDataEndTagNameState",height=0.2,width=0.4,color="black", fillcolor="white", style="filled",URL="$d1/d15/classpip_1_1__vendor_1_1html5lib_1_1__tokenizer_1_1_h_t_m_l_tokenizer.html#add268458ace6581fdd03ef63cbeee75e",tooltip=" "];
  Node16 -> Node17 [dir="back",color="midnightblue",fontsize="10",style="solid"];
  Node17 [label="pip._vendor.html5lib.\l_tokenizer.HTMLTokenizer.script\lDataEndTagOpenState",height=0.2,width=0.4,color="black", fillcolor="white", style="filled",URL="$d1/d15/classpip_1_1__vendor_1_1html5lib_1_1__tokenizer_1_1_h_t_m_l_tokenizer.html#ab5b6e73986004debe7890f3f3f504009",tooltip=" "];
  Node17 -> Node18 [dir="back",color="midnightblue",fontsize="10",style="solid"];
  Node18 [label="pip._vendor.html5lib.\l_tokenizer.HTMLTokenizer.script\lDataLessThanSignState",height=0.2,width=0.4,color="black", fillcolor="white", style="filled",URL="$d1/d15/classpip_1_1__vendor_1_1html5lib_1_1__tokenizer_1_1_h_t_m_l_tokenizer.html#a7cee7978efebf1fbdae8d6750c799aba",tooltip=" "];
  Node18 -> Node19 [dir="back",color="midnightblue",fontsize="10",style="solid"];
  Node19 [label="pip._vendor.html5lib.\l_tokenizer.HTMLTokenizer.script\lDataState",height=0.2,width=0.4,color="red", fillcolor="white", style="filled",URL="$d1/d15/classpip_1_1__vendor_1_1html5lib_1_1__tokenizer_1_1_h_t_m_l_tokenizer.html#aa1bab871ba6b1561d74cb7b2d7028b49",tooltip=" "];
  Node19 -> Node16 [dir="back",color="midnightblue",fontsize="10",style="solid"];
  Node19 -> Node17 [dir="back",color="midnightblue",fontsize="10",style="solid"];
  Node19 -> Node27 [dir="back",color="midnightblue",fontsize="10",style="solid"];
  Node27 [label="pip._vendor.html5lib.\l_tokenizer.HTMLTokenizer.script\lDataEscapedDashDashState",height=0.2,width=0.4,color="red", fillcolor="white", style="filled",URL="$d1/d15/classpip_1_1__vendor_1_1html5lib_1_1__tokenizer_1_1_h_t_m_l_tokenizer.html#a9cc43c181b8818e138e16349c5c816b0",tooltip=" "];
  Node27 -> Node28 [dir="back",color="midnightblue",fontsize="10",style="solid"];
  Node28 [label="pip._vendor.html5lib.\l_tokenizer.HTMLTokenizer.script\lDataEscapedDashState",height=0.2,width=0.4,color="black", fillcolor="white", style="filled",URL="$d1/d15/classpip_1_1__vendor_1_1html5lib_1_1__tokenizer_1_1_h_t_m_l_tokenizer.html#a659b3dc3e0726fe964a432be7e267015",tooltip=" "];
  Node28 -> Node29 [dir="back",color="midnightblue",fontsize="10",style="solid"];
  Node29 [label="pip._vendor.html5lib.\l_tokenizer.HTMLTokenizer.script\lDataEscapedState",height=0.2,width=0.4,color="red", fillcolor="white", style="filled",URL="$d1/d15/classpip_1_1__vendor_1_1html5lib_1_1__tokenizer_1_1_h_t_m_l_tokenizer.html#ade2a0986d939b76868f140564a45418d",tooltip=" "];
  Node29 -> Node27 [dir="back",color="midnightblue",fontsize="10",style="solid"];
  Node29 -> Node28 [dir="back",color="midnightblue",fontsize="10",style="solid"];
  Node29 -> Node30 [dir="back",color="midnightblue",fontsize="10",style="solid"];
  Node30 [label="pip._vendor.html5lib.\l_tokenizer.HTMLTokenizer.script\lDataEscapedEndTagNameState",height=0.2,width=0.4,color="black", fillcolor="white", style="filled",URL="$d1/d15/classpip_1_1__vendor_1_1html5lib_1_1__tokenizer_1_1_h_t_m_l_tokenizer.html#a28844de32a0c4634a9767614536a6948",tooltip=" "];
  Node30 -> Node31 [dir="back",color="midnightblue",fontsize="10",style="solid"];
  Node31 [label="pip._vendor.html5lib.\l_tokenizer.HTMLTokenizer.script\lDataEscapedEndTagOpenState",height=0.2,width=0.4,color="black", fillcolor="white", style="filled",URL="$d1/d15/classpip_1_1__vendor_1_1html5lib_1_1__tokenizer_1_1_h_t_m_l_tokenizer.html#a44f8477a916259c56e22398479f46679",tooltip=" "];
  Node31 -> Node26 [dir="back",color="midnightblue",fontsize="10",style="solid"];
  Node26 [label="pip._vendor.html5lib.\l_tokenizer.HTMLTokenizer.script\lDataEscapedLessThanSignState",height=0.2,width=0.4,color="black", fillcolor="white", style="filled",URL="$d1/d15/classpip_1_1__vendor_1_1html5lib_1_1__tokenizer_1_1_h_t_m_l_tokenizer.html#ac61539fbef24af40395cbf23f2fcf8a6",tooltip=" "];
  Node26 -> Node27 [dir="back",color="midnightblue",fontsize="10",style="solid"];
  Node26 -> Node28 [dir="back",color="midnightblue",fontsize="10",style="solid"];
  Node26 -> Node29 [dir="back",color="midnightblue",fontsize="10",style="solid"];
  Node29 -> Node31 [dir="back",color="midnightblue",fontsize="10",style="solid"];
  Node29 -> Node26 [dir="back",color="midnightblue",fontsize="10",style="solid"];
  Node19 -> Node18 [dir="back",color="midnightblue",fontsize="10",style="solid"];
  Node4 -> Node30 [dir="back",color="midnightblue",fontsize="10",style="solid"];
  Node4 -> Node1 [dir="back",color="midnightblue",fontsize="10",style="solid"];
  Node4 -> Node34 [dir="back",color="midnightblue",fontsize="10",style="solid"];
  Node34 [label="pip._vendor.html5lib.\l_tokenizer.HTMLTokenizer.tag\lNameState",height=0.2,width=0.4,color="black", fillcolor="white", style="filled",URL="$d1/d15/classpip_1_1__vendor_1_1html5lib_1_1__tokenizer_1_1_h_t_m_l_tokenizer.html#a12051100f2d4f1045b834a4b303e8f8b",tooltip=" "];
  Node34 -> Node35 [dir="back",color="midnightblue",fontsize="10",style="solid"];
  Node35 [label="pip._vendor.html5lib.\l_tokenizer.HTMLTokenizer.close\lTagOpenState",height=0.2,width=0.4,color="black", fillcolor="white", style="filled",URL="$d1/d15/classpip_1_1__vendor_1_1html5lib_1_1__tokenizer_1_1_h_t_m_l_tokenizer.html#aab95d2ca82202a18b159a08b84637c19",tooltip=" "];
  Node35 -> Node36 [dir="back",color="midnightblue",fontsize="10",style="solid"];
  Node36 [label="pip._vendor.html5lib.\l_tokenizer.HTMLTokenizer.tag\lOpenState",height=0.2,width=0.4,color="black", fillcolor="white", style="filled",URL="$d1/d15/classpip_1_1__vendor_1_1html5lib_1_1__tokenizer_1_1_h_t_m_l_tokenizer.html#add701dff4d1ada0a52ae333d50a72d84",tooltip=" "];
  Node36 -> Node37 [dir="back",color="midnightblue",fontsize="10",style="solid"];
  Node37 [label="pip._vendor.html5lib.\l_tokenizer.HTMLTokenizer.data\lState",height=0.2,width=0.4,color="red", fillcolor="white", style="filled",URL="$d1/d15/classpip_1_1__vendor_1_1html5lib_1_1__tokenizer_1_1_h_t_m_l_tokenizer.html#affad458a1ca066c41bcd58d57b489c4a",tooltip=" "];
  Node37 -> Node2 [dir="back",color="midnightblue",fontsize="10",style="solid"];
  Node37 -> Node5 [dir="back",color="midnightblue",fontsize="10",style="solid"];
  Node37 -> Node38 [dir="back",color="midnightblue",fontsize="10",style="solid"];
  Node38 [label="pip._vendor.html5lib.\l_tokenizer.HTMLTokenizer.after\lDoctypeNameState",height=0.2,width=0.4,color="black", fillcolor="white", style="filled",URL="$d1/d15/classpip_1_1__vendor_1_1html5lib_1_1__tokenizer_1_1_h_t_m_l_tokenizer.html#a3705ea49281e4f8f48e62ad21e42087d",tooltip=" "];
  Node38 -> Node39 [dir="back",color="midnightblue",fontsize="10",style="solid"];
  Node39 [label="pip._vendor.html5lib.\l_tokenizer.HTMLTokenizer.doctype\lNameState",height=0.2,width=0.4,color="black", fillcolor="white", style="filled",URL="$d1/d15/classpip_1_1__vendor_1_1html5lib_1_1__tokenizer_1_1_h_t_m_l_tokenizer.html#a75e83ba0343c595e42a7d77909d23441",tooltip=" "];
  Node39 -> Node40 [dir="back",color="midnightblue",fontsize="10",style="solid"];
  Node40 [label="pip._vendor.html5lib.\l_tokenizer.HTMLTokenizer.before\lDoctypeNameState",height=0.2,width=0.4,color="red", fillcolor="white", style="filled",URL="$d1/d15/classpip_1_1__vendor_1_1html5lib_1_1__tokenizer_1_1_h_t_m_l_tokenizer.html#a5825bca2482af283b93eaff7df8ce06d",tooltip=" "];
  Node39 -> Node39 [dir="back",color="midnightblue",fontsize="10",style="solid"];
  Node37 -> Node43 [dir="back",color="midnightblue",fontsize="10",style="solid"];
  Node43 [label="pip._vendor.html5lib.\l_tokenizer.HTMLTokenizer.after\lDoctypePublicIdentifierState",height=0.2,width=0.4,color="black", fillcolor="white", style="filled",URL="$d1/d15/classpip_1_1__vendor_1_1html5lib_1_1__tokenizer_1_1_h_t_m_l_tokenizer.html#ae5b235e441cf7fef7ebcf77e1243dc44",tooltip=" "];
  Node43 -> Node44 [dir="back",color="midnightblue",fontsize="10",style="solid"];
  Node44 [label="pip._vendor.html5lib.\l_tokenizer.HTMLTokenizer.doctype\lPublicIdentifierDoubleQuotedState",height=0.2,width=0.4,color="black", fillcolor="white", style="filled",URL="$d1/d15/classpip_1_1__vendor_1_1html5lib_1_1__tokenizer_1_1_h_t_m_l_tokenizer.html#ac6e808a56985fe7e4bbd6e78bbd68f18",tooltip=" "];
  Node44 -> Node45 [dir="back",color="midnightblue",fontsize="10",style="solid"];
  Node45 [label="pip._vendor.html5lib.\l_tokenizer.HTMLTokenizer.before\lDoctypePublicIdentifierState",height=0.2,width=0.4,color="black", fillcolor="white", style="filled",URL="$d1/d15/classpip_1_1__vendor_1_1html5lib_1_1__tokenizer_1_1_h_t_m_l_tokenizer.html#a4c987d9e7d8ef8f29453f01d4f03c32f",tooltip=" "];
  Node45 -> Node46 [dir="back",color="midnightblue",fontsize="10",style="solid"];
  Node46 [label="pip._vendor.html5lib.\l_tokenizer.HTMLTokenizer.after\lDoctypePublicKeywordState",height=0.2,width=0.4,color="black", fillcolor="white", style="filled",URL="$d1/d15/classpip_1_1__vendor_1_1html5lib_1_1__tokenizer_1_1_h_t_m_l_tokenizer.html#a85375ec13d048b11cd3cc5c098a7d09d",tooltip=" "];
  Node46 -> Node38 [dir="back",color="midnightblue",fontsize="10",style="solid"];
  Node43 -> Node47 [dir="back",color="midnightblue",fontsize="10",style="solid"];
  Node47 [label="pip._vendor.html5lib.\l_tokenizer.HTMLTokenizer.doctype\lPublicIdentifierSingleQuotedState",height=0.2,width=0.4,color="black", fillcolor="white", style="filled",URL="$d1/d15/classpip_1_1__vendor_1_1html5lib_1_1__tokenizer_1_1_h_t_m_l_tokenizer.html#aba3a7ce78bbfbd7d3afed507ab6bcd2d",tooltip=" "];
  Node47 -> Node45 [dir="back",color="midnightblue",fontsize="10",style="solid"];
  Node37 -> Node46 [dir="back",color="midnightblue",fontsize="10",style="solid"];
  Node37 -> Node48 [dir="back",color="midnightblue",fontsize="10",style="solid"];
  Node48 [label="pip._vendor.html5lib.\l_tokenizer.HTMLTokenizer.after\lDoctypeSystemIdentifierState",height=0.2,width=0.4,color="red", fillcolor="white", style="filled",URL="$d1/d15/classpip_1_1__vendor_1_1html5lib_1_1__tokenizer_1_1_h_t_m_l_tokenizer.html#a37007d3029e0065e69eb3e1baf5add5c",tooltip=" "];
  Node37 -> Node51 [dir="back",color="midnightblue",fontsize="10",style="solid"];
  Node51 [label="pip._vendor.html5lib.\l_tokenizer.HTMLTokenizer.after\lDoctypeSystemKeywordState",height=0.2,width=0.4,color="black", fillcolor="white", style="filled",URL="$d1/d15/classpip_1_1__vendor_1_1html5lib_1_1__tokenizer_1_1_h_t_m_l_tokenizer.html#a7dd4b1fcb9173bf34affcb6a0e0cfaed",tooltip=" "];
  Node51 -> Node38 [dir="back",color="midnightblue",fontsize="10",style="solid"];
  Node37 -> Node3 [dir="back",color="midnightblue",fontsize="10",style="solid"];
  Node37 -> Node6 [dir="back",color="midnightblue",fontsize="10",style="solid"];
  Node37 -> Node8 [dir="back",color="midnightblue",fontsize="10",style="solid"];
  Node37 -> Node9 [dir="back",color="midnightblue",fontsize="10",style="solid"];
  Node37 -> Node4 [dir="back",color="midnightblue",fontsize="10",style="solid"];
  Node37 -> Node7 [dir="back",color="midnightblue",fontsize="10",style="solid"];
  Node37 -> Node40 [dir="back",color="midnightblue",fontsize="10",style="solid"];
  Node37 -> Node45 [dir="back",color="midnightblue",fontsize="10",style="solid"];
  Node37 -> Node50 [dir="back",color="midnightblue",fontsize="10",style="solid"];
  Node50 [label="pip._vendor.html5lib.\l_tokenizer.HTMLTokenizer.before\lDoctypeSystemIdentifierState",height=0.2,width=0.4,color="black", fillcolor="white", style="filled",URL="$d1/d15/classpip_1_1__vendor_1_1html5lib_1_1__tokenizer_1_1_h_t_m_l_tokenizer.html#ae4e2226e005cc83a7454ad43758a537f",tooltip=" "];
  Node50 -> Node51 [dir="back",color="midnightblue",fontsize="10",style="solid"];
  Node37 -> Node52 [dir="back",color="midnightblue",fontsize="10",style="solid"];
  Node52 [label="pip._vendor.html5lib.\l_tokenizer.HTMLTokenizer.between\lDoctypePublicAndSystemIdentifiersState",height=0.2,width=0.4,color="black", fillcolor="white", style="filled",URL="$d1/d15/classpip_1_1__vendor_1_1html5lib_1_1__tokenizer_1_1_h_t_m_l_tokenizer.html#a502d17571565673fc95038befdf2265d",tooltip=" "];
  Node52 -> Node43 [dir="back",color="midnightblue",fontsize="10",style="solid"];
  Node37 -> Node54 [dir="back",color="midnightblue",fontsize="10",style="solid"];
  Node54 [label="pip._vendor.html5lib.\l_tokenizer.HTMLTokenizer.bogus\lCommentState",height=0.2,width=0.4,color="red", fillcolor="white", style="filled",URL="$d1/d15/classpip_1_1__vendor_1_1html5lib_1_1__tokenizer_1_1_h_t_m_l_tokenizer.html#ac0aa9cf3f362e8f08ff778f78e5f9dc9",tooltip=" "];
  Node54 -> Node35 [dir="back",color="midnightblue",fontsize="10",style="solid"];
  Node54 -> Node36 [dir="back",color="midnightblue",fontsize="10",style="solid"];
  Node37 -> Node55 [dir="back",color="midnightblue",fontsize="10",style="solid"];
  Node55 [label="pip._vendor.html5lib.\l_tokenizer.HTMLTokenizer.bogus\lDoctypeState",height=0.2,width=0.4,color="black", fillcolor="white", style="filled",URL="$d1/d15/classpip_1_1__vendor_1_1html5lib_1_1__tokenizer_1_1_h_t_m_l_tokenizer.html#a855bf68db7e67ffd4dcc8be5ec283630",tooltip=" "];
  Node55 -> Node38 [dir="back",color="midnightblue",fontsize="10",style="solid"];
  Node55 -> Node43 [dir="back",color="midnightblue",fontsize="10",style="solid"];
  Node55 -> Node48 [dir="back",color="midnightblue",fontsize="10",style="solid"];
  Node55 -> Node45 [dir="back",color="midnightblue",fontsize="10",style="solid"];
  Node55 -> Node50 [dir="back",color="midnightblue",fontsize="10",style="solid"];
  Node55 -> Node52 [dir="back",color="midnightblue",fontsize="10",style="solid"];
  Node37 -> Node56 [dir="back",color="midnightblue",fontsize="10",style="solid"];
  Node56 [label="pip._vendor.html5lib.\l_tokenizer.HTMLTokenizer.cdata\lSectionState",height=0.2,width=0.4,color="red", fillcolor="white", style="filled",URL="$d1/d15/classpip_1_1__vendor_1_1html5lib_1_1__tokenizer_1_1_h_t_m_l_tokenizer.html#a7dc11e41a0f2a56964ac7ba6fb215a38",tooltip=" "];
  Node37 -> Node35 [dir="back",color="midnightblue",fontsize="10",style="solid"];
  Node37 -> Node57 [dir="back",color="midnightblue",fontsize="10",style="solid"];
  Node57 [label="pip._vendor.html5lib.\l_tokenizer.HTMLTokenizer.comment\lEndBangState",height=0.2,width=0.4,color="black", fillcolor="white", style="filled",URL="$d1/d15/classpip_1_1__vendor_1_1html5lib_1_1__tokenizer_1_1_h_t_m_l_tokenizer.html#a3eafaa79048473e54cff32c3737f84db",tooltip=" "];
  Node57 -> Node58 [dir="back",color="midnightblue",fontsize="10",style="solid"];
  Node58 [label="pip._vendor.html5lib.\l_tokenizer.HTMLTokenizer.comment\lEndState",height=0.2,width=0.4,color="black", fillcolor="white", style="filled",URL="$d1/d15/classpip_1_1__vendor_1_1html5lib_1_1__tokenizer_1_1_h_t_m_l_tokenizer.html#a7f1c054f8262619ebe026c1c4c4edf1d",tooltip=" "];
  Node58 -> Node59 [dir="back",color="midnightblue",fontsize="10",style="solid"];
  Node59 [label="pip._vendor.html5lib.\l_tokenizer.HTMLTokenizer.comment\lEndDashState",height=0.2,width=0.4,color="black", fillcolor="white", style="filled",URL="$d1/d15/classpip_1_1__vendor_1_1html5lib_1_1__tokenizer_1_1_h_t_m_l_tokenizer.html#a69c493c0458133c83de8e3ca0984e34c",tooltip=" "];
  Node59 -> Node57 [dir="back",color="midnightblue",fontsize="10",style="solid"];
  Node59 -> Node60 [dir="back",color="midnightblue",fontsize="10",style="solid"];
  Node60 [label="pip._vendor.html5lib.\l_tokenizer.HTMLTokenizer.comment\lState",height=0.2,width=0.4,color="black", fillcolor="white", style="filled",URL="$d1/d15/classpip_1_1__vendor_1_1html5lib_1_1__tokenizer_1_1_h_t_m_l_tokenizer.html#aa372516e2fec3159940b40be58f12142",tooltip=" "];
  Node60 -> Node57 [dir="back",color="midnightblue",fontsize="10",style="solid"];
  Node60 -> Node59 [dir="back",color="midnightblue",fontsize="10",style="solid"];
  Node60 -> Node58 [dir="back",color="midnightblue",fontsize="10",style="solid"];
  Node60 -> Node61 [dir="back",color="midnightblue",fontsize="10",style="solid"];
  Node61 [label="pip._vendor.html5lib.\l_tokenizer.HTMLTokenizer.comment\lStartDashState",height=0.2,width=0.4,color="black", fillcolor="white", style="filled",URL="$d1/d15/classpip_1_1__vendor_1_1html5lib_1_1__tokenizer_1_1_h_t_m_l_tokenizer.html#a7298e7d8ba32e9cb5c0b71b0d7f21f98",tooltip=" "];
  Node61 -> Node62 [dir="back",color="midnightblue",fontsize="10",style="solid"];
  Node62 [label="pip._vendor.html5lib.\l_tokenizer.HTMLTokenizer.comment\lStartState",height=0.2,width=0.4,color="red", fillcolor="white", style="filled",URL="$d1/d15/classpip_1_1__vendor_1_1html5lib_1_1__tokenizer_1_1_h_t_m_l_tokenizer.html#a0feb931b0e479d162005f8338e7de52e",tooltip=" "];
  Node60 -> Node62 [dir="back",color="midnightblue",fontsize="10",style="solid"];
  Node58 -> Node61 [dir="back",color="midnightblue",fontsize="10",style="solid"];
  Node37 -> Node59 [dir="back",color="midnightblue",fontsize="10",style="solid"];
  Node37 -> Node58 [dir="back",color="midnightblue",fontsize="10",style="solid"];
  Node37 -> Node61 [dir="back",color="midnightblue",fontsize="10",style="solid"];
  Node37 -> Node62 [dir="back",color="midnightblue",fontsize="10",style="solid"];
  Node37 -> Node60 [dir="back",color="midnightblue",fontsize="10",style="solid"];
  Node37 -> Node39 [dir="back",color="midnightblue",fontsize="10",style="solid"];
  Node37 -> Node44 [dir="back",color="midnightblue",fontsize="10",style="solid"];
  Node37 -> Node47 [dir="back",color="midnightblue",fontsize="10",style="solid"];
  Node37 -> Node10 [dir="back",color="midnightblue",fontsize="10",style="solid"];
  Node37 -> Node14 [dir="back",color="midnightblue",fontsize="10",style="solid"];
  Node37 -> Node16 [dir="back",color="midnightblue",fontsize="10",style="solid"];
  Node37 -> Node27 [dir="back",color="midnightblue",fontsize="10",style="solid"];
  Node37 -> Node28 [dir="back",color="midnightblue",fontsize="10",style="solid"];
  Node37 -> Node30 [dir="back",color="midnightblue",fontsize="10",style="solid"];
  Node37 -> Node29 [dir="back",color="midnightblue",fontsize="10",style="solid"];
  Node37 -> Node1 [dir="back",color="midnightblue",fontsize="10",style="solid"];
  Node37 -> Node34 [dir="back",color="midnightblue",fontsize="10",style="solid"];
  Node37 -> Node36 [dir="back",color="midnightblue",fontsize="10",style="solid"];
  Node34 -> Node36 [dir="back",color="midnightblue",fontsize="10",style="solid"];
  Node1 -> Node5 [dir="back",color="midnightblue",fontsize="10",style="solid"];
  Node1 -> Node3 [dir="back",color="midnightblue",fontsize="10",style="solid"];
  Node1 -> Node4 [dir="back",color="midnightblue",fontsize="10",style="solid"];
  Node1 -> Node10 [dir="back",color="midnightblue",fontsize="10",style="solid"];
  Node1 -> Node14 [dir="back",color="midnightblue",fontsize="10",style="solid"];
  Node1 -> Node16 [dir="back",color="midnightblue",fontsize="10",style="solid"];
  Node1 -> Node30 [dir="back",color="midnightblue",fontsize="10",style="solid"];
  Node1 -> Node34 [dir="back",color="midnightblue",fontsize="10",style="solid"];
}
