digraph "pip._vendor.html5lib._tokenizer.HTMLTokenizer.beforeDoctypePublicIdentifierState"
{
 // LATEX_PDF_SIZE
  edge [fontname="Helvetica",fontsize="10",labelfontname="Helvetica",labelfontsize="10"];
  node [fontname="Helvetica",fontsize="10",shape=record];
  rankdir="LR";
  Node1 [label="pip._vendor.html5lib.\l_tokenizer.HTMLTokenizer.before\lDoctypePublicIdentifierState",height=0.2,width=0.4,color="black", fillcolor="grey75", style="filled", fontcolor="black",tooltip=" "];
  Node1 -> Node2 [color="midnightblue",fontsize="10",style="solid"];
  Node2 [label="pip._vendor.html5lib.\l_tokenizer.HTMLTokenizer.bogus\lDoctypeState",height=0.2,width=0.4,color="black", fillcolor="white", style="filled",URL="$d1/d15/classpip_1_1__vendor_1_1html5lib_1_1__tokenizer_1_1_h_t_m_l_tokenizer.html#a855bf68db7e67ffd4dcc8be5ec283630",tooltip=" "];
  Node2 -> Node3 [color="midnightblue",fontsize="10",style="solid"];
  Node3 [label="pip._vendor.html5lib.\l_tokenizer.HTMLTokenizer.data\lState",height=0.2,width=0.4,color="black", fillcolor="white", style="filled",URL="$d1/d15/classpip_1_1__vendor_1_1html5lib_1_1__tokenizer_1_1_h_t_m_l_tokenizer.html#affad458a1ca066c41bcd58d57b489c4a",tooltip=" "];
  Node3 -> Node4 [color="midnightblue",fontsize="10",style="solid"];
  Node4 [label="pip._vendor.html5lib.\l_tokenizer.HTMLTokenizer.entity\lDataState",height=0.2,width=0.4,color="black", fillcolor="white", style="filled",URL="$d1/d15/classpip_1_1__vendor_1_1html5lib_1_1__tokenizer_1_1_h_t_m_l_tokenizer.html#af78047999ff55f9b2d17a1c5e4530657",tooltip=" "];
  Node4 -> Node5 [color="midnightblue",fontsize="10",style="solid"];
  Node5 [label="pip._vendor.html5lib.\l_tokenizer.HTMLTokenizer.consume\lEntity",height=0.2,width=0.4,color="black", fillcolor="white", style="filled",URL="$d1/d15/classpip_1_1__vendor_1_1html5lib_1_1__tokenizer_1_1_h_t_m_l_tokenizer.html#a13e1e65dd097cb582d5e7e0f364562ea",tooltip=" "];
  Node5 -> Node6 [color="midnightblue",fontsize="10",style="solid"];
  Node6 [label="pip._vendor.html5lib.\l_tokenizer.HTMLTokenizer.consume\lNumberEntity",height=0.2,width=0.4,color="black", fillcolor="white", style="filled",URL="$d1/d15/classpip_1_1__vendor_1_1html5lib_1_1__tokenizer_1_1_h_t_m_l_tokenizer.html#a2f68fca6b9812d733ec6bb83ffb12afd",tooltip=" "];
  Node4 -> Node3 [color="midnightblue",fontsize="10",style="solid"];
  Node3 -> Node7 [color="midnightblue",fontsize="10",style="solid"];
  Node7 [label="pip._vendor.html5lib.\l_tokenizer.HTMLTokenizer.tag\lOpenState",height=0.2,width=0.4,color="black", fillcolor="white", style="filled",URL="$d1/d15/classpip_1_1__vendor_1_1html5lib_1_1__tokenizer_1_1_h_t_m_l_tokenizer.html#add701dff4d1ada0a52ae333d50a72d84",tooltip=" "];
  Node7 -> Node8 [color="midnightblue",fontsize="10",style="solid"];
  Node8 [label="pip._vendor.html5lib.\l_tokenizer.HTMLTokenizer.bogus\lCommentState",height=0.2,width=0.4,color="black", fillcolor="white", style="filled",URL="$d1/d15/classpip_1_1__vendor_1_1html5lib_1_1__tokenizer_1_1_h_t_m_l_tokenizer.html#ac0aa9cf3f362e8f08ff778f78e5f9dc9",tooltip=" "];
  Node8 -> Node3 [color="midnightblue",fontsize="10",style="solid"];
  Node7 -> Node9 [color="midnightblue",fontsize="10",style="solid"];
  Node9 [label="pip._vendor.html5lib.\l_tokenizer.HTMLTokenizer.close\lTagOpenState",height=0.2,width=0.4,color="black", fillcolor="white", style="filled",URL="$d1/d15/classpip_1_1__vendor_1_1html5lib_1_1__tokenizer_1_1_h_t_m_l_tokenizer.html#aab95d2ca82202a18b159a08b84637c19",tooltip=" "];
  Node9 -> Node8 [color="midnightblue",fontsize="10",style="solid"];
  Node9 -> Node3 [color="midnightblue",fontsize="10",style="solid"];
  Node9 -> Node10 [color="midnightblue",fontsize="10",style="solid"];
  Node10 [label="pip._vendor.html5lib.\l_tokenizer.HTMLTokenizer.tag\lNameState",height=0.2,width=0.4,color="black", fillcolor="white", style="filled",URL="$d1/d15/classpip_1_1__vendor_1_1html5lib_1_1__tokenizer_1_1_h_t_m_l_tokenizer.html#a12051100f2d4f1045b834a4b303e8f8b",tooltip=" "];
  Node10 -> Node11 [color="midnightblue",fontsize="10",style="solid"];
  Node11 [label="pip._vendor.html5lib.\l_tokenizer.HTMLTokenizer.before\lAttributeNameState",height=0.2,width=0.4,color="black", fillcolor="white", style="filled",URL="$d1/d15/classpip_1_1__vendor_1_1html5lib_1_1__tokenizer_1_1_h_t_m_l_tokenizer.html#a75947dab8d198648f83f047b7bb33474",tooltip=" "];
  Node11 -> Node12 [color="midnightblue",fontsize="10",style="solid"];
  Node12 [label="pip._vendor.html5lib.\l_tokenizer.HTMLTokenizer.attribute\lNameState",height=0.2,width=0.4,color="black", fillcolor="white", style="filled",URL="$d1/d15/classpip_1_1__vendor_1_1html5lib_1_1__tokenizer_1_1_h_t_m_l_tokenizer.html#a721955f1490609f2397578f37ade5b98",tooltip=" "];
  Node12 -> Node13 [color="midnightblue",fontsize="10",style="solid"];
  Node13 [label="pip._vendor.html5lib.\l_tokenizer.HTMLTokenizer.after\lAttributeNameState",height=0.2,width=0.4,color="black", fillcolor="white", style="filled",URL="$d1/d15/classpip_1_1__vendor_1_1html5lib_1_1__tokenizer_1_1_h_t_m_l_tokenizer.html#ab7a81e41688058d7442ab32f6d90405c",tooltip=" "];
  Node13 -> Node12 [color="midnightblue",fontsize="10",style="solid"];
  Node13 -> Node14 [color="midnightblue",fontsize="10",style="solid"];
  Node14 [label="pip._vendor.html5lib.\l_tokenizer.HTMLTokenizer.before\lAttributeValueState",height=0.2,width=0.4,color="black", fillcolor="white", style="filled",URL="$d1/d15/classpip_1_1__vendor_1_1html5lib_1_1__tokenizer_1_1_h_t_m_l_tokenizer.html#a0afdc918edc55b9af9f1746ca7e13dd5",tooltip=" "];
  Node14 -> Node15 [color="midnightblue",fontsize="10",style="solid"];
  Node15 [label="pip._vendor.html5lib.\l_tokenizer.HTMLTokenizer.attribute\lValueDoubleQuotedState",height=0.2,width=0.4,color="black", fillcolor="white", style="filled",URL="$d1/d15/classpip_1_1__vendor_1_1html5lib_1_1__tokenizer_1_1_h_t_m_l_tokenizer.html#aada4bae10c7bd0910b75c9356ecb27bf",tooltip=" "];
  Node15 -> Node16 [color="midnightblue",fontsize="10",style="solid"];
  Node16 [label="pip._vendor.html5lib.\l_tokenizer.HTMLTokenizer.after\lAttributeValueState",height=0.2,width=0.4,color="black", fillcolor="white", style="filled",URL="$d1/d15/classpip_1_1__vendor_1_1html5lib_1_1__tokenizer_1_1_h_t_m_l_tokenizer.html#a40513b48271e23c6aa6b59bc7d0e2156",tooltip=" "];
  Node16 -> Node11 [color="midnightblue",fontsize="10",style="solid"];
  Node16 -> Node3 [color="midnightblue",fontsize="10",style="solid"];
  Node16 -> Node17 [color="midnightblue",fontsize="10",style="solid"];
  Node17 [label="pip._vendor.html5lib.\l_tokenizer.HTMLTokenizer.emit\lCurrentToken",height=0.2,width=0.4,color="black", fillcolor="white", style="filled",URL="$d1/d15/classpip_1_1__vendor_1_1html5lib_1_1__tokenizer_1_1_h_t_m_l_tokenizer.html#a2764bdec69294eb88309e2f12a9bb6df",tooltip=" "];
  Node17 -> Node3 [color="midnightblue",fontsize="10",style="solid"];
  Node16 -> Node18 [color="midnightblue",fontsize="10",style="solid"];
  Node18 [label="pip._vendor.html5lib.\l_tokenizer.HTMLTokenizer.self\lClosingStartTagState",height=0.2,width=0.4,color="black", fillcolor="white", style="filled",URL="$d1/d15/classpip_1_1__vendor_1_1html5lib_1_1__tokenizer_1_1_h_t_m_l_tokenizer.html#a580af8a1781ce38d388b405d56db940e",tooltip=" "];
  Node18 -> Node11 [color="midnightblue",fontsize="10",style="solid"];
  Node18 -> Node3 [color="midnightblue",fontsize="10",style="solid"];
  Node18 -> Node17 [color="midnightblue",fontsize="10",style="solid"];
  Node15 -> Node3 [color="midnightblue",fontsize="10",style="solid"];
  Node15 -> Node19 [color="midnightblue",fontsize="10",style="solid"];
  Node19 [label="pip._vendor.html5lib.\l_tokenizer.HTMLTokenizer.process\lEntityInAttribute",height=0.2,width=0.4,color="black", fillcolor="white", style="filled",URL="$d1/d15/classpip_1_1__vendor_1_1html5lib_1_1__tokenizer_1_1_h_t_m_l_tokenizer.html#a5d9b0344c3beca7c36219ebe38aca000",tooltip=" "];
  Node19 -> Node5 [color="midnightblue",fontsize="10",style="solid"];
  Node14 -> Node20 [color="midnightblue",fontsize="10",style="solid"];
  Node20 [label="pip._vendor.html5lib.\l_tokenizer.HTMLTokenizer.attribute\lValueSingleQuotedState",height=0.2,width=0.4,color="black", fillcolor="white", style="filled",URL="$d1/d15/classpip_1_1__vendor_1_1html5lib_1_1__tokenizer_1_1_h_t_m_l_tokenizer.html#a15a7dc634202c1a345875e08fdb46b5b",tooltip=" "];
  Node20 -> Node16 [color="midnightblue",fontsize="10",style="solid"];
  Node20 -> Node3 [color="midnightblue",fontsize="10",style="solid"];
  Node20 -> Node19 [color="midnightblue",fontsize="10",style="solid"];
  Node14 -> Node21 [color="midnightblue",fontsize="10",style="solid"];
  Node21 [label="pip._vendor.html5lib.\l_tokenizer.HTMLTokenizer.attribute\lValueUnQuotedState",height=0.2,width=0.4,color="black", fillcolor="white", style="filled",URL="$d1/d15/classpip_1_1__vendor_1_1html5lib_1_1__tokenizer_1_1_h_t_m_l_tokenizer.html#ade3e299a92cfe35edd4d8bd017e9ca98",tooltip=" "];
  Node21 -> Node11 [color="midnightblue",fontsize="10",style="solid"];
  Node21 -> Node3 [color="midnightblue",fontsize="10",style="solid"];
  Node21 -> Node17 [color="midnightblue",fontsize="10",style="solid"];
  Node21 -> Node19 [color="midnightblue",fontsize="10",style="solid"];
  Node14 -> Node3 [color="midnightblue",fontsize="10",style="solid"];
  Node14 -> Node17 [color="midnightblue",fontsize="10",style="solid"];
  Node13 -> Node3 [color="midnightblue",fontsize="10",style="solid"];
  Node13 -> Node17 [color="midnightblue",fontsize="10",style="solid"];
  Node13 -> Node18 [color="midnightblue",fontsize="10",style="solid"];
  Node12 -> Node14 [color="midnightblue",fontsize="10",style="solid"];
  Node12 -> Node3 [color="midnightblue",fontsize="10",style="solid"];
  Node12 -> Node17 [color="midnightblue",fontsize="10",style="solid"];
  Node12 -> Node18 [color="midnightblue",fontsize="10",style="solid"];
  Node11 -> Node3 [color="midnightblue",fontsize="10",style="solid"];
  Node11 -> Node17 [color="midnightblue",fontsize="10",style="solid"];
  Node11 -> Node18 [color="midnightblue",fontsize="10",style="solid"];
  Node10 -> Node3 [color="midnightblue",fontsize="10",style="solid"];
  Node10 -> Node17 [color="midnightblue",fontsize="10",style="solid"];
  Node10 -> Node18 [color="midnightblue",fontsize="10",style="solid"];
  Node7 -> Node3 [color="midnightblue",fontsize="10",style="solid"];
  Node7 -> Node22 [color="midnightblue",fontsize="10",style="solid"];
  Node22 [label="pip._vendor.html5lib.\l_tokenizer.HTMLTokenizer.markup\lDeclarationOpenState",height=0.2,width=0.4,color="black", fillcolor="white", style="filled",URL="$d1/d15/classpip_1_1__vendor_1_1html5lib_1_1__tokenizer_1_1_h_t_m_l_tokenizer.html#a778d110b87f171b2075034f01d235e2b",tooltip=" "];
  Node22 -> Node8 [color="midnightblue",fontsize="10",style="solid"];
  Node22 -> Node23 [color="midnightblue",fontsize="10",style="solid"];
  Node23 [label="pip._vendor.html5lib.\l_tokenizer.HTMLTokenizer.cdata\lSectionState",height=0.2,width=0.4,color="black", fillcolor="white", style="filled",URL="$d1/d15/classpip_1_1__vendor_1_1html5lib_1_1__tokenizer_1_1_h_t_m_l_tokenizer.html#a7dc11e41a0f2a56964ac7ba6fb215a38",tooltip=" "];
  Node23 -> Node3 [color="midnightblue",fontsize="10",style="solid"];
  Node22 -> Node24 [color="midnightblue",fontsize="10",style="solid"];
  Node24 [label="pip._vendor.html5lib.\l_tokenizer.HTMLTokenizer.comment\lStartState",height=0.2,width=0.4,color="black", fillcolor="white", style="filled",URL="$d1/d15/classpip_1_1__vendor_1_1html5lib_1_1__tokenizer_1_1_h_t_m_l_tokenizer.html#a0feb931b0e479d162005f8338e7de52e",tooltip=" "];
  Node24 -> Node25 [color="midnightblue",fontsize="10",style="solid"];
  Node25 [label="pip._vendor.html5lib.\l_tokenizer.HTMLTokenizer.comment\lStartDashState",height=0.2,width=0.4,color="black", fillcolor="white", style="filled",URL="$d1/d15/classpip_1_1__vendor_1_1html5lib_1_1__tokenizer_1_1_h_t_m_l_tokenizer.html#a7298e7d8ba32e9cb5c0b71b0d7f21f98",tooltip=" "];
  Node25 -> Node26 [color="midnightblue",fontsize="10",style="solid"];
  Node26 [label="pip._vendor.html5lib.\l_tokenizer.HTMLTokenizer.comment\lEndState",height=0.2,width=0.4,color="black", fillcolor="white", style="filled",URL="$d1/d15/classpip_1_1__vendor_1_1html5lib_1_1__tokenizer_1_1_h_t_m_l_tokenizer.html#a7f1c054f8262619ebe026c1c4c4edf1d",tooltip=" "];
  Node26 -> Node27 [color="midnightblue",fontsize="10",style="solid"];
  Node27 [label="pip._vendor.html5lib.\l_tokenizer.HTMLTokenizer.comment\lEndBangState",height=0.2,width=0.4,color="black", fillcolor="white", style="filled",URL="$d1/d15/classpip_1_1__vendor_1_1html5lib_1_1__tokenizer_1_1_h_t_m_l_tokenizer.html#a3eafaa79048473e54cff32c3737f84db",tooltip=" "];
  Node27 -> Node28 [color="midnightblue",fontsize="10",style="solid"];
  Node28 [label="pip._vendor.html5lib.\l_tokenizer.HTMLTokenizer.comment\lEndDashState",height=0.2,width=0.4,color="black", fillcolor="white", style="filled",URL="$d1/d15/classpip_1_1__vendor_1_1html5lib_1_1__tokenizer_1_1_h_t_m_l_tokenizer.html#a69c493c0458133c83de8e3ca0984e34c",tooltip=" "];
  Node28 -> Node26 [color="midnightblue",fontsize="10",style="solid"];
  Node28 -> Node29 [color="midnightblue",fontsize="10",style="solid"];
  Node29 [label="pip._vendor.html5lib.\l_tokenizer.HTMLTokenizer.comment\lState",height=0.2,width=0.4,color="black", fillcolor="white", style="filled",URL="$d1/d15/classpip_1_1__vendor_1_1html5lib_1_1__tokenizer_1_1_h_t_m_l_tokenizer.html#aa372516e2fec3159940b40be58f12142",tooltip=" "];
  Node29 -> Node28 [color="midnightblue",fontsize="10",style="solid"];
  Node29 -> Node3 [color="midnightblue",fontsize="10",style="solid"];
  Node28 -> Node3 [color="midnightblue",fontsize="10",style="solid"];
  Node27 -> Node29 [color="midnightblue",fontsize="10",style="solid"];
  Node27 -> Node3 [color="midnightblue",fontsize="10",style="solid"];
  Node26 -> Node29 [color="midnightblue",fontsize="10",style="solid"];
  Node26 -> Node3 [color="midnightblue",fontsize="10",style="solid"];
  Node25 -> Node29 [color="midnightblue",fontsize="10",style="solid"];
  Node25 -> Node3 [color="midnightblue",fontsize="10",style="solid"];
  Node24 -> Node29 [color="midnightblue",fontsize="10",style="solid"];
  Node24 -> Node3 [color="midnightblue",fontsize="10",style="solid"];
  Node22 -> Node30 [color="midnightblue",fontsize="10",style="solid"];
  Node30 [label="pip._vendor.html5lib.\l_tokenizer.HTMLTokenizer.doctype\lState",height=0.2,width=0.4,color="black", fillcolor="white", style="filled",URL="$d1/d15/classpip_1_1__vendor_1_1html5lib_1_1__tokenizer_1_1_h_t_m_l_tokenizer.html#afb1768bd3408e887cdfa490fb464cd1e",tooltip=" "];
  Node30 -> Node31 [color="midnightblue",fontsize="10",style="solid"];
  Node31 [label="pip._vendor.html5lib.\l_tokenizer.HTMLTokenizer.before\lDoctypeNameState",height=0.2,width=0.4,color="black", fillcolor="white", style="filled",URL="$d1/d15/classpip_1_1__vendor_1_1html5lib_1_1__tokenizer_1_1_h_t_m_l_tokenizer.html#a5825bca2482af283b93eaff7df8ce06d",tooltip=" "];
  Node31 -> Node3 [color="midnightblue",fontsize="10",style="solid"];
  Node31 -> Node32 [color="midnightblue",fontsize="10",style="solid"];
  Node32 [label="pip._vendor.html5lib.\l_tokenizer.HTMLTokenizer.doctype\lNameState",height=0.2,width=0.4,color="black", fillcolor="white", style="filled",URL="$d1/d15/classpip_1_1__vendor_1_1html5lib_1_1__tokenizer_1_1_h_t_m_l_tokenizer.html#a75e83ba0343c595e42a7d77909d23441",tooltip=" "];
  Node32 -> Node33 [color="midnightblue",fontsize="10",style="solid"];
  Node33 [label="pip._vendor.html5lib.\l_tokenizer.HTMLTokenizer.after\lDoctypeNameState",height=0.2,width=0.4,color="black", fillcolor="white", style="filled",URL="$d1/d15/classpip_1_1__vendor_1_1html5lib_1_1__tokenizer_1_1_h_t_m_l_tokenizer.html#a3705ea49281e4f8f48e62ad21e42087d",tooltip=" "];
  Node33 -> Node34 [color="midnightblue",fontsize="10",style="solid"];
  Node34 [label="pip._vendor.html5lib.\l_tokenizer.HTMLTokenizer.after\lDoctypePublicKeywordState",height=0.2,width=0.4,color="black", fillcolor="white", style="filled",URL="$d1/d15/classpip_1_1__vendor_1_1html5lib_1_1__tokenizer_1_1_h_t_m_l_tokenizer.html#a85375ec13d048b11cd3cc5c098a7d09d",tooltip=" "];
  Node34 -> Node1 [color="midnightblue",fontsize="10",style="solid"];
  Node34 -> Node3 [color="midnightblue",fontsize="10",style="solid"];
  Node33 -> Node35 [color="midnightblue",fontsize="10",style="solid"];
  Node35 [label="pip._vendor.html5lib.\l_tokenizer.HTMLTokenizer.after\lDoctypeSystemKeywordState",height=0.2,width=0.4,color="black", fillcolor="white", style="filled",URL="$d1/d15/classpip_1_1__vendor_1_1html5lib_1_1__tokenizer_1_1_h_t_m_l_tokenizer.html#a7dd4b1fcb9173bf34affcb6a0e0cfaed",tooltip=" "];
  Node35 -> Node36 [color="midnightblue",fontsize="10",style="solid"];
  Node36 [label="pip._vendor.html5lib.\l_tokenizer.HTMLTokenizer.before\lDoctypeSystemIdentifierState",height=0.2,width=0.4,color="black", fillcolor="white", style="filled",URL="$d1/d15/classpip_1_1__vendor_1_1html5lib_1_1__tokenizer_1_1_h_t_m_l_tokenizer.html#ae4e2226e005cc83a7454ad43758a537f",tooltip=" "];
  Node36 -> Node2 [color="midnightblue",fontsize="10",style="solid"];
  Node36 -> Node3 [color="midnightblue",fontsize="10",style="solid"];
  Node36 -> Node37 [color="midnightblue",fontsize="10",style="solid"];
  Node37 [label="pip._vendor.html5lib.\l_tokenizer.HTMLTokenizer.doctype\lSystemIdentifierDoubleQuotedState",height=0.2,width=0.4,color="black", fillcolor="white", style="filled",URL="$d1/d15/classpip_1_1__vendor_1_1html5lib_1_1__tokenizer_1_1_h_t_m_l_tokenizer.html#a36b6412748873564b80436031ed7c405",tooltip=" "];
  Node37 -> Node38 [color="midnightblue",fontsize="10",style="solid"];
  Node38 [label="pip._vendor.html5lib.\l_tokenizer.HTMLTokenizer.after\lDoctypeSystemIdentifierState",height=0.2,width=0.4,color="black", fillcolor="white", style="filled",URL="$d1/d15/classpip_1_1__vendor_1_1html5lib_1_1__tokenizer_1_1_h_t_m_l_tokenizer.html#a37007d3029e0065e69eb3e1baf5add5c",tooltip=" "];
  Node38 -> Node2 [color="midnightblue",fontsize="10",style="solid"];
  Node38 -> Node3 [color="midnightblue",fontsize="10",style="solid"];
  Node37 -> Node3 [color="midnightblue",fontsize="10",style="solid"];
  Node36 -> Node39 [color="midnightblue",fontsize="10",style="solid"];
  Node39 [label="pip._vendor.html5lib.\l_tokenizer.HTMLTokenizer.doctype\lSystemIdentifierSingleQuotedState",height=0.2,width=0.4,color="black", fillcolor="white", style="filled",URL="$d1/d15/classpip_1_1__vendor_1_1html5lib_1_1__tokenizer_1_1_h_t_m_l_tokenizer.html#a91ba7aa006e10d6a914b367d60c60b06",tooltip=" "];
  Node39 -> Node38 [color="midnightblue",fontsize="10",style="solid"];
  Node39 -> Node3 [color="midnightblue",fontsize="10",style="solid"];
  Node35 -> Node3 [color="midnightblue",fontsize="10",style="solid"];
  Node33 -> Node2 [color="midnightblue",fontsize="10",style="solid"];
  Node33 -> Node3 [color="midnightblue",fontsize="10",style="solid"];
  Node32 -> Node3 [color="midnightblue",fontsize="10",style="solid"];
  Node32 -> Node32 [color="midnightblue",fontsize="10",style="solid"];
  Node30 -> Node3 [color="midnightblue",fontsize="10",style="solid"];
  Node7 -> Node10 [color="midnightblue",fontsize="10",style="solid"];
  Node1 -> Node3 [color="midnightblue",fontsize="10",style="solid"];
  Node1 -> Node40 [color="midnightblue",fontsize="10",style="solid"];
  Node40 [label="pip._vendor.html5lib.\l_tokenizer.HTMLTokenizer.doctype\lPublicIdentifierDoubleQuotedState",height=0.2,width=0.4,color="black", fillcolor="white", style="filled",URL="$d1/d15/classpip_1_1__vendor_1_1html5lib_1_1__tokenizer_1_1_h_t_m_l_tokenizer.html#ac6e808a56985fe7e4bbd6e78bbd68f18",tooltip=" "];
  Node40 -> Node41 [color="midnightblue",fontsize="10",style="solid"];
  Node41 [label="pip._vendor.html5lib.\l_tokenizer.HTMLTokenizer.after\lDoctypePublicIdentifierState",height=0.2,width=0.4,color="black", fillcolor="white", style="filled",URL="$d1/d15/classpip_1_1__vendor_1_1html5lib_1_1__tokenizer_1_1_h_t_m_l_tokenizer.html#ae5b235e441cf7fef7ebcf77e1243dc44",tooltip=" "];
  Node41 -> Node42 [color="midnightblue",fontsize="10",style="solid"];
  Node42 [label="pip._vendor.html5lib.\l_tokenizer.HTMLTokenizer.between\lDoctypePublicAndSystemIdentifiersState",height=0.2,width=0.4,color="black", fillcolor="white", style="filled",URL="$d1/d15/classpip_1_1__vendor_1_1html5lib_1_1__tokenizer_1_1_h_t_m_l_tokenizer.html#a502d17571565673fc95038befdf2265d",tooltip=" "];
  Node42 -> Node2 [color="midnightblue",fontsize="10",style="solid"];
  Node42 -> Node3 [color="midnightblue",fontsize="10",style="solid"];
  Node42 -> Node37 [color="midnightblue",fontsize="10",style="solid"];
  Node42 -> Node39 [color="midnightblue",fontsize="10",style="solid"];
  Node41 -> Node2 [color="midnightblue",fontsize="10",style="solid"];
  Node41 -> Node3 [color="midnightblue",fontsize="10",style="solid"];
  Node41 -> Node37 [color="midnightblue",fontsize="10",style="solid"];
  Node41 -> Node39 [color="midnightblue",fontsize="10",style="solid"];
  Node40 -> Node3 [color="midnightblue",fontsize="10",style="solid"];
  Node1 -> Node43 [color="midnightblue",fontsize="10",style="solid"];
  Node43 [label="pip._vendor.html5lib.\l_tokenizer.HTMLTokenizer.doctype\lPublicIdentifierSingleQuotedState",height=0.2,width=0.4,color="black", fillcolor="white", style="filled",URL="$d1/d15/classpip_1_1__vendor_1_1html5lib_1_1__tokenizer_1_1_h_t_m_l_tokenizer.html#aba3a7ce78bbfbd7d3afed507ab6bcd2d",tooltip=" "];
  Node43 -> Node41 [color="midnightblue",fontsize="10",style="solid"];
  Node43 -> Node3 [color="midnightblue",fontsize="10",style="solid"];
}
