digraph "pip._vendor.distlib.util.Configurator.configure_custom"
{
 // LATEX_PDF_SIZE
  edge [fontname="Helvetica",fontsize="10",labelfontname="Helvetica",labelfontsize="10"];
  node [fontname="Helvetica",fontsize="10",shape=record];
  rankdir="LR";
  Node1 [label="pip._vendor.distlib.util.\lConfigurator.configure_custom",height=0.2,width=0.4,color="black", fillcolor="grey75", style="filled", fontcolor="black",tooltip=" "];
  Node1 -> Node2 [color="midnightblue",fontsize="10",style="solid",fontname="Helvetica"];
  Node2 [label="pip._vendor.distlib.compat.\lBaseConfigurator.configure_custom",height=0.2,width=0.4,color="black", fillcolor="white", style="filled",URL="$dc/d1f/classpip_1_1__vendor_1_1distlib_1_1compat_1_1_base_configurator.html#a413001393d55f20868bf168573a1ff1d",tooltip=" "];
  Node2 -> Node3 [color="midnightblue",fontsize="10",style="solid",fontname="Helvetica"];
  Node3 [label="pip._internal.resolution.base.\lBaseResolver.resolve",height=0.2,width=0.4,color="black", fillcolor="white", style="filled",URL="$da/d7d/classpip_1_1__internal_1_1resolution_1_1base_1_1_base_resolver.html#a3b212e795788b3c2c590d651363d9fae",tooltip=" "];
  Node2 -> Node4 [color="midnightblue",fontsize="10",style="solid",fontname="Helvetica"];
  Node4 [label="pip._internal.resolution.legacy.resolver.\lResolver.resolve",height=0.2,width=0.4,color="black", fillcolor="white", style="filled",URL="$db/d5b/classpip_1_1__internal_1_1resolution_1_1legacy_1_1resolver_1_1_resolver.html#a1321882f40c26aa4b44a693b4be74ae2",tooltip=" "];
  Node4 -> Node5 [color="midnightblue",fontsize="10",style="solid",fontname="Helvetica"];
  Node5 [label="pip._internal.resolution.legacy.resolver.\lResolver._resolve_one",height=0.2,width=0.4,color="black", fillcolor="white", style="filled",URL="$db/d5b/classpip_1_1__internal_1_1resolution_1_1legacy_1_1resolver_1_1_resolver.html#a5058b440022bccc6a3b12041b562a323",tooltip=" "];
  Node5 -> Node6 [color="midnightblue",fontsize="10",style="solid",fontname="Helvetica"];
  Node6 [label="pip._internal.resolution.legacy.resolver.\l_check_dist_requires_python",height=0.2,width=0.4,color="black", fillcolor="white", style="filled",URL="$dd/da1/namespacepip_1_1__internal_1_1resolution_1_1legacy_1_1resolver.html#a5c36fed963cbcfed56429e13cec5e3cd",tooltip=" "];
  Node6 -> Node7 [color="midnightblue",fontsize="10",style="solid",fontname="Helvetica"];
  Node7 [label="pip._internal.utils.packaging.check\l_requires_python",height=0.2,width=0.4,color="black", fillcolor="white", style="filled",URL="$df/da6/namespacepip_1_1__internal_1_1utils_1_1packaging.html#a4fdb0a72887d32af7942a40f3f372e18",tooltip=" "];
  Node6 -> Node8 [color="midnightblue",fontsize="10",style="solid",fontname="Helvetica"];
  Node8 [label="pip._internal.utils.packaging.get\l_requires_python",height=0.2,width=0.4,color="black", fillcolor="white", style="filled",URL="$df/da6/namespacepip_1_1__internal_1_1utils_1_1packaging.html#a9a1a1b346a43ddd0501923f548359c86",tooltip=" "];
  Node8 -> Node9 [color="midnightblue",fontsize="10",style="solid",fontname="Helvetica"];
  Node9 [label="pip._internal.utils.packaging.get\l_metadata",height=0.2,width=0.4,color="black", fillcolor="white", style="filled",URL="$df/da6/namespacepip_1_1__internal_1_1utils_1_1packaging.html#a754fee3ac3294fe313b4870d848c2e8b",tooltip=" "];
  Node9 -> Node10 [color="midnightblue",fontsize="10",style="solid",fontname="Helvetica"];
  Node10 [label="pip._internal.utils.misc.display_path",height=0.2,width=0.4,color="black", fillcolor="white", style="filled",URL="$de/dc3/namespacepip_1_1__internal_1_1utils_1_1misc.html#a2c56db5ea4bfcb80d54a94f1eb975454",tooltip=" "];
  Node5 -> Node11 [color="midnightblue",fontsize="10",style="solid",fontname="Helvetica"];
  Node11 [label="pip._internal.resolution.legacy.resolver.\lResolver._get_abstract_dist_for",height=0.2,width=0.4,color="black", fillcolor="white", style="filled",URL="$db/d5b/classpip_1_1__internal_1_1resolution_1_1legacy_1_1resolver_1_1_resolver.html#a39041281732807e110466b3db232eb24",tooltip=" "];
  Node11 -> Node12 [color="midnightblue",fontsize="10",style="solid",fontname="Helvetica"];
  Node12 [label="pip._internal.resolution.legacy.resolver.\lResolver._check_skip_installed",height=0.2,width=0.4,color="black", fillcolor="white", style="filled",URL="$db/d5b/classpip_1_1__internal_1_1resolution_1_1legacy_1_1resolver_1_1_resolver.html#a1c0aaefecb320aaec6bef4238e912319",tooltip=" "];
  Node12 -> Node13 [color="midnightblue",fontsize="10",style="solid",fontname="Helvetica"];
  Node13 [label="pip._internal.resolution.legacy.resolver.\lResolver._is_upgrade_allowed",height=0.2,width=0.4,color="black", fillcolor="white", style="filled",URL="$db/d5b/classpip_1_1__internal_1_1resolution_1_1legacy_1_1resolver_1_1_resolver.html#a828b323ff096e1cdcd34b64422ce6ad1",tooltip=" "];
  Node12 -> Node14 [color="midnightblue",fontsize="10",style="solid",fontname="Helvetica"];
  Node14 [label="pip._internal.resolution.legacy.resolver.\lResolver._set_req_to_reinstall",height=0.2,width=0.4,color="black", fillcolor="white", style="filled",URL="$db/d5b/classpip_1_1__internal_1_1resolution_1_1legacy_1_1resolver_1_1_resolver.html#a436fae90bda3beaa8932ed262670757d",tooltip=" "];
  Node14 -> Node15 [color="midnightblue",fontsize="10",style="solid",fontname="Helvetica"];
  Node15 [label="pip._internal.utils.misc.dist\l_in_usersite",height=0.2,width=0.4,color="black", fillcolor="white", style="filled",URL="$de/dc3/namespacepip_1_1__internal_1_1utils_1_1misc.html#ab48a27a21c982133f0bd2c10c7f6c45b",tooltip=" "];
  Node15 -> Node16 [color="midnightblue",fontsize="10",style="solid",fontname="Helvetica"];
  Node16 [label="pip._internal.utils.misc.dist\l_location",height=0.2,width=0.4,color="red", fillcolor="white", style="filled",URL="$de/dc3/namespacepip_1_1__internal_1_1utils_1_1misc.html#ae24716bcf1aee5c7c2a48f12ec75e647",tooltip=" "];
  Node16 -> Node25 [color="midnightblue",fontsize="10",style="solid",fontname="Helvetica"];
  Node25 [label="pip._internal.utils.misc.normalize_path",height=0.2,width=0.4,color="red", fillcolor="white", style="filled",URL="$de/dc3/namespacepip_1_1__internal_1_1utils_1_1misc.html#a9594cfa80c3e1c931446b2ea25904443",tooltip=" "];
  Node15 -> Node25 [color="midnightblue",fontsize="10",style="solid",fontname="Helvetica"];
  Node11 -> Node27 [color="midnightblue",fontsize="10",style="solid",fontname="Helvetica"];
  Node27 [label="pip._internal.resolution.legacy.resolver.\lResolver._populate_link",height=0.2,width=0.4,color="black", fillcolor="white", style="filled",URL="$db/d5b/classpip_1_1__internal_1_1resolution_1_1legacy_1_1resolver_1_1_resolver.html#a90d1c56ba0c19402cb9caa7d24f7bafa",tooltip=" "];
  Node27 -> Node28 [color="midnightblue",fontsize="10",style="solid",fontname="Helvetica"];
  Node28 [label="pip._internal.resolution.legacy.resolver.\lResolver._find_requirement_link",height=0.2,width=0.4,color="black", fillcolor="white", style="filled",URL="$db/d5b/classpip_1_1__internal_1_1resolution_1_1legacy_1_1resolver_1_1_resolver.html#ad60df1edbbae9077fc2f13e93d54e048",tooltip=" "];
  Node28 -> Node13 [color="midnightblue",fontsize="10",style="solid",fontname="Helvetica"];
  Node27 -> Node29 [color="midnightblue",fontsize="10",style="solid",fontname="Helvetica"];
  Node29 [label="pip._internal.utils.compatibility\l_tags.get_supported",height=0.2,width=0.4,color="black", fillcolor="white", style="filled",URL="$d8/d94/namespacepip_1_1__internal_1_1utils_1_1compatibility__tags.html#a39be260d2d9d634f84765647432312be",tooltip=" "];
  Node29 -> Node30 [color="midnightblue",fontsize="10",style="solid",fontname="Helvetica"];
  Node30 [label="pip._internal.utils.compatibility\l_tags._get_custom_interpreter",height=0.2,width=0.4,color="black", fillcolor="white", style="filled",URL="$d8/d94/namespacepip_1_1__internal_1_1utils_1_1compatibility__tags.html#ac2b7bb84f3d92916afeb89e9cabfdb6a",tooltip=" "];
  Node30 -> Node31 [color="midnightblue",fontsize="10",style="solid",fontname="Helvetica"];
  Node31 [label="pip._vendor.packaging.tags.interpreter_name",height=0.2,width=0.4,color="black", fillcolor="white", style="filled",URL="$da/df2/namespacepip_1_1__vendor_1_1packaging_1_1tags.html#ac61b060acc6cd20bcbf8ccd0efff665d",tooltip=" "];
  Node30 -> Node32 [color="midnightblue",fontsize="10",style="solid",fontname="Helvetica"];
  Node32 [label="pip._vendor.packaging.tags.interpreter\l_version",height=0.2,width=0.4,color="red", fillcolor="white", style="filled",URL="$da/df2/namespacepip_1_1__vendor_1_1packaging_1_1tags.html#abb01d4d13f8d0d205bbe9d793a83f6f5",tooltip=" "];
  Node32 -> Node34 [color="midnightblue",fontsize="10",style="solid",fontname="Helvetica"];
  Node34 [label="pip._vendor.packaging.tags.\l_version_nodot",height=0.2,width=0.4,color="black", fillcolor="white", style="filled",URL="$da/df2/namespacepip_1_1__vendor_1_1packaging_1_1tags.html#a7d38202293a612e1821ef7dbccdc9f24",tooltip=" "];
  Node32 -> Node35 [color="midnightblue",fontsize="10",style="solid",fontname="Helvetica"];
  Node35 [label="pip._vendor.packaging.tags.\l_warn_keyword_parameter",height=0.2,width=0.4,color="black", fillcolor="white", style="filled",URL="$da/df2/namespacepip_1_1__vendor_1_1packaging_1_1tags.html#a5aafabe33891ce10e3790faa3632832c",tooltip=" "];
  Node29 -> Node36 [color="midnightblue",fontsize="10",style="solid",fontname="Helvetica"];
  Node36 [label="pip._internal.utils.compatibility\l_tags._get_custom_platforms",height=0.2,width=0.4,color="black", fillcolor="white", style="filled",URL="$d8/d94/namespacepip_1_1__internal_1_1utils_1_1compatibility__tags.html#a346caaca8fe95689296a5005487fc28a",tooltip=" "];
  Node36 -> Node37 [color="midnightblue",fontsize="10",style="solid",fontname="Helvetica"];
  Node37 [label="pip._internal.utils.compatibility\l_tags._custom_manylinux_platforms",height=0.2,width=0.4,color="black", fillcolor="white", style="filled",URL="$d8/d94/namespacepip_1_1__internal_1_1utils_1_1compatibility__tags.html#a82116625feb7276d6ffc1522766b17da",tooltip=" "];
  Node36 -> Node38 [color="midnightblue",fontsize="10",style="solid",fontname="Helvetica"];
  Node38 [label="pip._internal.utils.compatibility\l_tags._mac_platforms",height=0.2,width=0.4,color="red", fillcolor="white", style="filled",URL="$d8/d94/namespacepip_1_1__internal_1_1utils_1_1compatibility__tags.html#ab58ebe67e1fad2e42676b9229cb5733f",tooltip=" "];
  Node29 -> Node43 [color="midnightblue",fontsize="10",style="solid",fontname="Helvetica"];
  Node43 [label="pip._internal.utils.compatibility\l_tags._get_python_version",height=0.2,width=0.4,color="black", fillcolor="white", style="filled",URL="$d8/d94/namespacepip_1_1__internal_1_1utils_1_1compatibility__tags.html#accfbac3c409cb3581760fe08a08f41f5",tooltip=" "];
  Node29 -> Node44 [color="midnightblue",fontsize="10",style="solid",fontname="Helvetica"];
  Node44 [label="pip._vendor.distlib.wheel.compatible_tags",height=0.2,width=0.4,color="black", fillcolor="white", style="filled",URL="$d6/dc4/namespacepip_1_1__vendor_1_1distlib_1_1wheel.html#a70ee54953b1ad8e03574d7ea87fb46ef",tooltip=" "];
  Node29 -> Node45 [color="midnightblue",fontsize="10",style="solid",fontname="Helvetica"];
  Node45 [label="pip._vendor.packaging.tags.cpython_tags",height=0.2,width=0.4,color="black", fillcolor="white", style="filled",URL="$da/df2/namespacepip_1_1__vendor_1_1packaging_1_1tags.html#ac0d9e648748bbcb11e042ab23c7344b2",tooltip=" "];
  Node45 -> Node46 [color="midnightblue",fontsize="10",style="solid",fontname="Helvetica"];
  Node46 [label="pip._vendor.packaging.tags.\l_abi3_applies",height=0.2,width=0.4,color="black", fillcolor="white", style="filled",URL="$da/df2/namespacepip_1_1__vendor_1_1packaging_1_1tags.html#a899c4648c9b8bb45a65a71e4ede9c146",tooltip=" "];
  Node45 -> Node47 [color="midnightblue",fontsize="10",style="solid",fontname="Helvetica"];
  Node47 [label="pip._vendor.packaging.tags.\l_cpython_abis",height=0.2,width=0.4,color="red", fillcolor="white", style="filled",URL="$da/df2/namespacepip_1_1__vendor_1_1packaging_1_1tags.html#a6e166c74568421224fdc2f7b99364a2a",tooltip=" "];
  Node47 -> Node34 [color="midnightblue",fontsize="10",style="solid",fontname="Helvetica"];
  Node45 -> Node48 [color="midnightblue",fontsize="10",style="solid",fontname="Helvetica"];
  Node48 [label="pip._vendor.packaging.tags.\l_platform_tags",height=0.2,width=0.4,color="red", fillcolor="white", style="filled",URL="$da/df2/namespacepip_1_1__vendor_1_1packaging_1_1tags.html#adfedb043f1898437784481a14863fa0b",tooltip=" "];
  Node45 -> Node34 [color="midnightblue",fontsize="10",style="solid",fontname="Helvetica"];
  Node45 -> Node35 [color="midnightblue",fontsize="10",style="solid",fontname="Helvetica"];
  Node29 -> Node62 [color="midnightblue",fontsize="10",style="solid",fontname="Helvetica"];
  Node62 [label="pip._vendor.packaging.tags.generic_tags",height=0.2,width=0.4,color="black", fillcolor="white", style="filled",URL="$da/df2/namespacepip_1_1__vendor_1_1packaging_1_1tags.html#aa250d83af846ba22a8c2259a8968f84f",tooltip=" "];
  Node62 -> Node63 [color="midnightblue",fontsize="10",style="solid",fontname="Helvetica"];
  Node63 [label="pip._vendor.packaging.tags.\l_generic_abi",height=0.2,width=0.4,color="red", fillcolor="white", style="filled",URL="$da/df2/namespacepip_1_1__vendor_1_1packaging_1_1tags.html#a8909b21f193da56e115e9055cab3c16a",tooltip=" "];
  Node62 -> Node48 [color="midnightblue",fontsize="10",style="solid",fontname="Helvetica"];
  Node62 -> Node35 [color="midnightblue",fontsize="10",style="solid",fontname="Helvetica"];
  Node62 -> Node31 [color="midnightblue",fontsize="10",style="solid",fontname="Helvetica"];
  Node62 -> Node32 [color="midnightblue",fontsize="10",style="solid",fontname="Helvetica"];
  Node29 -> Node31 [color="midnightblue",fontsize="10",style="solid",fontname="Helvetica"];
  Node11 -> Node14 [color="midnightblue",fontsize="10",style="solid",fontname="Helvetica"];
  Node5 -> Node64 [color="midnightblue",fontsize="10",style="solid",fontname="Helvetica"];
  Node64 [label="pip._internal.utils.logging.indent_log",height=0.2,width=0.4,color="black", fillcolor="white", style="filled",URL="$d2/d7f/namespacepip_1_1__internal_1_1utils_1_1logging.html#a085a5d65b0702800d0a9d48a0a4615a8",tooltip=" "];
  Node64 -> Node65 [color="midnightblue",fontsize="10",style="solid",fontname="Helvetica"];
  Node65 [label="pip._internal.utils.logging.get\l_indentation",height=0.2,width=0.4,color="black", fillcolor="white", style="filled",URL="$d2/d7f/namespacepip_1_1__internal_1_1utils_1_1logging.html#a44d946c100e5712775abb26dc67d1c51",tooltip=" "];
  Node4 -> Node66 [color="midnightblue",fontsize="10",style="solid",fontname="Helvetica"];
  Node66 [label="pip._internal.req.req\l_install.check_invalid\l_constraint_type",height=0.2,width=0.4,color="black", fillcolor="white", style="filled",URL="$de/de2/namespacepip_1_1__internal_1_1req_1_1req__install.html#a78518349f8b5c9eb5eb8c85cbe07be3b",tooltip=" "];
  Node66 -> Node67 [color="midnightblue",fontsize="10",style="solid",fontname="Helvetica"];
  Node67 [label="pip._internal.utils.deprecation.deprecated",height=0.2,width=0.4,color="black", fillcolor="white", style="filled",URL="$da/df1/namespacepip_1_1__internal_1_1utils_1_1deprecation.html#a7f64ef4a2a3e8999461e6d63b6929543",tooltip=" "];
  Node67 -> Node68 [color="midnightblue",fontsize="10",style="solid",fontname="Helvetica"];
  Node68 [label="pip._vendor.html5lib.html5parser.parse",height=0.2,width=0.4,color="black", fillcolor="white", style="filled",URL="$d2/d86/namespacepip_1_1__vendor_1_1html5lib_1_1html5parser.html#a2987549a868788409adca199412a27e4",tooltip=" "];
  Node2 -> Node69 [color="midnightblue",fontsize="10",style="solid",fontname="Helvetica"];
  Node69 [label="pip._internal.resolution.resolvelib.resolver.\lResolver.resolve",height=0.2,width=0.4,color="black", fillcolor="white", style="filled",URL="$dc/de9/classpip_1_1__internal_1_1resolution_1_1resolvelib_1_1resolver_1_1_resolver.html#a4791860f8316347d991f708879e9b911",tooltip=" "];
  Node69 -> Node70 [color="midnightblue",fontsize="10",style="solid",fontname="Helvetica"];
  Node70 [label="pip._vendor.packaging.utils.canonicalize_name",height=0.2,width=0.4,color="black", fillcolor="white", style="filled",URL="$dc/da8/namespacepip_1_1__vendor_1_1packaging_1_1utils.html#af20daae928523ea0ae9d2c4215887232",tooltip=" "];
  Node70 -> Node42 [color="midnightblue",fontsize="10",style="solid",fontname="Helvetica"];
  Node42 [label="pip._internal.utils.typing.cast",height=0.2,width=0.4,color="black", fillcolor="white", style="filled",URL="$d9/d56/namespacepip_1_1__internal_1_1utils_1_1typing.html#ab37e3e9039b01929d8ac2bd74d7c37db",tooltip=" "];
  Node69 -> Node66 [color="midnightblue",fontsize="10",style="solid",fontname="Helvetica"];
  Node69 -> Node71 [color="midnightblue",fontsize="10",style="solid",fontname="Helvetica"];
  Node71 [label="pip._internal.utils.misc.dist\l_is_editable",height=0.2,width=0.4,color="black", fillcolor="white", style="filled",URL="$de/dc3/namespacepip_1_1__internal_1_1utils_1_1misc.html#a9abdfe6fcceccee8a7c651f6c9014a87",tooltip=" "];
  Node2 -> Node72 [color="midnightblue",fontsize="10",style="solid",fontname="Helvetica"];
  Node72 [label="pip._vendor.distlib.compat.\lBaseConfigurator.resolve",height=0.2,width=0.4,color="black", fillcolor="white", style="filled",URL="$dc/d1f/classpip_1_1__vendor_1_1distlib_1_1compat_1_1_base_configurator.html#a7ac14d003fbddaa51c132a99ea9ea309",tooltip=" "];
  Node2 -> Node73 [color="midnightblue",fontsize="10",style="solid",fontname="Helvetica"];
  Node73 [label="pip._vendor.distlib.compat.valid\l_ident",height=0.2,width=0.4,color="black", fillcolor="white", style="filled",URL="$d1/d99/namespacepip_1_1__vendor_1_1distlib_1_1compat.html#a15c6b03186b57cb92e6f58cdac400641",tooltip=" "];
  Node1 -> Node74 [color="midnightblue",fontsize="10",style="solid",fontname="Helvetica"];
  Node74 [label="pip._vendor.distlib.compat.\lBaseConfigurator.convert",height=0.2,width=0.4,color="black", fillcolor="white", style="filled",URL="$dc/d1f/classpip_1_1__vendor_1_1distlib_1_1compat_1_1_base_configurator.html#a9a6c1c008baaf93514e9e760b9d44fce",tooltip=" "];
  Node74 -> Node75 [color="midnightblue",fontsize="10",style="solid",fontname="Helvetica"];
  Node75 [label="pip._vendor.requests.api.get",height=0.2,width=0.4,color="black", fillcolor="white", style="filled",URL="$de/db5/namespacepip_1_1__vendor_1_1requests_1_1api.html#af14e54be255a4489da5fa7e07a48cc63",tooltip=" "];
  Node75 -> Node76 [color="midnightblue",fontsize="10",style="solid",fontname="Helvetica"];
  Node76 [label="pip._vendor.requests.api.request",height=0.2,width=0.4,color="black", fillcolor="white", style="filled",URL="$de/db5/namespacepip_1_1__vendor_1_1requests_1_1api.html#a9fdead74de86ac05699e5f4d40aa8d1d",tooltip=" "];
  Node1 -> Node3 [color="midnightblue",fontsize="10",style="solid",fontname="Helvetica"];
  Node1 -> Node4 [color="midnightblue",fontsize="10",style="solid",fontname="Helvetica"];
  Node1 -> Node69 [color="midnightblue",fontsize="10",style="solid",fontname="Helvetica"];
  Node1 -> Node72 [color="midnightblue",fontsize="10",style="solid",fontname="Helvetica"];
  Node1 -> Node73 [color="midnightblue",fontsize="10",style="solid",fontname="Helvetica"];
}
