digraph "pip._internal.cli.progress_bars.DownloadProgressSpinner.next_phase"
{
 // LATEX_PDF_SIZE
  edge [fontname="Helvetica",fontsize="10",labelfontname="Helvetica",labelfontsize="10"];
  node [fontname="Helvetica",fontsize="10",shape=record];
  rankdir="RL";
  Node1 [label="pip._internal.cli.progress\l_bars.DownloadProgressSpinner.next_phase",height=0.2,width=0.4,color="black", fillcolor="grey75", style="filled", fontcolor="black",tooltip=" "];
  Node1 -> Node2 [dir="back",color="midnightblue",fontsize="10",style="solid"];
  Node2 [label="pip._internal.cli.progress\l_bars.DownloadProgressSpinner.update",height=0.2,width=0.4,color="black", fillcolor="white", style="filled",URL="$d7/d79/classpip_1_1__internal_1_1cli_1_1progress__bars_1_1_download_progress_spinner.html#ad89eb5dd5b755a1716693ee57534a5ff",tooltip=" "];
  Node2 -> Node3 [dir="back",color="midnightblue",fontsize="10",style="solid"];
  Node3 [label="pip._vendor.distlib.util.\lProgress.increment",height=0.2,width=0.4,color="black", fillcolor="white", style="filled",URL="$db/d8e/classpip_1_1__vendor_1_1distlib_1_1util_1_1_progress.html#a32ab66122aabe4fc821ac7d8e9914242",tooltip=" "];
  Node2 -> Node4 [dir="back",color="midnightblue",fontsize="10",style="solid"];
  Node4 [label="pip._vendor.progress.Infinite.next",height=0.2,width=0.4,color="black", fillcolor="white", style="filled",URL="$d0/da8/classpip_1_1__vendor_1_1progress_1_1_infinite.html#a4d198b1f87d7e88699771feb9f4d6630",tooltip=" "];
  Node4 -> Node5 [dir="back",color="midnightblue",fontsize="10",style="solid"];
  Node5 [label="pip._vendor.progress.Progress.goto",height=0.2,width=0.4,color="black", fillcolor="white", style="filled",URL="$d7/dc2/classpip_1_1__vendor_1_1progress_1_1_progress.html#af7e944763f362b2f709502ce97988f8f",tooltip=" "];
  Node4 -> Node6 [dir="back",color="midnightblue",fontsize="10",style="solid"];
  Node6 [label="pip._internal.cli.progress\l_bars.DownloadProgressMixin.iter",height=0.2,width=0.4,color="black", fillcolor="white", style="filled",URL="$df/d54/classpip_1_1__internal_1_1cli_1_1progress__bars_1_1_download_progress_mixin.html#a37eab0ec657772189925ac4621198a88",tooltip=" "];
  Node4 -> Node7 [dir="back",color="midnightblue",fontsize="10",style="solid"];
  Node7 [label="pip._vendor.progress.Infinite.iter",height=0.2,width=0.4,color="black", fillcolor="white", style="filled",URL="$d0/da8/classpip_1_1__vendor_1_1progress_1_1_infinite.html#a8041b71a97f20e9c8a65d89f18a0ee9b",tooltip=" "];
  Node4 -> Node8 [dir="back",color="midnightblue",fontsize="10",style="solid"];
  Node8 [label="pip._vendor.progress.Progress.iter",height=0.2,width=0.4,color="black", fillcolor="white", style="filled",URL="$d7/dc2/classpip_1_1__vendor_1_1progress_1_1_progress.html#af58dae555a18100e56380fb679c15eb7",tooltip=" "];
  Node2 -> Node9 [dir="back",color="midnightblue",fontsize="10",style="solid"];
  Node9 [label="pip._internal.vcs.versioncontrol.\lVersionControl.obtain",height=0.2,width=0.4,color="black", fillcolor="white", style="filled",URL="$d0/db7/classpip_1_1__internal_1_1vcs_1_1versioncontrol_1_1_version_control.html#a6cd1dc22e3948b839e553cefb9e56c18",tooltip=" "];
  Node9 -> Node10 [dir="back",color="midnightblue",fontsize="10",style="solid"];
  Node10 [label="pip._vendor.pkg_resources.\lEnvironment.best_match",height=0.2,width=0.4,color="black", fillcolor="white", style="filled",URL="$de/d79/classpip_1_1__vendor_1_1pkg__resources_1_1_environment.html#ae73299e5eb450a7149014b90332bbc9c",tooltip=" "];
  Node9 -> Node11 [dir="back",color="midnightblue",fontsize="10",style="solid"];
  Node11 [label="pkg_resources.Environment.best\l_match",height=0.2,width=0.4,color="black", fillcolor="white", style="filled",URL="$dd/d81/classpkg__resources_1_1_environment.html#a7738575eddd2a89e35eff52f3462f20b",tooltip=" "];
  Node9 -> Node12 [dir="back",color="midnightblue",fontsize="10",style="solid"];
  Node12 [label="pip._internal.vcs.versioncontrol.\lVersionControl.unpack",height=0.2,width=0.4,color="black", fillcolor="white", style="filled",URL="$d0/db7/classpip_1_1__internal_1_1vcs_1_1versioncontrol_1_1_version_control.html#aa999e293571b16d8a23255f9a7365f68",tooltip=" "];
  Node12 -> Node13 [dir="back",color="midnightblue",fontsize="10",style="solid"];
  Node13 [label="pip._internal.vcs.git.Git.export",height=0.2,width=0.4,color="black", fillcolor="white", style="filled",URL="$d8/d4d/classpip_1_1__internal_1_1vcs_1_1git_1_1_git.html#a8563a0d34300f46657b9152266e0efd1",tooltip=" "];
  Node12 -> Node14 [dir="back",color="midnightblue",fontsize="10",style="solid"];
  Node14 [label="pip._internal.vcs.mercurial.\lMercurial.export",height=0.2,width=0.4,color="black", fillcolor="white", style="filled",URL="$db/da0/classpip_1_1__internal_1_1vcs_1_1mercurial_1_1_mercurial.html#af8b78ac25c5848b7abd5917b9ec76fe3",tooltip=" "];
  Node2 -> Node15 [dir="back",color="midnightblue",fontsize="10",style="solid"];
  Node15 [label="pip._vendor.distlib.util.\lProgress.start",height=0.2,width=0.4,color="black", fillcolor="white", style="filled",URL="$db/d8e/classpip_1_1__vendor_1_1distlib_1_1util_1_1_progress.html#aa0a8df6cd2b5d2c8ce7f18016fe1ed32",tooltip=" "];
  Node15 -> Node16 [dir="back",color="midnightblue",fontsize="10",style="solid"];
  Node16 [label="pip._vendor.progress.Infinite.\l__enter__",height=0.2,width=0.4,color="black", fillcolor="white", style="filled",URL="$d0/da8/classpip_1_1__vendor_1_1progress_1_1_infinite.html#ad0ae9c8227745f75fd75c6791de2125f",tooltip=" "];
  Node2 -> Node17 [dir="back",color="midnightblue",fontsize="10",style="solid"];
  Node17 [label="pip._vendor.progress.Progress.start",height=0.2,width=0.4,color="black", fillcolor="white", style="filled",URL="$d7/dc2/classpip_1_1__vendor_1_1progress_1_1_progress.html#a51d126b2307c5d869e931b807f28d488",tooltip=" "];
  Node2 -> Node18 [dir="back",color="midnightblue",fontsize="10",style="solid"];
  Node18 [label="pip._vendor.distlib.util.\lProgress.stop",height=0.2,width=0.4,color="black", fillcolor="white", style="filled",URL="$db/d8e/classpip_1_1__vendor_1_1distlib_1_1util_1_1_progress.html#a2758af67e089f3caaf3ff8c713e53c11",tooltip=" "];
}
