digraph "pip._vendor.distlib.util.Progress.format_duration"
{
 // LATEX_PDF_SIZE
  edge [fontname="Helvetica",fontsize="10",labelfontname="Helvetica",labelfontsize="10"];
  node [fontname="Helvetica",fontsize="10",shape=record];
  rankdir="RL";
  Node1 [label="pip._vendor.distlib.util.\lProgress.format_duration",height=0.2,width=0.4,color="black", fillcolor="grey75", style="filled", fontcolor="black",tooltip=" "];
  Node1 -> Node2 [dir="back",color="midnightblue",fontsize="10",style="solid",fontname="Helvetica"];
  Node2 [label="pip._vendor.distlib.util.\lProgress.ETA",height=0.2,width=0.4,color="black", fillcolor="white", style="filled",URL="$db/d8e/classpip_1_1__vendor_1_1distlib_1_1util_1_1_progress.html#a8726158a289902822972ab23ec281ba9",tooltip=" "];
}
