digraph "pip._vendor.pep517._in_process._dist_info_files"
{
 // LATEX_PDF_SIZE
  edge [fontname="Helvetica",fontsize="10",labelfontname="Helvetica",labelfontsize="10"];
  node [fontname="Helvetica",fontsize="10",shape=record];
  rankdir="RL";
  Node1 [label="pip._vendor.pep517.\l_in_process._dist_info_files",height=0.2,width=0.4,color="black", fillcolor="grey75", style="filled", fontcolor="black",tooltip=" "];
  Node1 -> Node2 [dir="back",color="midnightblue",fontsize="10",style="solid",fontname="Helvetica"];
  Node2 [label="pip._vendor.pep517.\l_in_process._get_wheel\l_metadata_from_wheel",height=0.2,width=0.4,color="black", fillcolor="white", style="filled",URL="$d4/db8/namespacepip_1_1__vendor_1_1pep517_1_1__in__process.html#a911ddf851c00f8223fa1e1819066b18f",tooltip=" "];
  Node2 -> Node3 [dir="back",color="midnightblue",fontsize="10",style="solid",fontname="Helvetica"];
  Node3 [label="pip._vendor.pep517.\l_in_process.prepare\l_metadata_for_build_wheel",height=0.2,width=0.4,color="black", fillcolor="white", style="filled",URL="$d4/db8/namespacepip_1_1__vendor_1_1pep517_1_1__in__process.html#a2e116ec680c9f342a5d9dd72a436a90e",tooltip=" "];
}
