digraph "pip._vendor.pep517._in_process.build_sdist"
{
 // LATEX_PDF_SIZE
  edge [fontname="Helvetica",fontsize="10",labelfontname="Helvetica",labelfontsize="10"];
  node [fontname="Helvetica",fontsize="10",shape=record];
  rankdir="LR";
  Node1 [label="pip._vendor.pep517.\l_in_process.build_sdist",height=0.2,width=0.4,color="black", fillcolor="grey75", style="filled", fontcolor="black",tooltip=" "];
  Node1 -> Node2 [color="midnightblue",fontsize="10",style="solid",fontname="Helvetica"];
  Node2 [label="pip._vendor.pep517.\l_in_process._build_backend",height=0.2,width=0.4,color="black", fillcolor="white", style="filled",URL="$d4/db8/namespacepip_1_1__vendor_1_1pep517_1_1__in__process.html#ad6c05fdcc20b5a08c44ef706f2ec7b41",tooltip=" "];
  Node2 -> Node3 [color="midnightblue",fontsize="10",style="solid",fontname="Helvetica"];
  Node3 [label="pip._vendor.pep517.\l_in_process.contained_in",height=0.2,width=0.4,color="black", fillcolor="white", style="filled",URL="$d4/db8/namespacepip_1_1__vendor_1_1pep517_1_1__in__process.html#a00fa29fab5fbd5fb9b7f15f1a2a308e1",tooltip=" "];
}
