digraph "pip._vendor.pyparsing.GoToColumn.preParse"
{
 // LATEX_PDF_SIZE
  edge [fontname="Helvetica",fontsize="10",labelfontname="Helvetica",labelfontsize="10"];
  node [fontname="Helvetica",fontsize="10",shape=record];
  rankdir="RL";
  Node1 [label="pip._vendor.pyparsing.Go\lToColumn.preParse",height=0.2,width=0.4,color="black", fillcolor="grey75", style="filled", fontcolor="black",tooltip=" "];
  Node1 -> Node2 [dir="back",color="midnightblue",fontsize="10",style="solid"];
  Node2 [label="pkg_resources._vendor.pyparsing.\lParserElement._parseNoCache",height=0.2,width=0.4,color="black", fillcolor="white", style="filled",URL="$de/df0/classpkg__resources_1_1__vendor_1_1pyparsing_1_1_parser_element.html#af1b183ab0cc0c3ece2ed1bf225ff7be2",tooltip=" "];
  Node2 -> Node3 [dir="back",color="midnightblue",fontsize="10",style="solid"];
  Node3 [label="pkg_resources._vendor.pyparsing.\lParserElement._parseCache",height=0.2,width=0.4,color="black", fillcolor="white", style="filled",URL="$de/df0/classpkg__resources_1_1__vendor_1_1pyparsing_1_1_parser_element.html#ad3d9c7144fffddd7b27aaf479419250f",tooltip=" "];
  Node2 -> Node4 [dir="back",color="midnightblue",fontsize="10",style="solid"];
  Node4 [label="setuptools._vendor.pyparsing.\lParserElement._parseCache",height=0.2,width=0.4,color="black", fillcolor="white", style="filled",URL="$d9/d25/classsetuptools_1_1__vendor_1_1pyparsing_1_1_parser_element.html#a459009cb7075fdbf592b4bb9eb15fa42",tooltip=" "];
  Node1 -> Node5 [dir="back",color="midnightblue",fontsize="10",style="solid"];
  Node5 [label="setuptools._vendor.pyparsing.\lParserElement._parseNoCache",height=0.2,width=0.4,color="black", fillcolor="white", style="filled",URL="$d9/d25/classsetuptools_1_1__vendor_1_1pyparsing_1_1_parser_element.html#a8b1c19a1a646f11914e196ee415750d6",tooltip=" "];
  Node5 -> Node4 [dir="back",color="midnightblue",fontsize="10",style="solid"];
  Node1 -> Node6 [dir="back",color="midnightblue",fontsize="10",style="solid"];
  Node6 [label="pkg_resources._vendor.pyparsing.\lStringStart.parseImpl",height=0.2,width=0.4,color="black", fillcolor="white", style="filled",URL="$dc/d17/classpkg__resources_1_1__vendor_1_1pyparsing_1_1_string_start.html#ae628fd3323c7c51d5ebba967bb717c84",tooltip=" "];
  Node6 -> Node5 [dir="back",color="midnightblue",fontsize="10",style="solid"];
  Node1 -> Node7 [dir="back",color="midnightblue",fontsize="10",style="solid"];
  Node7 [label="setuptools._vendor.pyparsing.\lStringStart.parseImpl",height=0.2,width=0.4,color="black", fillcolor="white", style="filled",URL="$dc/dc8/classsetuptools_1_1__vendor_1_1pyparsing_1_1_string_start.html#af632384aa7a59d6eeeb0400f54a04dda",tooltip=" "];
  Node1 -> Node8 [dir="back",color="midnightblue",fontsize="10",style="solid"];
  Node8 [label="pkg_resources._vendor.pyparsing.\lParserElement.parseString",height=0.2,width=0.4,color="black", fillcolor="white", style="filled",URL="$de/df0/classpkg__resources_1_1__vendor_1_1pyparsing_1_1_parser_element.html#a10680bb4fd394b631357d464b399e63a",tooltip=" "];
  Node8 -> Node9 [dir="back",color="midnightblue",fontsize="10",style="solid"];
  Node9 [label="pkg_resources._vendor.pyparsing.\lParserElement.matches",height=0.2,width=0.4,color="black", fillcolor="white", style="filled",URL="$de/df0/classpkg__resources_1_1__vendor_1_1pyparsing_1_1_parser_element.html#ac13ecd02ff2ecec127dcc7e1cc94311c",tooltip=" "];
  Node9 -> Node10 [dir="back",color="midnightblue",fontsize="10",style="solid"];
  Node10 [label="pkg_resources._vendor.pyparsing.\lParserElement.__eq__",height=0.2,width=0.4,color="black", fillcolor="white", style="filled",URL="$de/df0/classpkg__resources_1_1__vendor_1_1pyparsing_1_1_parser_element.html#a20b56b3e2a3a8da2918a9288e55c3370",tooltip=" "];
  Node9 -> Node11 [dir="back",color="midnightblue",fontsize="10",style="solid"];
  Node11 [label="setuptools._vendor.pyparsing.\lParserElement.__eq__",height=0.2,width=0.4,color="black", fillcolor="white", style="filled",URL="$d9/d25/classsetuptools_1_1__vendor_1_1pyparsing_1_1_parser_element.html#a5043f8497ee649455795186744db5300",tooltip=" "];
  Node8 -> Node12 [dir="back",color="midnightblue",fontsize="10",style="solid"];
  Node12 [label="setuptools._vendor.pyparsing.\lParserElement.matches",height=0.2,width=0.4,color="black", fillcolor="white", style="filled",URL="$d9/d25/classsetuptools_1_1__vendor_1_1pyparsing_1_1_parser_element.html#a2afc43378181105cbee5ab5dd4ed776f",tooltip=" "];
  Node12 -> Node11 [dir="back",color="midnightblue",fontsize="10",style="solid"];
  Node8 -> Node13 [dir="back",color="midnightblue",fontsize="10",style="solid"];
  Node13 [label="pkg_resources._vendor.pyparsing.\lParserElement.parseFile",height=0.2,width=0.4,color="black", fillcolor="white", style="filled",URL="$de/df0/classpkg__resources_1_1__vendor_1_1pyparsing_1_1_parser_element.html#a58920492aecac3860b5013ea35bdca1d",tooltip=" "];
  Node8 -> Node14 [dir="back",color="midnightblue",fontsize="10",style="solid"];
  Node14 [label="setuptools._vendor.pyparsing.\lParserElement.parseFile",height=0.2,width=0.4,color="black", fillcolor="white", style="filled",URL="$d9/d25/classsetuptools_1_1__vendor_1_1pyparsing_1_1_parser_element.html#a9d224aee01e69b56fc10f467c860e78c",tooltip=" "];
  Node8 -> Node15 [dir="back",color="midnightblue",fontsize="10",style="solid"];
  Node15 [label="pkg_resources._vendor.pyparsing.\lParserElement.runTests",height=0.2,width=0.4,color="black", fillcolor="white", style="filled",URL="$de/df0/classpkg__resources_1_1__vendor_1_1pyparsing_1_1_parser_element.html#a9b310e792e7644f09f282e822487f333",tooltip=" "];
  Node8 -> Node16 [dir="back",color="midnightblue",fontsize="10",style="solid"];
  Node16 [label="setuptools._vendor.pyparsing.\lParserElement.runTests",height=0.2,width=0.4,color="black", fillcolor="white", style="filled",URL="$d9/d25/classsetuptools_1_1__vendor_1_1pyparsing_1_1_parser_element.html#ae01ef499653e57fa7cd9aa2d3fe5cd4c",tooltip=" "];
  Node1 -> Node17 [dir="back",color="midnightblue",fontsize="10",style="solid"];
  Node17 [label="setuptools._vendor.pyparsing.\lParserElement.parseString",height=0.2,width=0.4,color="black", fillcolor="white", style="filled",URL="$d9/d25/classsetuptools_1_1__vendor_1_1pyparsing_1_1_parser_element.html#aadaa0a9ab4b6dd77f5363812a6d8f314",tooltip=" "];
  Node17 -> Node12 [dir="back",color="midnightblue",fontsize="10",style="solid"];
  Node17 -> Node14 [dir="back",color="midnightblue",fontsize="10",style="solid"];
  Node17 -> Node16 [dir="back",color="midnightblue",fontsize="10",style="solid"];
  Node1 -> Node18 [dir="back",color="midnightblue",fontsize="10",style="solid"];
  Node18 [label="pkg_resources._vendor.pyparsing.\lParserElement.scanString",height=0.2,width=0.4,color="black", fillcolor="white", style="filled",URL="$de/df0/classpkg__resources_1_1__vendor_1_1pyparsing_1_1_parser_element.html#a7e7fdf9660796750819d13908cf34edb",tooltip=" "];
  Node18 -> Node19 [dir="back",color="midnightblue",fontsize="10",style="solid"];
  Node19 [label="pkg_resources._vendor.pyparsing.\lParserElement.searchString",height=0.2,width=0.4,color="black", fillcolor="white", style="filled",URL="$de/df0/classpkg__resources_1_1__vendor_1_1pyparsing_1_1_parser_element.html#adaa9a7ce387e187e4505bf68a98bd626",tooltip=" "];
  Node18 -> Node20 [dir="back",color="midnightblue",fontsize="10",style="solid"];
  Node20 [label="setuptools._vendor.pyparsing.\lParserElement.searchString",height=0.2,width=0.4,color="black", fillcolor="white", style="filled",URL="$d9/d25/classsetuptools_1_1__vendor_1_1pyparsing_1_1_parser_element.html#a18ea0f1af4a045470230de54047b0ba5",tooltip=" "];
  Node18 -> Node21 [dir="back",color="midnightblue",fontsize="10",style="solid"];
  Node21 [label="pkg_resources._vendor.pyparsing.\lParserElement.split",height=0.2,width=0.4,color="black", fillcolor="white", style="filled",URL="$de/df0/classpkg__resources_1_1__vendor_1_1pyparsing_1_1_parser_element.html#a07496b6487e5aa0d90619fa4655e8393",tooltip=" "];
  Node18 -> Node22 [dir="back",color="midnightblue",fontsize="10",style="solid"];
  Node22 [label="setuptools._vendor.pyparsing.\lParserElement.split",height=0.2,width=0.4,color="black", fillcolor="white", style="filled",URL="$d9/d25/classsetuptools_1_1__vendor_1_1pyparsing_1_1_parser_element.html#a261b8172db2d9632b1945ecd174bd3eb",tooltip=" "];
  Node18 -> Node23 [dir="back",color="midnightblue",fontsize="10",style="solid"];
  Node23 [label="pkg_resources._vendor.pyparsing.\lParserElement.transformString",height=0.2,width=0.4,color="black", fillcolor="white", style="filled",URL="$de/df0/classpkg__resources_1_1__vendor_1_1pyparsing_1_1_parser_element.html#af9259df34d2c525d5dc935fe4082d40c",tooltip=" "];
  Node18 -> Node24 [dir="back",color="midnightblue",fontsize="10",style="solid"];
  Node24 [label="setuptools._vendor.pyparsing.\lParserElement.transformString",height=0.2,width=0.4,color="black", fillcolor="white", style="filled",URL="$d9/d25/classsetuptools_1_1__vendor_1_1pyparsing_1_1_parser_element.html#af25c27f581e141385fae3884f19274e8",tooltip=" "];
  Node1 -> Node25 [dir="back",color="midnightblue",fontsize="10",style="solid"];
  Node25 [label="setuptools._vendor.pyparsing.\lParserElement.scanString",height=0.2,width=0.4,color="black", fillcolor="white", style="filled",URL="$d9/d25/classsetuptools_1_1__vendor_1_1pyparsing_1_1_parser_element.html#a119bfc59496f168ee6d19cf781d83103",tooltip=" "];
  Node25 -> Node20 [dir="back",color="midnightblue",fontsize="10",style="solid"];
  Node25 -> Node22 [dir="back",color="midnightblue",fontsize="10",style="solid"];
  Node25 -> Node24 [dir="back",color="midnightblue",fontsize="10",style="solid"];
}
