digraph "pip._vendor.distlib.util.CSVWriter"
{
 // LATEX_PDF_SIZE
  edge [fontname="Helvetica",fontsize="10",labelfontname="Helvetica",labelfontsize="10"];
  node [fontname="Helvetica",fontsize="10",shape=record];
  Node1 [label="{pip._vendor.distlib.util.\lCSVWriter\n|+ stream\l+ writer\l|+ __init__()\l+ writerow()\l}",height=0.2,width=0.4,color="black", fillcolor="grey75", style="filled", fontcolor="black",tooltip=" "];
  Node2 -> Node1 [dir="back",color="midnightblue",fontsize="10",style="solid",arrowtail="onormal",fontname="Helvetica"];
  Node2 [label="{pip._vendor.distlib.util.\lCSVBase\n||}",height=0.2,width=0.4,color="black", fillcolor="white", style="filled",URL="$d6/d89/classpip_1_1__vendor_1_1distlib_1_1util_1_1_c_s_v_base.html",tooltip=" "];
  Node3 -> Node2 [dir="back",color="midnightblue",fontsize="10",style="solid",arrowtail="onormal",fontname="Helvetica"];
  Node3 [label="{object\n||}",height=0.2,width=0.4,color="grey75", fillcolor="white", style="filled",tooltip=" "];
}
