digraph "pip._vendor.pep517.wrappers.Pep517HookCaller"
{
 // LATEX_PDF_SIZE
  edge [fontname="Helvetica",fontsize="10",labelfontname="Helvetica",labelfontsize="10"];
  node [fontname="Helvetica",fontsize="10",shape=record];
  Node1 [label="{pip._vendor.pep517.wrappers.\lPep517HookCaller\n|+ source_dir\l+ build_backend\l+ backend_path\l- _subprocess_runner\l|+ __init__()\l+ subprocess_runner()\l+ get_requires_for_build\l_wheel()\l+ prepare_metadata_for\l_build_wheel()\l+ build_wheel()\l+ get_requires_for_build\l_sdist()\l+ build_sdist()\l- _call_hook()\l}",height=0.2,width=0.4,color="black", fillcolor="grey75", style="filled", fontcolor="black",tooltip=" "];
  Node2 -> Node1 [dir="back",color="midnightblue",fontsize="10",style="solid",arrowtail="onormal",fontname="Helvetica"];
  Node2 [label="{object\n||}",height=0.2,width=0.4,color="grey75", fillcolor="white", style="filled",tooltip=" "];
}
