digraph "pip._internal.commands.list.ListCommand.output_package_listing"
{
 // LATEX_PDF_SIZE
  edge [fontname="Helvetica",fontsize="10",labelfontname="Helvetica",labelfontsize="10"];
  node [fontname="Helvetica",fontsize="10",shape=record];
  rankdir="RL";
  Node1 [label="pip._internal.commands.list.\lListCommand.output_package\l_listing",height=0.2,width=0.4,color="black", fillcolor="grey75", style="filled", fontcolor="black",tooltip=" "];
  Node1 -> Node2 [dir="back",color="midnightblue",fontsize="10",style="solid"];
  Node2 [label="pip._internal.commands.list.\lListCommand.run",height=0.2,width=0.4,color="black", fillcolor="white", style="filled",URL="$d8/d3b/classpip_1_1__internal_1_1commands_1_1list_1_1_list_command.html#a4e1efdaeb20691bf7149a2ac43a6ce45",tooltip=" "];
}
