digraph "pip._internal.utils.deprecation.deprecated"
{
 // LATEX_PDF_SIZE
  edge [fontname="Helvetica",fontsize="10",labelfontname="Helvetica",labelfontsize="10"];
  node [fontname="Helvetica",fontsize="10",shape=record];
  rankdir="LR";
  Node1 [label="pip._internal.utils.deprecation.deprecated",height=0.2,width=0.4,color="black", fillcolor="grey75", style="filled", fontcolor="black",tooltip=" "];
  Node1 -> Node2 [color="midnightblue",fontsize="10",style="solid",fontname="Helvetica"];
  Node2 [label="pip._vendor.html5lib.html5parser.parse",height=0.2,width=0.4,color="black", fillcolor="white", style="filled",URL="$d2/d86/namespacepip_1_1__vendor_1_1html5lib_1_1html5parser.html#a2987549a868788409adca199412a27e4",tooltip=" "];
}
