digraph "pip._internal.commands.cache.CacheCommand.list_cache_items"
{
 // LATEX_PDF_SIZE
  edge [fontname="Helvetica",fontsize="10",labelfontname="Helvetica",labelfontsize="10"];
  node [fontname="Helvetica",fontsize="10",shape=record];
  rankdir="LR";
  Node1 [label="pip._internal.commands.cache.\lCacheCommand.list_cache_items",height=0.2,width=0.4,color="black", fillcolor="grey75", style="filled", fontcolor="black",tooltip=" "];
  Node1 -> Node2 [color="midnightblue",fontsize="10",style="solid",fontname="Helvetica"];
  Node2 [label="pip._internal.commands.cache.\lCacheCommand._find_wheels",height=0.2,width=0.4,color="black", fillcolor="white", style="filled",URL="$d5/d03/classpip_1_1__internal_1_1commands_1_1cache_1_1_cache_command.html#a32c98f99119d0f66f5628341fa4213b8",tooltip=" "];
  Node2 -> Node3 [color="midnightblue",fontsize="10",style="solid",fontname="Helvetica"];
  Node3 [label="pip._internal.commands.cache.\lCacheCommand._wheels_cache_dir",height=0.2,width=0.4,color="black", fillcolor="white", style="filled",URL="$d5/d03/classpip_1_1__internal_1_1commands_1_1cache_1_1_cache_command.html#ad341cf0bac440dc69e95ef930b86ce33",tooltip=" "];
}
