digraph "pip._internal.utils.filesystem.directory_size"
{
 // LATEX_PDF_SIZE
  edge [fontname="Helvetica",fontsize="10",labelfontname="Helvetica",labelfontsize="10"];
  node [fontname="Helvetica",fontsize="10",shape=record];
  rankdir="LR";
  Node1 [label="pip._internal.utils.filesystem.directory_size",height=0.2,width=0.4,color="black", fillcolor="grey75", style="filled", fontcolor="black",tooltip=" "];
  Node1 -> Node2 [color="midnightblue",fontsize="10",style="solid",fontname="Helvetica"];
  Node2 [label="pip._internal.utils.filesystem.file_size",height=0.2,width=0.4,color="black", fillcolor="white", style="filled",URL="$d5/d03/namespacepip_1_1__internal_1_1utils_1_1filesystem.html#adc41bd4772217e4a789dabf6933ce640",tooltip=" "];
}
