digraph "pip._internal.req.req_set.RequirementSet"
{
 // LATEX_PDF_SIZE
  edge [fontname="Helvetica",fontsize="10",labelfontname="Helvetica",labelfontsize="10"];
  node [fontname="Helvetica",fontsize="10",shape=record];
  Node1 [label="{pip._internal.req.req\l_set.RequirementSet\n|+ requirements\l+ check_supported_wheels\l+ unnamed_requirements\l|+ __init__()\l+ __str__()\l+ __repr__()\l+ add_unnamed_requirement()\l+ add_named_requirement()\l+ add_requirement()\l+ has_requirement()\l+ get_requirement()\l+ all_requirements()\l}",height=0.2,width=0.4,color="black", fillcolor="grey75", style="filled", fontcolor="black",tooltip=" "];
  Node2 -> Node1 [dir="back",color="midnightblue",fontsize="10",style="solid",arrowtail="onormal",fontname="Helvetica"];
  Node2 [label="{object\n||}",height=0.2,width=0.4,color="grey75", fillcolor="white", style="filled",tooltip=" "];
}
