digraph "pip._vendor.distlib._backport.tarfile.TruncatedHeaderError"
{
 // LATEX_PDF_SIZE
  edge [fontname="Helvetica",fontsize="10",labelfontname="Helvetica",labelfontsize="10"];
  node [fontname="Helvetica",fontsize="10",shape=record];
  Node1 [label="{pip._vendor.distlib.\l_backport.tarfile.Truncated\lHeaderError\n||}",height=0.2,width=0.4,color="black", fillcolor="grey75", style="filled", fontcolor="black",tooltip=" "];
  Node2 -> Node1 [dir="back",color="midnightblue",fontsize="10",style="solid",arrowtail="onormal"];
  Node2 [label="{pip._vendor.distlib.\l_backport.tarfile.HeaderError\n||}",height=0.2,width=0.4,color="black", fillcolor="white", style="filled",URL="$d5/d63/classpip_1_1__vendor_1_1distlib_1_1__backport_1_1tarfile_1_1_header_error.html",tooltip=" "];
  Node3 -> Node2 [dir="back",color="midnightblue",fontsize="10",style="solid",arrowtail="onormal"];
  Node3 [label="{pip._vendor.distlib.\l_backport.tarfile.TarError\n||}",height=0.2,width=0.4,color="black", fillcolor="white", style="filled",URL="$d8/dfc/classpip_1_1__vendor_1_1distlib_1_1__backport_1_1tarfile_1_1_tar_error.html",tooltip=" "];
  Node4 -> Node3 [dir="back",color="midnightblue",fontsize="10",style="solid",arrowtail="onormal"];
  Node4 [label="{Exception\n||}",height=0.2,width=0.4,color="grey75", fillcolor="white", style="filled",tooltip=" "];
}
