digraph "pip._vendor.pyparsing.matchPreviousLiteral"
{
 // LATEX_PDF_SIZE
  edge [fontname="Helvetica",fontsize="10",labelfontname="Helvetica",labelfontsize="10"];
  node [fontname="Helvetica",fontsize="10",shape=record];
  rankdir="LR";
  Node1 [label="pip._vendor.pyparsing.match\lPreviousLiteral",height=0.2,width=0.4,color="black", fillcolor="grey75", style="filled", fontcolor="black",tooltip=" "];
  Node1 -> Node2 [color="midnightblue",fontsize="10",style="solid"];
  Node2 [label="pip._vendor.pyparsing.\l_flatten",height=0.2,width=0.4,color="black", fillcolor="white", style="filled",URL="$da/db0/namespacepip_1_1__vendor_1_1pyparsing.html#a59456698f6b467994ef35f9c020229b5",tooltip=" "];
}
