digraph "pip._internal.index.collector._get_html_response"
{
 // LATEX_PDF_SIZE
  edge [fontname="Helvetica",fontsize="10",labelfontname="Helvetica",labelfontsize="10"];
  node [fontname="Helvetica",fontsize="10",shape=record];
  rankdir="RL";
  Node1 [label="pip._internal.index.collector.\l_get_html_response",height=0.2,width=0.4,color="black", fillcolor="grey75", style="filled", fontcolor="black",tooltip=" "];
  Node1 -> Node2 [dir="back",color="midnightblue",fontsize="10",style="solid",fontname="Helvetica"];
  Node2 [label="pip._internal.index.collector.\l_get_html_page",height=0.2,width=0.4,color="black", fillcolor="white", style="filled",URL="$dc/def/namespacepip_1_1__internal_1_1index_1_1collector.html#a611d56a1f295a1bf16d57012885bba44",tooltip=" "];
  Node2 -> Node3 [dir="back",color="midnightblue",fontsize="10",style="solid",fontname="Helvetica"];
  Node3 [label="pip._internal.index.collector.\lLinkCollector.fetch_page",height=0.2,width=0.4,color="black", fillcolor="white", style="filled",URL="$d9/d03/classpip_1_1__internal_1_1index_1_1collector_1_1_link_collector.html#add011fc2e36cd20b4e9fb30ea262259a",tooltip=" "];
}
