digraph "pip._vendor.ipaddress.IPv4Interface.with_hostmask"
{
 // LATEX_PDF_SIZE
  edge [fontname="Helvetica",fontsize="10",labelfontname="Helvetica",labelfontsize="10"];
  node [fontname="Helvetica",fontsize="10",shape=record];
  rankdir="LR";
  Node1 [label="pip._vendor.ipaddress.IPv4\lInterface.with_hostmask",height=0.2,width=0.4,color="black", fillcolor="grey75", style="filled", fontcolor="black",tooltip=" "];
  Node1 -> Node2 [color="midnightblue",fontsize="10",style="solid"];
  Node2 [label="pip._vendor.ipaddress.\l_BaseV4._string_from_ip_int",height=0.2,width=0.4,color="black", fillcolor="white", style="filled",URL="$db/d56/classpip_1_1__vendor_1_1ipaddress_1_1___base_v4.html#a355f06bb909370ed6c7d4c608ec210da",tooltip=" "];
  Node2 -> Node3 [color="midnightblue",fontsize="10",style="solid"];
  Node3 [label="pip._vendor.ipaddress.\l_compat_to_bytes",height=0.2,width=0.4,color="black", fillcolor="white", style="filled",URL="$dd/d25/namespacepip_1_1__vendor_1_1ipaddress.html#afbd475625447750cfbb6aae5ba2f9a67",tooltip=" "];
}
