digraph "pip._vendor.pkg_resources.EggProvider.__init__"
{
 // LATEX_PDF_SIZE
  edge [fontname="Helvetica",fontsize="10",labelfontname="Helvetica",labelfontsize="10"];
  node [fontname="Helvetica",fontsize="10",shape=record];
  rankdir="LR";
  Node1 [label="pip._vendor.pkg_resources.\lEggProvider.__init__",height=0.2,width=0.4,color="black", fillcolor="grey75", style="filled", fontcolor="black",tooltip=" "];
  Node1 -> Node2 [color="midnightblue",fontsize="10",style="solid",fontname="Helvetica"];
  Node2 [label="pip._vendor.pkg_resources.\lEggProvider._setup_prefix",height=0.2,width=0.4,color="black", fillcolor="white", style="filled",URL="$d8/d75/classpip_1_1__vendor_1_1pkg__resources_1_1_egg_provider.html#abcaf7620cf0769049ca05228ba0f7f68",tooltip=" "];
  Node2 -> Node3 [color="midnightblue",fontsize="10",style="solid",fontname="Helvetica"];
  Node3 [label="pip._vendor.pkg_resources.\l_is_egg_path",height=0.2,width=0.4,color="black", fillcolor="white", style="filled",URL="$d7/dcc/namespacepip_1_1__vendor_1_1pkg__resources.html#a6d13edf698e64b57417179405f305003",tooltip=" "];
}
