digraph "pip._vendor.colorama.initialise.deinit"
{
 // LATEX_PDF_SIZE
  edge [fontname="Helvetica",fontsize="10",labelfontname="Helvetica",labelfontsize="10"];
  node [fontname="Helvetica",fontsize="10",shape=record];
  rankdir="RL";
  Node1 [label="pip._vendor.colorama.initialise.deinit",height=0.2,width=0.4,color="black", fillcolor="grey75", style="filled", fontcolor="black",tooltip=" "];
  Node1 -> Node2 [dir="back",color="midnightblue",fontsize="10",style="solid",fontname="Helvetica"];
  Node2 [label="pip._vendor.colorama.initialise.colorama_text",height=0.2,width=0.4,color="black", fillcolor="white", style="filled",URL="$dd/d05/namespacepip_1_1__vendor_1_1colorama_1_1initialise.html#ab020fc451cd3ba72b83edcb340fbd6b2",tooltip=" "];
}
