digraph "pip._vendor.pep517.check.ansi"
{
 // LATEX_PDF_SIZE
  edge [fontname="Helvetica",fontsize="10",labelfontname="Helvetica",labelfontsize="10"];
  node [fontname="Helvetica",fontsize="10",shape=record];
  rankdir="LR";
  Node1 [label="pip._vendor.pep517.check.ansi",height=0.2,width=0.4,color="black", fillcolor="grey75", style="filled", fontcolor="black",tooltip=" "];
  Node1 -> Node2 [color="midnightblue",fontsize="10",style="solid",fontname="Helvetica"];
  Node2 [label="pip._vendor.pep517.check.main",height=0.2,width=0.4,color="black", fillcolor="white", style="filled",URL="$d9/da5/namespacepip_1_1__vendor_1_1pep517_1_1check.html#a9cfcc93eef450855d2d5e6f6b1ba7721",tooltip=" "];
  Node2 -> Node1 [color="midnightblue",fontsize="10",style="solid",fontname="Helvetica"];
  Node2 -> Node3 [color="midnightblue",fontsize="10",style="solid",fontname="Helvetica"];
  Node3 [label="pip._vendor.pep517.check.check",height=0.2,width=0.4,color="black", fillcolor="white", style="filled",URL="$d9/da5/namespacepip_1_1__vendor_1_1pep517_1_1check.html#aa7d239907a676c2dc0540724660f94b7",tooltip=" "];
  Node3 -> Node4 [color="midnightblue",fontsize="10",style="solid",fontname="Helvetica"];
  Node4 [label="pip._vendor.pep517.check.check\l_build_sdist",height=0.2,width=0.4,color="black", fillcolor="white", style="filled",URL="$d9/da5/namespacepip_1_1__vendor_1_1pep517_1_1check.html#a3a47dab668d25537ec30491d2e22e56c",tooltip=" "];
  Node3 -> Node5 [color="midnightblue",fontsize="10",style="solid",fontname="Helvetica"];
  Node5 [label="pip._vendor.pep517.check.check\l_build_wheel",height=0.2,width=0.4,color="black", fillcolor="white", style="filled",URL="$d9/da5/namespacepip_1_1__vendor_1_1pep517_1_1check.html#a7b1f730ec661149c95e01df2ba63d97b",tooltip=" "];
  Node2 -> Node6 [color="midnightblue",fontsize="10",style="solid",fontname="Helvetica"];
  Node6 [label="pip._vendor.pep517.colorlog.enable\l_colourful_output",height=0.2,width=0.4,color="black", fillcolor="white", style="filled",URL="$d9/d6c/namespacepip_1_1__vendor_1_1pep517_1_1colorlog.html#a67b28ee3ae06884ca9e1cf021442d8ea",tooltip=" "];
}
