digraph "pip._vendor.pep517.check.ansi"
{
 // LATEX_PDF_SIZE
  edge [fontname="Helvetica",fontsize="10",labelfontname="Helvetica",labelfontsize="10"];
  node [fontname="Helvetica",fontsize="10",shape=record];
  rankdir="RL";
  Node1 [label="pip._vendor.pep517.check.ansi",height=0.2,width=0.4,color="black", fillcolor="grey75", style="filled", fontcolor="black",tooltip=" "];
  Node1 -> Node2 [dir="back",color="midnightblue",fontsize="10",style="solid",fontname="Helvetica"];
  Node2 [label="pip._vendor.pep517.check.main",height=0.2,width=0.4,color="black", fillcolor="white", style="filled",URL="$d9/da5/namespacepip_1_1__vendor_1_1pep517_1_1check.html#a9cfcc93eef450855d2d5e6f6b1ba7721",tooltip=" "];
  Node2 -> Node1 [dir="back",color="midnightblue",fontsize="10",style="solid",fontname="Helvetica"];
}
