digraph "pip._vendor.distlib.version.LegacyMatcher"
{
 // LATEX_PDF_SIZE
  edge [fontname="Helvetica",fontsize="10",labelfontname="Helvetica",labelfontsize="10"];
  node [fontname="Helvetica",fontsize="10",shape=record];
  Node1 [label="{pip._vendor.distlib.version.\lLegacyMatcher\n|+ version_class\l+ numeric_re\l- _operators\l|- _match_compatible()\l}",height=0.2,width=0.4,color="black", fillcolor="grey75", style="filled", fontcolor="black",tooltip=" "];
  Node2 -> Node1 [dir="back",color="midnightblue",fontsize="10",style="solid",arrowtail="onormal",fontname="Helvetica"];
  Node2 [label="{pip._vendor.distlib.version.\lMatcher\n|+ name\l+ key\l+ version_class\l- _string\l- _parts\l- _operators\l|+ parse_requirement()\l+ __init__()\l+ match()\l+ exact_version()\l+ __eq__()\l+ __ne__()\l+ __hash__()\l+ __repr__()\l+ __str__()\l- _check_compatible()\l}",height=0.2,width=0.4,color="black", fillcolor="white", style="filled",URL="$d3/d6b/classpip_1_1__vendor_1_1distlib_1_1version_1_1_matcher.html",tooltip=" "];
  Node3 -> Node2 [dir="back",color="midnightblue",fontsize="10",style="solid",arrowtail="onormal",fontname="Helvetica"];
  Node3 [label="{object\n||}",height=0.2,width=0.4,color="grey75", fillcolor="white", style="filled",tooltip=" "];
}
