digraph "pip._internal.resolution.resolvelib.requirements.SpecifierRequirement"
{
 // LATEX_PDF_SIZE
  edge [fontname="Helvetica",fontsize="10",labelfontname="Helvetica",labelfontsize="10"];
  node [fontname="Helvetica",fontsize="10",shape=record];
  Node1 [label="{pip._internal.resolution.resolvelib.requirements.\lSpecifierRequirement\n|- _ireq\l- _extras\l|+ __init__()\l+ __str__()\l+ __repr__()\l+ name()\l+ format_for_error()\l+ get_candidate_lookup()\l+ is_satisfied_by()\l}",height=0.2,width=0.4,color="black", fillcolor="grey75", style="filled", fontcolor="black",tooltip=" "];
  Node2 -> Node1 [dir="back",color="midnightblue",fontsize="10",style="solid",arrowtail="onormal"];
  Node2 [label="{pip._internal.resolution.resolvelib.base.\lRequirement\n||+ name()\l+ is_satisfied_by()\l+ get_candidate_lookup()\l+ format_for_error()\l}",height=0.2,width=0.4,color="black", fillcolor="white", style="filled",URL="$d7/d6d/classpip_1_1__internal_1_1resolution_1_1resolvelib_1_1base_1_1_requirement.html",tooltip=" "];
  Node3 -> Node2 [dir="back",color="midnightblue",fontsize="10",style="solid",arrowtail="onormal"];
  Node3 [label="{object\n||}",height=0.2,width=0.4,color="grey75", fillcolor="white", style="filled",tooltip=" "];
}
