digraph "pip._internal.vcs.versioncontrol.VersionControl.obtain"
{
 // LATEX_PDF_SIZE
  edge [fontname="Helvetica",fontsize="10",labelfontname="Helvetica",labelfontsize="10"];
  node [fontname="Helvetica",fontsize="10",shape=record];
  rankdir="LR";
  Node1 [label="pip._internal.vcs.versioncontrol.\lVersionControl.obtain",height=0.2,width=0.4,color="black", fillcolor="grey75", style="filled", fontcolor="black",tooltip=" "];
  Node1 -> Node2 [color="midnightblue",fontsize="10",style="solid"];
  Node2 [label="pip._internal.utils.misc.ask\l_path_exists",height=0.2,width=0.4,color="black", fillcolor="white", style="filled",URL="$de/dc3/namespacepip_1_1__internal_1_1utils_1_1misc.html#a0a9a745c582de6c64b9f832d515ae17a",tooltip=" "];
  Node2 -> Node3 [color="midnightblue",fontsize="10",style="solid"];
  Node3 [label="pip._internal.utils.misc.ask",height=0.2,width=0.4,color="red", fillcolor="white", style="filled",URL="$de/dc3/namespacepip_1_1__internal_1_1utils_1_1misc.html#a58fde5883882cc9ed5d6187ccb0bf074",tooltip=" "];
  Node1 -> Node5 [color="midnightblue",fontsize="10",style="solid"];
  Node5 [label="pip._internal.utils.misc.backup_dir",height=0.2,width=0.4,color="black", fillcolor="white", style="filled",URL="$de/dc3/namespacepip_1_1__internal_1_1utils_1_1misc.html#a5fffb0d4e41c050c086c879309aaf251",tooltip=" "];
  Node1 -> Node6 [color="midnightblue",fontsize="10",style="solid"];
  Node6 [label="pip._internal.vcs.versioncontrol.\lVersionControl.compare_urls",height=0.2,width=0.4,color="black", fillcolor="white", style="filled",URL="$d0/db7/classpip_1_1__internal_1_1vcs_1_1versioncontrol_1_1_version_control.html#aad894f57f53bf430b8b10173dd2c7a1f",tooltip=" "];
  Node6 -> Node7 [color="midnightblue",fontsize="10",style="solid"];
  Node7 [label="pip._internal.vcs.versioncontrol.\lVersionControl.normalize_url",height=0.2,width=0.4,color="black", fillcolor="white", style="filled",URL="$d0/db7/classpip_1_1__internal_1_1vcs_1_1versioncontrol_1_1_version_control.html#ae182e56fb2b7b7df4669bb335ac8187e",tooltip=" "];
  Node1 -> Node8 [color="midnightblue",fontsize="10",style="solid"];
  Node8 [label="pip._internal.utils.misc.display_path",height=0.2,width=0.4,color="black", fillcolor="white", style="filled",URL="$de/dc3/namespacepip_1_1__internal_1_1utils_1_1misc.html#a2c56db5ea4bfcb80d54a94f1eb975454",tooltip=" "];
  Node1 -> Node9 [color="midnightblue",fontsize="10",style="solid"];
  Node9 [label="pip._internal.vcs.bazaar.\lBazaar.fetch_new",height=0.2,width=0.4,color="black", fillcolor="white", style="filled",URL="$d6/de7/classpip_1_1__internal_1_1vcs_1_1bazaar_1_1_bazaar.html#ada94e9b2c4a6e90c813687f66c2b4746",tooltip=" "];
  Node9 -> Node8 [color="midnightblue",fontsize="10",style="solid"];
  Node9 -> Node10 [color="midnightblue",fontsize="10",style="solid"];
  Node10 [label="pip._internal.utils.subprocess.make\l_command",height=0.2,width=0.4,color="black", fillcolor="white", style="filled",URL="$de/d4d/namespacepip_1_1__internal_1_1utils_1_1subprocess.html#a943de158c89fb35ee9e6956dc4025cd8",tooltip=" "];
  Node9 -> Node11 [color="midnightblue",fontsize="10",style="solid"];
  Node11 [label="pip._internal.vcs.versioncontrol.\lVersionControl.run_command",height=0.2,width=0.4,color="red", fillcolor="white", style="filled",URL="$d0/db7/classpip_1_1__internal_1_1vcs_1_1versioncontrol_1_1_version_control.html#ad61672608a8af9f7250a5b52805e32da",tooltip=" "];
  Node11 -> Node10 [color="midnightblue",fontsize="10",style="solid"];
  Node1 -> Node19 [color="midnightblue",fontsize="10",style="solid"];
  Node19 [label="pip._internal.vcs.git.Git.fetch_new",height=0.2,width=0.4,color="black", fillcolor="white", style="filled",URL="$d8/d4d/classpip_1_1__internal_1_1vcs_1_1git_1_1_git.html#a9fd6ec2415b1ac9910e80bdb61b91ec5",tooltip=" "];
  Node19 -> Node8 [color="midnightblue",fontsize="10",style="solid"];
  Node19 -> Node20 [color="midnightblue",fontsize="10",style="solid"];
  Node20 [label="pip._internal.vcs.git.Git.get\l_current_branch",height=0.2,width=0.4,color="black", fillcolor="white", style="filled",URL="$d8/d4d/classpip_1_1__internal_1_1vcs_1_1git_1_1_git.html#a6896a2a1e362867babff94b91aac356b",tooltip=" "];
  Node20 -> Node11 [color="midnightblue",fontsize="10",style="solid"];
  Node19 -> Node21 [color="midnightblue",fontsize="10",style="solid"];
  Node21 [label="pip._internal.vcs.bazaar.\lBazaar.is_commit_id_equal",height=0.2,width=0.4,color="black", fillcolor="white", style="filled",URL="$d6/de7/classpip_1_1__internal_1_1vcs_1_1bazaar_1_1_bazaar.html#a9b282e964514cf5ca988b8a891776db9",tooltip=" "];
  Node19 -> Node22 [color="midnightblue",fontsize="10",style="solid"];
  Node22 [label="pip._internal.vcs.git.Git.is\l_commit_id_equal",height=0.2,width=0.4,color="red", fillcolor="white", style="filled",URL="$d8/d4d/classpip_1_1__internal_1_1vcs_1_1git_1_1_git.html#af33075c24ef8cd2d43d81938b8584a79",tooltip=" "];
  Node19 -> Node10 [color="midnightblue",fontsize="10",style="solid"];
  Node19 -> Node25 [color="midnightblue",fontsize="10",style="solid"];
  Node25 [label="pip._internal.vcs.git.Git.resolve\l_revision",height=0.2,width=0.4,color="red", fillcolor="white", style="filled",URL="$d8/d4d/classpip_1_1__internal_1_1vcs_1_1git_1_1_git.html#a85b6fa33df082d3943a53f5507df3bb2",tooltip=" "];
  Node25 -> Node10 [color="midnightblue",fontsize="10",style="solid"];
  Node25 -> Node11 [color="midnightblue",fontsize="10",style="solid"];
  Node19 -> Node11 [color="midnightblue",fontsize="10",style="solid"];
  Node19 -> Node28 [color="midnightblue",fontsize="10",style="solid"];
  Node28 [label="pip._internal.vcs.git.Git.update\l_submodules",height=0.2,width=0.4,color="black", fillcolor="white", style="filled",URL="$d8/d4d/classpip_1_1__internal_1_1vcs_1_1git_1_1_git.html#a6cd58ea4608a75bdfb07e06f0137e07f",tooltip=" "];
  Node28 -> Node11 [color="midnightblue",fontsize="10",style="solid"];
  Node1 -> Node29 [color="midnightblue",fontsize="10",style="solid"];
  Node29 [label="pip._internal.vcs.mercurial.\lMercurial.fetch_new",height=0.2,width=0.4,color="black", fillcolor="white", style="filled",URL="$db/da0/classpip_1_1__internal_1_1vcs_1_1mercurial_1_1_mercurial.html#a7951bc33f0d4f7a510d41c5239c88cdf",tooltip=" "];
  Node29 -> Node8 [color="midnightblue",fontsize="10",style="solid"];
  Node29 -> Node10 [color="midnightblue",fontsize="10",style="solid"];
  Node29 -> Node11 [color="midnightblue",fontsize="10",style="solid"];
  Node1 -> Node30 [color="midnightblue",fontsize="10",style="solid"];
  Node30 [label="pip._internal.vcs.subversion.\lSubversion.fetch_new",height=0.2,width=0.4,color="black", fillcolor="white", style="filled",URL="$d2/db0/classpip_1_1__internal_1_1vcs_1_1subversion_1_1_subversion.html#a994fcc3f75133b0a74c8774b242069bb",tooltip=" "];
  Node30 -> Node8 [color="midnightblue",fontsize="10",style="solid"];
  Node30 -> Node31 [color="midnightblue",fontsize="10",style="solid"];
  Node31 [label="pip._internal.vcs.subversion.\lSubversion.get_remote_call\l_options",height=0.2,width=0.4,color="red", fillcolor="white", style="filled",URL="$d2/db0/classpip_1_1__internal_1_1vcs_1_1subversion_1_1_subversion.html#a894ac76a60631cd377d58eec97f92772",tooltip=" "];
  Node30 -> Node10 [color="midnightblue",fontsize="10",style="solid"];
  Node30 -> Node11 [color="midnightblue",fontsize="10",style="solid"];
  Node1 -> Node34 [color="midnightblue",fontsize="10",style="solid"];
  Node34 [label="pip._internal.vcs.versioncontrol.\lVersionControl.fetch_new",height=0.2,width=0.4,color="black", fillcolor="white", style="filled",URL="$d0/db7/classpip_1_1__internal_1_1vcs_1_1versioncontrol_1_1_version_control.html#ac98b1ca87744257369447187b1c7b86d",tooltip=" "];
  Node1 -> Node35 [color="midnightblue",fontsize="10",style="solid"];
  Node35 [label="pip._internal.vcs.bazaar.\lBazaar.get_remote_url",height=0.2,width=0.4,color="black", fillcolor="white", style="filled",URL="$d6/de7/classpip_1_1__internal_1_1vcs_1_1bazaar_1_1_bazaar.html#ac3b0249bbad8adce786c99bf28e817f6",tooltip=" "];
  Node35 -> Node36 [color="midnightblue",fontsize="10",style="solid"];
  Node36 [label="pip._internal.vcs.versioncontrol.\lVersionControl._is_local_repository",height=0.2,width=0.4,color="black", fillcolor="white", style="filled",URL="$d0/db7/classpip_1_1__internal_1_1vcs_1_1versioncontrol_1_1_version_control.html#a214602d9dd803d9f09a1dc0d2ea5583b",tooltip=" "];
  Node35 -> Node37 [color="midnightblue",fontsize="10",style="solid"];
  Node37 [label="pip._internal.utils.urls.path\l_to_url",height=0.2,width=0.4,color="black", fillcolor="white", style="filled",URL="$d7/d48/namespacepip_1_1__internal_1_1utils_1_1urls.html#a789117f8d3114e952ead88416e5493d9",tooltip=" "];
  Node35 -> Node11 [color="midnightblue",fontsize="10",style="solid"];
  Node1 -> Node38 [color="midnightblue",fontsize="10",style="solid"];
  Node38 [label="pip._internal.vcs.git.Git.get\l_remote_url",height=0.2,width=0.4,color="black", fillcolor="white", style="filled",URL="$d8/d4d/classpip_1_1__internal_1_1vcs_1_1git_1_1_git.html#aa3a873cb459126b2c2ff6af3b481ae01",tooltip=" "];
  Node38 -> Node11 [color="midnightblue",fontsize="10",style="solid"];
  Node1 -> Node39 [color="midnightblue",fontsize="10",style="solid"];
  Node39 [label="pip._internal.vcs.mercurial.\lMercurial.get_remote_url",height=0.2,width=0.4,color="black", fillcolor="white", style="filled",URL="$db/da0/classpip_1_1__internal_1_1vcs_1_1mercurial_1_1_mercurial.html#ac5ed5fbd8053ddc3e53be187130b40b1",tooltip=" "];
  Node39 -> Node36 [color="midnightblue",fontsize="10",style="solid"];
  Node39 -> Node37 [color="midnightblue",fontsize="10",style="solid"];
  Node39 -> Node11 [color="midnightblue",fontsize="10",style="solid"];
  Node1 -> Node40 [color="midnightblue",fontsize="10",style="solid"];
  Node40 [label="pip._internal.vcs.subversion.\lSubversion.get_remote_url",height=0.2,width=0.4,color="black", fillcolor="white", style="filled",URL="$d2/db0/classpip_1_1__internal_1_1vcs_1_1subversion_1_1_subversion.html#afdb927f50e790e769ca5f5db12dbdbd6",tooltip=" "];
  Node40 -> Node41 [color="midnightblue",fontsize="10",style="solid"];
  Node41 [label="pip._internal.vcs.subversion.\lSubversion._get_svn_url_rev",height=0.2,width=0.4,color="black", fillcolor="white", style="filled",URL="$d2/db0/classpip_1_1__internal_1_1vcs_1_1subversion_1_1_subversion.html#ad8db96a8353378bd6a9522ea1d91f5b2",tooltip=" "];
  Node41 -> Node11 [color="midnightblue",fontsize="10",style="solid"];
  Node1 -> Node42 [color="midnightblue",fontsize="10",style="solid"];
  Node42 [label="pip._internal.vcs.versioncontrol.\lVersionControl.get_remote_url",height=0.2,width=0.4,color="black", fillcolor="white", style="filled",URL="$d0/db7/classpip_1_1__internal_1_1vcs_1_1versioncontrol_1_1_version_control.html#a04eb4fa27542d4b4216df78db6fb539c",tooltip=" "];
  Node1 -> Node43 [color="midnightblue",fontsize="10",style="solid"];
  Node43 [label="pip._internal.vcs.versioncontrol.\lVersionControl.get_url_rev_options",height=0.2,width=0.4,color="red", fillcolor="white", style="filled",URL="$d0/db7/classpip_1_1__internal_1_1vcs_1_1versioncontrol_1_1_version_control.html#add1eb71a89bb58fae48a50f88ebec4e1",tooltip=" "];
  Node43 -> Node44 [color="midnightblue",fontsize="10",style="solid"];
  Node44 [label="pip._internal.vcs.bazaar.\lBazaar.get_url_rev_and_auth",height=0.2,width=0.4,color="black", fillcolor="white", style="filled",URL="$d6/de7/classpip_1_1__internal_1_1vcs_1_1bazaar_1_1_bazaar.html#aae4906e704fdada2b33c19d0804a658f",tooltip=" "];
  Node43 -> Node45 [color="midnightblue",fontsize="10",style="solid"];
  Node45 [label="pip._internal.vcs.git.Git.get\l_url_rev_and_auth",height=0.2,width=0.4,color="black", fillcolor="white", style="filled",URL="$d8/d4d/classpip_1_1__internal_1_1vcs_1_1git_1_1_git.html#a6f5f76aa10b8e86ccd3c87826875cf8d",tooltip=" "];
  Node43 -> Node46 [color="midnightblue",fontsize="10",style="solid"];
  Node46 [label="pip._internal.vcs.subversion.\lSubversion.get_url_rev_and_auth",height=0.2,width=0.4,color="black", fillcolor="white", style="filled",URL="$d2/db0/classpip_1_1__internal_1_1vcs_1_1subversion_1_1_subversion.html#aa5b11581deeb81886e9cd1f81a44ecb6",tooltip=" "];
  Node43 -> Node47 [color="midnightblue",fontsize="10",style="solid"];
  Node47 [label="pip._internal.vcs.versioncontrol.\lVersionControl.get_url_rev\l_and_auth",height=0.2,width=0.4,color="red", fillcolor="white", style="filled",URL="$d0/db7/classpip_1_1__internal_1_1vcs_1_1versioncontrol_1_1_version_control.html#aa6e993d15b1bfafccdc290582d116a3e",tooltip=" "];
  Node1 -> Node21 [color="midnightblue",fontsize="10",style="solid"];
  Node1 -> Node22 [color="midnightblue",fontsize="10",style="solid"];
  Node1 -> Node58 [color="midnightblue",fontsize="10",style="solid"];
  Node58 [label="pip._internal.vcs.mercurial.\lMercurial.is_commit_id_equal",height=0.2,width=0.4,color="black", fillcolor="white", style="filled",URL="$db/da0/classpip_1_1__internal_1_1vcs_1_1mercurial_1_1_mercurial.html#a38234d14a3f91ee0b649a3f6c03f3fd2",tooltip=" "];
  Node1 -> Node59 [color="midnightblue",fontsize="10",style="solid"];
  Node59 [label="pip._internal.vcs.subversion.\lSubversion.is_commit_id_equal",height=0.2,width=0.4,color="black", fillcolor="white", style="filled",URL="$d2/db0/classpip_1_1__internal_1_1vcs_1_1subversion_1_1_subversion.html#a6a4f6aaa4a5bf9fc2de0a550cbd2d320",tooltip=" "];
  Node1 -> Node60 [color="midnightblue",fontsize="10",style="solid"];
  Node60 [label="pip._internal.vcs.versioncontrol.\lVersionControl.is_commit_id_equal",height=0.2,width=0.4,color="black", fillcolor="white", style="filled",URL="$d0/db7/classpip_1_1__internal_1_1vcs_1_1versioncontrol_1_1_version_control.html#a0021850ef472815623c3fc54d1a5e8dd",tooltip=" "];
  Node1 -> Node61 [color="midnightblue",fontsize="10",style="solid"];
  Node61 [label="pip._internal.vcs.versioncontrol.\lVersionControl.is_repository\l_directory",height=0.2,width=0.4,color="black", fillcolor="white", style="filled",URL="$d0/db7/classpip_1_1__internal_1_1vcs_1_1versioncontrol_1_1_version_control.html#a90b73a5f179be0defd7bb75abdf38ad2",tooltip=" "];
  Node1 -> Node62 [color="midnightblue",fontsize="10",style="solid"];
  Node62 [label="pip._internal.utils.misc.rmtree",height=0.2,width=0.4,color="black", fillcolor="white", style="filled",URL="$de/dc3/namespacepip_1_1__internal_1_1utils_1_1misc.html#a468943eb596f19a944215297ab3b9216",tooltip=" "];
  Node1 -> Node63 [color="midnightblue",fontsize="10",style="solid"];
  Node63 [label="pip._internal.vcs.bazaar.\lBazaar.switch",height=0.2,width=0.4,color="black", fillcolor="white", style="filled",URL="$d6/de7/classpip_1_1__internal_1_1vcs_1_1bazaar_1_1_bazaar.html#a4b0582844e574b0f3aa4042e445ec338",tooltip=" "];
  Node63 -> Node10 [color="midnightblue",fontsize="10",style="solid"];
  Node63 -> Node11 [color="midnightblue",fontsize="10",style="solid"];
  Node1 -> Node64 [color="midnightblue",fontsize="10",style="solid"];
  Node64 [label="pip._internal.vcs.git.Git.switch",height=0.2,width=0.4,color="black", fillcolor="white", style="filled",URL="$d8/d4d/classpip_1_1__internal_1_1vcs_1_1git_1_1_git.html#a1816a618d6e7254c4588e3c9be3a60a2",tooltip=" "];
  Node64 -> Node10 [color="midnightblue",fontsize="10",style="solid"];
  Node64 -> Node11 [color="midnightblue",fontsize="10",style="solid"];
  Node64 -> Node28 [color="midnightblue",fontsize="10",style="solid"];
  Node1 -> Node65 [color="midnightblue",fontsize="10",style="solid"];
  Node65 [label="pip._internal.vcs.mercurial.\lMercurial.switch",height=0.2,width=0.4,color="black", fillcolor="white", style="filled",URL="$db/da0/classpip_1_1__internal_1_1vcs_1_1mercurial_1_1_mercurial.html#a28bb8fa9041775818ff9446a77c44146",tooltip=" "];
  Node65 -> Node10 [color="midnightblue",fontsize="10",style="solid"];
  Node65 -> Node11 [color="midnightblue",fontsize="10",style="solid"];
  Node1 -> Node66 [color="midnightblue",fontsize="10",style="solid"];
  Node66 [label="pip._internal.vcs.subversion.\lSubversion.switch",height=0.2,width=0.4,color="black", fillcolor="white", style="filled",URL="$d2/db0/classpip_1_1__internal_1_1vcs_1_1subversion_1_1_subversion.html#a0bdef65fc1bef9f97871c1911ed12faf",tooltip=" "];
  Node66 -> Node31 [color="midnightblue",fontsize="10",style="solid"];
  Node66 -> Node10 [color="midnightblue",fontsize="10",style="solid"];
  Node66 -> Node11 [color="midnightblue",fontsize="10",style="solid"];
  Node1 -> Node67 [color="midnightblue",fontsize="10",style="solid"];
  Node67 [label="pip._internal.vcs.versioncontrol.\lVersionControl.switch",height=0.2,width=0.4,color="black", fillcolor="white", style="filled",URL="$d0/db7/classpip_1_1__internal_1_1vcs_1_1versioncontrol_1_1_version_control.html#a73943dd1e02547497c74aaf2d17c340e",tooltip=" "];
  Node1 -> Node68 [color="midnightblue",fontsize="10",style="solid"];
  Node68 [label="pip._internal.cli.progress\l_bars.SilentBar.update",height=0.2,width=0.4,color="black", fillcolor="white", style="filled",URL="$d5/d7d/classpip_1_1__internal_1_1cli_1_1progress__bars_1_1_silent_bar.html#a2576a60f623d878edebbac9d03112ab9",tooltip=" "];
  Node1 -> Node69 [color="midnightblue",fontsize="10",style="solid"];
  Node69 [label="pip._internal.cli.progress\l_bars.DownloadProgressSpinner.update",height=0.2,width=0.4,color="red", fillcolor="white", style="filled",URL="$d7/d79/classpip_1_1__internal_1_1cli_1_1progress__bars_1_1_download_progress_spinner.html#ad89eb5dd5b755a1716693ee57534a5ff",tooltip=" "];
  Node1 -> Node74 [color="midnightblue",fontsize="10",style="solid"];
  Node74 [label="pip._internal.vcs.bazaar.\lBazaar.update",height=0.2,width=0.4,color="black", fillcolor="white", style="filled",URL="$d6/de7/classpip_1_1__internal_1_1vcs_1_1bazaar_1_1_bazaar.html#a0ba5a90abd295871d8f9ccd190ac58d6",tooltip=" "];
  Node74 -> Node10 [color="midnightblue",fontsize="10",style="solid"];
  Node74 -> Node11 [color="midnightblue",fontsize="10",style="solid"];
  Node1 -> Node75 [color="midnightblue",fontsize="10",style="solid"];
  Node75 [label="pip._internal.vcs.git.Git.update",height=0.2,width=0.4,color="red", fillcolor="white", style="filled",URL="$d8/d4d/classpip_1_1__internal_1_1vcs_1_1git_1_1_git.html#aa5158c33dc4a263752d57a944939e196",tooltip=" "];
  Node75 -> Node10 [color="midnightblue",fontsize="10",style="solid"];
  Node75 -> Node25 [color="midnightblue",fontsize="10",style="solid"];
  Node75 -> Node11 [color="midnightblue",fontsize="10",style="solid"];
  Node75 -> Node28 [color="midnightblue",fontsize="10",style="solid"];
  Node1 -> Node78 [color="midnightblue",fontsize="10",style="solid"];
  Node78 [label="pip._internal.vcs.mercurial.\lMercurial.update",height=0.2,width=0.4,color="black", fillcolor="white", style="filled",URL="$db/da0/classpip_1_1__internal_1_1vcs_1_1mercurial_1_1_mercurial.html#a43f117f7c17f95fe847d20f08c608f58",tooltip=" "];
  Node78 -> Node10 [color="midnightblue",fontsize="10",style="solid"];
  Node78 -> Node11 [color="midnightblue",fontsize="10",style="solid"];
  Node1 -> Node79 [color="midnightblue",fontsize="10",style="solid"];
  Node79 [label="pip._internal.vcs.subversion.\lSubversion.update",height=0.2,width=0.4,color="black", fillcolor="white", style="filled",URL="$d2/db0/classpip_1_1__internal_1_1vcs_1_1subversion_1_1_subversion.html#af9efc6f286384fb3f4791c4c23a1633c",tooltip=" "];
  Node79 -> Node31 [color="midnightblue",fontsize="10",style="solid"];
  Node79 -> Node10 [color="midnightblue",fontsize="10",style="solid"];
  Node79 -> Node11 [color="midnightblue",fontsize="10",style="solid"];
  Node1 -> Node80 [color="midnightblue",fontsize="10",style="solid"];
  Node80 [label="pip._internal.vcs.versioncontrol.\lVersionControl.update",height=0.2,width=0.4,color="black", fillcolor="white", style="filled",URL="$d0/db7/classpip_1_1__internal_1_1vcs_1_1versioncontrol_1_1_version_control.html#a5c081d6a71565d9b4b090af740c4c597",tooltip=" "];
}
