digraph "pip._internal.vcs.versioncontrol.VersionControl.get_url_rev_and_auth"
{
 // LATEX_PDF_SIZE
  edge [fontname="Helvetica",fontsize="10",labelfontname="Helvetica",labelfontsize="10"];
  node [fontname="Helvetica",fontsize="10",shape=record];
  rankdir="LR";
  Node1 [label="pip._internal.vcs.versioncontrol.\lVersionControl.get_url_rev\l_and_auth",height=0.2,width=0.4,color="black", fillcolor="grey75", style="filled", fontcolor="black",tooltip=" "];
  Node1 -> Node2 [color="midnightblue",fontsize="10",style="solid"];
  Node2 [label="pip._internal.vcs.subversion.\lSubversion.get_netloc_and_auth",height=0.2,width=0.4,color="black", fillcolor="white", style="filled",URL="$d2/db0/classpip_1_1__internal_1_1vcs_1_1subversion_1_1_subversion.html#a6e56e5234ab6238441b73cb21d1583cb",tooltip=" "];
  Node2 -> Node3 [color="midnightblue",fontsize="10",style="solid"];
  Node3 [label="pip._internal.utils.misc.split\l_auth_from_netloc",height=0.2,width=0.4,color="black", fillcolor="white", style="filled",URL="$de/dc3/namespacepip_1_1__internal_1_1utils_1_1misc.html#a4f7ed628264a14243cddbdbddf4b36e8",tooltip=" "];
  Node1 -> Node4 [color="midnightblue",fontsize="10",style="solid"];
  Node4 [label="pip._internal.vcs.versioncontrol.\lVersionControl.get_netloc_and_auth",height=0.2,width=0.4,color="black", fillcolor="white", style="filled",URL="$d0/db7/classpip_1_1__internal_1_1vcs_1_1versioncontrol_1_1_version_control.html#a74908511db23ef2cd1e06fbb5743737a",tooltip=" "];
}
