digraph "pip._vendor.html5lib.filters.sanitizer.Filter.__iter__"
{
 // LATEX_PDF_SIZE
  edge [fontname="Helvetica",fontsize="10",labelfontname="Helvetica",labelfontsize="10"];
  node [fontname="Helvetica",fontsize="10",shape=record];
  rankdir="LR";
  Node1 [label="pip._vendor.html5lib.filters.sanitizer.\lFilter.__iter__",height=0.2,width=0.4,color="black", fillcolor="grey75", style="filled", fontcolor="black",tooltip=" "];
  Node1 -> Node2 [color="midnightblue",fontsize="10",style="solid"];
  Node2 [label="pip._vendor.html5lib.filters.sanitizer.\lFilter.sanitize_token",height=0.2,width=0.4,color="black", fillcolor="white", style="filled",URL="$d3/df1/classpip_1_1__vendor_1_1html5lib_1_1filters_1_1sanitizer_1_1_filter.html#a1a41f0a9620da0e675829d7beb0de620",tooltip=" "];
  Node2 -> Node3 [color="midnightblue",fontsize="10",style="solid"];
  Node3 [label="pip._vendor.html5lib.filters.sanitizer.\lFilter.allowed_token",height=0.2,width=0.4,color="black", fillcolor="white", style="filled",URL="$d3/df1/classpip_1_1__vendor_1_1html5lib_1_1filters_1_1sanitizer_1_1_filter.html#a0f06ab91d8402ca9f921020cffebc191",tooltip=" "];
  Node3 -> Node4 [color="midnightblue",fontsize="10",style="solid"];
  Node4 [label="pip._vendor.html5lib.filters.sanitizer.\lFilter.sanitize_css",height=0.2,width=0.4,color="black", fillcolor="white", style="filled",URL="$d3/df1/classpip_1_1__vendor_1_1html5lib_1_1filters_1_1sanitizer_1_1_filter.html#add8dd8d642af8ce72eb11de53a362e2d",tooltip=" "];
  Node2 -> Node5 [color="midnightblue",fontsize="10",style="solid"];
  Node5 [label="pip._vendor.html5lib.filters.sanitizer.\lFilter.disallowed_token",height=0.2,width=0.4,color="black", fillcolor="white", style="filled",URL="$d3/df1/classpip_1_1__vendor_1_1html5lib_1_1filters_1_1sanitizer_1_1_filter.html#afc4f989311691eb2358c86961cb972b8",tooltip=" "];
  Node5 -> Node6 [color="midnightblue",fontsize="10",style="solid"];
  Node6 [label="setuptools.glob.escape",height=0.2,width=0.4,color="black", fillcolor="white", style="filled",URL="$d1/d6d/namespacesetuptools_1_1glob.html#a73ffea4dfe02e8a0294dad20dbb55a0a",tooltip=" "];
}
