digraph "pip._internal.utils.wheel.WheelMetadata"
{
 // LATEX_PDF_SIZE
  edge [fontname="Helvetica",fontsize="10",labelfontname="Helvetica",labelfontsize="10"];
  node [fontname="Helvetica",fontsize="10",shape=record];
  Node1 [label="{pip._internal.utils.wheel.\lWheelMetadata\n|- _wheel_name\l|+ __init__()\l+ get_metadata()\l}",height=0.2,width=0.4,color="black", fillcolor="grey75", style="filled", fontcolor="black",tooltip=" "];
  Node2 -> Node1 [dir="back",color="midnightblue",fontsize="10",style="solid",arrowtail="onormal",fontname="Helvetica"];
  Node2 [label="{pip._internal.utils.pkg\l_resources.DictMetadata\n|- _metadata\l|+ __init__()\l+ has_metadata()\l+ get_metadata()\l+ get_metadata_lines()\l+ metadata_isdir()\l+ metadata_listdir()\l+ run_script()\l}",height=0.2,width=0.4,color="black", fillcolor="white", style="filled",URL="$dd/d69/classpip_1_1__internal_1_1utils_1_1pkg__resources_1_1_dict_metadata.html",tooltip=" "];
  Node3 -> Node2 [dir="back",color="midnightblue",fontsize="10",style="solid",arrowtail="onormal",fontname="Helvetica"];
  Node3 [label="{object\n||}",height=0.2,width=0.4,color="grey75", fillcolor="white", style="filled",tooltip=" "];
}
