digraph "pip._vendor.distlib._backport.tarfile.TarInfo"
{
 // LATEX_PDF_SIZE
  edge [fontname="Helvetica",fontsize="10",labelfontname="Helvetica",labelfontsize="10"];
  node [fontname="Helvetica",fontsize="10",shape=record];
  Node1 [label="{pip._vendor.distlib.\l_backport.tarfile.TarInfo\n|+ name\l+ mode\l+ uid\l+ gid\l+ size\l+ mtime\l+ chksum\l+ type\l+ linkname\l+ uname\land 7 more...\l+ path\l+ linkpath\l- __slots__\l|+ __init__()\l+ __repr__()\l+ get_info()\l+ tobuf()\l+ create_ustar_header()\l+ create_gnu_header()\l+ create_pax_header()\l+ create_pax_global_header()\l+ frombuf()\l+ fromtarfile()\land 10 more...\l- _getpath()\l- _setpath()\l- _getlinkpath()\l- _setlinkpath()\l- _posix_split_name()\l- _create_gnu_long_header()\l- _create_pax_generic\l_header()\l- _proc_member()\l- _proc_builtin()\l- _proc_gnulong()\land 8 more...\l- _create_header()\l- _create_payload()\l}",height=0.2,width=0.4,color="black", fillcolor="grey75", style="filled", fontcolor="black",tooltip=" "];
  Node2 -> Node1 [dir="back",color="midnightblue",fontsize="10",style="solid",arrowtail="onormal",fontname="Helvetica"];
  Node2 [label="{object\n||}",height=0.2,width=0.4,color="grey75", fillcolor="white", style="filled",tooltip=" "];
}
