digraph "pip._vendor.ipaddress.IPv4Address"
{
 // LATEX_PDF_SIZE
  edge [fontname="Helvetica",fontsize="10",labelfontname="Helvetica",labelfontsize="10"];
  node [fontname="Helvetica",fontsize="10",shape=record];
  Node1 [label="{pip._vendor.ipaddress.IPv4\lAddress\n|- _ip\l- __slots__\l|+ __init__()\l+ packed()\l+ is_reserved()\l+ is_private()\l+ is_global()\l+ is_multicast()\l+ is_unspecified()\l+ is_loopback()\l+ is_link_local()\l}",height=0.2,width=0.4,color="black", fillcolor="grey75", style="filled", fontcolor="black",tooltip=" "];
  Node2 -> Node1 [dir="back",color="midnightblue",fontsize="10",style="solid",arrowtail="onormal"];
  Node2 [label="{pip._vendor.ipaddress.\l_BaseV4\n|- __slots__\l- _version\l- _ALL_ONES\l- _DECIMAL_DIGITS\l- _valid_mask_octets\l- _max_prefixlen\l- _netmask_cache\l|+ max_prefixlen()\l+ version()\l- _explode_shorthand\l_ip_string()\l- _make_netmask()\l- _ip_int_from_string()\l- _parse_octet()\l- _string_from_ip_int()\l- _is_hostmask()\l- _reverse_pointer()\l}",height=0.2,width=0.4,color="black", fillcolor="white", style="filled",URL="$db/d56/classpip_1_1__vendor_1_1ipaddress_1_1___base_v4.html",tooltip=" "];
  Node3 -> Node2 [dir="back",color="midnightblue",fontsize="10",style="solid",arrowtail="onormal"];
  Node3 [label="{object\n||}",height=0.2,width=0.4,color="grey75", fillcolor="white", style="filled",tooltip=" "];
  Node4 -> Node1 [dir="back",color="midnightblue",fontsize="10",style="solid",arrowtail="onormal"];
  Node4 [label="{pip._vendor.ipaddress.\l_BaseAddress\n|- _ip\l- _version\l- __slots__\l|+ __int__()\l+ __eq__()\l+ __lt__()\l+ __add__()\l+ __sub__()\l+ __repr__()\l+ __str__()\l+ __hash__()\l+ __reduce__()\l- _get_address_key()\l}",height=0.2,width=0.4,color="black", fillcolor="white", style="filled",URL="$d7/df4/classpip_1_1__vendor_1_1ipaddress_1_1___base_address.html",tooltip=" "];
  Node5 -> Node4 [dir="back",color="midnightblue",fontsize="10",style="solid",arrowtail="onormal"];
  Node5 [label="{pip._vendor.ipaddress.\l_IPAddressBase\n|- __slots__\l|+ exploded()\l+ compressed()\l+ reverse_pointer()\l+ version()\l+ __reduce__()\l- _check_int_address()\l- _check_packed_address()\l- _ip_int_from_prefix()\l- _prefix_from_ip_int()\l- _report_invalid_netmask()\l- _prefix_from_prefix\l_string()\l- _prefix_from_ip_string()\l}",height=0.2,width=0.4,color="black", fillcolor="white", style="filled",URL="$d5/df6/classpip_1_1__vendor_1_1ipaddress_1_1___i_p_address_base.html",tooltip=" "];
  Node6 -> Node5 [dir="back",color="midnightblue",fontsize="10",style="solid",arrowtail="onormal"];
  Node6 [label="{pip._vendor.ipaddress.\l_TotalOrderingMixin\n|- __slots__\l|+ __eq__()\l+ __ne__()\l+ __lt__()\l+ __le__()\l+ __gt__()\l+ __ge__()\l}",height=0.2,width=0.4,color="black", fillcolor="white", style="filled",URL="$da/dbd/classpip_1_1__vendor_1_1ipaddress_1_1___total_ordering_mixin.html",tooltip=" "];
  Node3 -> Node6 [dir="back",color="midnightblue",fontsize="10",style="solid",arrowtail="onormal"];
  Node1 -> Node7 [dir="back",color="midnightblue",fontsize="10",style="solid",arrowtail="onormal"];
  Node7 [label="{pip._vendor.ipaddress.IPv4\lInterface\n|+ network\l+ netmask\l+ hostmask\l- _prefixlen\l- __reduce__\l|+ __init__()\l+ __str__()\l+ __eq__()\l+ __lt__()\l+ __hash__()\l+ ip()\l+ with_prefixlen()\l+ with_netmask()\l+ with_hostmask()\l}",height=0.2,width=0.4,color="black", fillcolor="white", style="filled",URL="$d8/deb/classpip_1_1__vendor_1_1ipaddress_1_1_i_pv4_interface.html",tooltip=" "];
}
