digraph "pip._internal.commands.configuration.ConfigurationCommand"
{
 // LATEX_PDF_SIZE
  edge [fontname="Helvetica",fontsize="10",labelfontname="Helvetica",labelfontsize="10"];
  node [fontname="Helvetica",fontsize="10",shape=record];
  Node1 [label="{pip._internal.commands.configuration.\lConfigurationCommand\n|+ configuration\l+ ignore_require_venv\l|+ add_options()\l+ run()\l+ list_values()\l+ get_name()\l+ set_name_value()\l+ unset_name()\l+ list_config_values()\l+ print_config_file_values()\l+ print_env_var_values()\l+ open_in_editor()\l- _determine_file()\l- _get_n_args()\l- _save_configuration()\l- _determine_editor()\l}",height=0.2,width=0.4,color="black", fillcolor="grey75", style="filled", fontcolor="black",tooltip=" "];
  Node2 -> Node1 [dir="back",color="midnightblue",fontsize="10",style="solid",arrowtail="onormal"];
  Node2 [label="{pip._internal.cli.base\l_command.Command\n|+ name\l+ summary\l+ parser\l+ tempdir_registry\l+ cmd_opts\l+ verbosity\l+ usage\l+ ignore_require_venv\l|+ __init__()\l+ add_options()\l+ handle_pip_version\l_check()\l+ run()\l+ parse_args()\l+ main()\l- _main()\l}",height=0.2,width=0.4,color="black", fillcolor="white", style="filled",URL="$d2/da8/classpip_1_1__internal_1_1cli_1_1base__command_1_1_command.html",tooltip=" "];
  Node3 -> Node2 [dir="back",color="midnightblue",fontsize="10",style="solid",arrowtail="onormal"];
  Node3 [label="{pip._internal.cli.command\l_context.CommandContextMixIn\n|- _in_main_context\l- _main_context\l|+ __init__()\l+ main_context()\l+ enter_context()\l}",height=0.2,width=0.4,color="black", fillcolor="white", style="filled",URL="$d4/d41/classpip_1_1__internal_1_1cli_1_1command__context_1_1_command_context_mix_in.html",tooltip=" "];
  Node4 -> Node3 [dir="back",color="midnightblue",fontsize="10",style="solid",arrowtail="onormal"];
  Node4 [label="{object\n||}",height=0.2,width=0.4,color="grey75", fillcolor="white", style="filled",tooltip=" "];
  Node5 -> Node1 [color="grey25",fontsize="10",style="solid",label=" +usage" ,arrowhead="odiamond"];
  Node5 [label="{string\n||}",height=0.2,width=0.4,color="grey75", fillcolor="white", style="filled",tooltip=" "];
}
