digraph "pip._internal.cli.spinners.NonInteractiveSpinner.spin"
{
 // LATEX_PDF_SIZE
  edge [fontname="Helvetica",fontsize="10",labelfontname="Helvetica",labelfontsize="10"];
  node [fontname="Helvetica",fontsize="10",shape=record];
  rankdir="LR";
  Node1 [label="pip._internal.cli.spinners.\lNonInteractiveSpinner.spin",height=0.2,width=0.4,color="black", fillcolor="grey75", style="filled", fontcolor="black",tooltip=" "];
  Node1 -> Node2 [color="midnightblue",fontsize="10",style="solid"];
  Node2 [label="pip._internal.cli.spinners.\lNonInteractiveSpinner._update",height=0.2,width=0.4,color="black", fillcolor="white", style="filled",URL="$dc/d09/classpip_1_1__internal_1_1cli_1_1spinners_1_1_non_interactive_spinner.html#a39058dc82b21c2872e94ff8ccee73842",tooltip=" "];
}
