digraph "pip._vendor.distlib.compat.BaseConfigurator.convert"
{
 // LATEX_PDF_SIZE
  edge [fontname="Helvetica",fontsize="10",labelfontname="Helvetica",labelfontsize="10"];
  node [fontname="Helvetica",fontsize="10",shape=record];
  rankdir="RL";
  Node1 [label="pip._vendor.distlib.compat.\lBaseConfigurator.convert",height=0.2,width=0.4,color="black", fillcolor="grey75", style="filled", fontcolor="black",tooltip=" "];
  Node1 -> Node2 [dir="back",color="midnightblue",fontsize="10",style="solid",fontname="Helvetica"];
  Node2 [label="pip._vendor.distlib.util.\lConfigurator.configure_custom",height=0.2,width=0.4,color="black", fillcolor="white", style="filled",URL="$db/d94/classpip_1_1__vendor_1_1distlib_1_1util_1_1_configurator.html#a0d009327a85c6a6843254c1f00907b99",tooltip=" "];
}
