digraph "pip._internal.cache.SimpleWheelCache"
{
 // LATEX_PDF_SIZE
  edge [fontname="Helvetica",fontsize="10",labelfontname="Helvetica",labelfontsize="10"];
  node [fontname="Helvetica",fontsize="10",shape=record];
  Node1 [label="{pip._internal.cache.Simple\lWheelCache\n||+ __init__()\l+ get_path_for_link_legacy()\l+ get_path_for_link()\l+ get()\l}",height=0.2,width=0.4,color="black", fillcolor="grey75", style="filled", fontcolor="black",tooltip=" "];
  Node2 -> Node1 [dir="back",color="midnightblue",fontsize="10",style="solid",arrowtail="onormal",fontname="Helvetica"];
  Node2 [label="{pip._internal.cache.Cache\n|+ cache_dir\l+ format_control\l+ allowed_formats\l|+ __init__()\l+ get_path_for_link_legacy()\l+ get_path_for_link()\l+ get()\l- _get_cache_path_parts\l_legacy()\l- _get_cache_path_parts()\l- _get_candidates()\l}",height=0.2,width=0.4,color="black", fillcolor="white", style="filled",URL="$de/d43/classpip_1_1__internal_1_1cache_1_1_cache.html",tooltip=" "];
  Node3 -> Node2 [dir="back",color="midnightblue",fontsize="10",style="solid",arrowtail="onormal",fontname="Helvetica"];
  Node3 [label="{object\n||}",height=0.2,width=0.4,color="grey75", fillcolor="white", style="filled",tooltip=" "];
}
