digraph "pip._internal.commands.debug.DebugCommand.run"
{
 // LATEX_PDF_SIZE
  edge [fontname="Helvetica",fontsize="10",labelfontname="Helvetica",labelfontsize="10"];
  node [fontname="Helvetica",fontsize="10",shape=record];
  rankdir="LR";
  Node1 [label="pip._internal.commands.debug.\lDebugCommand.run",height=0.2,width=0.4,color="black", fillcolor="grey75", style="filled", fontcolor="black",tooltip=" "];
  Node1 -> Node2 [color="midnightblue",fontsize="10",style="solid"];
  Node2 [label="pip._internal.commands.debug.ca\l_bundle_info",height=0.2,width=0.4,color="black", fillcolor="white", style="filled",URL="$df/d72/namespacepip_1_1__internal_1_1commands_1_1debug.html#aacb5f5b10be9c8d56018e81d2196df12",tooltip=" "];
  Node1 -> Node3 [color="midnightblue",fontsize="10",style="solid"];
  Node3 [label="pip._internal.utils.misc.get\l_pip_version",height=0.2,width=0.4,color="black", fillcolor="white", style="filled",URL="$de/dc3/namespacepip_1_1__internal_1_1utils_1_1misc.html#a0fe392b2b98197ae4fcf878757c32c71",tooltip=" "];
  Node3 -> Node4 [color="midnightblue",fontsize="10",style="solid"];
  Node4 [label="pip._internal.locations.get\l_major_minor_version",height=0.2,width=0.4,color="black", fillcolor="white", style="filled",URL="$de/d72/namespacepip_1_1__internal_1_1locations.html#a9ea9af63bf94402c511cccc9648693d5",tooltip=" "];
  Node1 -> Node5 [color="midnightblue",fontsize="10",style="solid"];
  Node5 [label="pip._internal.commands.debug.show\l_sys_implementation",height=0.2,width=0.4,color="black", fillcolor="white", style="filled",URL="$df/d72/namespacepip_1_1__internal_1_1commands_1_1debug.html#a07a4f79f7d87301a97d34fbeebf06691",tooltip=" "];
  Node5 -> Node6 [color="midnightblue",fontsize="10",style="solid"];
  Node6 [label="pip._internal.utils.logging.indent_log",height=0.2,width=0.4,color="black", fillcolor="white", style="filled",URL="$d2/d7f/namespacepip_1_1__internal_1_1utils_1_1logging.html#a085a5d65b0702800d0a9d48a0a4615a8",tooltip=" "];
  Node6 -> Node7 [color="midnightblue",fontsize="10",style="solid"];
  Node7 [label="pip._internal.utils.logging.get\l_indentation",height=0.2,width=0.4,color="black", fillcolor="white", style="filled",URL="$d2/d7f/namespacepip_1_1__internal_1_1utils_1_1logging.html#a44d946c100e5712775abb26dc67d1c51",tooltip=" "];
  Node5 -> Node8 [color="midnightblue",fontsize="10",style="solid"];
  Node8 [label="pip._internal.commands.debug.show\l_value",height=0.2,width=0.4,color="black", fillcolor="white", style="filled",URL="$df/d72/namespacepip_1_1__internal_1_1commands_1_1debug.html#ad10497d53b241b05bff46c8c8cd96fc3",tooltip=" "];
  Node1 -> Node9 [color="midnightblue",fontsize="10",style="solid"];
  Node9 [label="pip._internal.commands.debug.show_tags",height=0.2,width=0.4,color="black", fillcolor="white", style="filled",URL="$df/d72/namespacepip_1_1__internal_1_1commands_1_1debug.html#a17394251d25dce395eb22eb3923ce01e",tooltip=" "];
  Node9 -> Node6 [color="midnightblue",fontsize="10",style="solid"];
  Node1 -> Node8 [color="midnightblue",fontsize="10",style="solid"];
  Node1 -> Node10 [color="midnightblue",fontsize="10",style="solid"];
  Node10 [label="pip._internal.commands.debug.show\l_vendor_versions",height=0.2,width=0.4,color="black", fillcolor="white", style="filled",URL="$df/d72/namespacepip_1_1__internal_1_1commands_1_1debug.html#a872ca30fb17574d3220321f398c8cc8a",tooltip=" "];
  Node10 -> Node11 [color="midnightblue",fontsize="10",style="solid"];
  Node11 [label="pip._internal.commands.debug.create\l_vendor_txt_map",height=0.2,width=0.4,color="black", fillcolor="white", style="filled",URL="$df/d72/namespacepip_1_1__internal_1_1commands_1_1debug.html#ae3f1f7e00838d5dd7867b91d68c4dd9e",tooltip=" "];
  Node10 -> Node6 [color="midnightblue",fontsize="10",style="solid"];
  Node10 -> Node12 [color="midnightblue",fontsize="10",style="solid"];
  Node12 [label="pip._internal.commands.debug.show\l_actual_vendor_versions",height=0.2,width=0.4,color="black", fillcolor="white", style="filled",URL="$df/d72/namespacepip_1_1__internal_1_1commands_1_1debug.html#aef9a28d00f93b050e518bd07676cda78",tooltip=" "];
  Node12 -> Node13 [color="midnightblue",fontsize="10",style="solid"];
  Node13 [label="pip._internal.commands.debug.get\l_vendor_version_from_module",height=0.2,width=0.4,color="black", fillcolor="white", style="filled",URL="$df/d72/namespacepip_1_1__internal_1_1commands_1_1debug.html#adf8d4aa61c23d284845aafcfb897cf1a",tooltip=" "];
  Node13 -> Node14 [color="midnightblue",fontsize="10",style="solid"];
  Node14 [label="pip._internal.commands.debug.get\l_module_from_module_name",height=0.2,width=0.4,color="black", fillcolor="white", style="filled",URL="$df/d72/namespacepip_1_1__internal_1_1commands_1_1debug.html#a3c241f0ef8f235201814614297c76141",tooltip=" "];
  Node13 -> Node15 [color="midnightblue",fontsize="10",style="solid"];
  Node15 [label="pkg_resources.Requirement.parse",height=0.2,width=0.4,color="black", fillcolor="white", style="filled",URL="$da/d63/classpkg__resources_1_1_requirement.html#a9be7f45af99c94ec9ca24807ecef986b",tooltip=" "];
  Node15 -> Node16 [color="midnightblue",fontsize="10",style="solid"];
  Node16 [label="pkg_resources.parse\l_requirements",height=0.2,width=0.4,color="black", fillcolor="white", style="filled",URL="$d0/de1/namespacepkg__resources.html#a2f0871c15153dc97a4a5b22c363a541e",tooltip=" "];
  Node16 -> Node17 [color="midnightblue",fontsize="10",style="solid"];
  Node17 [label="pkg_resources.yield\l_lines",height=0.2,width=0.4,color="black", fillcolor="white", style="filled",URL="$d0/de1/namespacepkg__resources.html#a0eafea5b96ff98a74cd3340af8bc1cc6",tooltip=" "];
  Node1 -> Node18 [color="midnightblue",fontsize="10",style="solid"];
  Node18 [label="pip._vendor.certifi.core.where",height=0.2,width=0.4,color="black", fillcolor="white", style="filled",URL="$d3/de6/namespacepip_1_1__vendor_1_1certifi_1_1core.html#af98c5a6769006200c2f7074b488e9f03",tooltip=" "];
  Node18 -> Node19 [color="midnightblue",fontsize="10",style="solid"];
  Node19 [label="pip._vendor.distlib.\l_backport.sysconfig.get_path",height=0.2,width=0.4,color="black", fillcolor="white", style="filled",URL="$de/df1/namespacepip_1_1__vendor_1_1distlib_1_1__backport_1_1sysconfig.html#a59aa125eaa4f24e4333d8050492643cb",tooltip=" "];
  Node19 -> Node20 [color="midnightblue",fontsize="10",style="solid"];
  Node20 [label="pip._vendor.distlib.\l_backport.sysconfig.get_paths",height=0.2,width=0.4,color="black", fillcolor="white", style="filled",URL="$de/df1/namespacepip_1_1__vendor_1_1distlib_1_1__backport_1_1sysconfig.html#ac0a1acd16bd40f3db547376ce31fe1c9",tooltip=" "];
  Node20 -> Node21 [color="midnightblue",fontsize="10",style="solid"];
  Node21 [label="pip._vendor.distlib.\l_backport.sysconfig.\l_ensure_cfg_read",height=0.2,width=0.4,color="black", fillcolor="white", style="filled",URL="$de/df1/namespacepip_1_1__vendor_1_1distlib_1_1__backport_1_1sysconfig.html#a76cbd1dedbaec11f4643e6fa3a5fe35d",tooltip=" "];
  Node21 -> Node22 [color="midnightblue",fontsize="10",style="solid"];
  Node22 [label="pip._vendor.distlib.resources.finder",height=0.2,width=0.4,color="black", fillcolor="white", style="filled",URL="$d9/dfe/namespacepip_1_1__vendor_1_1distlib_1_1resources.html#a19cb1b460cca0d3a5c6bea20e4ebc4b3",tooltip=" "];
  Node20 -> Node23 [color="midnightblue",fontsize="10",style="solid"];
  Node23 [label="pip._vendor.distlib.\l_backport.sysconfig.\l_expand_vars",height=0.2,width=0.4,color="black", fillcolor="white", style="filled",URL="$de/df1/namespacepip_1_1__vendor_1_1distlib_1_1__backport_1_1sysconfig.html#af4cbf0db5d9e4117566c2035242c2694",tooltip=" "];
  Node23 -> Node24 [color="midnightblue",fontsize="10",style="solid"];
  Node24 [label="pip._vendor.distlib.\l_backport.sysconfig.\l_extend_dict",height=0.2,width=0.4,color="black", fillcolor="white", style="filled",URL="$de/df1/namespacepip_1_1__vendor_1_1distlib_1_1__backport_1_1sysconfig.html#a6e33a4528ee13888112e89d8bdff1717",tooltip=" "];
  Node23 -> Node25 [color="midnightblue",fontsize="10",style="solid"];
  Node25 [label="pip._vendor.distlib.\l_backport.sysconfig.\l_subst_vars",height=0.2,width=0.4,color="black", fillcolor="white", style="filled",URL="$de/df1/namespacepip_1_1__vendor_1_1distlib_1_1__backport_1_1sysconfig.html#a84f21a22b4ff09178d1fdebfc770869d",tooltip=" "];
  Node23 -> Node26 [color="midnightblue",fontsize="10",style="solid"];
  Node26 [label="pip._vendor.distlib.\l_backport.sysconfig.get\l_config_vars",height=0.2,width=0.4,color="black", fillcolor="white", style="filled",URL="$de/df1/namespacepip_1_1__vendor_1_1distlib_1_1__backport_1_1sysconfig.html#a7303e5602c636744808cea6e4f6954b2",tooltip=" "];
  Node26 -> Node27 [color="midnightblue",fontsize="10",style="solid"];
  Node27 [label="pip._vendor.distlib.\l_backport.sysconfig.\l_getuserbase",height=0.2,width=0.4,color="black", fillcolor="white", style="filled",URL="$de/df1/namespacepip_1_1__vendor_1_1distlib_1_1__backport_1_1sysconfig.html#a5779666b6fc277b74e0d399286e36416",tooltip=" "];
  Node27 -> Node28 [color="midnightblue",fontsize="10",style="solid"];
  Node28 [label="pip._vendor.distlib.\l_backport.sysconfig.get\l_config_var",height=0.2,width=0.4,color="black", fillcolor="white", style="filled",URL="$de/df1/namespacepip_1_1__vendor_1_1distlib_1_1__backport_1_1sysconfig.html#ad4f932848014ef28313f3645eb6472a9",tooltip=" "];
  Node28 -> Node29 [color="midnightblue",fontsize="10",style="solid"];
  Node29 [label="pip._vendor.requests.api.get",height=0.2,width=0.4,color="black", fillcolor="white", style="filled",URL="$de/db5/namespacepip_1_1__vendor_1_1requests_1_1api.html#af14e54be255a4489da5fa7e07a48cc63",tooltip=" "];
  Node29 -> Node30 [color="midnightblue",fontsize="10",style="solid"];
  Node30 [label="pip._vendor.requests.api.request",height=0.2,width=0.4,color="black", fillcolor="white", style="filled",URL="$de/db5/namespacepip_1_1__vendor_1_1requests_1_1api.html#a9fdead74de86ac05699e5f4d40aa8d1d",tooltip=" "];
  Node28 -> Node26 [color="midnightblue",fontsize="10",style="solid"];
  Node26 -> Node31 [color="midnightblue",fontsize="10",style="solid"];
  Node31 [label="pip._vendor.distlib.\l_backport.sysconfig.\l_init_non_posix",height=0.2,width=0.4,color="black", fillcolor="white", style="filled",URL="$de/df1/namespacepip_1_1__vendor_1_1distlib_1_1__backport_1_1sysconfig.html#afe9d4d4122a45dac314cfa7267a826e0",tooltip=" "];
  Node31 -> Node32 [color="midnightblue",fontsize="10",style="solid"];
  Node32 [label="pip._vendor.distlib.\l_backport.sysconfig.\l_safe_realpath",height=0.2,width=0.4,color="black", fillcolor="white", style="filled",URL="$de/df1/namespacepip_1_1__vendor_1_1distlib_1_1__backport_1_1sysconfig.html#a17e2af46674870036364f961539647db",tooltip=" "];
  Node31 -> Node19 [color="midnightblue",fontsize="10",style="solid"];
  Node26 -> Node33 [color="midnightblue",fontsize="10",style="solid"];
  Node33 [label="pip._vendor.distlib.\l_backport.sysconfig.\l_init_posix",height=0.2,width=0.4,color="black", fillcolor="white", style="filled",URL="$de/df1/namespacepip_1_1__vendor_1_1distlib_1_1__backport_1_1sysconfig.html#a9791fd234c48fda1f0e78cf2f058ade7",tooltip=" "];
  Node33 -> Node34 [color="midnightblue",fontsize="10",style="solid"];
  Node34 [label="pip._vendor.distlib.\l_backport.sysconfig.\l_parse_makefile",height=0.2,width=0.4,color="black", fillcolor="white", style="filled",URL="$de/df1/namespacepip_1_1__vendor_1_1distlib_1_1__backport_1_1sysconfig.html#a6dab314bec4a212632efad99284ca5bc",tooltip=" "];
  Node33 -> Node35 [color="midnightblue",fontsize="10",style="solid"];
  Node35 [label="pip._vendor.distlib.\l_backport.sysconfig.get\l_config_h_filename",height=0.2,width=0.4,color="black", fillcolor="white", style="filled",URL="$de/df1/namespacepip_1_1__vendor_1_1distlib_1_1__backport_1_1sysconfig.html#ac1c0653f6bf7d2c28680558fd6db37bd",tooltip=" "];
  Node35 -> Node19 [color="midnightblue",fontsize="10",style="solid"];
  Node33 -> Node36 [color="midnightblue",fontsize="10",style="solid"];
  Node36 [label="pip._vendor.distlib.\l_backport.sysconfig.get\l_makefile_filename",height=0.2,width=0.4,color="black", fillcolor="white", style="filled",URL="$de/df1/namespacepip_1_1__vendor_1_1distlib_1_1__backport_1_1sysconfig.html#a088aae485c0e31e3cd49080997281543",tooltip=" "];
  Node36 -> Node19 [color="midnightblue",fontsize="10",style="solid"];
  Node33 -> Node37 [color="midnightblue",fontsize="10",style="solid"];
  Node37 [label="pip._vendor.distlib.\l_backport.sysconfig.parse\l_config_h",height=0.2,width=0.4,color="black", fillcolor="white", style="filled",URL="$de/df1/namespacepip_1_1__vendor_1_1distlib_1_1__backport_1_1sysconfig.html#a5a3a37061ec2d9b2ff8ce688ef2a31b7",tooltip=" "];
  Node26 -> Node32 [color="midnightblue",fontsize="10",style="solid"];
}
