digraph "pip._vendor.chardet.jpcntx.SJISContextAnalysis"
{
 // LATEX_PDF_SIZE
  edge [fontname="Helvetica",fontsize="10",labelfontname="Helvetica",labelfontsize="10"];
  node [fontname="Helvetica",fontsize="10",shape=record];
  Node1 [label="{pip._vendor.chardet.jpcntx.\lSJISContextAnalysis\n|- _charset_name\l|+ __init__()\l+ charset_name()\l+ get_order()\l}",height=0.2,width=0.4,color="black", fillcolor="grey75", style="filled", fontcolor="black",tooltip=" "];
  Node2 -> Node1 [dir="back",color="midnightblue",fontsize="10",style="solid",arrowtail="onormal",fontname="Helvetica"];
  Node2 [label="{pip._vendor.chardet.jpcntx.\lJapaneseContextAnalysis\n|+ NUM_OF_CATEGORY\l+ DONT_KNOW\l+ ENOUGH_REL_THRESHOLD\l+ MAX_REL_THRESHOLD\l+ MINIMUM_DATA_THRESHOLD\l- _total_rel\l- _rel_sample\l- _need_to_skip_char_num\l- _last_char_order\l- _done\l|+ __init__()\l+ reset()\l+ feed()\l+ got_enough_data()\l+ get_confidence()\l+ get_order()\l}",height=0.2,width=0.4,color="black", fillcolor="white", style="filled",URL="$d1/dce/classpip_1_1__vendor_1_1chardet_1_1jpcntx_1_1_japanese_context_analysis.html",tooltip=" "];
  Node3 -> Node2 [dir="back",color="midnightblue",fontsize="10",style="solid",arrowtail="onormal",fontname="Helvetica"];
  Node3 [label="{object\n||}",height=0.2,width=0.4,color="grey75", fillcolor="white", style="filled",tooltip=" "];
}
