digraph "pip._internal.cli.autocompletion.autocomplete"
{
 // LATEX_PDF_SIZE
  edge [fontname="Helvetica",fontsize="10",labelfontname="Helvetica",labelfontsize="10"];
  node [fontname="Helvetica",fontsize="10",shape=record];
  rankdir="LR";
  Node1 [label="pip._internal.cli.autocompletion.autocomplete",height=0.2,width=0.4,color="black", fillcolor="grey75", style="filled", fontcolor="black",tooltip=" "];
  Node1 -> Node2 [color="midnightblue",fontsize="10",style="solid",fontname="Helvetica"];
  Node2 [label="pip._internal.cli.autocompletion.auto\l_complete_paths",height=0.2,width=0.4,color="black", fillcolor="white", style="filled",URL="$d7/d4e/namespacepip_1_1__internal_1_1cli_1_1autocompletion.html#a7577d5f7c5ced0879400744b17dd7e2b",tooltip=" "];
  Node1 -> Node3 [color="midnightblue",fontsize="10",style="solid",fontname="Helvetica"];
  Node3 [label="pip._internal.commands.create\l_command",height=0.2,width=0.4,color="black", fillcolor="white", style="filled",URL="$df/d1f/namespacepip_1_1__internal_1_1commands.html#ac84690ba8b17bf303f09bd6fc0e3651c",tooltip=" "];
  Node1 -> Node4 [color="midnightblue",fontsize="10",style="solid",fontname="Helvetica"];
  Node4 [label="pip._internal.cli.main\l_parser.create_main_parser",height=0.2,width=0.4,color="black", fillcolor="white", style="filled",URL="$da/d9a/namespacepip_1_1__internal_1_1cli_1_1main__parser.html#a013c5ce9f6e201f260c6fe1d61c66315",tooltip=" "];
  Node4 -> Node5 [color="midnightblue",fontsize="10",style="solid",fontname="Helvetica"];
  Node5 [label="pip._internal.utils.misc.get\l_pip_version",height=0.2,width=0.4,color="black", fillcolor="white", style="filled",URL="$de/dc3/namespacepip_1_1__internal_1_1utils_1_1misc.html#a0fe392b2b98197ae4fcf878757c32c71",tooltip=" "];
  Node5 -> Node6 [color="midnightblue",fontsize="10",style="solid",fontname="Helvetica"];
  Node6 [label="pip._internal.locations.get\l_major_minor_version",height=0.2,width=0.4,color="black", fillcolor="white", style="filled",URL="$de/d72/namespacepip_1_1__internal_1_1locations.html#a9ea9af63bf94402c511cccc9648693d5",tooltip=" "];
  Node4 -> Node7 [color="midnightblue",fontsize="10",style="solid",fontname="Helvetica"];
  Node7 [label="pip._internal.utils.misc.get_prog",height=0.2,width=0.4,color="black", fillcolor="white", style="filled",URL="$de/dc3/namespacepip_1_1__internal_1_1utils_1_1misc.html#a7385d557b125e0ab0dfdec9a66951838",tooltip=" "];
  Node7 -> Node8 [color="midnightblue",fontsize="10",style="solid",fontname="Helvetica"];
  Node8 [label="pip._vendor.retrying.retry",height=0.2,width=0.4,color="black", fillcolor="white", style="filled",URL="$d9/d67/namespacepip_1_1__vendor_1_1retrying.html#a0d0b978da651593f500451f8f0428d13",tooltip=" "];
  Node1 -> Node9 [color="midnightblue",fontsize="10",style="solid",fontname="Helvetica"];
  Node9 [label="pip._internal.utils.misc.get\l_installed_distributions",height=0.2,width=0.4,color="black", fillcolor="white", style="filled",URL="$de/dc3/namespacepip_1_1__internal_1_1utils_1_1misc.html#a4c2dc9f6323695ffca115f2d1ed9c068",tooltip=" "];
  Node9 -> Node10 [color="midnightblue",fontsize="10",style="solid",fontname="Helvetica"];
  Node10 [label="pip._internal.utils.misc.dist\l_is_editable",height=0.2,width=0.4,color="black", fillcolor="white", style="filled",URL="$de/dc3/namespacepip_1_1__internal_1_1utils_1_1misc.html#a9abdfe6fcceccee8a7c651f6c9014a87",tooltip=" "];
  Node1 -> Node11 [color="midnightblue",fontsize="10",style="solid",fontname="Helvetica"];
  Node11 [label="pip._internal.cli.autocompletion.get\l_path_completion_type",height=0.2,width=0.4,color="black", fillcolor="white", style="filled",URL="$d7/d4e/namespacepip_1_1__internal_1_1cli_1_1autocompletion.html#aaad1b820f6aeb84f1d00f90b201b5e94",tooltip=" "];
}
