digraph "pip._vendor.packaging.tags.generic_tags"
{
 // LATEX_PDF_SIZE
  edge [fontname="Helvetica",fontsize="10",labelfontname="Helvetica",labelfontsize="10"];
  node [fontname="Helvetica",fontsize="10",shape=record];
  rankdir="LR";
  Node1 [label="pip._vendor.packaging.tags.generic_tags",height=0.2,width=0.4,color="black", fillcolor="grey75", style="filled", fontcolor="black",tooltip=" "];
  Node1 -> Node2 [color="midnightblue",fontsize="10",style="solid",fontname="Helvetica"];
  Node2 [label="pip._vendor.packaging.tags.\l_generic_abi",height=0.2,width=0.4,color="black", fillcolor="white", style="filled",URL="$da/df2/namespacepip_1_1__vendor_1_1packaging_1_1tags.html#a8909b21f193da56e115e9055cab3c16a",tooltip=" "];
  Node2 -> Node3 [color="midnightblue",fontsize="10",style="solid",fontname="Helvetica"];
  Node3 [label="pip._vendor.packaging.tags.\l_normalize_string",height=0.2,width=0.4,color="black", fillcolor="white", style="filled",URL="$da/df2/namespacepip_1_1__vendor_1_1packaging_1_1tags.html#af1386fcb5bdaf65eaf488ba6cc42467c",tooltip=" "];
  Node1 -> Node4 [color="midnightblue",fontsize="10",style="solid",fontname="Helvetica"];
  Node4 [label="pip._vendor.packaging.tags.\l_platform_tags",height=0.2,width=0.4,color="black", fillcolor="white", style="filled",URL="$da/df2/namespacepip_1_1__vendor_1_1packaging_1_1tags.html#adfedb043f1898437784481a14863fa0b",tooltip=" "];
  Node4 -> Node5 [color="midnightblue",fontsize="10",style="solid",fontname="Helvetica"];
  Node5 [label="pip._vendor.packaging.tags.\l_generic_platforms",height=0.2,width=0.4,color="black", fillcolor="white", style="filled",URL="$da/df2/namespacepip_1_1__vendor_1_1packaging_1_1tags.html#a473ced9ec96ba0ad10143f59e925499e",tooltip=" "];
  Node5 -> Node3 [color="midnightblue",fontsize="10",style="solid",fontname="Helvetica"];
  Node4 -> Node6 [color="midnightblue",fontsize="10",style="solid",fontname="Helvetica"];
  Node6 [label="pip._vendor.packaging.tags.\l_linux_platforms",height=0.2,width=0.4,color="black", fillcolor="white", style="filled",URL="$da/df2/namespacepip_1_1__vendor_1_1packaging_1_1tags.html#a932f561db86675d4981fbcb1bd8d875b",tooltip=" "];
  Node6 -> Node7 [color="midnightblue",fontsize="10",style="solid",fontname="Helvetica"];
  Node7 [label="pip._vendor.packaging.tags.\l_have_compatible_manylinux_abi",height=0.2,width=0.4,color="black", fillcolor="white", style="filled",URL="$da/df2/namespacepip_1_1__vendor_1_1packaging_1_1tags.html#a78798a95f385cfc1aa7e3a4298348884",tooltip=" "];
  Node7 -> Node8 [color="midnightblue",fontsize="10",style="solid",fontname="Helvetica"];
  Node8 [label="pip._vendor.packaging.tags.\l_is_linux_armhf",height=0.2,width=0.4,color="black", fillcolor="white", style="filled",URL="$da/df2/namespacepip_1_1__vendor_1_1packaging_1_1tags.html#a545be21c8d2a3da883b3ea8b41f47020",tooltip=" "];
  Node8 -> Node9 [color="midnightblue",fontsize="10",style="solid",fontname="Helvetica"];
  Node9 [label="pip._vendor.packaging.tags.\l_get_elf_header",height=0.2,width=0.4,color="black", fillcolor="white", style="filled",URL="$da/df2/namespacepip_1_1__vendor_1_1packaging_1_1tags.html#a5fb05260451aa58920868e08dc9972ab",tooltip=" "];
  Node7 -> Node10 [color="midnightblue",fontsize="10",style="solid",fontname="Helvetica"];
  Node10 [label="pip._vendor.packaging.tags.\l_is_linux_i686",height=0.2,width=0.4,color="black", fillcolor="white", style="filled",URL="$da/df2/namespacepip_1_1__vendor_1_1packaging_1_1tags.html#a5034f3a4f328ff16904d192f9d50e90a",tooltip=" "];
  Node10 -> Node9 [color="midnightblue",fontsize="10",style="solid",fontname="Helvetica"];
  Node6 -> Node11 [color="midnightblue",fontsize="10",style="solid",fontname="Helvetica"];
  Node11 [label="pip._vendor.packaging.tags.\l_is_manylinux_compatible",height=0.2,width=0.4,color="black", fillcolor="white", style="filled",URL="$da/df2/namespacepip_1_1__vendor_1_1packaging_1_1tags.html#ab1436cd8e19a5f18719caaf67dfa396b",tooltip=" "];
  Node11 -> Node12 [color="midnightblue",fontsize="10",style="solid",fontname="Helvetica"];
  Node12 [label="pip._vendor.packaging.tags.\l_have_compatible_glibc",height=0.2,width=0.4,color="black", fillcolor="white", style="filled",URL="$da/df2/namespacepip_1_1__vendor_1_1packaging_1_1tags.html#aadfb560a8d90c4853f6739b96e24615f",tooltip=" "];
  Node12 -> Node13 [color="midnightblue",fontsize="10",style="solid",fontname="Helvetica"];
  Node13 [label="pip._vendor.packaging.tags.\l_check_glibc_version",height=0.2,width=0.4,color="black", fillcolor="white", style="filled",URL="$da/df2/namespacepip_1_1__vendor_1_1packaging_1_1tags.html#a57ad29788cc28e7489f66e96b97a7ac2",tooltip=" "];
  Node12 -> Node14 [color="midnightblue",fontsize="10",style="solid",fontname="Helvetica"];
  Node14 [label="pip._vendor.packaging.tags.\l_glibc_version_string",height=0.2,width=0.4,color="black", fillcolor="white", style="filled",URL="$da/df2/namespacepip_1_1__vendor_1_1packaging_1_1tags.html#a89f570512c743bb130813ba1bc4baedf",tooltip=" "];
  Node14 -> Node15 [color="midnightblue",fontsize="10",style="solid",fontname="Helvetica"];
  Node15 [label="pip._vendor.packaging.tags.\l_glibc_version_string_confstr",height=0.2,width=0.4,color="black", fillcolor="white", style="filled",URL="$da/df2/namespacepip_1_1__vendor_1_1packaging_1_1tags.html#a6f676f97df4c85ff055ea289102002b7",tooltip=" "];
  Node14 -> Node16 [color="midnightblue",fontsize="10",style="solid",fontname="Helvetica"];
  Node16 [label="pip._vendor.packaging.tags.\l_glibc_version_string_ctypes",height=0.2,width=0.4,color="black", fillcolor="white", style="filled",URL="$da/df2/namespacepip_1_1__vendor_1_1packaging_1_1tags.html#ad4dc6727db85fd6ad1b5e71b5220f066",tooltip=" "];
  Node6 -> Node3 [color="midnightblue",fontsize="10",style="solid",fontname="Helvetica"];
  Node4 -> Node17 [color="midnightblue",fontsize="10",style="solid",fontname="Helvetica"];
  Node17 [label="pip._vendor.packaging.tags.mac\l_platforms",height=0.2,width=0.4,color="black", fillcolor="white", style="filled",URL="$da/df2/namespacepip_1_1__vendor_1_1packaging_1_1tags.html#acaa07c3ca8eebd49665c746b97e9f555",tooltip=" "];
  Node17 -> Node18 [color="midnightblue",fontsize="10",style="solid",fontname="Helvetica"];
  Node18 [label="pip._vendor.packaging.tags.\l_mac_arch",height=0.2,width=0.4,color="black", fillcolor="white", style="filled",URL="$da/df2/namespacepip_1_1__vendor_1_1packaging_1_1tags.html#ac3ec96310feb13a3e57c90617398c977",tooltip=" "];
  Node17 -> Node19 [color="midnightblue",fontsize="10",style="solid",fontname="Helvetica"];
  Node19 [label="pip._vendor.packaging.tags.\l_mac_binary_formats",height=0.2,width=0.4,color="black", fillcolor="white", style="filled",URL="$da/df2/namespacepip_1_1__vendor_1_1packaging_1_1tags.html#ae6d2b8268480bb7bc3b5b72046a9c456",tooltip=" "];
  Node17 -> Node20 [color="midnightblue",fontsize="10",style="solid",fontname="Helvetica"];
  Node20 [label="pip._internal.utils.typing.cast",height=0.2,width=0.4,color="black", fillcolor="white", style="filled",URL="$d9/d56/namespacepip_1_1__internal_1_1utils_1_1typing.html#ab37e3e9039b01929d8ac2bd74d7c37db",tooltip=" "];
  Node1 -> Node21 [color="midnightblue",fontsize="10",style="solid",fontname="Helvetica"];
  Node21 [label="pip._vendor.packaging.tags.\l_warn_keyword_parameter",height=0.2,width=0.4,color="black", fillcolor="white", style="filled",URL="$da/df2/namespacepip_1_1__vendor_1_1packaging_1_1tags.html#a5aafabe33891ce10e3790faa3632832c",tooltip=" "];
  Node1 -> Node22 [color="midnightblue",fontsize="10",style="solid",fontname="Helvetica"];
  Node22 [label="pip._vendor.packaging.tags.interpreter_name",height=0.2,width=0.4,color="black", fillcolor="white", style="filled",URL="$da/df2/namespacepip_1_1__vendor_1_1packaging_1_1tags.html#ac61b060acc6cd20bcbf8ccd0efff665d",tooltip=" "];
  Node1 -> Node23 [color="midnightblue",fontsize="10",style="solid",fontname="Helvetica"];
  Node23 [label="pip._vendor.packaging.tags.interpreter\l_version",height=0.2,width=0.4,color="black", fillcolor="white", style="filled",URL="$da/df2/namespacepip_1_1__vendor_1_1packaging_1_1tags.html#abb01d4d13f8d0d205bbe9d793a83f6f5",tooltip=" "];
  Node23 -> Node24 [color="midnightblue",fontsize="10",style="solid",fontname="Helvetica"];
  Node24 [label="pip._vendor.packaging.tags.\l_get_config_var",height=0.2,width=0.4,color="black", fillcolor="white", style="filled",URL="$da/df2/namespacepip_1_1__vendor_1_1packaging_1_1tags.html#a66188d55f57ebf4f78be82c79d842f0a",tooltip=" "];
  Node23 -> Node25 [color="midnightblue",fontsize="10",style="solid",fontname="Helvetica"];
  Node25 [label="pip._vendor.packaging.tags.\l_version_nodot",height=0.2,width=0.4,color="black", fillcolor="white", style="filled",URL="$da/df2/namespacepip_1_1__vendor_1_1packaging_1_1tags.html#a7d38202293a612e1821ef7dbccdc9f24",tooltip=" "];
  Node23 -> Node21 [color="midnightblue",fontsize="10",style="solid",fontname="Helvetica"];
}
