digraph "pip._internal.vcs.versioncontrol.VcsSupport.backends"
{
 // LATEX_PDF_SIZE
  edge [fontname="Helvetica",fontsize="10",labelfontname="Helvetica",labelfontsize="10"];
  node [fontname="Helvetica",fontsize="10",shape=record];
  rankdir="RL";
  Node1 [label="pip._internal.vcs.versioncontrol.\lVcsSupport.backends",height=0.2,width=0.4,color="black", fillcolor="grey75", style="filled", fontcolor="black",tooltip=" "];
  Node1 -> Node2 [dir="back",color="midnightblue",fontsize="10",style="solid",fontname="Helvetica"];
  Node2 [label="pip._internal.vcs.versioncontrol.\lVcsSupport.all_schemes",height=0.2,width=0.4,color="black", fillcolor="white", style="filled",URL="$df/dff/classpip_1_1__internal_1_1vcs_1_1versioncontrol_1_1_vcs_support.html#a16dfd2480ac3a00d1b9a2167ee4e1eb6",tooltip=" "];
  Node1 -> Node3 [dir="back",color="midnightblue",fontsize="10",style="solid",fontname="Helvetica"];
  Node3 [label="pip._internal.vcs.versioncontrol.\lVcsSupport.dirnames",height=0.2,width=0.4,color="black", fillcolor="white", style="filled",URL="$df/dff/classpip_1_1__internal_1_1vcs_1_1versioncontrol_1_1_vcs_support.html#a5872060c3e14b6c4c0e2694b621ad5fc",tooltip=" "];
}
