digraph "pip._internal.resolution.resolvelib.candidates.RequiresPythonCandidate.version"
{
 // LATEX_PDF_SIZE
  edge [fontname="Helvetica",fontsize="10",labelfontname="Helvetica",labelfontsize="10"];
  node [fontname="Helvetica",fontsize="10",shape=record];
  rankdir="RL";
  Node1 [label="pip._internal.resolution.resolvelib.candidates.\lRequiresPythonCandidate.version",height=0.2,width=0.4,color="black", fillcolor="grey75", style="filled", fontcolor="black",tooltip=" "];
  Node1 -> Node2 [dir="back",color="midnightblue",fontsize="10",style="solid",fontname="Helvetica"];
  Node2 [label="pip._vendor.distlib.metadata.\lLegacyMetadata.__repr__",height=0.2,width=0.4,color="black", fillcolor="white", style="filled",URL="$d3/dc5/classpip_1_1__vendor_1_1distlib_1_1metadata_1_1_legacy_metadata.html#a368ff1d11ec3a0476833acdf59541d16",tooltip=" "];
  Node1 -> Node3 [dir="back",color="midnightblue",fontsize="10",style="solid",fontname="Helvetica"];
  Node3 [label="pip._vendor.distlib.metadata.\lMetadata.__repr__",height=0.2,width=0.4,color="black", fillcolor="white", style="filled",URL="$d3/df6/classpip_1_1__vendor_1_1distlib_1_1metadata_1_1_metadata.html#a08105ca0987f9e74cb1341a463d6cbe5",tooltip=" "];
  Node1 -> Node4 [dir="back",color="midnightblue",fontsize="10",style="solid",fontname="Helvetica"];
  Node4 [label="setuptools.wheel.Wheel.\l_install_as_egg",height=0.2,width=0.4,color="black", fillcolor="white", style="filled",URL="$d8/de5/classsetuptools_1_1wheel_1_1_wheel.html#af38ad98deb2dd9550fdb649d6394af38",tooltip=" "];
  Node4 -> Node5 [dir="back",color="midnightblue",fontsize="10",style="solid",fontname="Helvetica"];
  Node5 [label="setuptools.wheel.Wheel.install\l_as_egg",height=0.2,width=0.4,color="black", fillcolor="white", style="filled",URL="$d8/de5/classsetuptools_1_1wheel_1_1_wheel.html#a4d5d8dcde757279d6509a1f9137e595d",tooltip=" "];
  Node1 -> Node6 [dir="back",color="midnightblue",fontsize="10",style="solid",fontname="Helvetica"];
  Node6 [label="pip._vendor.pkg_resources.\lDistribution._warn_legacy\l_version",height=0.2,width=0.4,color="black", fillcolor="white", style="filled",URL="$d0/ddb/classpip_1_1__vendor_1_1pkg__resources_1_1_distribution.html#a1b072988ec5f6b3637bcb0d0be0a2772",tooltip=" "];
  Node1 -> Node7 [dir="back",color="midnightblue",fontsize="10",style="solid",fontname="Helvetica"];
  Node7 [label="pkg_resources.Distribution.\l_warn_legacy_version",height=0.2,width=0.4,color="black", fillcolor="white", style="filled",URL="$d8/d25/classpkg__resources_1_1_distribution.html#a65484374785d4460c6b92f015fe19a3c",tooltip=" "];
  Node1 -> Node8 [dir="back",color="midnightblue",fontsize="10",style="solid",fontname="Helvetica"];
  Node8 [label="pip._vendor.packaging.specifiers.\l_IndividualSpecifier.contains",height=0.2,width=0.4,color="black", fillcolor="white", style="filled",URL="$d9/d98/classpip_1_1__vendor_1_1packaging_1_1specifiers_1_1___individual_specifier.html#a3463e67496c28c09997aa61fa02fbcd6",tooltip=" "];
  Node8 -> Node9 [dir="back",color="midnightblue",fontsize="10",style="solid",fontname="Helvetica"];
  Node9 [label="pkg_resources._vendor.packaging.specifiers.\l_IndividualSpecifier.__contains__",height=0.2,width=0.4,color="black", fillcolor="white", style="filled",URL="$d7/d3d/classpkg__resources_1_1__vendor_1_1packaging_1_1specifiers_1_1___individual_specifier.html#a998cb585da2ce2cbddd8788ab1dec2e9",tooltip=" "];
  Node8 -> Node10 [dir="back",color="midnightblue",fontsize="10",style="solid",fontname="Helvetica"];
  Node10 [label="pkg_resources._vendor.packaging.specifiers.\lSpecifierSet.__contains__",height=0.2,width=0.4,color="black", fillcolor="white", style="filled",URL="$d2/d90/classpkg__resources_1_1__vendor_1_1packaging_1_1specifiers_1_1_specifier_set.html#af68a49be1fe37bc12da13ca6ac4b9e49",tooltip=" "];
  Node8 -> Node11 [dir="back",color="midnightblue",fontsize="10",style="solid",fontname="Helvetica"];
  Node11 [label="setuptools._vendor.packaging.specifiers.\l_IndividualSpecifier.__contains__",height=0.2,width=0.4,color="black", fillcolor="white", style="filled",URL="$d2/dfa/classsetuptools_1_1__vendor_1_1packaging_1_1specifiers_1_1___individual_specifier.html#ac8c5634a825694d276f2cf5c4b3cb9bd",tooltip=" "];
  Node8 -> Node12 [dir="back",color="midnightblue",fontsize="10",style="solid",fontname="Helvetica"];
  Node12 [label="setuptools._vendor.packaging.specifiers.\lSpecifierSet.__contains__",height=0.2,width=0.4,color="black", fillcolor="white", style="filled",URL="$d6/d78/classsetuptools_1_1__vendor_1_1packaging_1_1specifiers_1_1_specifier_set.html#a883c1e784aebcb300e68cd5e08c7ea8a",tooltip=" "];
  Node8 -> Node13 [dir="back",color="midnightblue",fontsize="10",style="solid",fontname="Helvetica"];
  Node13 [label="pkg_resources._vendor.packaging.specifiers.\l_IndividualSpecifier.filter",height=0.2,width=0.4,color="black", fillcolor="white", style="filled",URL="$d7/d3d/classpkg__resources_1_1__vendor_1_1packaging_1_1specifiers_1_1___individual_specifier.html#a23722d79e6f85960e214288f3b782962",tooltip=" "];
  Node8 -> Node14 [dir="back",color="midnightblue",fontsize="10",style="solid",fontname="Helvetica"];
  Node14 [label="setuptools._vendor.packaging.specifiers.\l_IndividualSpecifier.filter",height=0.2,width=0.4,color="black", fillcolor="white", style="filled",URL="$d2/dfa/classsetuptools_1_1__vendor_1_1packaging_1_1specifiers_1_1___individual_specifier.html#af07e3f018647cb7a004791b6436993e1",tooltip=" "];
  Node1 -> Node15 [dir="back",color="midnightblue",fontsize="10",style="solid",fontname="Helvetica"];
  Node15 [label="pkg_resources._vendor.packaging.specifiers.\l_IndividualSpecifier.contains",height=0.2,width=0.4,color="black", fillcolor="white", style="filled",URL="$d7/d3d/classpkg__resources_1_1__vendor_1_1packaging_1_1specifiers_1_1___individual_specifier.html#afc614431c7e139a948866248f6f01bb4",tooltip=" "];
  Node15 -> Node11 [dir="back",color="midnightblue",fontsize="10",style="solid",fontname="Helvetica"];
  Node15 -> Node12 [dir="back",color="midnightblue",fontsize="10",style="solid",fontname="Helvetica"];
  Node15 -> Node14 [dir="back",color="midnightblue",fontsize="10",style="solid",fontname="Helvetica"];
  Node1 -> Node16 [dir="back",color="midnightblue",fontsize="10",style="solid",fontname="Helvetica"];
  Node16 [label="setuptools._vendor.packaging.specifiers.\l_IndividualSpecifier.contains",height=0.2,width=0.4,color="black", fillcolor="white", style="filled",URL="$d2/dfa/classsetuptools_1_1__vendor_1_1packaging_1_1specifiers_1_1___individual_specifier.html#add310771a2fd25ae2670e7ed15c81160",tooltip=" "];
  Node1 -> Node17 [dir="back",color="midnightblue",fontsize="10",style="solid",fontname="Helvetica"];
  Node17 [label="pip._vendor.pkg_resources.\lDistribution.egg_name",height=0.2,width=0.4,color="black", fillcolor="white", style="filled",URL="$d0/ddb/classpip_1_1__vendor_1_1pkg__resources_1_1_distribution.html#aa61d5600e0896e46b1708c4dcb9393f5",tooltip=" "];
  Node1 -> Node18 [dir="back",color="midnightblue",fontsize="10",style="solid",fontname="Helvetica"];
  Node18 [label="pkg_resources.Distribution.egg_name",height=0.2,width=0.4,color="black", fillcolor="white", style="filled",URL="$d8/d25/classpkg__resources_1_1_distribution.html#a229d424f62d10b7e83bba3b3efe6dbbb",tooltip=" "];
  Node1 -> Node19 [dir="back",color="midnightblue",fontsize="10",style="solid",fontname="Helvetica"];
  Node19 [label="setuptools.wheel.Wheel.egg_name",height=0.2,width=0.4,color="black", fillcolor="white", style="filled",URL="$d8/de5/classsetuptools_1_1wheel_1_1_wheel.html#a8003a0c439abab30a420897c391dfbe1",tooltip=" "];
  Node1 -> Node20 [dir="back",color="midnightblue",fontsize="10",style="solid",fontname="Helvetica"];
  Node20 [label="pip._vendor.pkg_resources.\lDistribution.has_version",height=0.2,width=0.4,color="black", fillcolor="white", style="filled",URL="$d0/ddb/classpip_1_1__vendor_1_1pkg__resources_1_1_distribution.html#acc58f778b2bb60f7b306e4d1bdef759e",tooltip=" "];
  Node1 -> Node21 [dir="back",color="midnightblue",fontsize="10",style="solid",fontname="Helvetica"];
  Node21 [label="pkg_resources.Distribution.has\l_version",height=0.2,width=0.4,color="black", fillcolor="white", style="filled",URL="$d8/d25/classpkg__resources_1_1_distribution.html#aa8b8ad9f54c86275b77b1966881df122",tooltip=" "];
  Node1 -> Node22 [dir="back",color="midnightblue",fontsize="10",style="solid",fontname="Helvetica"];
  Node22 [label="pip._vendor.distro.Linux\lDistribution.info",height=0.2,width=0.4,color="black", fillcolor="white", style="filled",URL="$db/dc1/classpip_1_1__vendor_1_1distro_1_1_linux_distribution.html#a8d936e9ec6198181f15f5b1bf07f065d",tooltip=" "];
  Node22 -> Node23 [dir="back",color="midnightblue",fontsize="10",style="solid",fontname="Helvetica"];
  Node23 [label="setuptools.package\l_index.PackageIndex.\l_download_git",height=0.2,width=0.4,color="black", fillcolor="white", style="filled",URL="$d4/dea/classsetuptools_1_1package__index_1_1_package_index.html#a3675196dae930ae7b2ebaea89e20d932",tooltip=" "];
  Node23 -> Node24 [dir="back",color="midnightblue",fontsize="10",style="solid",fontname="Helvetica"];
  Node24 [label="setuptools.package\l_index.PackageIndex.\l_download_url",height=0.2,width=0.4,color="black", fillcolor="white", style="filled",URL="$d4/dea/classsetuptools_1_1package__index_1_1_package_index.html#a003952b00c51bae4fb32fdcdd03b348e",tooltip=" "];
  Node24 -> Node25 [dir="back",color="midnightblue",fontsize="10",style="solid",fontname="Helvetica"];
  Node25 [label="setuptools.package\l_index.PackageIndex.download",height=0.2,width=0.4,color="black", fillcolor="white", style="filled",URL="$d4/dea/classsetuptools_1_1package__index_1_1_package_index.html#a100de731e036d1fc5e9604355e02deed",tooltip=" "];
  Node25 -> Node26 [dir="back",color="midnightblue",fontsize="10",style="solid",fontname="Helvetica"];
  Node26 [label="setuptools.package\l_index.PackageIndex.fetch\l_distribution",height=0.2,width=0.4,color="black", fillcolor="white", style="filled",URL="$d4/dea/classsetuptools_1_1package__index_1_1_package_index.html#a991bcc357db71bc05773ce3bb03c85a4",tooltip=" "];
  Node26 -> Node25 [dir="back",color="midnightblue",fontsize="10",style="solid",fontname="Helvetica"];
  Node26 -> Node27 [dir="back",color="midnightblue",fontsize="10",style="solid",fontname="Helvetica"];
  Node27 [label="setuptools.package\l_index.PackageIndex.fetch",height=0.2,width=0.4,color="black", fillcolor="white", style="filled",URL="$d4/dea/classsetuptools_1_1package__index_1_1_package_index.html#a4fa8a0112703f75c6af17996ce6eb66e",tooltip=" "];
  Node22 -> Node28 [dir="back",color="midnightblue",fontsize="10",style="solid",fontname="Helvetica"];
  Node28 [label="setuptools.package\l_index.PackageIndex.\l_download_hg",height=0.2,width=0.4,color="black", fillcolor="white", style="filled",URL="$d4/dea/classsetuptools_1_1package__index_1_1_package_index.html#a072151d15d9b627f8396b1d9467d8314",tooltip=" "];
  Node28 -> Node24 [dir="back",color="midnightblue",fontsize="10",style="solid",fontname="Helvetica"];
  Node22 -> Node29 [dir="back",color="midnightblue",fontsize="10",style="solid",fontname="Helvetica"];
  Node29 [label="setuptools.package\l_index.PackageIndex.\l_download_svn",height=0.2,width=0.4,color="black", fillcolor="white", style="filled",URL="$d4/dea/classsetuptools_1_1package__index_1_1_package_index.html#ad1dbd1b8256bf39e4b3cb46f27117513",tooltip=" "];
  Node29 -> Node30 [dir="back",color="midnightblue",fontsize="10",style="solid",fontname="Helvetica"];
  Node30 [label="setuptools.package\l_index.PackageIndex.\l_download_html",height=0.2,width=0.4,color="black", fillcolor="white", style="filled",URL="$d4/dea/classsetuptools_1_1package__index_1_1_package_index.html#ad506f8741a9f632d63e5afe267f5dd5f",tooltip=" "];
  Node30 -> Node31 [dir="back",color="midnightblue",fontsize="10",style="solid",fontname="Helvetica"];
  Node31 [label="setuptools.package\l_index.PackageIndex.\l_attempt_download",height=0.2,width=0.4,color="black", fillcolor="white", style="filled",URL="$d4/dea/classsetuptools_1_1package__index_1_1_package_index.html#a6e828e56d8b6cc1cf9956acad28116ba",tooltip=" "];
  Node31 -> Node24 [dir="back",color="midnightblue",fontsize="10",style="solid",fontname="Helvetica"];
  Node29 -> Node24 [dir="back",color="midnightblue",fontsize="10",style="solid",fontname="Helvetica"];
  Node22 -> Node32 [dir="back",color="midnightblue",fontsize="10",style="solid",fontname="Helvetica"];
  Node32 [label="setuptools.package\l_index.PackageIndex.\l_download_to",height=0.2,width=0.4,color="black", fillcolor="white", style="filled",URL="$d4/dea/classsetuptools_1_1package__index_1_1_package_index.html#a13766a8fc49f1efd5dff77f0d5d7e7f3",tooltip=" "];
  Node32 -> Node31 [dir="back",color="midnightblue",fontsize="10",style="solid",fontname="Helvetica"];
  Node22 -> Node26 [dir="back",color="midnightblue",fontsize="10",style="solid",fontname="Helvetica"];
  Node22 -> Node33 [dir="back",color="midnightblue",fontsize="10",style="solid",fontname="Helvetica"];
  Node33 [label="setuptools.package\l_index.PackageIndex.not\l_found_in_index",height=0.2,width=0.4,color="red", fillcolor="white", style="filled",URL="$d4/dea/classsetuptools_1_1package__index_1_1_package_index.html#a368455ef8e28ab626077dce7ced8d44e",tooltip=" "];
  Node22 -> Node36 [dir="back",color="midnightblue",fontsize="10",style="solid",fontname="Helvetica"];
  Node36 [label="setuptools.package\l_index.PackageIndex.process_url",height=0.2,width=0.4,color="red", fillcolor="white", style="filled",URL="$d4/dea/classsetuptools_1_1package__index_1_1_package_index.html#a537fc87df159c2474b7fa0ccac56513d",tooltip=" "];
  Node36 -> Node36 [dir="back",color="midnightblue",fontsize="10",style="solid",fontname="Helvetica"];
  Node22 -> Node41 [dir="back",color="midnightblue",fontsize="10",style="solid",fontname="Helvetica"];
  Node41 [label="setuptools.package\l_index.PackageIndex.scan_all",height=0.2,width=0.4,color="red", fillcolor="white", style="filled",URL="$d4/dea/classsetuptools_1_1package__index_1_1_package_index.html#a8ece2bde59e0845f58d8ca216d57d1ef",tooltip=" "];
  Node41 -> Node33 [dir="back",color="midnightblue",fontsize="10",style="solid",fontname="Helvetica"];
  Node1 -> Node43 [dir="back",color="midnightblue",fontsize="10",style="solid",fontname="Helvetica"];
  Node43 [label="pip._vendor.distro.Linux\lDistribution.linux_distribution",height=0.2,width=0.4,color="black", fillcolor="white", style="filled",URL="$db/dc1/classpip_1_1__vendor_1_1distro_1_1_linux_distribution.html#a9deb9d70ba82d370ba5fd4b1ac7473e6",tooltip=" "];
  Node1 -> Node44 [dir="back",color="midnightblue",fontsize="10",style="solid",fontname="Helvetica"];
  Node44 [label="pip._vendor.distro.Linux\lDistribution.name",height=0.2,width=0.4,color="black", fillcolor="white", style="filled",URL="$db/dc1/classpip_1_1__vendor_1_1distro_1_1_linux_distribution.html#a7bbcbb9f1bf561b231f594b5bb251dbc",tooltip=" "];
  Node44 -> Node45 [dir="back",color="midnightblue",fontsize="10",style="solid",fontname="Helvetica"];
  Node45 [label="setuptools._distutils.versionpredicate.\lVersionPredicate.__init__",height=0.2,width=0.4,color="red", fillcolor="white", style="filled",URL="$de/da4/classsetuptools_1_1__distutils_1_1versionpredicate_1_1_version_predicate.html#a50b7ef93717276fd4d7ea45efe206b1f",tooltip=" "];
  Node44 -> Node2 [dir="back",color="midnightblue",fontsize="10",style="solid",fontname="Helvetica"];
  Node44 -> Node3 [dir="back",color="midnightblue",fontsize="10",style="solid",fontname="Helvetica"];
  Node44 -> Node47 [dir="back",color="midnightblue",fontsize="10",style="solid",fontname="Helvetica"];
  Node47 [label="setuptools._distutils.versionpredicate.\lVersionPredicate.__str__",height=0.2,width=0.4,color="black", fillcolor="white", style="filled",URL="$de/da4/classsetuptools_1_1__distutils_1_1versionpredicate_1_1_version_predicate.html#abd1b824f167ab2c1b646159d1d3539f1",tooltip=" "];
  Node44 -> Node48 [dir="back",color="midnightblue",fontsize="10",style="solid",fontname="Helvetica"];
  Node48 [label="setuptools.command.egg\l_info.egg_info.finalize\l_options",height=0.2,width=0.4,color="black", fillcolor="white", style="filled",URL="$d4/dd5/classsetuptools_1_1command_1_1egg__info_1_1egg__info.html#ab62dc812cd7873e55721c014fcf3207f",tooltip=" "];
  Node44 -> Node49 [dir="back",color="midnightblue",fontsize="10",style="solid",fontname="Helvetica"];
  Node49 [label="setuptools.depends.Require.full_name",height=0.2,width=0.4,color="black", fillcolor="white", style="filled",URL="$d2/d91/classsetuptools_1_1depends_1_1_require.html#aafeb6a0853fe7b53c649a90b4860aa1b",tooltip=" "];
  Node44 -> Node43 [dir="back",color="midnightblue",fontsize="10",style="solid",fontname="Helvetica"];
  Node44 -> Node50 [dir="back",color="midnightblue",fontsize="10",style="solid",fontname="Helvetica"];
  Node50 [label="pip._vendor.distlib.metadata.\lMetadata.name_and_version",height=0.2,width=0.4,color="black", fillcolor="white", style="filled",URL="$d3/df6/classpip_1_1__vendor_1_1distlib_1_1metadata_1_1_metadata.html#a958dc84c5959001c3c94c99c262c8268",tooltip=" "];
  Node44 -> Node51 [dir="back",color="midnightblue",fontsize="10",style="solid",fontname="Helvetica"];
  Node51 [label="pip._vendor.distlib.metadata.\lMetadata.provides",height=0.2,width=0.4,color="black", fillcolor="white", style="filled",URL="$d3/df6/classpip_1_1__vendor_1_1distlib_1_1metadata_1_1_metadata.html#a700307186309aa299c50bbe7515cb58d",tooltip=" "];
  Node51 -> Node52 [dir="back",color="midnightblue",fontsize="10",style="solid",fontname="Helvetica"];
  Node52 [label="pip._vendor.distlib.metadata.\lMetadata._from_legacy",height=0.2,width=0.4,color="red", fillcolor="white", style="filled",URL="$d3/df6/classpip_1_1__vendor_1_1distlib_1_1metadata_1_1_metadata.html#a78ae3c1cd2c31e4376d991cba08ba678",tooltip=" "];
  Node51 -> Node60 [dir="back",color="midnightblue",fontsize="10",style="solid",fontname="Helvetica"];
  Node60 [label="pip._vendor.distlib.metadata.\lMetadata.provides",height=0.2,width=0.4,color="black", fillcolor="white", style="filled",URL="$d3/df6/classpip_1_1__vendor_1_1distlib_1_1metadata_1_1_metadata.html#a058ff05fbfaee325e2adc105f9ff6748",tooltip=" "];
  Node44 -> Node61 [dir="back",color="midnightblue",fontsize="10",style="solid",fontname="Helvetica"];
  Node61 [label="pip._internal.vcs.versioncontrol.\lVcsSupport.register",height=0.2,width=0.4,color="black", fillcolor="white", style="filled",URL="$df/dff/classpip_1_1__internal_1_1vcs_1_1versioncontrol_1_1_vcs_support.html#a69650573cc250eef73d42fa803e8f402",tooltip=" "];
  Node1 -> Node50 [dir="back",color="midnightblue",fontsize="10",style="solid",fontname="Helvetica"];
  Node1 -> Node51 [dir="back",color="midnightblue",fontsize="10",style="solid",fontname="Helvetica"];
  Node1 -> Node62 [dir="back",color="midnightblue",fontsize="10",style="solid",fontname="Helvetica"];
  Node62 [label="pip._vendor.distro.Linux\lDistribution.version_parts",height=0.2,width=0.4,color="black", fillcolor="white", style="filled",URL="$db/dc1/classpip_1_1__vendor_1_1distro_1_1_linux_distribution.html#a75cf0bb28d95514dc96425ef8c192660",tooltip=" "];
  Node62 -> Node63 [dir="back",color="midnightblue",fontsize="10",style="solid",fontname="Helvetica"];
  Node63 [label="pip._vendor.distro.Linux\lDistribution.build_number",height=0.2,width=0.4,color="black", fillcolor="white", style="filled",URL="$db/dc1/classpip_1_1__vendor_1_1distro_1_1_linux_distribution.html#a6f133fc881eea68a8fd21dde923639f3",tooltip=" "];
  Node63 -> Node22 [dir="back",color="midnightblue",fontsize="10",style="solid",fontname="Helvetica"];
  Node62 -> Node64 [dir="back",color="midnightblue",fontsize="10",style="solid",fontname="Helvetica"];
  Node64 [label="pip._vendor.distro.Linux\lDistribution.major_version",height=0.2,width=0.4,color="black", fillcolor="white", style="filled",URL="$db/dc1/classpip_1_1__vendor_1_1distro_1_1_linux_distribution.html#a506c0bccc9c7486786b399ef3d0ac122",tooltip=" "];
  Node64 -> Node22 [dir="back",color="midnightblue",fontsize="10",style="solid",fontname="Helvetica"];
  Node62 -> Node65 [dir="back",color="midnightblue",fontsize="10",style="solid",fontname="Helvetica"];
  Node65 [label="pip._vendor.distro.Linux\lDistribution.minor_version",height=0.2,width=0.4,color="black", fillcolor="white", style="filled",URL="$db/dc1/classpip_1_1__vendor_1_1distro_1_1_linux_distribution.html#a56ce7b60ce6e6d469ef2ca23999dbbc7",tooltip=" "];
  Node65 -> Node22 [dir="back",color="midnightblue",fontsize="10",style="solid",fontname="Helvetica"];
}
