digraph "pip._vendor.progress.Progress.iter"
{
 // LATEX_PDF_SIZE
  edge [fontname="Helvetica",fontsize="10",labelfontname="Helvetica",labelfontsize="10"];
  node [fontname="Helvetica",fontsize="10",shape=record];
  rankdir="LR";
  Node1 [label="pip._vendor.progress.Progress.iter",height=0.2,width=0.4,color="black", fillcolor="grey75", style="filled", fontcolor="black",tooltip=" "];
  Node1 -> Node2 [color="midnightblue",fontsize="10",style="solid"];
  Node2 [label="pip._vendor.distlib.\l_backport.tarfile.TarFile.next",height=0.2,width=0.4,color="black", fillcolor="white", style="filled",URL="$d7/d1d/classpip_1_1__vendor_1_1distlib_1_1__backport_1_1tarfile_1_1_tar_file.html#a16d955e015f24f134fc0881e2b8b2997",tooltip=" "];
  Node2 -> Node3 [color="midnightblue",fontsize="10",style="solid"];
  Node3 [label="pip._vendor.distlib.\l_backport.tarfile.TarFile._check",height=0.2,width=0.4,color="black", fillcolor="white", style="filled",URL="$d7/d1d/classpip_1_1__vendor_1_1distlib_1_1__backport_1_1tarfile_1_1_tar_file.html#a8c4c13b51e4d116208c6340eb1d655f1",tooltip=" "];
  Node2 -> Node4 [color="midnightblue",fontsize="10",style="solid"];
  Node4 [label="pip._vendor.distlib.\l_backport.tarfile.TarFile._dbg",height=0.2,width=0.4,color="black", fillcolor="white", style="filled",URL="$d7/d1d/classpip_1_1__vendor_1_1distlib_1_1__backport_1_1tarfile_1_1_tar_file.html#a44a06bfe807afa0024ccbff40c0939a3",tooltip=" "];
  Node1 -> Node5 [color="midnightblue",fontsize="10",style="solid"];
  Node5 [label="pip._vendor.distlib.util.\lCSVReader.next",height=0.2,width=0.4,color="black", fillcolor="white", style="filled",URL="$df/dd3/classpip_1_1__vendor_1_1distlib_1_1util_1_1_c_s_v_reader.html#a672415c10536bbf4e1137c96ca5e5343",tooltip=" "];
  Node1 -> Node6 [color="midnightblue",fontsize="10",style="solid"];
  Node6 [label="pip._vendor.html5lib.\l_inputstream.EncodingBytes.next",height=0.2,width=0.4,color="black", fillcolor="white", style="filled",URL="$d9/d4d/classpip_1_1__vendor_1_1html5lib_1_1__inputstream_1_1_encoding_bytes.html#ad823c9a351bc43351e9d04d27accb371",tooltip=" "];
  Node6 -> Node7 [color="midnightblue",fontsize="10",style="solid"];
  Node7 [label="pip._vendor.distlib.\l_backport.tarfile.TarIter.\l__next__",height=0.2,width=0.4,color="black", fillcolor="white", style="filled",URL="$d1/dcf/classpip_1_1__vendor_1_1distlib_1_1__backport_1_1tarfile_1_1_tar_iter.html#af67b8320f49fc25d7f10d0f61c738110",tooltip=" "];
  Node6 -> Node8 [color="midnightblue",fontsize="10",style="solid"];
  Node8 [label="pip._vendor.html5lib.\l_inputstream.EncodingBytes.\l__next__",height=0.2,width=0.4,color="black", fillcolor="white", style="filled",URL="$d9/d4d/classpip_1_1__vendor_1_1html5lib_1_1__inputstream_1_1_encoding_bytes.html#a328b56cc9d2debf3c0dd6ef634fbc924",tooltip=" "];
  Node1 -> Node9 [color="midnightblue",fontsize="10",style="solid"];
  Node9 [label="pip._vendor.progress.Infinite.next",height=0.2,width=0.4,color="black", fillcolor="white", style="filled",URL="$d0/da8/classpip_1_1__vendor_1_1progress_1_1_infinite.html#a4d198b1f87d7e88699771feb9f4d6630",tooltip=" "];
  Node9 -> Node10 [color="midnightblue",fontsize="10",style="solid"];
  Node10 [label="pip._vendor.distlib.compat.\lOrderedDict.update",height=0.2,width=0.4,color="black", fillcolor="white", style="filled",URL="$d8/dae/classpip_1_1__vendor_1_1distlib_1_1compat_1_1_ordered_dict.html#ad86dd64571a978faf9ccaa7e2e3d688f",tooltip=" "];
  Node9 -> Node11 [color="midnightblue",fontsize="10",style="solid"];
  Node11 [label="pip._internal.cli.progress\l_bars.SilentBar.update",height=0.2,width=0.4,color="black", fillcolor="white", style="filled",URL="$d5/d7d/classpip_1_1__internal_1_1cli_1_1progress__bars_1_1_silent_bar.html#a2576a60f623d878edebbac9d03112ab9",tooltip=" "];
  Node9 -> Node12 [color="midnightblue",fontsize="10",style="solid"];
  Node12 [label="pip._internal.cli.progress\l_bars.DownloadProgressSpinner.update",height=0.2,width=0.4,color="black", fillcolor="white", style="filled",URL="$d7/d79/classpip_1_1__internal_1_1cli_1_1progress__bars_1_1_download_progress_spinner.html#ad89eb5dd5b755a1716693ee57534a5ff",tooltip=" "];
  Node12 -> Node13 [color="midnightblue",fontsize="10",style="solid"];
  Node13 [label="pip._internal.cli.progress\l_bars.DownloadProgressSpinner.next_phase",height=0.2,width=0.4,color="black", fillcolor="white", style="filled",URL="$d7/d79/classpip_1_1__internal_1_1cli_1_1progress__bars_1_1_download_progress_spinner.html#a8f5e7dcb2e9cb3073a3e428c7814a277",tooltip=" "];
  Node12 -> Node14 [color="midnightblue",fontsize="10",style="solid"];
  Node14 [label="pip._vendor.progress.Infinite.writeln",height=0.2,width=0.4,color="black", fillcolor="white", style="filled",URL="$d0/da8/classpip_1_1__vendor_1_1progress_1_1_infinite.html#aa8656c55c84ad3f0722d7e4c835036dc",tooltip=" "];
  Node14 -> Node15 [color="midnightblue",fontsize="10",style="solid"];
  Node15 [label="pip._vendor.progress.Infinite.clearln",height=0.2,width=0.4,color="black", fillcolor="white", style="filled",URL="$d0/da8/classpip_1_1__vendor_1_1progress_1_1_infinite.html#aaddc9da3c935ed1dc1775259ff37c657",tooltip=" "];
  Node14 -> Node16 [color="midnightblue",fontsize="10",style="solid"];
  Node16 [label="pip._vendor.progress.Infinite.is_tty",height=0.2,width=0.4,color="black", fillcolor="white", style="filled",URL="$d0/da8/classpip_1_1__vendor_1_1progress_1_1_infinite.html#acb2f63aeaa69421962c9272843da1974",tooltip=" "];
  Node9 -> Node17 [color="midnightblue",fontsize="10",style="solid"];
  Node17 [label="pip._vendor.progress.Infinite.update",height=0.2,width=0.4,color="black", fillcolor="white", style="filled",URL="$d0/da8/classpip_1_1__vendor_1_1progress_1_1_infinite.html#a9dfb83a7d59007b4dc13cbbe64e05661",tooltip=" "];
  Node9 -> Node18 [color="midnightblue",fontsize="10",style="solid"];
  Node18 [label="pip._vendor.distlib.util.\lProgress.update",height=0.2,width=0.4,color="black", fillcolor="white", style="filled",URL="$db/d8e/classpip_1_1__vendor_1_1distlib_1_1util_1_1_progress.html#a0e2c7e6e0640762949d9493550a192e8",tooltip=" "];
  Node9 -> Node19 [color="midnightblue",fontsize="10",style="solid"];
  Node19 [label="pip._internal.vcs.bazaar.\lBazaar.update",height=0.2,width=0.4,color="black", fillcolor="white", style="filled",URL="$d6/de7/classpip_1_1__internal_1_1vcs_1_1bazaar_1_1_bazaar.html#a0ba5a90abd295871d8f9ccd190ac58d6",tooltip=" "];
  Node19 -> Node20 [color="midnightblue",fontsize="10",style="solid"];
  Node20 [label="pip._internal.utils.subprocess.make\l_command",height=0.2,width=0.4,color="black", fillcolor="white", style="filled",URL="$de/d4d/namespacepip_1_1__internal_1_1utils_1_1subprocess.html#a943de158c89fb35ee9e6956dc4025cd8",tooltip=" "];
  Node19 -> Node21 [color="midnightblue",fontsize="10",style="solid"];
  Node21 [label="pip._internal.vcs.versioncontrol.\lVersionControl.run_command",height=0.2,width=0.4,color="black", fillcolor="white", style="filled",URL="$d0/db7/classpip_1_1__internal_1_1vcs_1_1versioncontrol_1_1_version_control.html#ad61672608a8af9f7250a5b52805e32da",tooltip=" "];
  Node21 -> Node22 [color="midnightblue",fontsize="10",style="solid"];
  Node22 [label="pip._internal.vcs.versioncontrol.call\l_subprocess",height=0.2,width=0.4,color="red", fillcolor="white", style="filled",URL="$d1/d2c/namespacepip_1_1__internal_1_1vcs_1_1versioncontrol.html#aee5031c77b49541d4363c8a519c8e45e",tooltip=" "];
  Node21 -> Node20 [color="midnightblue",fontsize="10",style="solid"];
  Node9 -> Node29 [color="midnightblue",fontsize="10",style="solid"];
  Node29 [label="pip._internal.vcs.git.Git.update",height=0.2,width=0.4,color="black", fillcolor="white", style="filled",URL="$d8/d4d/classpip_1_1__internal_1_1vcs_1_1git_1_1_git.html#aa5158c33dc4a263752d57a944939e196",tooltip=" "];
  Node29 -> Node30 [color="midnightblue",fontsize="10",style="solid"];
  Node30 [label="pip._internal.vcs.git.Git.get\l_git_version",height=0.2,width=0.4,color="black", fillcolor="white", style="filled",URL="$d8/d4d/classpip_1_1__internal_1_1vcs_1_1git_1_1_git.html#ad237bd25668f1d0169ed3f5c1ddb7363",tooltip=" "];
  Node30 -> Node31 [color="midnightblue",fontsize="10",style="solid"];
  Node31 [label="pip._vendor.pkg_resources.parse\l_version",height=0.2,width=0.4,color="black", fillcolor="white", style="filled",URL="$d7/dcc/namespacepip_1_1__vendor_1_1pkg__resources.html#a92bc2b76ba59a7f7e2c264890b280a65",tooltip=" "];
  Node30 -> Node21 [color="midnightblue",fontsize="10",style="solid"];
  Node29 -> Node20 [color="midnightblue",fontsize="10",style="solid"];
  Node29 -> Node31 [color="midnightblue",fontsize="10",style="solid"];
  Node29 -> Node32 [color="midnightblue",fontsize="10",style="solid"];
  Node32 [label="pip._internal.vcs.git.Git.resolve\l_revision",height=0.2,width=0.4,color="red", fillcolor="white", style="filled",URL="$d8/d4d/classpip_1_1__internal_1_1vcs_1_1git_1_1_git.html#a85b6fa33df082d3943a53f5507df3bb2",tooltip=" "];
  Node32 -> Node33 [color="midnightblue",fontsize="10",style="solid"];
  Node33 [label="pip._internal.vcs.bazaar.\lBazaar.get_revision",height=0.2,width=0.4,color="black", fillcolor="white", style="filled",URL="$d6/de7/classpip_1_1__internal_1_1vcs_1_1bazaar_1_1_bazaar.html#a4b44437ab0ee8f6233737cf313fee76d",tooltip=" "];
  Node33 -> Node21 [color="midnightblue",fontsize="10",style="solid"];
  Node32 -> Node34 [color="midnightblue",fontsize="10",style="solid"];
  Node34 [label="pip._internal.vcs.git.Git.get\l_revision",height=0.2,width=0.4,color="black", fillcolor="white", style="filled",URL="$d8/d4d/classpip_1_1__internal_1_1vcs_1_1git_1_1_git.html#a8d0a21c308892ce38a2f18d15c28927c",tooltip=" "];
  Node34 -> Node21 [color="midnightblue",fontsize="10",style="solid"];
  Node32 -> Node35 [color="midnightblue",fontsize="10",style="solid"];
  Node35 [label="pip._internal.vcs.git.Git.get\l_revision_sha",height=0.2,width=0.4,color="black", fillcolor="white", style="filled",URL="$d8/d4d/classpip_1_1__internal_1_1vcs_1_1git_1_1_git.html#a8b2d6bd99548e4ebd47035d9066c488b",tooltip=" "];
  Node35 -> Node21 [color="midnightblue",fontsize="10",style="solid"];
  Node32 -> Node20 [color="midnightblue",fontsize="10",style="solid"];
  Node32 -> Node21 [color="midnightblue",fontsize="10",style="solid"];
  Node29 -> Node21 [color="midnightblue",fontsize="10",style="solid"];
  Node29 -> Node37 [color="midnightblue",fontsize="10",style="solid"];
  Node37 [label="pip._internal.vcs.git.Git.update\l_submodules",height=0.2,width=0.4,color="black", fillcolor="white", style="filled",URL="$d8/d4d/classpip_1_1__internal_1_1vcs_1_1git_1_1_git.html#a6cd58ea4608a75bdfb07e06f0137e07f",tooltip=" "];
  Node37 -> Node21 [color="midnightblue",fontsize="10",style="solid"];
  Node9 -> Node38 [color="midnightblue",fontsize="10",style="solid"];
  Node38 [label="pip._internal.vcs.mercurial.\lMercurial.update",height=0.2,width=0.4,color="black", fillcolor="white", style="filled",URL="$db/da0/classpip_1_1__internal_1_1vcs_1_1mercurial_1_1_mercurial.html#a43f117f7c17f95fe847d20f08c608f58",tooltip=" "];
  Node38 -> Node20 [color="midnightblue",fontsize="10",style="solid"];
  Node38 -> Node21 [color="midnightblue",fontsize="10",style="solid"];
  Node9 -> Node39 [color="midnightblue",fontsize="10",style="solid"];
  Node39 [label="pip._internal.vcs.subversion.\lSubversion.update",height=0.2,width=0.4,color="black", fillcolor="white", style="filled",URL="$d2/db0/classpip_1_1__internal_1_1vcs_1_1subversion_1_1_subversion.html#af9efc6f286384fb3f4791c4c23a1633c",tooltip=" "];
  Node39 -> Node40 [color="midnightblue",fontsize="10",style="solid"];
  Node40 [label="pip._internal.vcs.subversion.\lSubversion.get_remote_call\l_options",height=0.2,width=0.4,color="red", fillcolor="white", style="filled",URL="$d2/db0/classpip_1_1__internal_1_1vcs_1_1subversion_1_1_subversion.html#a894ac76a60631cd377d58eec97f92772",tooltip=" "];
  Node39 -> Node20 [color="midnightblue",fontsize="10",style="solid"];
  Node39 -> Node21 [color="midnightblue",fontsize="10",style="solid"];
  Node9 -> Node43 [color="midnightblue",fontsize="10",style="solid"];
  Node43 [label="pip._internal.vcs.versioncontrol.\lVersionControl.update",height=0.2,width=0.4,color="black", fillcolor="white", style="filled",URL="$d0/db7/classpip_1_1__internal_1_1vcs_1_1versioncontrol_1_1_version_control.html#a5c081d6a71565d9b4b090af740c4c597",tooltip=" "];
  Node9 -> Node44 [color="midnightblue",fontsize="10",style="solid"];
  Node44 [label="pip._vendor.distlib.wheel.\lWheel.update",height=0.2,width=0.4,color="black", fillcolor="white", style="filled",URL="$d1/d0b/classpip_1_1__vendor_1_1distlib_1_1wheel_1_1_wheel.html#ac7e58a7d70d5ef6abd9102c379d88360",tooltip=" "];
  Node44 -> Node45 [color="midnightblue",fontsize="10",style="solid"];
  Node45 [label="pip._vendor.distlib.wheel.\lWheel.build_zip",height=0.2,width=0.4,color="black", fillcolor="white", style="filled",URL="$d1/d0b/classpip_1_1__vendor_1_1distlib_1_1wheel_1_1_wheel.html#ad77b3d32f4917bff298040e6e7756c75",tooltip=" "];
  Node44 -> Node46 [color="midnightblue",fontsize="10",style="solid"];
  Node46 [label="pip._vendor.distlib.util.convert_path",height=0.2,width=0.4,color="black", fillcolor="white", style="filled",URL="$d6/d99/namespacepip_1_1__vendor_1_1distlib_1_1util.html#a0935a67d848f4420d9c2250f5abfb56b",tooltip=" "];
  Node44 -> Node47 [color="midnightblue",fontsize="10",style="solid"];
  Node47 [label="pip._internal.models.link.\lLink.filename",height=0.2,width=0.4,color="red", fillcolor="white", style="filled",URL="$de/da5/classpip_1_1__internal_1_1models_1_1link_1_1_link.html#ae1daa5521205c1e735c9ffc1d9305d80",tooltip=" "];
  Node44 -> Node51 [color="midnightblue",fontsize="10",style="solid"];
  Node51 [label="pip._vendor.distlib.wheel.\lWheel.filename",height=0.2,width=0.4,color="black", fillcolor="white", style="filled",URL="$d1/d0b/classpip_1_1__vendor_1_1distlib_1_1wheel_1_1_wheel.html#a6110ed047c86b977e51a75f43323485e",tooltip=" "];
  Node44 -> Node52 [color="midnightblue",fontsize="10",style="solid"];
  Node52 [label="pip._vendor.distlib.util.tempdir",height=0.2,width=0.4,color="black", fillcolor="white", style="filled",URL="$d6/d99/namespacepip_1_1__vendor_1_1distlib_1_1util.html#ac673f767106dfff08d0c1a4e857e64bc",tooltip=" "];
  Node44 -> Node53 [color="midnightblue",fontsize="10",style="solid"];
  Node53 [label="pip._vendor.distlib.wheel.\lWheel.write_records",height=0.2,width=0.4,color="red", fillcolor="white", style="filled",URL="$d1/d0b/classpip_1_1__vendor_1_1distlib_1_1wheel_1_1_wheel.html#adc805b0d0ec56a7e8c56570cced65bef",tooltip=" "];
  Node9 -> Node73 [color="midnightblue",fontsize="10",style="solid"];
  Node73 [label="pip._vendor.distlib.metadata.\lLegacyMetadata.update",height=0.2,width=0.4,color="black", fillcolor="white", style="filled",URL="$d3/dc5/classpip_1_1__vendor_1_1distlib_1_1metadata_1_1_legacy_metadata.html#aa2c1a87cda9979f35ca5a669f6d7bb21",tooltip=" "];
  Node73 -> Node74 [color="midnightblue",fontsize="10",style="solid"];
  Node74 [label="pip._vendor.distlib.metadata.\lLegacyMetadata._convert_name",height=0.2,width=0.4,color="black", fillcolor="white", style="filled",URL="$d3/dc5/classpip_1_1__vendor_1_1distlib_1_1metadata_1_1_legacy_metadata.html#aba85ccc920e493d76cea58d2061a9501",tooltip=" "];
  Node73 -> Node75 [color="midnightblue",fontsize="10",style="solid"];
  Node75 [label="pip._internal.network.cache.\lSafeFileCache.set",height=0.2,width=0.4,color="red", fillcolor="white", style="filled",URL="$d6/db2/classpip_1_1__internal_1_1network_1_1cache_1_1_safe_file_cache.html#a34ad2a642c27b2833057d791ddc4ec0f",tooltip=" "];
  Node73 -> Node81 [color="midnightblue",fontsize="10",style="solid"];
  Node81 [label="pip._vendor.cachecontrol.cache.\lBaseCache.set",height=0.2,width=0.4,color="black", fillcolor="white", style="filled",URL="$da/d8a/classpip_1_1__vendor_1_1cachecontrol_1_1cache_1_1_base_cache.html#aa36247ddf4e818de3a025bcc3170145c",tooltip=" "];
  Node73 -> Node82 [color="midnightblue",fontsize="10",style="solid"];
  Node82 [label="pip._vendor.cachecontrol.cache.\lDictCache.set",height=0.2,width=0.4,color="black", fillcolor="white", style="filled",URL="$da/d77/classpip_1_1__vendor_1_1cachecontrol_1_1cache_1_1_dict_cache.html#a9b5614f237eb177116da66a9c12bf63d",tooltip=" "];
  Node73 -> Node83 [color="midnightblue",fontsize="10",style="solid"];
  Node83 [label="pip._vendor.cachecontrol.caches.file\l_cache.FileCache.set",height=0.2,width=0.4,color="red", fillcolor="white", style="filled",URL="$d4/d5e/classpip_1_1__vendor_1_1cachecontrol_1_1caches_1_1file__cache_1_1_file_cache.html#a7cd74c84895c0914d0561d7ad47a9288",tooltip=" "];
  Node73 -> Node87 [color="midnightblue",fontsize="10",style="solid"];
  Node87 [label="pip._vendor.cachecontrol.caches.redis\l_cache.RedisCache.set",height=0.2,width=0.4,color="black", fillcolor="white", style="filled",URL="$dd/d2e/classpip_1_1__vendor_1_1cachecontrol_1_1caches_1_1redis__cache_1_1_redis_cache.html#a3f3a9ca3c48de65c314cabb497e403de",tooltip=" "];
  Node73 -> Node88 [color="midnightblue",fontsize="10",style="solid"];
  Node88 [label="pip._vendor.distlib.metadata.\lLegacyMetadata.set",height=0.2,width=0.4,color="red", fillcolor="white", style="filled",URL="$d3/dc5/classpip_1_1__vendor_1_1distlib_1_1metadata_1_1_legacy_metadata.html#a2c135b8e7ca6361e1ebb6506e0fc5070",tooltip=" "];
  Node88 -> Node74 [color="midnightblue",fontsize="10",style="solid"];
  Node9 -> Node96 [color="midnightblue",fontsize="10",style="solid"];
  Node96 [label="pip._vendor.progress.Infinite.update_avg",height=0.2,width=0.4,color="black", fillcolor="white", style="filled",URL="$d0/da8/classpip_1_1__vendor_1_1progress_1_1_infinite.html#a8035c30e99083a632533e4690ddaf78e",tooltip=" "];
}
