digraph "pip._vendor.progress.Progress.eta"
{
 // LATEX_PDF_SIZE
  edge [fontname="Helvetica",fontsize="10",labelfontname="Helvetica",labelfontsize="10"];
  node [fontname="Helvetica",fontsize="10",shape=record];
  rankdir="LR";
  Node1 [label="pip._vendor.progress.Progress.eta",height=0.2,width=0.4,color="black", fillcolor="grey75", style="filled", fontcolor="black",tooltip=" "];
  Node1 -> Node2 [color="midnightblue",fontsize="10",style="solid"];
  Node2 [label="pip._vendor.progress.Progress.remaining",height=0.2,width=0.4,color="black", fillcolor="white", style="filled",URL="$d7/dc2/classpip_1_1__vendor_1_1progress_1_1_progress.html#afce9264c30f2d0bba357c483f27db20b",tooltip=" "];
}
