digraph "pip._vendor.distlib._backport.sysconfig.get_python_version"
{
 // LATEX_PDF_SIZE
  edge [fontname="Helvetica",fontsize="10",labelfontname="Helvetica",labelfontsize="10"];
  node [fontname="Helvetica",fontsize="10",shape=record];
  rankdir="RL";
  Node1 [label="pip._vendor.distlib.\l_backport.sysconfig.get\l_python_version",height=0.2,width=0.4,color="black", fillcolor="grey75", style="filled", fontcolor="black",tooltip=" "];
  Node1 -> Node2 [dir="back",color="midnightblue",fontsize="10",style="solid"];
  Node2 [label="pip._vendor.distlib.\l_backport.sysconfig._main",height=0.2,width=0.4,color="black", fillcolor="white", style="filled",URL="$de/df1/namespacepip_1_1__vendor_1_1distlib_1_1__backport_1_1sysconfig.html#a44984b4b1c016ad8b21ecc624d771454",tooltip=" "];
  Node1 -> Node3 [dir="back",color="midnightblue",fontsize="10",style="solid"];
  Node3 [label="setuptools._distutils.command.bdist\l_msi.bdist_msi.finalize_options",height=0.2,width=0.4,color="black", fillcolor="white", style="filled",URL="$d4/d63/classsetuptools_1_1__distutils_1_1command_1_1bdist__msi_1_1bdist__msi.html#a8abbc1c1a7b9684fc6f83e4f83c3463f",tooltip=" "];
  Node3 -> Node4 [dir="back",color="midnightblue",fontsize="10",style="solid"];
  Node4 [label="setuptools._distutils.command.register.register.run",height=0.2,width=0.4,color="black", fillcolor="white", style="filled",URL="$de/de8/classsetuptools_1_1__distutils_1_1command_1_1register_1_1register.html#abd5bb7740da36e4892bc45621a73d781",tooltip=" "];
  Node1 -> Node5 [dir="back",color="midnightblue",fontsize="10",style="solid"];
  Node5 [label="setuptools._distutils.command.bdist\l_wininst.bdist_wininst.finalize_options",height=0.2,width=0.4,color="black", fillcolor="white", style="filled",URL="$d5/df2/classsetuptools_1_1__distutils_1_1command_1_1bdist__wininst_1_1bdist__wininst.html#a987be5e1ce650710a870fec0648f285f",tooltip=" "];
  Node5 -> Node4 [dir="back",color="midnightblue",fontsize="10",style="solid"];
  Node1 -> Node6 [dir="back",color="midnightblue",fontsize="10",style="solid"];
  Node6 [label="setuptools._distutils.command.build\l_ext.build_ext.finalize_options",height=0.2,width=0.4,color="black", fillcolor="white", style="filled",URL="$d0/d4b/classsetuptools_1_1__distutils_1_1command_1_1build__ext_1_1build__ext.html#ac37e44017ecb8c528a10df9bbffcf130",tooltip=" "];
  Node6 -> Node4 [dir="back",color="midnightblue",fontsize="10",style="solid"];
  Node1 -> Node7 [dir="back",color="midnightblue",fontsize="10",style="solid"];
  Node7 [label="setuptools._distutils.command.bdist\l_wininst.bdist_wininst.get_exe_bytes",height=0.2,width=0.4,color="black", fillcolor="white", style="filled",URL="$d5/df2/classsetuptools_1_1__distutils_1_1command_1_1bdist__wininst_1_1bdist__wininst.html#a1d35d3fa154035505cccfed0b0619770",tooltip=" "];
  Node7 -> Node8 [dir="back",color="midnightblue",fontsize="10",style="solid"];
  Node8 [label="setuptools._distutils.command.bdist\l_wininst.bdist_wininst.create_exe",height=0.2,width=0.4,color="black", fillcolor="white", style="filled",URL="$d5/df2/classsetuptools_1_1__distutils_1_1command_1_1bdist__wininst_1_1bdist__wininst.html#a9e7d67f7545b8676180d34b97ef3f5d1",tooltip=" "];
  Node8 -> Node9 [dir="back",color="midnightblue",fontsize="10",style="solid"];
  Node9 [label="setuptools._distutils.command.bdist\l_wininst.bdist_wininst.run",height=0.2,width=0.4,color="black", fillcolor="white", style="filled",URL="$d5/df2/classsetuptools_1_1__distutils_1_1command_1_1bdist__wininst_1_1bdist__wininst.html#a399b918d1063236ea5e59a7884033fc6",tooltip=" "];
  Node1 -> Node10 [dir="back",color="midnightblue",fontsize="10",style="solid"];
  Node10 [label="setuptools._distutils.command.bdist\l_dumb.bdist_dumb.run",height=0.2,width=0.4,color="black", fillcolor="white", style="filled",URL="$de/dfd/classsetuptools_1_1__distutils_1_1command_1_1bdist__dumb_1_1bdist__dumb.html#a2c9f36cb7482612d496d19c2e41b9bec",tooltip=" "];
  Node1 -> Node11 [dir="back",color="midnightblue",fontsize="10",style="solid"];
  Node11 [label="setuptools._distutils.command.bdist\l_rpm.bdist_rpm.run",height=0.2,width=0.4,color="black", fillcolor="white", style="filled",URL="$d7/d13/classsetuptools_1_1__distutils_1_1command_1_1bdist__rpm_1_1bdist__rpm.html#a35e31868300bbdbbf0bf38d2e3abb103",tooltip=" "];
  Node1 -> Node9 [dir="back",color="midnightblue",fontsize="10",style="solid"];
}
