digraph "pip._vendor.distlib._backport.sysconfig.get_config_vars"
{
 // LATEX_PDF_SIZE
  edge [fontname="Helvetica",fontsize="10",labelfontname="Helvetica",labelfontsize="10"];
  node [fontname="Helvetica",fontsize="10",shape=record];
  rankdir="LR";
  Node1 [label="pip._vendor.distlib.\l_backport.sysconfig.get\l_config_vars",height=0.2,width=0.4,color="black", fillcolor="grey75", style="filled", fontcolor="black",tooltip=" "];
  Node1 -> Node2 [color="midnightblue",fontsize="10",style="solid"];
  Node2 [label="pip._vendor.distlib.\l_backport.sysconfig.\l_getuserbase",height=0.2,width=0.4,color="black", fillcolor="white", style="filled",URL="$de/df1/namespacepip_1_1__vendor_1_1distlib_1_1__backport_1_1sysconfig.html#a5779666b6fc277b74e0d399286e36416",tooltip=" "];
  Node2 -> Node3 [color="midnightblue",fontsize="10",style="solid"];
  Node3 [label="pip._vendor.distlib.\l_backport.sysconfig.get\l_config_var",height=0.2,width=0.4,color="black", fillcolor="white", style="filled",URL="$de/df1/namespacepip_1_1__vendor_1_1distlib_1_1__backport_1_1sysconfig.html#ad4f932848014ef28313f3645eb6472a9",tooltip=" "];
  Node3 -> Node4 [color="midnightblue",fontsize="10",style="solid"];
  Node4 [label="pip._vendor.requests.api.get",height=0.2,width=0.4,color="black", fillcolor="white", style="filled",URL="$de/db5/namespacepip_1_1__vendor_1_1requests_1_1api.html#af14e54be255a4489da5fa7e07a48cc63",tooltip=" "];
  Node4 -> Node5 [color="midnightblue",fontsize="10",style="solid"];
  Node5 [label="pip._vendor.requests.api.request",height=0.2,width=0.4,color="black", fillcolor="white", style="filled",URL="$de/db5/namespacepip_1_1__vendor_1_1requests_1_1api.html#a9fdead74de86ac05699e5f4d40aa8d1d",tooltip=" "];
  Node3 -> Node1 [color="midnightblue",fontsize="10",style="solid"];
  Node1 -> Node6 [color="midnightblue",fontsize="10",style="solid"];
  Node6 [label="pip._vendor.distlib.\l_backport.sysconfig.\l_init_non_posix",height=0.2,width=0.4,color="black", fillcolor="white", style="filled",URL="$de/df1/namespacepip_1_1__vendor_1_1distlib_1_1__backport_1_1sysconfig.html#afe9d4d4122a45dac314cfa7267a826e0",tooltip=" "];
  Node6 -> Node7 [color="midnightblue",fontsize="10",style="solid"];
  Node7 [label="pip._vendor.distlib.\l_backport.sysconfig.\l_safe_realpath",height=0.2,width=0.4,color="black", fillcolor="white", style="filled",URL="$de/df1/namespacepip_1_1__vendor_1_1distlib_1_1__backport_1_1sysconfig.html#a17e2af46674870036364f961539647db",tooltip=" "];
  Node6 -> Node8 [color="midnightblue",fontsize="10",style="solid"];
  Node8 [label="pip._vendor.distlib.\l_backport.sysconfig.get_path",height=0.2,width=0.4,color="black", fillcolor="white", style="filled",URL="$de/df1/namespacepip_1_1__vendor_1_1distlib_1_1__backport_1_1sysconfig.html#a59aa125eaa4f24e4333d8050492643cb",tooltip=" "];
  Node8 -> Node9 [color="midnightblue",fontsize="10",style="solid"];
  Node9 [label="pip._vendor.distlib.\l_backport.sysconfig.get_paths",height=0.2,width=0.4,color="black", fillcolor="white", style="filled",URL="$de/df1/namespacepip_1_1__vendor_1_1distlib_1_1__backport_1_1sysconfig.html#ac0a1acd16bd40f3db547376ce31fe1c9",tooltip=" "];
  Node9 -> Node10 [color="midnightblue",fontsize="10",style="solid"];
  Node10 [label="pip._vendor.distlib.\l_backport.sysconfig.\l_ensure_cfg_read",height=0.2,width=0.4,color="black", fillcolor="white", style="filled",URL="$de/df1/namespacepip_1_1__vendor_1_1distlib_1_1__backport_1_1sysconfig.html#a76cbd1dedbaec11f4643e6fa3a5fe35d",tooltip=" "];
  Node10 -> Node11 [color="midnightblue",fontsize="10",style="solid"];
  Node11 [label="pip._vendor.distlib.resources.finder",height=0.2,width=0.4,color="black", fillcolor="white", style="filled",URL="$d9/dfe/namespacepip_1_1__vendor_1_1distlib_1_1resources.html#a19cb1b460cca0d3a5c6bea20e4ebc4b3",tooltip=" "];
  Node9 -> Node12 [color="midnightblue",fontsize="10",style="solid"];
  Node12 [label="pip._vendor.distlib.\l_backport.sysconfig.\l_expand_vars",height=0.2,width=0.4,color="black", fillcolor="white", style="filled",URL="$de/df1/namespacepip_1_1__vendor_1_1distlib_1_1__backport_1_1sysconfig.html#af4cbf0db5d9e4117566c2035242c2694",tooltip=" "];
  Node12 -> Node13 [color="midnightblue",fontsize="10",style="solid"];
  Node13 [label="pip._vendor.distlib.\l_backport.sysconfig.\l_extend_dict",height=0.2,width=0.4,color="black", fillcolor="white", style="filled",URL="$de/df1/namespacepip_1_1__vendor_1_1distlib_1_1__backport_1_1sysconfig.html#a6e33a4528ee13888112e89d8bdff1717",tooltip=" "];
  Node12 -> Node14 [color="midnightblue",fontsize="10",style="solid"];
  Node14 [label="pip._vendor.distlib.\l_backport.sysconfig.\l_subst_vars",height=0.2,width=0.4,color="black", fillcolor="white", style="filled",URL="$de/df1/namespacepip_1_1__vendor_1_1distlib_1_1__backport_1_1sysconfig.html#a84f21a22b4ff09178d1fdebfc770869d",tooltip=" "];
  Node12 -> Node1 [color="midnightblue",fontsize="10",style="solid"];
  Node1 -> Node15 [color="midnightblue",fontsize="10",style="solid"];
  Node15 [label="pip._vendor.distlib.\l_backport.sysconfig.\l_init_posix",height=0.2,width=0.4,color="black", fillcolor="white", style="filled",URL="$de/df1/namespacepip_1_1__vendor_1_1distlib_1_1__backport_1_1sysconfig.html#a9791fd234c48fda1f0e78cf2f058ade7",tooltip=" "];
  Node15 -> Node16 [color="midnightblue",fontsize="10",style="solid"];
  Node16 [label="pip._vendor.distlib.\l_backport.sysconfig.\l_parse_makefile",height=0.2,width=0.4,color="black", fillcolor="white", style="filled",URL="$de/df1/namespacepip_1_1__vendor_1_1distlib_1_1__backport_1_1sysconfig.html#a6dab314bec4a212632efad99284ca5bc",tooltip=" "];
  Node15 -> Node17 [color="midnightblue",fontsize="10",style="solid"];
  Node17 [label="pip._vendor.distlib.\l_backport.sysconfig.get\l_config_h_filename",height=0.2,width=0.4,color="black", fillcolor="white", style="filled",URL="$de/df1/namespacepip_1_1__vendor_1_1distlib_1_1__backport_1_1sysconfig.html#ac1c0653f6bf7d2c28680558fd6db37bd",tooltip=" "];
  Node17 -> Node8 [color="midnightblue",fontsize="10",style="solid"];
  Node15 -> Node18 [color="midnightblue",fontsize="10",style="solid"];
  Node18 [label="pip._vendor.distlib.\l_backport.sysconfig.get\l_makefile_filename",height=0.2,width=0.4,color="black", fillcolor="white", style="filled",URL="$de/df1/namespacepip_1_1__vendor_1_1distlib_1_1__backport_1_1sysconfig.html#a088aae485c0e31e3cd49080997281543",tooltip=" "];
  Node18 -> Node8 [color="midnightblue",fontsize="10",style="solid"];
  Node15 -> Node19 [color="midnightblue",fontsize="10",style="solid"];
  Node19 [label="pip._vendor.distlib.\l_backport.sysconfig.parse\l_config_h",height=0.2,width=0.4,color="black", fillcolor="white", style="filled",URL="$de/df1/namespacepip_1_1__vendor_1_1distlib_1_1__backport_1_1sysconfig.html#a5a3a37061ec2d9b2ff8ce688ef2a31b7",tooltip=" "];
  Node1 -> Node7 [color="midnightblue",fontsize="10",style="solid"];
}
