digraph "pip._vendor.html5lib.treewalkers.base.TreeWalker.emptyTag"
{
 // LATEX_PDF_SIZE
  edge [fontname="Helvetica",fontsize="10",labelfontname="Helvetica",labelfontsize="10"];
  node [fontname="Helvetica",fontsize="10",shape=record];
  rankdir="LR";
  Node1 [label="pip._vendor.html5lib.treewalkers.base.\lTreeWalker.emptyTag",height=0.2,width=0.4,color="black", fillcolor="grey75", style="filled", fontcolor="black",tooltip=" "];
  Node1 -> Node2 [color="midnightblue",fontsize="10",style="solid",fontname="Helvetica"];
  Node2 [label="pip._internal.cli.parser.\lConfigOptionParser.error",height=0.2,width=0.4,color="black", fillcolor="white", style="filled",URL="$d5/da5/classpip_1_1__internal_1_1cli_1_1parser_1_1_config_option_parser.html#a117b2b9285713ae8dada4e122adcfd83",tooltip=" "];
  Node1 -> Node3 [color="midnightblue",fontsize="10",style="solid",fontname="Helvetica"];
  Node3 [label="pip._vendor.html5lib.treewalkers.base.\lTreeWalker.error",height=0.2,width=0.4,color="black", fillcolor="white", style="filled",URL="$d5/de6/classpip_1_1__vendor_1_1html5lib_1_1treewalkers_1_1base_1_1_tree_walker.html#aed90492e5fc3449c9530531238aad993",tooltip=" "];
}
