digraph "pip._vendor.ipaddress.IPv6Address.is_global"
{
 // LATEX_PDF_SIZE
  edge [fontname="Helvetica",fontsize="10",labelfontname="Helvetica",labelfontsize="10"];
  node [fontname="Helvetica",fontsize="10",shape=record];
  rankdir="LR";
  Node1 [label="pip._vendor.ipaddress.IPv6\lAddress.is_global",height=0.2,width=0.4,color="black", fillcolor="grey75", style="filled", fontcolor="black",tooltip=" "];
  Node1 -> Node2 [color="midnightblue",fontsize="10",style="solid"];
  Node2 [label="pip._vendor.ipaddress.\l_BaseNetwork.is_private",height=0.2,width=0.4,color="black", fillcolor="white", style="filled",URL="$d0/d9c/classpip_1_1__vendor_1_1ipaddress_1_1___base_network.html#a0bef8652ffe50868723ea64b6694ae09",tooltip=" "];
  Node2 -> Node3 [color="midnightblue",fontsize="10",style="solid"];
  Node3 [label="pip._vendor.ipaddress.\l_BaseNetwork.broadcast\l_address",height=0.2,width=0.4,color="black", fillcolor="white", style="filled",URL="$d0/d9c/classpip_1_1__vendor_1_1ipaddress_1_1___base_network.html#a85ddcbbddd528d6eeb167a1cb437f885",tooltip=" "];
  Node3 -> Node4 [color="midnightblue",fontsize="10",style="solid"];
  Node4 [label="pip._vendor.ipaddress.\l_BaseNetwork._address_class",height=0.2,width=0.4,color="black", fillcolor="white", style="filled",URL="$d0/d9c/classpip_1_1__vendor_1_1ipaddress_1_1___base_network.html#a563c88a25169c2ecff9a06240fb9f84e",tooltip=" "];
  Node3 -> Node5 [color="midnightblue",fontsize="10",style="solid"];
  Node5 [label="pip._vendor.requests.api.get",height=0.2,width=0.4,color="black", fillcolor="white", style="filled",URL="$de/db5/namespacepip_1_1__vendor_1_1requests_1_1api.html#af14e54be255a4489da5fa7e07a48cc63",tooltip=" "];
  Node5 -> Node6 [color="midnightblue",fontsize="10",style="solid"];
  Node6 [label="pip._vendor.requests.api.request",height=0.2,width=0.4,color="black", fillcolor="white", style="filled",URL="$de/db5/namespacepip_1_1__vendor_1_1requests_1_1api.html#a9fdead74de86ac05699e5f4d40aa8d1d",tooltip=" "];
  Node3 -> Node7 [color="midnightblue",fontsize="10",style="solid"];
  Node7 [label="pip._vendor.ipaddress.\l_BaseNetwork.hostmask",height=0.2,width=0.4,color="black", fillcolor="white", style="filled",URL="$d0/d9c/classpip_1_1__vendor_1_1ipaddress_1_1___base_network.html#a787ef4e88edc85f58c61dd8c9e865316",tooltip=" "];
  Node7 -> Node4 [color="midnightblue",fontsize="10",style="solid"];
  Node7 -> Node5 [color="midnightblue",fontsize="10",style="solid"];
  Node1 -> Node8 [color="midnightblue",fontsize="10",style="solid"];
  Node8 [label="pip._vendor.ipaddress.IPv4\lAddress.is_private",height=0.2,width=0.4,color="black", fillcolor="white", style="filled",URL="$d5/df2/classpip_1_1__vendor_1_1ipaddress_1_1_i_pv4_address.html#ab168462827dfc5da482f6f19592c4564",tooltip=" "];
  Node1 -> Node9 [color="midnightblue",fontsize="10",style="solid"];
  Node9 [label="pip._vendor.ipaddress.IPv6\lAddress.is_private",height=0.2,width=0.4,color="black", fillcolor="white", style="filled",URL="$d8/d27/classpip_1_1__vendor_1_1ipaddress_1_1_i_pv6_address.html#a006e8b6f061a6aa30a3dea4968b6965b",tooltip=" "];
}
