digraph "pip._internal.req.req_tracker.RequirementTracker.cleanup"
{
 // LATEX_PDF_SIZE
  edge [fontname="Helvetica",fontsize="10",labelfontname="Helvetica",labelfontsize="10"];
  node [fontname="Helvetica",fontsize="10",shape=record];
  rankdir="LR";
  Node1 [label="pip._internal.req.req\l_tracker.RequirementTracker.cleanup",height=0.2,width=0.4,color="black", fillcolor="grey75", style="filled", fontcolor="black",tooltip=" "];
  Node1 -> Node2 [color="midnightblue",fontsize="10",style="solid"];
  Node2 [label="pip._internal.req.req\l_tracker.RequirementTracker.remove",height=0.2,width=0.4,color="black", fillcolor="white", style="filled",URL="$da/d8b/classpip_1_1__internal_1_1req_1_1req__tracker_1_1_requirement_tracker.html#ab76ac2af07307c7905b6eb9a349441eb",tooltip=" "];
  Node2 -> Node3 [color="midnightblue",fontsize="10",style="solid"];
  Node3 [label="pip._internal.req.req\l_tracker.RequirementTracker.\l_entry_path",height=0.2,width=0.4,color="black", fillcolor="white", style="filled",URL="$da/d8b/classpip_1_1__internal_1_1req_1_1req__tracker_1_1_requirement_tracker.html#aacccae708d1bef158fd1eede33860f32",tooltip=" "];
}
