digraph "pip._vendor.distlib._backport.tarfile._Stream"
{
 // LATEX_PDF_SIZE
  edge [fontname="Helvetica",fontsize="10",labelfontname="Helvetica",labelfontsize="10"];
  node [fontname="Helvetica",fontsize="10",shape=record];
  Node1 [label="{pip._vendor.distlib.\l_backport.tarfile._Stream\n|+ name\l+ mode\l+ comptype\l+ fileobj\l+ bufsize\l+ buf\l+ pos\l+ closed\l+ zlib\l+ crc\l+ dbuf\l+ cmp\l- _extfileobj\l|+ __init__()\l+ __del__()\l+ write()\l+ close()\l+ tell()\l+ seek()\l+ read()\l- _init_write_gz()\l- __write()\l- _init_read_gz()\l- _read()\l- __read()\l}",height=0.2,width=0.4,color="black", fillcolor="grey75", style="filled", fontcolor="black",tooltip=" "];
  Node2 -> Node1 [dir="back",color="midnightblue",fontsize="10",style="solid",arrowtail="onormal"];
  Node2 [label="{object\n||}",height=0.2,width=0.4,color="grey75", fillcolor="white", style="filled",tooltip=" "];
}
