digraph "pip._internal.resolution.resolvelib.candidates._InstallRequirementBackedCandidate.get_install_requirement"
{
 // LATEX_PDF_SIZE
  edge [fontname="Helvetica",fontsize="10",labelfontname="Helvetica",labelfontsize="10"];
  node [fontname="Helvetica",fontsize="10",shape=record];
  rankdir="LR";
  Node1 [label="pip._internal.resolution.resolvelib.candidates.\l_InstallRequirementBackedCandidate.get\l_install_requirement",height=0.2,width=0.4,color="black", fillcolor="grey75", style="filled", fontcolor="black",tooltip=" "];
  Node1 -> Node2 [color="midnightblue",fontsize="10",style="solid",fontname="Helvetica"];
  Node2 [label="pip._internal.resolution.resolvelib.candidates.\l_InstallRequirementBackedCandidate._prepare",height=0.2,width=0.4,color="black", fillcolor="white", style="filled",URL="$dc/d03/classpip_1_1__internal_1_1resolution_1_1resolvelib_1_1candidates_1_1___install_requirement_backed_candidate.html#a552452ed4b9faa6b400c9cd48b2e98bf",tooltip=" "];
  Node2 -> Node3 [color="midnightblue",fontsize="10",style="solid",fontname="Helvetica"];
  Node3 [label="pip._internal.resolution.resolvelib.candidates.\l_InstallRequirementBackedCandidate.\l_check_metadata_consistency",height=0.2,width=0.4,color="black", fillcolor="white", style="filled",URL="$dc/d03/classpip_1_1__internal_1_1resolution_1_1resolvelib_1_1candidates_1_1___install_requirement_backed_candidate.html#a9788859d3e680a1f91399e237cfc4e0b",tooltip=" "];
  Node3 -> Node4 [color="midnightblue",fontsize="10",style="solid",fontname="Helvetica"];
  Node4 [label="pip._vendor.packaging.utils.canonicalize_name",height=0.2,width=0.4,color="black", fillcolor="white", style="filled",URL="$dc/da8/namespacepip_1_1__vendor_1_1packaging_1_1utils.html#af20daae928523ea0ae9d2c4215887232",tooltip=" "];
  Node4 -> Node5 [color="midnightblue",fontsize="10",style="solid",fontname="Helvetica"];
  Node5 [label="pip._internal.utils.typing.cast",height=0.2,width=0.4,color="black", fillcolor="white", style="filled",URL="$d9/d56/namespacepip_1_1__internal_1_1utils_1_1typing.html#ab37e3e9039b01929d8ac2bd74d7c37db",tooltip=" "];
  Node2 -> Node6 [color="midnightblue",fontsize="10",style="solid",fontname="Helvetica"];
  Node6 [label="pip._internal.resolution.resolvelib.candidates.\l_InstallRequirementBackedCandidate.\l_prepare_abstract_distribution",height=0.2,width=0.4,color="black", fillcolor="white", style="filled",URL="$dc/d03/classpip_1_1__internal_1_1resolution_1_1resolvelib_1_1candidates_1_1___install_requirement_backed_candidate.html#a710c5b62ed82fc1479504323da33bbd9",tooltip=" "];
}
