digraph "pip._internal.resolution.resolvelib.candidates._InstallRequirementBackedCandidate._get_requires_python_dependency"
{
 // LATEX_PDF_SIZE
  edge [fontname="Helvetica",fontsize="10",labelfontname="Helvetica",labelfontsize="10"];
  node [fontname="Helvetica",fontsize="10",shape=record];
  rankdir="LR";
  Node1 [label="pip._internal.resolution.resolvelib.candidates.\l_InstallRequirementBackedCandidate.\l_get_requires_python_dependency",height=0.2,width=0.4,color="black", fillcolor="grey75", style="filled", fontcolor="black",tooltip=" "];
  Node1 -> Node2 [color="midnightblue",fontsize="10",style="solid",fontname="Helvetica"];
  Node2 [label="pip._internal.resolution.resolvelib.candidates.\l_InstallRequirementBackedCandidate.dist",height=0.2,width=0.4,color="black", fillcolor="white", style="filled",URL="$dc/d03/classpip_1_1__internal_1_1resolution_1_1resolvelib_1_1candidates_1_1___install_requirement_backed_candidate.html#aa6d5af80d994f28e44534ad4a73dbb23",tooltip=" "];
  Node2 -> Node3 [color="midnightblue",fontsize="10",style="solid",fontname="Helvetica"];
  Node3 [label="pip._internal.resolution.resolvelib.candidates.\l_InstallRequirementBackedCandidate.\l_fetch_metadata",height=0.2,width=0.4,color="black", fillcolor="white", style="filled",URL="$dc/d03/classpip_1_1__internal_1_1resolution_1_1resolvelib_1_1candidates_1_1___install_requirement_backed_candidate.html#a1e35381549cf5ffbb5c0ec7cb0c3104a",tooltip=" "];
  Node3 -> Node4 [color="midnightblue",fontsize="10",style="solid",fontname="Helvetica"];
  Node4 [label="pip._internal.resolution.resolvelib.candidates.\l_InstallRequirementBackedCandidate.\l_check_metadata_consistency",height=0.2,width=0.4,color="black", fillcolor="white", style="filled",URL="$dc/d03/classpip_1_1__internal_1_1resolution_1_1resolvelib_1_1candidates_1_1___install_requirement_backed_candidate.html#a9788859d3e680a1f91399e237cfc4e0b",tooltip=" "];
  Node4 -> Node5 [color="midnightblue",fontsize="10",style="solid",fontname="Helvetica"];
  Node5 [label="pip._vendor.packaging.utils.canonicalize_name",height=0.2,width=0.4,color="black", fillcolor="white", style="filled",URL="$dc/da8/namespacepip_1_1__vendor_1_1packaging_1_1utils.html#af20daae928523ea0ae9d2c4215887232",tooltip=" "];
  Node5 -> Node6 [color="midnightblue",fontsize="10",style="solid",fontname="Helvetica"];
  Node6 [label="pip._internal.utils.typing.cast",height=0.2,width=0.4,color="black", fillcolor="white", style="filled",URL="$d9/d56/namespacepip_1_1__internal_1_1utils_1_1typing.html#ab37e3e9039b01929d8ac2bd74d7c37db",tooltip=" "];
  Node3 -> Node7 [color="midnightblue",fontsize="10",style="solid",fontname="Helvetica"];
  Node7 [label="pip._internal.resolution.resolvelib.candidates.\l_InstallRequirementBackedCandidate._prepare",height=0.2,width=0.4,color="black", fillcolor="white", style="filled",URL="$dc/d03/classpip_1_1__internal_1_1resolution_1_1resolvelib_1_1candidates_1_1___install_requirement_backed_candidate.html#a552452ed4b9faa6b400c9cd48b2e98bf",tooltip=" "];
  Node7 -> Node4 [color="midnightblue",fontsize="10",style="solid",fontname="Helvetica"];
  Node7 -> Node8 [color="midnightblue",fontsize="10",style="solid",fontname="Helvetica"];
  Node8 [label="pip._internal.resolution.resolvelib.candidates.\l_InstallRequirementBackedCandidate.\l_prepare_abstract_distribution",height=0.2,width=0.4,color="black", fillcolor="white", style="filled",URL="$dc/d03/classpip_1_1__internal_1_1resolution_1_1resolvelib_1_1candidates_1_1___install_requirement_backed_candidate.html#a710c5b62ed82fc1479504323da33bbd9",tooltip=" "];
  Node3 -> Node9 [color="midnightblue",fontsize="10",style="solid",fontname="Helvetica"];
  Node9 [label="pip._internal.network.lazy\l_wheel.dist_from_wheel_url",height=0.2,width=0.4,color="black", fillcolor="white", style="filled",URL="$d2/d8c/namespacepip_1_1__internal_1_1network_1_1lazy__wheel.html#a35a4bbb63205e75fdf71a52a2f0af374",tooltip=" "];
  Node3 -> Node10 [color="midnightblue",fontsize="10",style="solid",fontname="Helvetica"];
  Node10 [label="pip._internal.utils.logging.indent_log",height=0.2,width=0.4,color="black", fillcolor="white", style="filled",URL="$d2/d7f/namespacepip_1_1__internal_1_1utils_1_1logging.html#a085a5d65b0702800d0a9d48a0a4615a8",tooltip=" "];
  Node10 -> Node11 [color="midnightblue",fontsize="10",style="solid",fontname="Helvetica"];
  Node11 [label="pip._internal.utils.logging.get\l_indentation",height=0.2,width=0.4,color="black", fillcolor="white", style="filled",URL="$d2/d7f/namespacepip_1_1__internal_1_1utils_1_1logging.html#a44d946c100e5712775abb26dc67d1c51",tooltip=" "];
  Node1 -> Node12 [color="midnightblue",fontsize="10",style="solid",fontname="Helvetica"];
  Node12 [label="pip._internal.utils.packaging.get\l_requires_python",height=0.2,width=0.4,color="black", fillcolor="white", style="filled",URL="$df/da6/namespacepip_1_1__internal_1_1utils_1_1packaging.html#a9a1a1b346a43ddd0501923f548359c86",tooltip=" "];
  Node12 -> Node13 [color="midnightblue",fontsize="10",style="solid",fontname="Helvetica"];
  Node13 [label="pip._internal.utils.packaging.get\l_metadata",height=0.2,width=0.4,color="black", fillcolor="white", style="filled",URL="$df/da6/namespacepip_1_1__internal_1_1utils_1_1packaging.html#a754fee3ac3294fe313b4870d848c2e8b",tooltip=" "];
  Node13 -> Node14 [color="midnightblue",fontsize="10",style="solid",fontname="Helvetica"];
  Node14 [label="pip._internal.utils.misc.display_path",height=0.2,width=0.4,color="black", fillcolor="white", style="filled",URL="$de/dc3/namespacepip_1_1__internal_1_1utils_1_1misc.html#a2c56db5ea4bfcb80d54a94f1eb975454",tooltip=" "];
  Node1 -> Node15 [color="midnightblue",fontsize="10",style="solid",fontname="Helvetica"];
  Node15 [label="pip._internal.network.lazy\l_wheel.LazyZipOverHTTP.name",height=0.2,width=0.4,color="black", fillcolor="white", style="filled",URL="$df/d67/classpip_1_1__internal_1_1network_1_1lazy__wheel_1_1_lazy_zip_over_h_t_t_p.html#a31eea23b50360a3d64d5330d6314d390",tooltip=" "];
  Node1 -> Node16 [color="midnightblue",fontsize="10",style="solid",fontname="Helvetica"];
  Node16 [label="pip._internal.req.req\l_install.InstallRequirement.name",height=0.2,width=0.4,color="black", fillcolor="white", style="filled",URL="$d2/daa/classpip_1_1__internal_1_1req_1_1req__install_1_1_install_requirement.html#ae25bc5c04323ecc6d32fb29cfdb473cd",tooltip=" "];
  Node16 -> Node17 [color="midnightblue",fontsize="10",style="solid",fontname="Helvetica"];
  Node17 [label="pkg_resources.safe_name",height=0.2,width=0.4,color="black", fillcolor="white", style="filled",URL="$d0/de1/namespacepkg__resources.html#a9635d106e0984b74bbcd80646e7a7384",tooltip=" "];
  Node1 -> Node18 [color="midnightblue",fontsize="10",style="solid",fontname="Helvetica"];
  Node18 [label="pip._internal.resolution.resolvelib.base.\lRequirement.name",height=0.2,width=0.4,color="black", fillcolor="white", style="filled",URL="$d7/d6d/classpip_1_1__internal_1_1resolution_1_1resolvelib_1_1base_1_1_requirement.html#a21e4edd1c8aa5ce147a3399bf3c8d7b0",tooltip=" "];
  Node1 -> Node19 [color="midnightblue",fontsize="10",style="solid",fontname="Helvetica"];
  Node19 [label="pip._internal.resolution.resolvelib.base.\lCandidate.name",height=0.2,width=0.4,color="black", fillcolor="white", style="filled",URL="$db/d18/classpip_1_1__internal_1_1resolution_1_1resolvelib_1_1base_1_1_candidate.html#a8b39f3d3af882944335121c05d86da76",tooltip=" "];
}
