digraph "pip._vendor.html5lib.filters.optionaltags.Filter.slider"
{
 // LATEX_PDF_SIZE
  edge [fontname="Helvetica",fontsize="10",labelfontname="Helvetica",labelfontsize="10"];
  node [fontname="Helvetica",fontsize="10",shape=record];
  rankdir="RL";
  Node1 [label="pip._vendor.html5lib.filters.optionaltags.\lFilter.slider",height=0.2,width=0.4,color="black", fillcolor="grey75", style="filled", fontcolor="black",tooltip=" "];
  Node1 -> Node2 [dir="back",color="midnightblue",fontsize="10",style="solid",fontname="Helvetica"];
  Node2 [label="pip._vendor.html5lib.filters.optionaltags.\lFilter.__iter__",height=0.2,width=0.4,color="black", fillcolor="white", style="filled",URL="$dd/d1e/classpip_1_1__vendor_1_1html5lib_1_1filters_1_1optionaltags_1_1_filter.html#af8973ebccd0e269d2778bd44fdf4440c",tooltip=" "];
}
