digraph "pip._vendor.cachecontrol.heuristics.ExpiresAfter"
{
 // LATEX_PDF_SIZE
  edge [fontname="Helvetica",fontsize="10",labelfontname="Helvetica",labelfontsize="10"];
  node [fontname="Helvetica",fontsize="10",shape=record];
  Node1 [label="{pip._vendor.cachecontrol.heuristics.\lExpiresAfter\n|+ delta\l|+ __init__()\l+ update_headers()\l+ warning()\l}",height=0.2,width=0.4,color="black", fillcolor="grey75", style="filled", fontcolor="black",tooltip=" "];
  Node2 -> Node1 [dir="back",color="midnightblue",fontsize="10",style="solid",arrowtail="onormal"];
  Node2 [label="{pip._vendor.cachecontrol.heuristics.\lBaseHeuristic\n||+ warning()\l+ update_headers()\l+ apply()\l}",height=0.2,width=0.4,color="black", fillcolor="white", style="filled",URL="$de/dba/classpip_1_1__vendor_1_1cachecontrol_1_1heuristics_1_1_base_heuristic.html",tooltip=" "];
  Node3 -> Node2 [dir="back",color="midnightblue",fontsize="10",style="solid",arrowtail="onormal"];
  Node3 [label="{object\n||}",height=0.2,width=0.4,color="grey75", fillcolor="white", style="filled",tooltip=" "];
}
