digraph "pip._vendor.cachecontrol.controller.CacheController.update_cached_response"
{
 // LATEX_PDF_SIZE
  edge [fontname="Helvetica",fontsize="10",labelfontname="Helvetica",labelfontsize="10"];
  node [fontname="Helvetica",fontsize="10",shape=record];
  rankdir="LR";
  Node1 [label="pip._vendor.cachecontrol.controller.\lCacheController.update_cached\l_response",height=0.2,width=0.4,color="black", fillcolor="grey75", style="filled", fontcolor="black",tooltip=" "];
  Node1 -> Node2 [color="midnightblue",fontsize="10",style="solid",fontname="Helvetica"];
  Node2 [label="pip._vendor.cachecontrol.controller.\lCacheController.cache_url",height=0.2,width=0.4,color="black", fillcolor="white", style="filled",URL="$d4/d39/classpip_1_1__vendor_1_1cachecontrol_1_1controller_1_1_cache_controller.html#ab7c0ebe8723b397e17679d84e8b658f9",tooltip=" "];
  Node2 -> Node3 [color="midnightblue",fontsize="10",style="solid",fontname="Helvetica"];
  Node3 [label="pip._vendor.cachecontrol.controller.\lCacheController._urlnorm",height=0.2,width=0.4,color="black", fillcolor="white", style="filled",URL="$d4/d39/classpip_1_1__vendor_1_1cachecontrol_1_1controller_1_1_cache_controller.html#ad9fdd60dbe76b43256fd611ed1d873d2",tooltip=" "];
  Node3 -> Node4 [color="midnightblue",fontsize="10",style="solid",fontname="Helvetica"];
  Node4 [label="pip._vendor.cachecontrol.controller.parse_uri",height=0.2,width=0.4,color="black", fillcolor="white", style="filled",URL="$da/d23/namespacepip_1_1__vendor_1_1cachecontrol_1_1controller.html#a32f0488a331e99accfbd0e6b40b6170d",tooltip=" "];
  Node1 -> Node5 [color="midnightblue",fontsize="10",style="solid",fontname="Helvetica"];
  Node5 [label="pip._vendor.requests.api.get",height=0.2,width=0.4,color="black", fillcolor="white", style="filled",URL="$de/db5/namespacepip_1_1__vendor_1_1requests_1_1api.html#af14e54be255a4489da5fa7e07a48cc63",tooltip=" "];
  Node5 -> Node6 [color="midnightblue",fontsize="10",style="solid",fontname="Helvetica"];
  Node6 [label="pip._vendor.requests.api.request",height=0.2,width=0.4,color="black", fillcolor="white", style="filled",URL="$de/db5/namespacepip_1_1__vendor_1_1requests_1_1api.html#a9fdead74de86ac05699e5f4d40aa8d1d",tooltip=" "];
}
