digraph "pip._vendor.distlib.version.NormalizedMatcher._match_eq"
{
 // LATEX_PDF_SIZE
  edge [fontname="Helvetica",fontsize="10",labelfontname="Helvetica",labelfontsize="10"];
  node [fontname="Helvetica",fontsize="10",shape=record];
  rankdir="LR";
  Node1 [label="pip._vendor.distlib.version.\lNormalizedMatcher._match_eq",height=0.2,width=0.4,color="black", fillcolor="grey75", style="filled", fontcolor="black",tooltip=" "];
  Node1 -> Node2 [color="midnightblue",fontsize="10",style="solid"];
  Node2 [label="pip._vendor.distlib.version.\lNormalizedMatcher._adjust_local",height=0.2,width=0.4,color="black", fillcolor="white", style="filled",URL="$d7/d9d/classpip_1_1__vendor_1_1distlib_1_1version_1_1_normalized_matcher.html#af3b4aecb80ef1613c83da0904c7bf136",tooltip=" "];
  Node1 -> Node3 [color="midnightblue",fontsize="10",style="solid"];
  Node3 [label="pip._vendor.distlib.version.\l_match_prefix",height=0.2,width=0.4,color="black", fillcolor="white", style="filled",URL="$d2/d38/namespacepip_1_1__vendor_1_1distlib_1_1version.html#a6dc5cd2a659b3619794d770d9592968b",tooltip=" "];
}
