digraph "pip._vendor.distro.LinuxDistribution.like"
{
 // LATEX_PDF_SIZE
  edge [fontname="Helvetica",fontsize="10",labelfontname="Helvetica",labelfontsize="10"];
  node [fontname="Helvetica",fontsize="10",shape=record];
  rankdir="RL";
  Node1 [label="pip._vendor.distro.Linux\lDistribution.like",height=0.2,width=0.4,color="black", fillcolor="grey75", style="filled", fontcolor="black",tooltip=" "];
  Node1 -> Node2 [dir="back",color="midnightblue",fontsize="10",style="solid",fontname="Helvetica"];
  Node2 [label="pip._vendor.distro.Linux\lDistribution.info",height=0.2,width=0.4,color="black", fillcolor="white", style="filled",URL="$db/dc1/classpip_1_1__vendor_1_1distro_1_1_linux_distribution.html#a8d936e9ec6198181f15f5b1bf07f065d",tooltip=" "];
  Node2 -> Node3 [dir="back",color="midnightblue",fontsize="10",style="solid",fontname="Helvetica"];
  Node3 [label="setuptools.package\l_index.PackageIndex.\l_download_git",height=0.2,width=0.4,color="black", fillcolor="white", style="filled",URL="$d4/dea/classsetuptools_1_1package__index_1_1_package_index.html#a3675196dae930ae7b2ebaea89e20d932",tooltip=" "];
  Node3 -> Node4 [dir="back",color="midnightblue",fontsize="10",style="solid",fontname="Helvetica"];
  Node4 [label="setuptools.package\l_index.PackageIndex.\l_download_url",height=0.2,width=0.4,color="black", fillcolor="white", style="filled",URL="$d4/dea/classsetuptools_1_1package__index_1_1_package_index.html#a003952b00c51bae4fb32fdcdd03b348e",tooltip=" "];
  Node4 -> Node5 [dir="back",color="midnightblue",fontsize="10",style="solid",fontname="Helvetica"];
  Node5 [label="setuptools.package\l_index.PackageIndex.download",height=0.2,width=0.4,color="black", fillcolor="white", style="filled",URL="$d4/dea/classsetuptools_1_1package__index_1_1_package_index.html#a100de731e036d1fc5e9604355e02deed",tooltip=" "];
  Node5 -> Node6 [dir="back",color="midnightblue",fontsize="10",style="solid",fontname="Helvetica"];
  Node6 [label="setuptools.package\l_index.PackageIndex.fetch\l_distribution",height=0.2,width=0.4,color="black", fillcolor="white", style="filled",URL="$d4/dea/classsetuptools_1_1package__index_1_1_package_index.html#a991bcc357db71bc05773ce3bb03c85a4",tooltip=" "];
  Node6 -> Node5 [dir="back",color="midnightblue",fontsize="10",style="solid",fontname="Helvetica"];
  Node6 -> Node7 [dir="back",color="midnightblue",fontsize="10",style="solid",fontname="Helvetica"];
  Node7 [label="setuptools.package\l_index.PackageIndex.fetch",height=0.2,width=0.4,color="black", fillcolor="white", style="filled",URL="$d4/dea/classsetuptools_1_1package__index_1_1_package_index.html#a4fa8a0112703f75c6af17996ce6eb66e",tooltip=" "];
  Node2 -> Node8 [dir="back",color="midnightblue",fontsize="10",style="solid",fontname="Helvetica"];
  Node8 [label="setuptools.package\l_index.PackageIndex.\l_download_hg",height=0.2,width=0.4,color="black", fillcolor="white", style="filled",URL="$d4/dea/classsetuptools_1_1package__index_1_1_package_index.html#a072151d15d9b627f8396b1d9467d8314",tooltip=" "];
  Node8 -> Node4 [dir="back",color="midnightblue",fontsize="10",style="solid",fontname="Helvetica"];
  Node2 -> Node9 [dir="back",color="midnightblue",fontsize="10",style="solid",fontname="Helvetica"];
  Node9 [label="setuptools.package\l_index.PackageIndex.\l_download_svn",height=0.2,width=0.4,color="black", fillcolor="white", style="filled",URL="$d4/dea/classsetuptools_1_1package__index_1_1_package_index.html#ad1dbd1b8256bf39e4b3cb46f27117513",tooltip=" "];
  Node9 -> Node10 [dir="back",color="midnightblue",fontsize="10",style="solid",fontname="Helvetica"];
  Node10 [label="setuptools.package\l_index.PackageIndex.\l_download_html",height=0.2,width=0.4,color="black", fillcolor="white", style="filled",URL="$d4/dea/classsetuptools_1_1package__index_1_1_package_index.html#ad506f8741a9f632d63e5afe267f5dd5f",tooltip=" "];
  Node10 -> Node11 [dir="back",color="midnightblue",fontsize="10",style="solid",fontname="Helvetica"];
  Node11 [label="setuptools.package\l_index.PackageIndex.\l_attempt_download",height=0.2,width=0.4,color="black", fillcolor="white", style="filled",URL="$d4/dea/classsetuptools_1_1package__index_1_1_package_index.html#a6e828e56d8b6cc1cf9956acad28116ba",tooltip=" "];
  Node11 -> Node4 [dir="back",color="midnightblue",fontsize="10",style="solid",fontname="Helvetica"];
  Node9 -> Node4 [dir="back",color="midnightblue",fontsize="10",style="solid",fontname="Helvetica"];
  Node2 -> Node12 [dir="back",color="midnightblue",fontsize="10",style="solid",fontname="Helvetica"];
  Node12 [label="setuptools.package\l_index.PackageIndex.\l_download_to",height=0.2,width=0.4,color="black", fillcolor="white", style="filled",URL="$d4/dea/classsetuptools_1_1package__index_1_1_package_index.html#a13766a8fc49f1efd5dff77f0d5d7e7f3",tooltip=" "];
  Node12 -> Node11 [dir="back",color="midnightblue",fontsize="10",style="solid",fontname="Helvetica"];
  Node2 -> Node6 [dir="back",color="midnightblue",fontsize="10",style="solid",fontname="Helvetica"];
  Node2 -> Node13 [dir="back",color="midnightblue",fontsize="10",style="solid",fontname="Helvetica"];
  Node13 [label="setuptools.package\l_index.PackageIndex.not\l_found_in_index",height=0.2,width=0.4,color="black", fillcolor="white", style="filled",URL="$d4/dea/classsetuptools_1_1package__index_1_1_package_index.html#a368455ef8e28ab626077dce7ced8d44e",tooltip=" "];
  Node13 -> Node14 [dir="back",color="midnightblue",fontsize="10",style="solid",fontname="Helvetica"];
  Node14 [label="setuptools.package\l_index.PackageIndex.find\l_packages",height=0.2,width=0.4,color="black", fillcolor="white", style="filled",URL="$d4/dea/classsetuptools_1_1package__index_1_1_package_index.html#ac6b53cacdec1d717c42a4412cb0bc10f",tooltip=" "];
  Node14 -> Node6 [dir="back",color="midnightblue",fontsize="10",style="solid",fontname="Helvetica"];
  Node14 -> Node15 [dir="back",color="midnightblue",fontsize="10",style="solid",fontname="Helvetica"];
  Node15 [label="setuptools.package\l_index.PackageIndex.obtain",height=0.2,width=0.4,color="black", fillcolor="white", style="filled",URL="$d4/dea/classsetuptools_1_1package__index_1_1_package_index.html#aefcf6b14d54c909ce0200f666672acaf",tooltip=" "];
  Node2 -> Node16 [dir="back",color="midnightblue",fontsize="10",style="solid",fontname="Helvetica"];
  Node16 [label="setuptools.package\l_index.PackageIndex.process_url",height=0.2,width=0.4,color="black", fillcolor="white", style="filled",URL="$d4/dea/classsetuptools_1_1package__index_1_1_package_index.html#a537fc87df159c2474b7fa0ccac56513d",tooltip=" "];
  Node16 -> Node16 [dir="back",color="midnightblue",fontsize="10",style="solid",fontname="Helvetica"];
  Node16 -> Node17 [dir="back",color="midnightblue",fontsize="10",style="solid",fontname="Helvetica"];
  Node17 [label="setuptools.package\l_index.PackageIndex.scan_url",height=0.2,width=0.4,color="black", fillcolor="white", style="filled",URL="$d4/dea/classsetuptools_1_1package__index_1_1_package_index.html#a34fd05e6bd70cb5fb45df6089a9a0d88",tooltip=" "];
  Node17 -> Node18 [dir="back",color="midnightblue",fontsize="10",style="solid",fontname="Helvetica"];
  Node18 [label="setuptools.package\l_index.PackageIndex.add\l_find_links",height=0.2,width=0.4,color="black", fillcolor="white", style="filled",URL="$d4/dea/classsetuptools_1_1package__index_1_1_package_index.html#af2814314197cc6aee392b64f303f08c4",tooltip=" "];
  Node17 -> Node14 [dir="back",color="midnightblue",fontsize="10",style="solid",fontname="Helvetica"];
  Node17 -> Node19 [dir="back",color="midnightblue",fontsize="10",style="solid",fontname="Helvetica"];
  Node19 [label="setuptools.package\l_index.PackageIndex.prescan",height=0.2,width=0.4,color="black", fillcolor="white", style="filled",URL="$d4/dea/classsetuptools_1_1package__index_1_1_package_index.html#a65d775034e7b39ede1a15be9cc17e1aa",tooltip=" "];
  Node19 -> Node6 [dir="back",color="midnightblue",fontsize="10",style="solid",fontname="Helvetica"];
  Node19 -> Node15 [dir="back",color="midnightblue",fontsize="10",style="solid",fontname="Helvetica"];
  Node17 -> Node20 [dir="back",color="midnightblue",fontsize="10",style="solid",fontname="Helvetica"];
  Node20 [label="setuptools.package\l_index.PackageIndex.process_index",height=0.2,width=0.4,color="black", fillcolor="white", style="filled",URL="$d4/dea/classsetuptools_1_1package__index_1_1_package_index.html#a1ae14e5edd4b4c1a585aec3eb9022de0",tooltip=" "];
  Node20 -> Node16 [dir="back",color="midnightblue",fontsize="10",style="solid",fontname="Helvetica"];
  Node17 -> Node21 [dir="back",color="midnightblue",fontsize="10",style="solid",fontname="Helvetica"];
  Node21 [label="setuptools.package\l_index.PackageIndex.scan_all",height=0.2,width=0.4,color="black", fillcolor="white", style="filled",URL="$d4/dea/classsetuptools_1_1package__index_1_1_package_index.html#a8ece2bde59e0845f58d8ca216d57d1ef",tooltip=" "];
  Node21 -> Node22 [dir="back",color="midnightblue",fontsize="10",style="solid",fontname="Helvetica"];
  Node22 [label="setuptools.package\l_index.PackageIndex.need\l_version_info",height=0.2,width=0.4,color="black", fillcolor="white", style="filled",URL="$d4/dea/classsetuptools_1_1package__index_1_1_package_index.html#af387b1796d6cf3a4542782cf936ee854",tooltip=" "];
  Node22 -> Node20 [dir="back",color="midnightblue",fontsize="10",style="solid",fontname="Helvetica"];
  Node21 -> Node13 [dir="back",color="midnightblue",fontsize="10",style="solid",fontname="Helvetica"];
  Node2 -> Node21 [dir="back",color="midnightblue",fontsize="10",style="solid",fontname="Helvetica"];
}
