digraph "pip._vendor.chardet.chardistribution.EUCJPDistributionAnalysis"
{
 // LATEX_PDF_SIZE
  edge [fontname="Helvetica",fontsize="10",labelfontname="Helvetica",labelfontsize="10"];
  node [fontname="Helvetica",fontsize="10",shape=record];
  Node1 [label="{pip._vendor.chardet.chardistribution.\lEUCJPDistributionAnalysis\n|+ typical_distribution\l_ratio\l- _char_to_freq_order\l- _table_size\l|+ __init__()\l+ get_order()\l}",height=0.2,width=0.4,color="black", fillcolor="grey75", style="filled", fontcolor="black",tooltip=" "];
  Node2 -> Node1 [dir="back",color="midnightblue",fontsize="10",style="solid",arrowtail="onormal"];
  Node2 [label="{pip._vendor.chardet.chardistribution.\lCharDistributionAnalysis\n|+ typical_distribution\l_ratio\l+ ENOUGH_DATA_THRESHOLD\l+ SURE_YES\l+ SURE_NO\l+ MINIMUM_DATA_THRESHOLD\l- _char_to_freq_order\l- _table_size\l- _done\l- _total_chars\l- _freq_chars\l|+ __init__()\l+ reset()\l+ feed()\l+ get_confidence()\l+ got_enough_data()\l+ get_order()\l}",height=0.2,width=0.4,color="black", fillcolor="white", style="filled",URL="$d0/d28/classpip_1_1__vendor_1_1chardet_1_1chardistribution_1_1_char_distribution_analysis.html",tooltip=" "];
  Node3 -> Node2 [dir="back",color="midnightblue",fontsize="10",style="solid",arrowtail="onormal"];
  Node3 [label="{object\n||}",height=0.2,width=0.4,color="grey75", fillcolor="white", style="filled",tooltip=" "];
}
