digraph "pip._vendor.distlib.index.PackageIndex"
{
 // LATEX_PDF_SIZE
  edge [fontname="Helvetica",fontsize="10",labelfontname="Helvetica",labelfontsize="10"];
  node [fontname="Helvetica",fontsize="10",shape=record];
  Node1 [label="{pip._vendor.distlib.index.\lPackageIndex\n|+ url\l+ password_handler\l+ ssl_verifier\l+ gpg\l+ gpg_home\l+ username\l+ password\l+ realm\l|+ __init__()\l+ read_configuration()\l+ save_configuration()\l+ check_credentials()\l+ register()\l+ get_sign_command()\l+ run_command()\l+ sign_file()\l+ upload_file()\l+ upload_documentation()\land 6 more...\l- _get_pypirc_command()\l- _reader()\l}",height=0.2,width=0.4,color="black", fillcolor="grey75", style="filled", fontcolor="black",tooltip=" "];
  Node2 -> Node1 [dir="back",color="midnightblue",fontsize="10",style="solid",arrowtail="onormal"];
  Node2 [label="{object\n||}",height=0.2,width=0.4,color="grey75", fillcolor="white", style="filled",tooltip=" "];
  Node3 -> Node1 [color="grey25",fontsize="10",style="solid",label=" +boundary" ,arrowhead="odiamond"];
  Node3 [label="{string\n||}",height=0.2,width=0.4,color="grey75", fillcolor="white", style="filled",tooltip=" "];
}
