digraph "pip._vendor.distlib.database.Distribution.matches_requirement"
{
 // LATEX_PDF_SIZE
  edge [fontname="Helvetica",fontsize="10",labelfontname="Helvetica",labelfontsize="10"];
  node [fontname="Helvetica",fontsize="10",shape=record];
  rankdir="LR";
  Node1 [label="pip._vendor.distlib.database.\lDistribution.matches_requirement",height=0.2,width=0.4,color="black", fillcolor="grey75", style="filled", fontcolor="black",tooltip=" "];
  Node1 -> Node2 [color="midnightblue",fontsize="10",style="solid"];
  Node2 [label="pip._internal.locations.get\l_scheme",height=0.2,width=0.4,color="black", fillcolor="white", style="filled",URL="$de/d72/namespacepip_1_1__internal_1_1locations.html#a033d0dec4e7c8e60e1c7fc80e5e9e5c7",tooltip=" "];
  Node2 -> Node3 [color="midnightblue",fontsize="10",style="solid"];
  Node3 [label="pip._internal.locations.distutils\l_scheme",height=0.2,width=0.4,color="black", fillcolor="white", style="filled",URL="$de/d72/namespacepip_1_1__internal_1_1locations.html#a493ff7bf913296f3847c31eb484c440b",tooltip=" "];
  Node3 -> Node4 [color="midnightblue",fontsize="10",style="solid"];
  Node4 [label="pip._internal.utils.typing.cast",height=0.2,width=0.4,color="black", fillcolor="white", style="filled",URL="$d9/d56/namespacepip_1_1__internal_1_1utils_1_1typing.html#ab37e3e9039b01929d8ac2bd74d7c37db",tooltip=" "];
  Node3 -> Node5 [color="midnightblue",fontsize="10",style="solid"];
  Node5 [label="pip._internal.locations.get\l_major_minor_version",height=0.2,width=0.4,color="black", fillcolor="white", style="filled",URL="$de/d72/namespacepip_1_1__internal_1_1locations.html#a9ea9af63bf94402c511cccc9648693d5",tooltip=" "];
  Node3 -> Node6 [color="midnightblue",fontsize="10",style="solid"];
  Node6 [label="pip._internal.utils.virtualenv.running\l_under_virtualenv",height=0.2,width=0.4,color="black", fillcolor="white", style="filled",URL="$db/dd1/namespacepip_1_1__internal_1_1utils_1_1virtualenv.html#ace91d91e112c91f1e6cc083f9ffdd73e",tooltip=" "];
  Node6 -> Node7 [color="midnightblue",fontsize="10",style="solid"];
  Node7 [label="pip._internal.utils.virtualenv.\l_running_under_regular_virtualenv",height=0.2,width=0.4,color="black", fillcolor="white", style="filled",URL="$db/dd1/namespacepip_1_1__internal_1_1utils_1_1virtualenv.html#a5b5ff4ff9340970a4ec55f0ef92bfccb",tooltip=" "];
  Node6 -> Node8 [color="midnightblue",fontsize="10",style="solid"];
  Node8 [label="pip._internal.utils.virtualenv.\l_running_under_venv",height=0.2,width=0.4,color="black", fillcolor="white", style="filled",URL="$db/dd1/namespacepip_1_1__internal_1_1utils_1_1virtualenv.html#a26466ba811523fe65d83fb1a6609cc71",tooltip=" "];
  Node1 -> Node9 [color="midnightblue",fontsize="10",style="solid"];
  Node9 [label="pip._vendor.distlib.util.parse\l_name_and_version",height=0.2,width=0.4,color="black", fillcolor="white", style="filled",URL="$d6/d99/namespacepip_1_1__vendor_1_1distlib_1_1util.html#a790092804a63d6bd8b2c17117864b1b6",tooltip=" "];
  Node1 -> Node10 [color="midnightblue",fontsize="10",style="solid"];
  Node10 [label="pip._vendor.distlib.util.parse\l_requirement",height=0.2,width=0.4,color="black", fillcolor="white", style="filled",URL="$d6/d99/namespacepip_1_1__vendor_1_1distlib_1_1util.html#aee45d476a44623cba51ca84e53e1d55c",tooltip=" "];
  Node10 -> Node11 [color="midnightblue",fontsize="10",style="solid"];
  Node11 [label="setuptools._distutils.cygwinccompiler.get\l_versions",height=0.2,width=0.4,color="black", fillcolor="white", style="filled",URL="$db/de5/namespacesetuptools_1_1__distutils_1_1cygwinccompiler.html#a5a4e7c943f142f32d3769f62fdbae571",tooltip=" "];
  Node11 -> Node12 [color="midnightblue",fontsize="10",style="solid"];
  Node12 [label="setuptools._distutils.cygwinccompiler.\l_find_exe_version",height=0.2,width=0.4,color="black", fillcolor="white", style="filled",URL="$db/de5/namespacesetuptools_1_1__distutils_1_1cygwinccompiler.html#a84caa055f93b63876555b0786e9a2d9a",tooltip=" "];
  Node12 -> Node13 [color="midnightblue",fontsize="10",style="solid"];
  Node13 [label="pip._vendor.idna.core.decode",height=0.2,width=0.4,color="black", fillcolor="white", style="filled",URL="$dc/dbe/namespacepip_1_1__vendor_1_1idna_1_1core.html#ab8a24800679a07c3161db86a9b0a73e6",tooltip=" "];
  Node13 -> Node14 [color="midnightblue",fontsize="10",style="solid"];
  Node14 [label="pip._vendor.idna.core.ulabel",height=0.2,width=0.4,color="black", fillcolor="white", style="filled",URL="$dc/dbe/namespacepip_1_1__vendor_1_1idna_1_1core.html#aa5d8b1ef65c7126d2fbd3b671b105ad2",tooltip=" "];
  Node14 -> Node15 [color="midnightblue",fontsize="10",style="solid"];
  Node15 [label="pip._vendor.idna.core.check\l_label",height=0.2,width=0.4,color="black", fillcolor="white", style="filled",URL="$dc/dbe/namespacepip_1_1__vendor_1_1idna_1_1core.html#ae9fc88587359b163ac595d519715c099",tooltip=" "];
  Node15 -> Node16 [color="midnightblue",fontsize="10",style="solid"];
  Node16 [label="pip._vendor.idna.core._unot",height=0.2,width=0.4,color="black", fillcolor="white", style="filled",URL="$dc/dbe/namespacepip_1_1__vendor_1_1idna_1_1core.html#afb6d3618c7b6bb8bab08b96c967eca66",tooltip=" "];
  Node15 -> Node17 [color="midnightblue",fontsize="10",style="solid"];
  Node17 [label="pip._vendor.idna.core.check_bidi",height=0.2,width=0.4,color="black", fillcolor="white", style="filled",URL="$dc/dbe/namespacepip_1_1__vendor_1_1idna_1_1core.html#a32a613317ceb9eb4cd52fdd73b3f1248",tooltip=" "];
  Node15 -> Node18 [color="midnightblue",fontsize="10",style="solid"];
  Node18 [label="pip._vendor.idna.core.check\l_hyphen_ok",height=0.2,width=0.4,color="black", fillcolor="white", style="filled",URL="$dc/dbe/namespacepip_1_1__vendor_1_1idna_1_1core.html#a81c0586c1db1facb045d6ec94210fde0",tooltip=" "];
  Node15 -> Node19 [color="midnightblue",fontsize="10",style="solid"];
  Node19 [label="pip._vendor.idna.core.check\l_initial_combiner",height=0.2,width=0.4,color="black", fillcolor="white", style="filled",URL="$dc/dbe/namespacepip_1_1__vendor_1_1idna_1_1core.html#a585b0e816f47c888b2bee45b8558e8fe",tooltip=" "];
  Node15 -> Node20 [color="midnightblue",fontsize="10",style="solid"];
  Node20 [label="pip._vendor.idna.core.check_nfc",height=0.2,width=0.4,color="black", fillcolor="white", style="filled",URL="$dc/dbe/namespacepip_1_1__vendor_1_1idna_1_1core.html#ae9c33c8013e65ab232c798b879f7b5b7",tooltip=" "];
  Node15 -> Node21 [color="midnightblue",fontsize="10",style="solid"];
  Node21 [label="pip._vendor.idna.intranges.intranges\l_contain",height=0.2,width=0.4,color="black", fillcolor="white", style="filled",URL="$dc/d38/namespacepip_1_1__vendor_1_1idna_1_1intranges.html#abcdc067f2c261e1663789054ba59f597",tooltip=" "];
  Node21 -> Node22 [color="midnightblue",fontsize="10",style="solid"];
  Node22 [label="pip._vendor.idna.intranges.\l_decode_range",height=0.2,width=0.4,color="black", fillcolor="white", style="filled",URL="$dc/d38/namespacepip_1_1__vendor_1_1idna_1_1intranges.html#acc8ad2745e5c2518e2ebc6854c84a996",tooltip=" "];
  Node21 -> Node23 [color="midnightblue",fontsize="10",style="solid"];
  Node23 [label="pip._vendor.idna.intranges.\l_encode_range",height=0.2,width=0.4,color="black", fillcolor="white", style="filled",URL="$dc/d38/namespacepip_1_1__vendor_1_1idna_1_1intranges.html#a451578dfb8f245213932aa16923c371f",tooltip=" "];
  Node15 -> Node24 [color="midnightblue",fontsize="10",style="solid"];
  Node24 [label="pip._vendor.idna.core.valid\l_contextj",height=0.2,width=0.4,color="black", fillcolor="white", style="filled",URL="$dc/dbe/namespacepip_1_1__vendor_1_1idna_1_1core.html#ae0ccbd5b53689c3986cd22100cbc8e99",tooltip=" "];
  Node24 -> Node25 [color="midnightblue",fontsize="10",style="solid"];
  Node25 [label="pip._vendor.idna.core.\l_combining_class",height=0.2,width=0.4,color="black", fillcolor="white", style="filled",URL="$dc/dbe/namespacepip_1_1__vendor_1_1idna_1_1core.html#a8f210532c53ebf345e30ec1d6c50c829",tooltip=" "];
  Node15 -> Node26 [color="midnightblue",fontsize="10",style="solid"];
  Node26 [label="pip._vendor.idna.core.valid\l_contexto",height=0.2,width=0.4,color="black", fillcolor="white", style="filled",URL="$dc/dbe/namespacepip_1_1__vendor_1_1idna_1_1core.html#a741f7cca90b4a6adc176a40ff242ec10",tooltip=" "];
  Node26 -> Node27 [color="midnightblue",fontsize="10",style="solid"];
  Node27 [label="pip._vendor.idna.core.\l_is_script",height=0.2,width=0.4,color="black", fillcolor="white", style="filled",URL="$dc/dbe/namespacepip_1_1__vendor_1_1idna_1_1core.html#aa2cf04d1f0c7c30e0b75cbc70e10655b",tooltip=" "];
  Node27 -> Node21 [color="midnightblue",fontsize="10",style="solid"];
  Node13 -> Node28 [color="midnightblue",fontsize="10",style="solid"];
  Node28 [label="pip._vendor.idna.core.uts46\l_remap",height=0.2,width=0.4,color="black", fillcolor="white", style="filled",URL="$dc/dbe/namespacepip_1_1__vendor_1_1idna_1_1core.html#a2d90033244fa673825a46b11909a635d",tooltip=" "];
  Node28 -> Node16 [color="midnightblue",fontsize="10",style="solid"];
  Node12 -> Node29 [color="midnightblue",fontsize="10",style="solid"];
  Node29 [label="setuptools._distutils.spawn.find\l_executable",height=0.2,width=0.4,color="black", fillcolor="white", style="filled",URL="$de/d6d/namespacesetuptools_1_1__distutils_1_1spawn.html#ab0bcca76cc491d34a62871cd0d80e3c8",tooltip=" "];
  Node10 -> Node30 [color="midnightblue",fontsize="10",style="solid"];
  Node30 [label="pip._vendor.distlib.util.parse\l_marker",height=0.2,width=0.4,color="black", fillcolor="white", style="filled",URL="$d6/d99/namespacepip_1_1__vendor_1_1distlib_1_1util.html#a2d33a11e61e348ae3021d0bc76379089",tooltip=" "];
  Node1 -> Node31 [color="midnightblue",fontsize="10",style="solid"];
  Node31 [label="pip._vendor.distlib.database.\lDistribution.provides",height=0.2,width=0.4,color="black", fillcolor="white", style="filled",URL="$d8/da9/classpip_1_1__vendor_1_1distlib_1_1database_1_1_distribution.html#ad0360a56aa60642fe4faaad96b04d31c",tooltip=" "];
}
