digraph "pip._vendor.distlib.database.Distribution.dev_requires"
{
 // LATEX_PDF_SIZE
  edge [fontname="Helvetica",fontsize="10",labelfontname="Helvetica",labelfontsize="10"];
  node [fontname="Helvetica",fontsize="10",shape=record];
  rankdir="LR";
  Node1 [label="pip._vendor.distlib.database.\lDistribution.dev_requires",height=0.2,width=0.4,color="black", fillcolor="grey75", style="filled", fontcolor="black",tooltip=" "];
  Node1 -> Node2 [color="midnightblue",fontsize="10",style="solid"];
  Node2 [label="pip._vendor.distlib.database.\lDistribution._get_requirements",height=0.2,width=0.4,color="black", fillcolor="white", style="filled",URL="$d8/da9/classpip_1_1__vendor_1_1distlib_1_1database_1_1_distribution.html#abdac23f6237e70f7959405a06953a554",tooltip=" "];
}
