digraph "pip._vendor.pep517.build.validate_system"
{
 // LATEX_PDF_SIZE
  edge [fontname="Helvetica",fontsize="10",labelfontname="Helvetica",labelfontsize="10"];
  node [fontname="Helvetica",fontsize="10",shape=record];
  rankdir="RL";
  Node1 [label="pip._vendor.pep517.build.validate\l_system",height=0.2,width=0.4,color="black", fillcolor="grey75", style="filled", fontcolor="black",tooltip=" "];
  Node1 -> Node2 [dir="back",color="midnightblue",fontsize="10",style="solid",fontname="Helvetica"];
  Node2 [label="pip._vendor.pep517.build.build",height=0.2,width=0.4,color="black", fillcolor="white", style="filled",URL="$d5/d84/namespacepip_1_1__vendor_1_1pep517_1_1build.html#aabcc54a837545e9cadf3ab91aaa6a611",tooltip=" "];
  Node2 -> Node3 [dir="back",color="midnightblue",fontsize="10",style="solid",fontname="Helvetica"];
  Node3 [label="pip._vendor.pep517.build.\l_do_build",height=0.2,width=0.4,color="black", fillcolor="white", style="filled",URL="$d5/d84/namespacepip_1_1__vendor_1_1pep517_1_1build.html#a48af2895c63f274123898c67178139ee",tooltip=" "];
  Node3 -> Node2 [dir="back",color="midnightblue",fontsize="10",style="solid",fontname="Helvetica"];
  Node2 -> Node4 [dir="back",color="midnightblue",fontsize="10",style="solid",fontname="Helvetica"];
  Node4 [label="pip._vendor.pep517.build.main",height=0.2,width=0.4,color="black", fillcolor="white", style="filled",URL="$d5/d84/namespacepip_1_1__vendor_1_1pep517_1_1build.html#aa3bf9002f1471764cf8359ec8a9e5ce0",tooltip=" "];
  Node1 -> Node5 [dir="back",color="midnightblue",fontsize="10",style="solid",fontname="Helvetica"];
  Node5 [label="pip._vendor.pep517.meta.build",height=0.2,width=0.4,color="black", fillcolor="white", style="filled",URL="$d2/dd4/namespacepip_1_1__vendor_1_1pep517_1_1meta.html#a268d7368d393df7cd613764e1b457110",tooltip=" "];
  Node5 -> Node6 [dir="back",color="midnightblue",fontsize="10",style="solid",fontname="Helvetica"];
  Node6 [label="pip._vendor.pep517.meta.main",height=0.2,width=0.4,color="black", fillcolor="white", style="filled",URL="$d2/dd4/namespacepip_1_1__vendor_1_1pep517_1_1meta.html#aa81c6f273bbc1526acb00f0e99fabcc1",tooltip=" "];
}
