digraph "pip._vendor.pyparsing._PendingSkip.__add__"
{
 // LATEX_PDF_SIZE
  edge [fontname="Helvetica",fontsize="10",labelfontname="Helvetica",labelfontsize="10"];
  node [fontname="Helvetica",fontsize="10",shape=record];
  rankdir="LR";
  Node1 [label="pip._vendor.pyparsing.\l_PendingSkip.__add__",height=0.2,width=0.4,color="black", fillcolor="grey75", style="filled", fontcolor="black",tooltip=" "];
  Node1 -> Node2 [color="midnightblue",fontsize="10",style="solid"];
  Node2 [label="pip._vendor.pyparsing.Parser\lElement.addParseAction",height=0.2,width=0.4,color="black", fillcolor="white", style="filled",URL="$df/d7f/classpip_1_1__vendor_1_1pyparsing_1_1_parser_element.html#a68747c347c4e38aef2c3e4cc67bb3e99",tooltip=" "];
  Node1 -> Node3 [color="midnightblue",fontsize="10",style="solid"];
  Node3 [label="pip._vendor.pyparsing.Parser\lElement.setName",height=0.2,width=0.4,color="black", fillcolor="white", style="filled",URL="$df/d7f/classpip_1_1__vendor_1_1pyparsing_1_1_parser_element.html#a110e6b3f0797a5730f4c0d851314071e",tooltip=" "];
}
