digraph "pip._vendor.pkg_resources.EggInfoDistribution"
{
 // LATEX_PDF_SIZE
  edge [fontname="Helvetica",fontsize="10",labelfontname="Helvetica",labelfontsize="10"];
  node [fontname="Helvetica",fontsize="10",shape=record];
  Node1 [label="{pip._vendor.pkg_resources.\lEggInfoDistribution\n|- _version\l|- _reload_version()\l}",height=0.2,width=0.4,color="black", fillcolor="grey75", style="filled", fontcolor="black",tooltip=" "];
  Node2 -> Node1 [dir="back",color="midnightblue",fontsize="10",style="solid",arrowtail="onormal",fontname="Helvetica"];
  Node2 [label="{pip._vendor.pkg_resources.\lDistribution\n|+ project_name\l+ py_version\l+ platform\l+ location\l+ precedence\l+ hashcmp\l+ key\l+ PKG_INFO\l- _version\l- _provider\l- _key\l- _parsed_version\l- __dep_map\l- _ep_map\l|+ __init__()\l+ from_location()\l+ hashcmp()\l+ __hash__()\l+ __lt__()\l+ __le__()\l+ __gt__()\l+ __ge__()\l+ __eq__()\l+ __ne__()\land 20 more...\l- _reload_version()\l- _warn_legacy_version()\l- _dep_map()\l- _build_dep_map()\l- _get_metadata_path\l_for_display()\l- _get_metadata()\l- _get_version()\l- _filter_extras()\l}",height=0.2,width=0.4,color="black", fillcolor="white", style="filled",URL="$d0/ddb/classpip_1_1__vendor_1_1pkg__resources_1_1_distribution.html",tooltip=" "];
}
