digraph "pip._vendor.ipaddress._IPAddressBase._prefix_from_ip_string"
{
 // LATEX_PDF_SIZE
  edge [fontname="Helvetica",fontsize="10",labelfontname="Helvetica",labelfontsize="10"];
  node [fontname="Helvetica",fontsize="10",shape=record];
  rankdir="RL";
  Node1 [label="pip._vendor.ipaddress.\l_IPAddressBase._prefix\l_from_ip_string",height=0.2,width=0.4,color="black", fillcolor="grey75", style="filled", fontcolor="black",tooltip=" "];
  Node1 -> Node2 [dir="back",color="midnightblue",fontsize="10",style="solid"];
  Node2 [label="pip._vendor.ipaddress.\l_BaseV4._make_netmask",height=0.2,width=0.4,color="black", fillcolor="white", style="filled",URL="$db/d56/classpip_1_1__vendor_1_1ipaddress_1_1___base_v4.html#a9673b5cb60fad914868c7384361422ef",tooltip=" "];
}
