digraph "pip._internal.wheel_builder._get_cache_dir"
{
 // LATEX_PDF_SIZE
  edge [fontname="Helvetica",fontsize="10",labelfontname="Helvetica",labelfontsize="10"];
  node [fontname="Helvetica",fontsize="10",shape=record];
  rankdir="LR";
  Node1 [label="pip._internal.wheel\l_builder._get_cache_dir",height=0.2,width=0.4,color="black", fillcolor="grey75", style="filled", fontcolor="black",tooltip=" "];
  Node1 -> Node2 [color="midnightblue",fontsize="10",style="solid"];
  Node2 [label="pip._internal.wheel\l_builder._should_cache",height=0.2,width=0.4,color="black", fillcolor="white", style="filled",URL="$d4/d97/namespacepip_1_1__internal_1_1wheel__builder.html#a7035f4c4fbaa289c62c9dc87720b7bfd",tooltip=" "];
  Node2 -> Node3 [color="midnightblue",fontsize="10",style="solid"];
  Node3 [label="pip._internal.wheel\l_builder._contains_egg_info",height=0.2,width=0.4,color="black", fillcolor="white", style="filled",URL="$d4/d97/namespacepip_1_1__internal_1_1wheel__builder.html#a0a94b42f87dee9e6c33eb98b7223537c",tooltip=" "];
}
