digraph "pip._internal.wheel_builder.build"
{
 // LATEX_PDF_SIZE
  edge [fontname="Helvetica",fontsize="10",labelfontname="Helvetica",labelfontsize="10"];
  node [fontname="Helvetica",fontsize="10",shape=record];
  rankdir="LR";
  Node1 [label="pip._internal.wheel\l_builder.build",height=0.2,width=0.4,color="black", fillcolor="grey75", style="filled", fontcolor="black",tooltip=" "];
  Node1 -> Node2 [color="midnightblue",fontsize="10",style="solid"];
  Node2 [label="pip._internal.wheel\l_builder._build_one",height=0.2,width=0.4,color="black", fillcolor="white", style="filled",URL="$d4/d97/namespacepip_1_1__internal_1_1wheel__builder.html#afa10f7ae8aca8f46c73b44cef86c7eba",tooltip=" "];
  Node2 -> Node3 [color="midnightblue",fontsize="10",style="solid"];
  Node3 [label="pip._internal.wheel\l_builder._build_one\l_inside_env",height=0.2,width=0.4,color="black", fillcolor="white", style="filled",URL="$d4/d97/namespacepip_1_1__internal_1_1wheel__builder.html#a3eb2f88abebca472ebac930b8b08a12e",tooltip=" "];
  Node3 -> Node4 [color="midnightblue",fontsize="10",style="solid"];
  Node4 [label="pip._internal.wheel\l_builder._clean_one\l_legacy",height=0.2,width=0.4,color="black", fillcolor="white", style="filled",URL="$d4/d97/namespacepip_1_1__internal_1_1wheel__builder.html#af4fa3d6973e3e63129291d99d31b9fa6",tooltip=" "];
  Node4 -> Node5 [color="midnightblue",fontsize="10",style="solid"];
  Node5 [label="pip._internal.utils.subprocess.call\l_subprocess",height=0.2,width=0.4,color="black", fillcolor="white", style="filled",URL="$de/d4d/namespacepip_1_1__internal_1_1utils_1_1subprocess.html#aa7460ba814e6508d609864b1783ac5c9",tooltip=" "];
  Node5 -> Node6 [color="midnightblue",fontsize="10",style="solid"];
  Node6 [label="pip._internal.utils.compat.console\l_to_str",height=0.2,width=0.4,color="black", fillcolor="white", style="filled",URL="$d1/dbe/namespacepip_1_1__internal_1_1utils_1_1compat.html#a10e86c6f45025a62c37b29bfc5801240",tooltip=" "];
  Node6 -> Node7 [color="midnightblue",fontsize="10",style="solid"];
  Node7 [label="pip._internal.utils.compat.str\l_to_display",height=0.2,width=0.4,color="black", fillcolor="white", style="filled",URL="$d1/dbe/namespacepip_1_1__internal_1_1utils_1_1compat.html#a4be57fd4fec2ca293f1967acba856c5b",tooltip=" "];
  Node5 -> Node8 [color="midnightblue",fontsize="10",style="solid"];
  Node8 [label="pip._internal.utils.subprocess.format\l_command_args",height=0.2,width=0.4,color="black", fillcolor="white", style="filled",URL="$de/d4d/namespacepip_1_1__internal_1_1utils_1_1subprocess.html#a555d52c519beee42615b9db004f18d59",tooltip=" "];
  Node5 -> Node9 [color="midnightblue",fontsize="10",style="solid"];
  Node9 [label="pip._internal.utils.subprocess.make\l_subprocess_output_error",height=0.2,width=0.4,color="black", fillcolor="white", style="filled",URL="$de/d4d/namespacepip_1_1__internal_1_1utils_1_1subprocess.html#a69e159aa9db850860bed4f4a64da8598",tooltip=" "];
  Node9 -> Node8 [color="midnightblue",fontsize="10",style="solid"];
  Node9 -> Node10 [color="midnightblue",fontsize="10",style="solid"];
  Node10 [label="pip._internal.utils.misc.path\l_to_display",height=0.2,width=0.4,color="black", fillcolor="white", style="filled",URL="$de/dc3/namespacepip_1_1__internal_1_1utils_1_1misc.html#a719e06573e964bf9b79c9088ae28426b",tooltip=" "];
  Node10 -> Node7 [color="midnightblue",fontsize="10",style="solid"];
  Node9 -> Node7 [color="midnightblue",fontsize="10",style="solid"];
  Node5 -> Node11 [color="midnightblue",fontsize="10",style="solid"];
  Node11 [label="pip._internal.utils.subprocess.reveal\l_command_args",height=0.2,width=0.4,color="black", fillcolor="white", style="filled",URL="$de/d4d/namespacepip_1_1__internal_1_1utils_1_1subprocess.html#a550dccfe24824c5345f989cdd92d8b37",tooltip=" "];
  Node4 -> Node12 [color="midnightblue",fontsize="10",style="solid"];
  Node12 [label="pip._internal.utils.setuptools\l_build.make_setuptools_clean_args",height=0.2,width=0.4,color="black", fillcolor="white", style="filled",URL="$d4/d20/namespacepip_1_1__internal_1_1utils_1_1setuptools__build.html#a08d7c496bdf77b0515cbe416ea3db1a7",tooltip=" "];
  Node12 -> Node13 [color="midnightblue",fontsize="10",style="solid"];
  Node13 [label="pip._internal.utils.setuptools\l_build.make_setuptools_shim_args",height=0.2,width=0.4,color="black", fillcolor="white", style="filled",URL="$d4/d20/namespacepip_1_1__internal_1_1utils_1_1setuptools__build.html#a4ef9d09efef3a5fe2b6cad0027a3c036",tooltip=" "];
  Node3 -> Node14 [color="midnightblue",fontsize="10",style="solid"];
  Node14 [label="pip._internal.operations.build.wheel\l_legacy.build_wheel_legacy",height=0.2,width=0.4,color="black", fillcolor="white", style="filled",URL="$d2/d7f/namespacepip_1_1__internal_1_1operations_1_1build_1_1wheel__legacy.html#acc8d8ae15c52e63da5315afa62ee379c",tooltip=" "];
  Node14 -> Node5 [color="midnightblue",fontsize="10",style="solid"];
  Node14 -> Node15 [color="midnightblue",fontsize="10",style="solid"];
  Node15 [label="pip._internal.operations.build.wheel\l_legacy.get_legacy_build_wheel_path",height=0.2,width=0.4,color="black", fillcolor="white", style="filled",URL="$d2/d7f/namespacepip_1_1__internal_1_1operations_1_1build_1_1wheel__legacy.html#abfabf1b143c39c171d9c1c9c1c70d40a",tooltip=" "];
  Node15 -> Node16 [color="midnightblue",fontsize="10",style="solid"];
  Node16 [label="pip._internal.operations.build.wheel\l_legacy.format_command_result",height=0.2,width=0.4,color="black", fillcolor="white", style="filled",URL="$d2/d7f/namespacepip_1_1__internal_1_1operations_1_1build_1_1wheel__legacy.html#a0d79cb58123323e40ce8f685ec0d5cb7",tooltip=" "];
  Node16 -> Node8 [color="midnightblue",fontsize="10",style="solid"];
  Node14 -> Node17 [color="midnightblue",fontsize="10",style="solid"];
  Node17 [label="pip._internal.utils.setuptools\l_build.make_setuptools_bdist\l_wheel_args",height=0.2,width=0.4,color="black", fillcolor="white", style="filled",URL="$d4/d20/namespacepip_1_1__internal_1_1utils_1_1setuptools__build.html#a86d56d3882515c25a324e49c818149e9",tooltip=" "];
  Node17 -> Node13 [color="midnightblue",fontsize="10",style="solid"];
  Node14 -> Node18 [color="midnightblue",fontsize="10",style="solid"];
  Node18 [label="pip._internal.cli.spinners.open\l_spinner",height=0.2,width=0.4,color="black", fillcolor="white", style="filled",URL="$df/dce/namespacepip_1_1__internal_1_1cli_1_1spinners.html#ae19f2c6898093eb110c52c7be41de1da",tooltip=" "];
  Node18 -> Node19 [color="midnightblue",fontsize="10",style="solid"];
  Node19 [label="pip._internal.cli.spinners.hidden\l_cursor",height=0.2,width=0.4,color="black", fillcolor="white", style="filled",URL="$df/dce/namespacepip_1_1__internal_1_1cli_1_1spinners.html#a8246fed9502350ad5e8e9b10303b98fb",tooltip=" "];
  Node3 -> Node20 [color="midnightblue",fontsize="10",style="solid"];
  Node20 [label="pip._internal.operations.build.wheel.build\l_wheel_pep517",height=0.2,width=0.4,color="black", fillcolor="white", style="filled",URL="$d5/d81/namespacepip_1_1__internal_1_1operations_1_1build_1_1wheel.html#a278526cf03dca85f87c5051664787025",tooltip=" "];
  Node20 -> Node21 [color="midnightblue",fontsize="10",style="solid"];
  Node21 [label="pip._internal.utils.subprocess.runner\l_with_spinner_message",height=0.2,width=0.4,color="black", fillcolor="white", style="filled",URL="$de/d4d/namespacepip_1_1__internal_1_1utils_1_1subprocess.html#a1a8d53bdd89463ba5941dfb10aaf153b",tooltip=" "];
  Node21 -> Node5 [color="midnightblue",fontsize="10",style="solid"];
  Node21 -> Node18 [color="midnightblue",fontsize="10",style="solid"];
  Node3 -> Node22 [color="midnightblue",fontsize="10",style="solid"];
  Node22 [label="pip._internal.utils.misc.hash_file",height=0.2,width=0.4,color="black", fillcolor="white", style="filled",URL="$de/dc3/namespacepip_1_1__internal_1_1utils_1_1misc.html#add5007422603dcbaf73096153ecb3744",tooltip=" "];
  Node22 -> Node23 [color="midnightblue",fontsize="10",style="solid"];
  Node23 [label="pip._internal.utils.misc.read\l_chunks",height=0.2,width=0.4,color="black", fillcolor="white", style="filled",URL="$de/dc3/namespacepip_1_1__internal_1_1utils_1_1misc.html#a25da090ad5c5713ddf62d788dac9e051",tooltip=" "];
  Node2 -> Node24 [color="midnightblue",fontsize="10",style="solid"];
  Node24 [label="pip._internal.utils.misc.ensure_dir",height=0.2,width=0.4,color="black", fillcolor="white", style="filled",URL="$de/dc3/namespacepip_1_1__internal_1_1utils_1_1misc.html#afaf6195b8068b1a08c9b6bb51384b7d0",tooltip=" "];
  Node1 -> Node25 [color="midnightblue",fontsize="10",style="solid"];
  Node25 [label="pip._internal.wheel\l_builder._get_cache_dir",height=0.2,width=0.4,color="black", fillcolor="white", style="filled",URL="$d4/d97/namespacepip_1_1__internal_1_1wheel__builder.html#afcc87bbd0eebf519be7a6ac14ae39d7f",tooltip=" "];
  Node25 -> Node26 [color="midnightblue",fontsize="10",style="solid"];
  Node26 [label="pip._internal.wheel\l_builder._should_cache",height=0.2,width=0.4,color="black", fillcolor="white", style="filled",URL="$d4/d97/namespacepip_1_1__internal_1_1wheel__builder.html#a7035f4c4fbaa289c62c9dc87720b7bfd",tooltip=" "];
  Node26 -> Node27 [color="midnightblue",fontsize="10",style="solid"];
  Node27 [label="pip._internal.wheel\l_builder._contains_egg_info",height=0.2,width=0.4,color="black", fillcolor="white", style="filled",URL="$d4/d97/namespacepip_1_1__internal_1_1wheel__builder.html#a0a94b42f87dee9e6c33eb98b7223537c",tooltip=" "];
  Node1 -> Node28 [color="midnightblue",fontsize="10",style="solid"];
  Node28 [label="pip._internal.utils.logging.indent_log",height=0.2,width=0.4,color="black", fillcolor="white", style="filled",URL="$d2/d7f/namespacepip_1_1__internal_1_1utils_1_1logging.html#a085a5d65b0702800d0a9d48a0a4615a8",tooltip=" "];
  Node28 -> Node29 [color="midnightblue",fontsize="10",style="solid"];
  Node29 [label="pip._internal.utils.logging.get\l_indentation",height=0.2,width=0.4,color="black", fillcolor="white", style="filled",URL="$d2/d7f/namespacepip_1_1__internal_1_1utils_1_1logging.html#a44d946c100e5712775abb26dc67d1c51",tooltip=" "];
  Node1 -> Node30 [color="midnightblue",fontsize="10",style="solid"];
  Node30 [label="pip._internal.utils.urls.path\l_to_url",height=0.2,width=0.4,color="black", fillcolor="white", style="filled",URL="$d7/d48/namespacepip_1_1__internal_1_1utils_1_1urls.html#a789117f8d3114e952ead88416e5493d9",tooltip=" "];
}
