digraph "pip._internal.exceptions.InstallationError"
{
 // LATEX_PDF_SIZE
  edge [fontname="Helvetica",fontsize="10",labelfontname="Helvetica",labelfontsize="10"];
  node [fontname="Helvetica",fontsize="10",shape=record];
  Node1 [label="{pip._internal.exceptions.\lInstallationError\n||}",height=0.2,width=0.4,color="black", fillcolor="grey75", style="filled", fontcolor="black",tooltip=" "];
  Node2 -> Node1 [dir="back",color="midnightblue",fontsize="10",style="solid",arrowtail="onormal"];
  Node2 [label="{pip._internal.exceptions.\lPipError\n||}",height=0.2,width=0.4,color="black", fillcolor="white", style="filled",URL="$d6/d0a/classpip_1_1__internal_1_1exceptions_1_1_pip_error.html",tooltip=" "];
  Node3 -> Node2 [dir="back",color="midnightblue",fontsize="10",style="solid",arrowtail="onormal"];
  Node3 [label="{Exception\n||}",height=0.2,width=0.4,color="grey75", fillcolor="white", style="filled",tooltip=" "];
  Node1 -> Node4 [dir="back",color="midnightblue",fontsize="10",style="solid",arrowtail="onormal"];
  Node4 [label="{pip._internal.exceptions.\lDistributionNotFound\n||}",height=0.2,width=0.4,color="black", fillcolor="white", style="filled",URL="$d1/d76/classpip_1_1__internal_1_1exceptions_1_1_distribution_not_found.html",tooltip=" "];
  Node1 -> Node5 [dir="back",color="midnightblue",fontsize="10",style="solid",arrowtail="onormal"];
  Node5 [label="{pip._internal.exceptions.\lHashError\n|+ req\l+ head\l+ order\l|+ body()\l+ __str__()\l- _requirement_name()\l}",height=0.2,width=0.4,color="black", fillcolor="white", style="filled",URL="$d5/d33/classpip_1_1__internal_1_1exceptions_1_1_hash_error.html",tooltip=" "];
  Node5 -> Node6 [dir="back",color="midnightblue",fontsize="10",style="solid",arrowtail="onormal"];
  Node6 [label="{pip._internal.exceptions.\lDirectoryUrlHashUnsupported\n|+ order\l+ head\l|}",height=0.2,width=0.4,color="black", fillcolor="white", style="filled",URL="$dc/d66/classpip_1_1__internal_1_1exceptions_1_1_directory_url_hash_unsupported.html",tooltip=" "];
  Node5 -> Node7 [dir="back",color="midnightblue",fontsize="10",style="solid",arrowtail="onormal"];
  Node7 [label="{pip._internal.exceptions.\lHashMismatch\n|+ allowed\l+ gots\l+ order\l+ head\l|+ __init__()\l+ body()\l- _hash_comparison()\l}",height=0.2,width=0.4,color="black", fillcolor="white", style="filled",URL="$da/dc1/classpip_1_1__internal_1_1exceptions_1_1_hash_mismatch.html",tooltip=" "];
  Node5 -> Node8 [dir="back",color="midnightblue",fontsize="10",style="solid",arrowtail="onormal"];
  Node8 [label="{pip._internal.exceptions.\lHashMissing\n|+ gotten_hash\l+ order\l+ head\l|+ __init__()\l+ body()\l}",height=0.2,width=0.4,color="black", fillcolor="white", style="filled",URL="$d4/dcb/classpip_1_1__internal_1_1exceptions_1_1_hash_missing.html",tooltip=" "];
  Node5 -> Node9 [dir="back",color="midnightblue",fontsize="10",style="solid",arrowtail="onormal"];
  Node9 [label="{pip._internal.exceptions.\lHashUnpinned\n|+ order\l+ head\l|}",height=0.2,width=0.4,color="black", fillcolor="white", style="filled",URL="$da/d70/classpip_1_1__internal_1_1exceptions_1_1_hash_unpinned.html",tooltip=" "];
  Node5 -> Node10 [dir="back",color="midnightblue",fontsize="10",style="solid",arrowtail="onormal"];
  Node10 [label="{pip._internal.exceptions.\lVcsHashUnsupported\n|+ order\l+ head\l|}",height=0.2,width=0.4,color="black", fillcolor="white", style="filled",URL="$dd/df6/classpip_1_1__internal_1_1exceptions_1_1_vcs_hash_unsupported.html",tooltip=" "];
  Node1 -> Node11 [dir="back",color="midnightblue",fontsize="10",style="solid",arrowtail="onormal"];
  Node11 [label="{pip._internal.exceptions.\lHashErrors\n|+ errors\l|+ __init__()\l+ append()\l+ __str__()\l+ __nonzero__()\l+ __bool__()\l}",height=0.2,width=0.4,color="black", fillcolor="white", style="filled",URL="$da/d1a/classpip_1_1__internal_1_1exceptions_1_1_hash_errors.html",tooltip=" "];
  Node1 -> Node12 [dir="back",color="midnightblue",fontsize="10",style="solid",arrowtail="onormal"];
  Node12 [label="{pip._internal.exceptions.\lInvalidWheelFilename\n||}",height=0.2,width=0.4,color="black", fillcolor="white", style="filled",URL="$dd/d85/classpip_1_1__internal_1_1exceptions_1_1_invalid_wheel_filename.html",tooltip=" "];
  Node1 -> Node13 [dir="back",color="midnightblue",fontsize="10",style="solid",arrowtail="onormal"];
  Node13 [label="{pip._internal.exceptions.\lMetadataInconsistent\n|+ ireq\l+ field\l+ built\l|+ __init__()\l+ __str__()\l}",height=0.2,width=0.4,color="black", fillcolor="white", style="filled",URL="$dd/d0c/classpip_1_1__internal_1_1exceptions_1_1_metadata_inconsistent.html",tooltip=" "];
  Node1 -> Node14 [dir="back",color="midnightblue",fontsize="10",style="solid",arrowtail="onormal"];
  Node14 [label="{pip._internal.exceptions.\lRequirementsFileParseError\n||}",height=0.2,width=0.4,color="black", fillcolor="white", style="filled",URL="$d6/d2e/classpip_1_1__internal_1_1exceptions_1_1_requirements_file_parse_error.html",tooltip=" "];
  Node1 -> Node15 [dir="back",color="midnightblue",fontsize="10",style="solid",arrowtail="onormal"];
  Node15 [label="{pip._internal.exceptions.\lUnsupportedPythonVersion\n||}",height=0.2,width=0.4,color="black", fillcolor="white", style="filled",URL="$d0/db6/classpip_1_1__internal_1_1exceptions_1_1_unsupported_python_version.html",tooltip=" "];
  Node1 -> Node16 [dir="back",color="midnightblue",fontsize="10",style="solid",arrowtail="onormal"];
  Node16 [label="{pip._internal.exceptions.\lUnsupportedWheel\n||}",height=0.2,width=0.4,color="black", fillcolor="white", style="filled",URL="$d2/d85/classpip_1_1__internal_1_1exceptions_1_1_unsupported_wheel.html",tooltip=" "];
  Node1 -> Node17 [dir="back",color="midnightblue",fontsize="10",style="solid",arrowtail="onormal"];
  Node17 [label="{pip._internal.operations.install.wheel.\lMissingCallableSuffix\n||+ __init__()\l}",height=0.2,width=0.4,color="black", fillcolor="white", style="filled",URL="$d8/d35/classpip_1_1__internal_1_1operations_1_1install_1_1wheel_1_1_missing_callable_suffix.html",tooltip=" "];
}
