digraph "pip._vendor.html5lib._inputstream.EncodingBytes"
{
 // LATEX_PDF_SIZE
  edge [fontname="Helvetica",fontsize="10",labelfontname="Helvetica",labelfontsize="10"];
  node [fontname="Helvetica",fontsize="10",shape=record];
  Node1 [label="{pip._vendor.html5lib.\l_inputstream.EncodingBytes\n|+ position\l+ currentByte\l- _position\l|+ __new__()\l+ __init__()\l+ __iter__()\l+ __next__()\l+ next()\l+ previous()\l+ setPosition()\l+ getPosition()\l+ getCurrentByte()\l+ skip()\l+ skipUntil()\l+ matchBytes()\l+ jumpTo()\l}",height=0.2,width=0.4,color="black", fillcolor="grey75", style="filled", fontcolor="black",tooltip=" "];
  Node2 -> Node1 [dir="back",color="midnightblue",fontsize="10",style="solid",arrowtail="onormal"];
  Node2 [label="{bytes\n||}",height=0.2,width=0.4,color="grey75", fillcolor="white", style="filled",tooltip=" "];
}
