digraph "pip._internal.vcs.subversion.Subversion"
{
 // LATEX_PDF_SIZE
  edge [fontname="Helvetica",fontsize="10",labelfontname="Helvetica",labelfontsize="10"];
  node [fontname="Helvetica",fontsize="10",shape=record];
  Node1 [label="{pip._internal.vcs.subversion.\lSubversion\n|+ use_interactive\l+ name\l+ dirname\l+ repo_name\l+ schemes\l- _vcs_version\l|+ should_add_vcs_url\l_prefix()\l+ get_revision()\l+ get_netloc_and_auth()\l+ get_url_rev_and_auth()\l+ get_remote_url()\l+ is_commit_id_equal()\l+ __init__()\l+ call_vcs_version()\l+ get_vcs_version()\l+ get_remote_call_options()\l+ export()\l+ fetch_new()\l+ switch()\l+ update()\l+ get_base_rev_args()\l+ make_rev_args()\l- _get_svn_url_rev()\l}",height=0.2,width=0.4,color="black", fillcolor="grey75", style="filled", fontcolor="black",tooltip=" "];
  Node2 -> Node1 [dir="back",color="midnightblue",fontsize="10",style="solid",arrowtail="onormal",fontname="Helvetica"];
  Node2 [label="{pip._internal.vcs.versioncontrol.\lVersionControl\n|+ name\l+ dirname\l+ repo_name\l+ schemes\l+ unset_environ\l+ default_arg_rev\l|+ should_add_vcs_url\l_prefix()\l+ get_subdirectory()\l+ get_requirement_revision()\l+ get_src_requirement()\l+ is_immutable_rev_checkout()\l+ make_rev_options()\l+ export()\l+ get_netloc_and_auth()\l+ get_url_rev_and_auth()\l+ get_url_rev_options()\land 12 more...\l+ get_base_rev_args()\l+ make_rev_args()\l+ normalize_url()\l- _is_local_repository()\l}",height=0.2,width=0.4,color="black", fillcolor="white", style="filled",URL="$d0/db7/classpip_1_1__internal_1_1vcs_1_1versioncontrol_1_1_version_control.html",tooltip=" "];
  Node3 -> Node2 [dir="back",color="midnightblue",fontsize="10",style="solid",arrowtail="onormal",fontname="Helvetica"];
  Node3 [label="{object\n||}",height=0.2,width=0.4,color="grey75", fillcolor="white", style="filled",tooltip=" "];
}
