digraph "pip._vendor.distlib._backport.tarfile.TarInfo.create_gnu_header"
{
 // LATEX_PDF_SIZE
  edge [fontname="Helvetica",fontsize="10",labelfontname="Helvetica",labelfontsize="10"];
  node [fontname="Helvetica",fontsize="10",shape=record];
  rankdir="LR";
  Node1 [label="pip._vendor.distlib.\l_backport.tarfile.TarInfo.create\l_gnu_header",height=0.2,width=0.4,color="black", fillcolor="grey75", style="filled", fontcolor="black",tooltip=" "];
  Node1 -> Node2 [color="midnightblue",fontsize="10",style="solid",fontname="Helvetica"];
  Node2 [label="pip._vendor.distlib.\l_backport.tarfile.TarInfo.\l_create_gnu_long_header",height=0.2,width=0.4,color="black", fillcolor="white", style="filled",URL="$df/d3f/classpip_1_1__vendor_1_1distlib_1_1__backport_1_1tarfile_1_1_tar_info.html#a7bf91bb1f631c88688df06e855b6515f",tooltip=" "];
  Node2 -> Node3 [color="midnightblue",fontsize="10",style="solid",fontname="Helvetica"];
  Node3 [label="pip._vendor.distlib.\l_backport.tarfile.TarInfo.\l_create_header",height=0.2,width=0.4,color="black", fillcolor="white", style="filled",URL="$df/d3f/classpip_1_1__vendor_1_1distlib_1_1__backport_1_1tarfile_1_1_tar_info.html#a153c329eb1fc8e6d980b1366cc1d95f9",tooltip=" "];
  Node3 -> Node4 [color="midnightblue",fontsize="10",style="solid",fontname="Helvetica"];
  Node4 [label="pip._vendor.distlib.\l_backport.tarfile.calc\l_chksums",height=0.2,width=0.4,color="black", fillcolor="white", style="filled",URL="$d4/df2/namespacepip_1_1__vendor_1_1distlib_1_1__backport_1_1tarfile.html#af4764bbf43b654ea491f86cfa0a5b906",tooltip=" "];
  Node3 -> Node5 [color="midnightblue",fontsize="10",style="solid",fontname="Helvetica"];
  Node5 [label="pip._vendor.idna.core.encode",height=0.2,width=0.4,color="black", fillcolor="white", style="filled",URL="$dc/dbe/namespacepip_1_1__vendor_1_1idna_1_1core.html#ab44c2946ca8d572559f40521032afe1a",tooltip=" "];
  Node5 -> Node6 [color="midnightblue",fontsize="10",style="solid",fontname="Helvetica"];
  Node6 [label="pip._vendor.idna.core.alabel",height=0.2,width=0.4,color="black", fillcolor="white", style="filled",URL="$dc/dbe/namespacepip_1_1__vendor_1_1idna_1_1core.html#a59626ddc5d21ec43787eba30bdf1b2bd",tooltip=" "];
  Node6 -> Node7 [color="midnightblue",fontsize="10",style="solid",fontname="Helvetica"];
  Node7 [label="pip._vendor.idna.core.\l_punycode",height=0.2,width=0.4,color="black", fillcolor="white", style="filled",URL="$dc/dbe/namespacepip_1_1__vendor_1_1idna_1_1core.html#a860e01f9e85dad091926e676c98eefec",tooltip=" "];
  Node6 -> Node8 [color="midnightblue",fontsize="10",style="solid",fontname="Helvetica"];
  Node8 [label="pip._vendor.idna.core.check\l_label",height=0.2,width=0.4,color="black", fillcolor="white", style="filled",URL="$dc/dbe/namespacepip_1_1__vendor_1_1idna_1_1core.html#ae9fc88587359b163ac595d519715c099",tooltip=" "];
  Node8 -> Node9 [color="midnightblue",fontsize="10",style="solid",fontname="Helvetica"];
  Node9 [label="pip._vendor.idna.core._unot",height=0.2,width=0.4,color="black", fillcolor="white", style="filled",URL="$dc/dbe/namespacepip_1_1__vendor_1_1idna_1_1core.html#afb6d3618c7b6bb8bab08b96c967eca66",tooltip=" "];
  Node8 -> Node10 [color="midnightblue",fontsize="10",style="solid",fontname="Helvetica"];
  Node10 [label="pip._vendor.idna.core.check_bidi",height=0.2,width=0.4,color="black", fillcolor="white", style="filled",URL="$dc/dbe/namespacepip_1_1__vendor_1_1idna_1_1core.html#a32a613317ceb9eb4cd52fdd73b3f1248",tooltip=" "];
  Node8 -> Node11 [color="midnightblue",fontsize="10",style="solid",fontname="Helvetica"];
  Node11 [label="pip._vendor.idna.core.check\l_hyphen_ok",height=0.2,width=0.4,color="black", fillcolor="white", style="filled",URL="$dc/dbe/namespacepip_1_1__vendor_1_1idna_1_1core.html#a81c0586c1db1facb045d6ec94210fde0",tooltip=" "];
  Node8 -> Node12 [color="midnightblue",fontsize="10",style="solid",fontname="Helvetica"];
  Node12 [label="pip._vendor.idna.core.check\l_initial_combiner",height=0.2,width=0.4,color="black", fillcolor="white", style="filled",URL="$dc/dbe/namespacepip_1_1__vendor_1_1idna_1_1core.html#a585b0e816f47c888b2bee45b8558e8fe",tooltip=" "];
  Node8 -> Node13 [color="midnightblue",fontsize="10",style="solid",fontname="Helvetica"];
  Node13 [label="pip._vendor.idna.core.check_nfc",height=0.2,width=0.4,color="black", fillcolor="white", style="filled",URL="$dc/dbe/namespacepip_1_1__vendor_1_1idna_1_1core.html#ae9c33c8013e65ab232c798b879f7b5b7",tooltip=" "];
  Node8 -> Node14 [color="midnightblue",fontsize="10",style="solid",fontname="Helvetica"];
  Node14 [label="pip._vendor.idna.intranges.intranges\l_contain",height=0.2,width=0.4,color="black", fillcolor="white", style="filled",URL="$dc/d38/namespacepip_1_1__vendor_1_1idna_1_1intranges.html#abcdc067f2c261e1663789054ba59f597",tooltip=" "];
  Node14 -> Node15 [color="midnightblue",fontsize="10",style="solid",fontname="Helvetica"];
  Node15 [label="pip._vendor.idna.intranges.\l_decode_range",height=0.2,width=0.4,color="black", fillcolor="white", style="filled",URL="$dc/d38/namespacepip_1_1__vendor_1_1idna_1_1intranges.html#acc8ad2745e5c2518e2ebc6854c84a996",tooltip=" "];
  Node14 -> Node16 [color="midnightblue",fontsize="10",style="solid",fontname="Helvetica"];
  Node16 [label="pip._vendor.idna.intranges.\l_encode_range",height=0.2,width=0.4,color="black", fillcolor="white", style="filled",URL="$dc/d38/namespacepip_1_1__vendor_1_1idna_1_1intranges.html#a451578dfb8f245213932aa16923c371f",tooltip=" "];
  Node8 -> Node17 [color="midnightblue",fontsize="10",style="solid",fontname="Helvetica"];
  Node17 [label="pip._vendor.idna.core.valid\l_contextj",height=0.2,width=0.4,color="black", fillcolor="white", style="filled",URL="$dc/dbe/namespacepip_1_1__vendor_1_1idna_1_1core.html#ae0ccbd5b53689c3986cd22100cbc8e99",tooltip=" "];
  Node17 -> Node18 [color="midnightblue",fontsize="10",style="solid",fontname="Helvetica"];
  Node18 [label="pip._vendor.idna.core.\l_combining_class",height=0.2,width=0.4,color="black", fillcolor="white", style="filled",URL="$dc/dbe/namespacepip_1_1__vendor_1_1idna_1_1core.html#a8f210532c53ebf345e30ec1d6c50c829",tooltip=" "];
  Node8 -> Node19 [color="midnightblue",fontsize="10",style="solid",fontname="Helvetica"];
  Node19 [label="pip._vendor.idna.core.valid\l_contexto",height=0.2,width=0.4,color="black", fillcolor="white", style="filled",URL="$dc/dbe/namespacepip_1_1__vendor_1_1idna_1_1core.html#a741f7cca90b4a6adc176a40ff242ec10",tooltip=" "];
  Node19 -> Node20 [color="midnightblue",fontsize="10",style="solid",fontname="Helvetica"];
  Node20 [label="pip._vendor.idna.core.\l_is_script",height=0.2,width=0.4,color="black", fillcolor="white", style="filled",URL="$dc/dbe/namespacepip_1_1__vendor_1_1idna_1_1core.html#aa2cf04d1f0c7c30e0b75cbc70e10655b",tooltip=" "];
  Node20 -> Node14 [color="midnightblue",fontsize="10",style="solid",fontname="Helvetica"];
  Node6 -> Node21 [color="midnightblue",fontsize="10",style="solid",fontname="Helvetica"];
  Node21 [label="pip._vendor.idna.core.ulabel",height=0.2,width=0.4,color="black", fillcolor="white", style="filled",URL="$dc/dbe/namespacepip_1_1__vendor_1_1idna_1_1core.html#aa5d8b1ef65c7126d2fbd3b671b105ad2",tooltip=" "];
  Node21 -> Node8 [color="midnightblue",fontsize="10",style="solid",fontname="Helvetica"];
  Node6 -> Node22 [color="midnightblue",fontsize="10",style="solid",fontname="Helvetica"];
  Node22 [label="pip._vendor.idna.core.valid\l_label_length",height=0.2,width=0.4,color="black", fillcolor="white", style="filled",URL="$dc/dbe/namespacepip_1_1__vendor_1_1idna_1_1core.html#acd48dccb4945430b28b3d5ad28d05545",tooltip=" "];
  Node5 -> Node23 [color="midnightblue",fontsize="10",style="solid",fontname="Helvetica"];
  Node23 [label="pip._vendor.idna.core.uts46\l_remap",height=0.2,width=0.4,color="black", fillcolor="white", style="filled",URL="$dc/dbe/namespacepip_1_1__vendor_1_1idna_1_1core.html#a2d90033244fa673825a46b11909a635d",tooltip=" "];
  Node23 -> Node9 [color="midnightblue",fontsize="10",style="solid",fontname="Helvetica"];
  Node5 -> Node24 [color="midnightblue",fontsize="10",style="solid",fontname="Helvetica"];
  Node24 [label="pip._vendor.idna.core.valid\l_string_length",height=0.2,width=0.4,color="black", fillcolor="white", style="filled",URL="$dc/dbe/namespacepip_1_1__vendor_1_1idna_1_1core.html#a46abadd9be760400a42c0afc32d93e41",tooltip=" "];
  Node3 -> Node25 [color="midnightblue",fontsize="10",style="solid",fontname="Helvetica"];
  Node25 [label="pip._vendor.distlib.\l_backport.tarfile.itn",height=0.2,width=0.4,color="black", fillcolor="white", style="filled",URL="$d4/df2/namespacepip_1_1__vendor_1_1distlib_1_1__backport_1_1tarfile.html#a14cae059997c819c3a23142671591ecd",tooltip=" "];
  Node25 -> Node5 [color="midnightblue",fontsize="10",style="solid",fontname="Helvetica"];
  Node3 -> Node26 [color="midnightblue",fontsize="10",style="solid",fontname="Helvetica"];
  Node26 [label="pip._vendor.distlib.\l_backport.tarfile.stn",height=0.2,width=0.4,color="black", fillcolor="white", style="filled",URL="$d4/df2/namespacepip_1_1__vendor_1_1distlib_1_1__backport_1_1tarfile.html#a5ee6a3494ff244be6017a26391c819d7",tooltip=" "];
  Node2 -> Node27 [color="midnightblue",fontsize="10",style="solid",fontname="Helvetica"];
  Node27 [label="pip._vendor.distlib.\l_backport.tarfile.TarInfo.\l_create_payload",height=0.2,width=0.4,color="black", fillcolor="white", style="filled",URL="$df/d3f/classpip_1_1__vendor_1_1distlib_1_1__backport_1_1tarfile_1_1_tar_info.html#a670fd883eca6630e8241600f84c2c817",tooltip=" "];
  Node1 -> Node3 [color="midnightblue",fontsize="10",style="solid",fontname="Helvetica"];
}
