digraph "pip._internal.req.req_uninstall.UninstallPathSet._permitted"
{
 // LATEX_PDF_SIZE
  edge [fontname="Helvetica",fontsize="10",labelfontname="Helvetica",labelfontsize="10"];
  node [fontname="Helvetica",fontsize="10",shape=record];
  rankdir="LR";
  Node1 [label="pip._internal.req.req\l_uninstall.UninstallPathSet.\l_permitted",height=0.2,width=0.4,color="black", fillcolor="grey75", style="filled", fontcolor="black",tooltip=" "];
  Node1 -> Node2 [color="midnightblue",fontsize="10",style="solid",fontname="Helvetica"];
  Node2 [label="pip._internal.utils.misc.is\l_local",height=0.2,width=0.4,color="black", fillcolor="white", style="filled",URL="$de/dc3/namespacepip_1_1__internal_1_1utils_1_1misc.html#a742f4eaebb54ee9747079238b762cd7d",tooltip=" "];
  Node2 -> Node3 [color="midnightblue",fontsize="10",style="solid",fontname="Helvetica"];
  Node3 [label="pip._internal.utils.misc.normalize_path",height=0.2,width=0.4,color="black", fillcolor="white", style="filled",URL="$de/dc3/namespacepip_1_1__internal_1_1utils_1_1misc.html#a9594cfa80c3e1c931446b2ea25904443",tooltip=" "];
  Node3 -> Node4 [color="midnightblue",fontsize="10",style="solid",fontname="Helvetica"];
  Node4 [label="pip._internal.utils.compat.expanduser",height=0.2,width=0.4,color="black", fillcolor="white", style="filled",URL="$d1/dbe/namespacepip_1_1__internal_1_1utils_1_1compat.html#a67193dd0e0e3b2080bba56314b610e07",tooltip=" "];
  Node2 -> Node5 [color="midnightblue",fontsize="10",style="solid",fontname="Helvetica"];
  Node5 [label="pip._internal.utils.virtualenv.running\l_under_virtualenv",height=0.2,width=0.4,color="black", fillcolor="white", style="filled",URL="$db/dd1/namespacepip_1_1__internal_1_1utils_1_1virtualenv.html#ace91d91e112c91f1e6cc083f9ffdd73e",tooltip=" "];
  Node5 -> Node6 [color="midnightblue",fontsize="10",style="solid",fontname="Helvetica"];
  Node6 [label="pip._internal.utils.virtualenv.\l_running_under_regular_virtualenv",height=0.2,width=0.4,color="black", fillcolor="white", style="filled",URL="$db/dd1/namespacepip_1_1__internal_1_1utils_1_1virtualenv.html#a5b5ff4ff9340970a4ec55f0ef92bfccb",tooltip=" "];
  Node5 -> Node7 [color="midnightblue",fontsize="10",style="solid",fontname="Helvetica"];
  Node7 [label="pip._internal.utils.virtualenv.\l_running_under_venv",height=0.2,width=0.4,color="black", fillcolor="white", style="filled",URL="$db/dd1/namespacepip_1_1__internal_1_1utils_1_1virtualenv.html#a26466ba811523fe65d83fb1a6609cc71",tooltip=" "];
}
