digraph "pip._internal.req.req_uninstall.UninstallPathSet._allowed_to_proceed"
{
 // LATEX_PDF_SIZE
  edge [fontname="Helvetica",fontsize="10",labelfontname="Helvetica",labelfontsize="10"];
  node [fontname="Helvetica",fontsize="10",shape=record];
  rankdir="RL";
  Node1 [label="pip._internal.req.req\l_uninstall.UninstallPathSet.\l_allowed_to_proceed",height=0.2,width=0.4,color="black", fillcolor="grey75", style="filled", fontcolor="black",tooltip=" "];
  Node1 -> Node2 [dir="back",color="midnightblue",fontsize="10",style="solid",fontname="Helvetica"];
  Node2 [label="pip._internal.req.req\l_uninstall.UninstallPathSet.remove",height=0.2,width=0.4,color="black", fillcolor="white", style="filled",URL="$d9/d6e/classpip_1_1__internal_1_1req_1_1req__uninstall_1_1_uninstall_path_set.html#ad07b6057fe01d6ab9564123c396a6e90",tooltip=" "];
  Node2 -> Node3 [dir="back",color="midnightblue",fontsize="10",style="solid",fontname="Helvetica"];
  Node3 [label="pip._vendor.html5lib.treebuilders.base.\lActiveFormattingElements.append",height=0.2,width=0.4,color="black", fillcolor="white", style="filled",URL="$d6/dbf/classpip_1_1__vendor_1_1html5lib_1_1treebuilders_1_1base_1_1_active_formatting_elements.html#aa31b917a8deb849aa62a9736a488eb82",tooltip=" "];
  Node3 -> Node4 [dir="back",color="midnightblue",fontsize="10",style="solid",fontname="Helvetica"];
  Node4 [label="pip._vendor.pyparsing.And.\l__iadd__",height=0.2,width=0.4,color="black", fillcolor="white", style="filled",URL="$d7/d75/classpip_1_1__vendor_1_1pyparsing_1_1_and.html#aed06063711527027f539322ed846dfdd",tooltip=" "];
  Node3 -> Node5 [dir="back",color="midnightblue",fontsize="10",style="solid",fontname="Helvetica"];
  Node5 [label="pkg_resources._vendor.pyparsing.\lAnd.__iadd__",height=0.2,width=0.4,color="black", fillcolor="white", style="filled",URL="$d3/dbf/classpkg__resources_1_1__vendor_1_1pyparsing_1_1_and.html#aab46d1c623b48f6b5556975df8b97aba",tooltip=" "];
  Node3 -> Node6 [dir="back",color="midnightblue",fontsize="10",style="solid",fontname="Helvetica"];
  Node6 [label="setuptools._vendor.pyparsing.\lAnd.__iadd__",height=0.2,width=0.4,color="black", fillcolor="white", style="filled",URL="$d4/d33/classsetuptools_1_1__vendor_1_1pyparsing_1_1_and.html#abd80bd1cba05b111f1c56661ced6f228",tooltip=" "];
  Node3 -> Node7 [dir="back",color="midnightblue",fontsize="10",style="solid",fontname="Helvetica"];
  Node7 [label="pip._vendor.pyparsing.Match\lFirst.__ior__",height=0.2,width=0.4,color="black", fillcolor="white", style="filled",URL="$d6/d76/classpip_1_1__vendor_1_1pyparsing_1_1_match_first.html#a6b9546fc831474039b8074a14c6d9ec2",tooltip=" "];
  Node3 -> Node8 [dir="back",color="midnightblue",fontsize="10",style="solid",fontname="Helvetica"];
  Node8 [label="pkg_resources._vendor.pyparsing.\lMatchFirst.__ior__",height=0.2,width=0.4,color="black", fillcolor="white", style="filled",URL="$d6/d2c/classpkg__resources_1_1__vendor_1_1pyparsing_1_1_match_first.html#a685ce1ceb8cb54316cced1e61638a85b",tooltip=" "];
  Node3 -> Node9 [dir="back",color="midnightblue",fontsize="10",style="solid",fontname="Helvetica"];
  Node9 [label="setuptools._vendor.pyparsing.\lMatchFirst.__ior__",height=0.2,width=0.4,color="black", fillcolor="white", style="filled",URL="$d1/d81/classsetuptools_1_1__vendor_1_1pyparsing_1_1_match_first.html#a438540bf6ab18d10e6f87804e73a44cc",tooltip=" "];
  Node3 -> Node10 [dir="back",color="midnightblue",fontsize="10",style="solid",fontname="Helvetica"];
  Node10 [label="pip._vendor.pyparsing.Or.\l__ixor__",height=0.2,width=0.4,color="black", fillcolor="white", style="filled",URL="$dd/d35/classpip_1_1__vendor_1_1pyparsing_1_1_or.html#aaf839e2959fe88953c3026226a1c9e99",tooltip=" "];
  Node3 -> Node11 [dir="back",color="midnightblue",fontsize="10",style="solid",fontname="Helvetica"];
  Node11 [label="pkg_resources._vendor.pyparsing.\lOr.__ixor__",height=0.2,width=0.4,color="black", fillcolor="white", style="filled",URL="$d8/d5b/classpkg__resources_1_1__vendor_1_1pyparsing_1_1_or.html#a6a15222b5a1759e4e7a222d1a3e33b88",tooltip=" "];
  Node3 -> Node12 [dir="back",color="midnightblue",fontsize="10",style="solid",fontname="Helvetica"];
  Node12 [label="setuptools._vendor.pyparsing.\lOr.__ixor__",height=0.2,width=0.4,color="black", fillcolor="white", style="filled",URL="$dd/dba/classsetuptools_1_1__vendor_1_1pyparsing_1_1_or.html#a18953323a799c8234ef73ce10a4afb72",tooltip=" "];
  Node2 -> Node13 [dir="back",color="midnightblue",fontsize="10",style="solid",fontname="Helvetica"];
  Node13 [label="pip._vendor.distlib.util.\lSequencer.remove_node",height=0.2,width=0.4,color="black", fillcolor="white", style="filled",URL="$d4/d7c/classpip_1_1__vendor_1_1distlib_1_1util_1_1_sequencer.html#a23f9b0df51114ed834d6ebb1e8c2fe07",tooltip=" "];
}
