digraph "pip._internal.configuration.get_configuration_files"
{
 // LATEX_PDF_SIZE
  edge [fontname="Helvetica",fontsize="10",labelfontname="Helvetica",labelfontsize="10"];
  node [fontname="Helvetica",fontsize="10",shape=record];
  rankdir="RL";
  Node1 [label="pip._internal.configuration.get\l_configuration_files",height=0.2,width=0.4,color="black", fillcolor="grey75", style="filled", fontcolor="black",tooltip=" "];
  Node1 -> Node2 [dir="back",color="midnightblue",fontsize="10",style="solid",fontname="Helvetica"];
  Node2 [label="pip._internal.commands.configuration.\lConfigurationCommand._determine_file",height=0.2,width=0.4,color="black", fillcolor="white", style="filled",URL="$d7/d3b/classpip_1_1__internal_1_1commands_1_1configuration_1_1_configuration_command.html#a90a86a96177a65dbefa32dc53221b2f8",tooltip=" "];
  Node2 -> Node3 [dir="back",color="midnightblue",fontsize="10",style="solid",fontname="Helvetica"];
  Node3 [label="pip._internal.commands.configuration.\lConfigurationCommand.run",height=0.2,width=0.4,color="black", fillcolor="white", style="filled",URL="$d7/d3b/classpip_1_1__internal_1_1commands_1_1configuration_1_1_configuration_command.html#a94d31df345a805f5ff97861d3b9c7f4d",tooltip=" "];
  Node1 -> Node4 [dir="back",color="midnightblue",fontsize="10",style="solid",fontname="Helvetica"];
  Node4 [label="pip._internal.configuration.\lConfiguration.iter_config_files",height=0.2,width=0.4,color="black", fillcolor="white", style="filled",URL="$dc/da9/classpip_1_1__internal_1_1configuration_1_1_configuration.html#a61a09119ec40e2cf719aad5a2aa77758",tooltip=" "];
  Node4 -> Node5 [dir="back",color="midnightblue",fontsize="10",style="solid",fontname="Helvetica"];
  Node5 [label="pip._internal.configuration.\lConfiguration._load_config_files",height=0.2,width=0.4,color="black", fillcolor="white", style="filled",URL="$dc/da9/classpip_1_1__internal_1_1configuration_1_1_configuration.html#ac892483b1402afa7acf43f267edcaa4a",tooltip=" "];
  Node5 -> Node6 [dir="back",color="midnightblue",fontsize="10",style="solid",fontname="Helvetica"];
  Node6 [label="pip._internal.configuration.\lConfiguration.load",height=0.2,width=0.4,color="black", fillcolor="white", style="filled",URL="$dc/da9/classpip_1_1__internal_1_1configuration_1_1_configuration.html#a3573a999426cabbc3e8dbc2424943d5c",tooltip=" "];
}
