digraph "_distutils_hack.DistutilsMetaFinder"
{
 // LATEX_PDF_SIZE
  edge [fontname="Helvetica",fontsize="10",labelfontname="Helvetica",labelfontsize="10"];
  node [fontname="Helvetica",fontsize="10",shape=record];
  Node1 [label="{_distutils_hack.Distutils\lMetaFinder\n|+ spec_for_distutils\l|+ find_spec()\l+ spec_for_distutils()\l+ spec_for_pip()\l+ pip_imported_during\l_build()\l}",height=0.2,width=0.4,color="black", fillcolor="grey75", style="filled", fontcolor="black",tooltip=" "];
}
