digraph "pip._vendor.ipaddress._TotalOrderingMixin"
{
 // LATEX_PDF_SIZE
  edge [fontname="Helvetica",fontsize="10",labelfontname="Helvetica",labelfontsize="10"];
  node [fontname="Helvetica",fontsize="10",shape=record];
  Node1 [label="{pip._vendor.ipaddress.\l_TotalOrderingMixin\n|- __slots__\l|+ __eq__()\l+ __ne__()\l+ __lt__()\l+ __le__()\l+ __gt__()\l+ __ge__()\l}",height=0.2,width=0.4,color="black", fillcolor="grey75", style="filled", fontcolor="black",tooltip=" "];
  Node2 -> Node1 [dir="back",color="midnightblue",fontsize="10",style="solid",arrowtail="onormal"];
  Node2 [label="{object\n||}",height=0.2,width=0.4,color="grey75", fillcolor="white", style="filled",tooltip=" "];
  Node1 -> Node3 [dir="back",color="midnightblue",fontsize="10",style="solid",arrowtail="onormal"];
  Node3 [label="{pip._vendor.ipaddress.\l_IPAddressBase\n|- __slots__\l|+ exploded()\l+ compressed()\l+ reverse_pointer()\l+ version()\l+ __reduce__()\l- _check_int_address()\l- _check_packed_address()\l- _ip_int_from_prefix()\l- _prefix_from_ip_int()\l- _report_invalid_netmask()\l- _prefix_from_prefix\l_string()\l- _prefix_from_ip_string()\l}",height=0.2,width=0.4,color="black", fillcolor="white", style="filled",URL="$d5/df6/classpip_1_1__vendor_1_1ipaddress_1_1___i_p_address_base.html",tooltip=" "];
  Node3 -> Node4 [dir="back",color="midnightblue",fontsize="10",style="solid",arrowtail="onormal"];
  Node4 [label="{pip._vendor.ipaddress.\l_BaseAddress\n|- _ip\l- _version\l- __slots__\l|+ __int__()\l+ __eq__()\l+ __lt__()\l+ __add__()\l+ __sub__()\l+ __repr__()\l+ __str__()\l+ __hash__()\l+ __reduce__()\l- _get_address_key()\l}",height=0.2,width=0.4,color="black", fillcolor="white", style="filled",URL="$d7/df4/classpip_1_1__vendor_1_1ipaddress_1_1___base_address.html",tooltip=" "];
  Node4 -> Node5 [dir="back",color="midnightblue",fontsize="10",style="solid",arrowtail="onormal"];
  Node5 [label="{pip._vendor.ipaddress.IPv4\lAddress\n|- _ip\l- __slots__\l|+ __init__()\l+ packed()\l+ is_reserved()\l+ is_private()\l+ is_global()\l+ is_multicast()\l+ is_unspecified()\l+ is_loopback()\l+ is_link_local()\l}",height=0.2,width=0.4,color="black", fillcolor="white", style="filled",URL="$d5/df2/classpip_1_1__vendor_1_1ipaddress_1_1_i_pv4_address.html",tooltip=" "];
  Node5 -> Node6 [dir="back",color="midnightblue",fontsize="10",style="solid",arrowtail="onormal"];
  Node6 [label="{pip._vendor.ipaddress.IPv4\lInterface\n|+ network\l+ netmask\l+ hostmask\l- _prefixlen\l- __reduce__\l|+ __init__()\l+ __str__()\l+ __eq__()\l+ __lt__()\l+ __hash__()\l+ ip()\l+ with_prefixlen()\l+ with_netmask()\l+ with_hostmask()\l}",height=0.2,width=0.4,color="black", fillcolor="white", style="filled",URL="$d8/deb/classpip_1_1__vendor_1_1ipaddress_1_1_i_pv4_interface.html",tooltip=" "];
  Node4 -> Node7 [dir="back",color="midnightblue",fontsize="10",style="solid",arrowtail="onormal"];
  Node7 [label="{pip._vendor.ipaddress.IPv6\lAddress\n|- _ip\l- __slots__\l|+ __init__()\l+ packed()\l+ is_multicast()\l+ is_reserved()\l+ is_link_local()\l+ is_site_local()\l+ is_private()\l+ is_global()\l+ is_unspecified()\l+ is_loopback()\l+ ipv4_mapped()\l+ teredo()\l+ sixtofour()\l}",height=0.2,width=0.4,color="black", fillcolor="white", style="filled",URL="$d8/d27/classpip_1_1__vendor_1_1ipaddress_1_1_i_pv6_address.html",tooltip=" "];
  Node7 -> Node8 [dir="back",color="midnightblue",fontsize="10",style="solid",arrowtail="onormal"];
  Node8 [label="{pip._vendor.ipaddress.IPv6\lInterface\n|+ network\l+ netmask\l+ hostmask\l- _prefixlen\l- _ip\l- __reduce__\l|+ __init__()\l+ __str__()\l+ __eq__()\l+ __lt__()\l+ __hash__()\l+ ip()\l+ with_prefixlen()\l+ with_netmask()\l+ with_hostmask()\l+ is_unspecified()\l+ is_loopback()\l}",height=0.2,width=0.4,color="black", fillcolor="white", style="filled",URL="$db/df0/classpip_1_1__vendor_1_1ipaddress_1_1_i_pv6_interface.html",tooltip=" "];
  Node3 -> Node9 [dir="back",color="midnightblue",fontsize="10",style="solid",arrowtail="onormal"];
  Node9 [label="{pip._vendor.ipaddress.\l_BaseNetwork\n|+ network_address\l- _cache\l- _version\l- _prefixlen\l|+ __init__()\l+ __repr__()\l+ __str__()\l+ hosts()\l+ __iter__()\l+ __getitem__()\l+ __lt__()\l+ __eq__()\l+ __hash__()\l+ __contains__()\land 21 more...\l- _address_class()\l- _get_networks_key()\l- _is_subnet_of()\l}",height=0.2,width=0.4,color="black", fillcolor="white", style="filled",URL="$d0/d9c/classpip_1_1__vendor_1_1ipaddress_1_1___base_network.html",tooltip=" "];
  Node9 -> Node10 [dir="back",color="midnightblue",fontsize="10",style="solid",arrowtail="onormal"];
  Node10 [label="{pip._vendor.ipaddress.IPv4\lNetwork\n|+ network_address\l+ hosts\l- _prefixlen\l- _address_class\l|+ __init__()\l+ is_global()\l}",height=0.2,width=0.4,color="black", fillcolor="white", style="filled",URL="$d8/d7c/classpip_1_1__vendor_1_1ipaddress_1_1_i_pv4_network.html",tooltip=" "];
  Node9 -> Node11 [dir="back",color="midnightblue",fontsize="10",style="solid",arrowtail="onormal"];
  Node11 [label="{pip._vendor.ipaddress.IPv6\lNetwork\n|+ network_address\l+ hosts\l- _prefixlen\l- _address_class\l|+ __init__()\l+ hosts()\l+ is_site_local()\l}",height=0.2,width=0.4,color="black", fillcolor="white", style="filled",URL="$d6/d67/classpip_1_1__vendor_1_1ipaddress_1_1_i_pv6_network.html",tooltip=" "];
}
