digraph "pip._vendor.ipaddress._BaseV4._ip_int_from_string"
{
 // LATEX_PDF_SIZE
  edge [fontname="Helvetica",fontsize="10",labelfontname="Helvetica",labelfontsize="10"];
  node [fontname="Helvetica",fontsize="10",shape=record];
  rankdir="LR";
  Node1 [label="pip._vendor.ipaddress.\l_BaseV4._ip_int_from_string",height=0.2,width=0.4,color="black", fillcolor="grey75", style="filled", fontcolor="black",tooltip=" "];
  Node1 -> Node2 [color="midnightblue",fontsize="10",style="solid"];
  Node2 [label="pip._vendor.ipaddress.\l_BaseV4._parse_octet",height=0.2,width=0.4,color="black", fillcolor="white", style="filled",URL="$db/d56/classpip_1_1__vendor_1_1ipaddress_1_1___base_v4.html#ae186d500d5f1fd88b67792325f87cf29",tooltip=" "];
}
