digraph "pip._vendor.distlib.metadata.LegacyMetadata"
{
 // LATEX_PDF_SIZE
  edge [fontname="Helvetica",fontsize="10",labelfontname="Helvetica",labelfontsize="10"];
  node [fontname="Helvetica",fontsize="10",shape=record];
  Node1 [label="{pip._vendor.distlib.metadata.\lLegacyMetadata\n|+ requires_files\l+ scheme\l- _fields\l- _dependencies\l|+ __init__()\l+ set_metadata_version()\l+ __getitem__()\l+ __setitem__()\l+ __delitem__()\l+ __contains__()\l+ __getattr__()\l+ get_fullname()\l+ is_field()\l+ is_multi_field()\land 15 more...\l- _write_field()\l- _convert_name()\l- _default_value()\l- _remove_line_prefix()\l}",height=0.2,width=0.4,color="black", fillcolor="grey75", style="filled", fontcolor="black",tooltip=" "];
  Node2 -> Node1 [dir="back",color="midnightblue",fontsize="10",style="solid",arrowtail="onormal",fontname="Helvetica"];
  Node2 [label="{object\n||}",height=0.2,width=0.4,color="grey75", fillcolor="white", style="filled",tooltip=" "];
}
