digraph "pip._vendor.msgpack.fallback.Packer"
{
 // LATEX_PDF_SIZE
  edge [fontname="Helvetica",fontsize="10",labelfontname="Helvetica",labelfontsize="10"];
  node [fontname="Helvetica",fontsize="10",shape=record];
  Node1 [label="{pip._vendor.msgpack.fallback.\lPacker\n|- _strict_types\l- _use_float\l- _autoreset\l- _use_bin_type\l- _buffer\l- _datetime\l- _unicode_errors\l- _default\l|+ __init__()\l+ pack()\l+ pack_map_pairs()\l+ pack_array_header()\l+ pack_map_header()\l+ pack_ext_type()\l+ bytes()\l+ reset()\l+ getbuffer()\l- _pack()\l- _pack_array_header()\l- _pack_map_header()\l- _pack_map_pairs()\l- _pack_raw_header()\l- _pack_bin_header()\l}",height=0.2,width=0.4,color="black", fillcolor="grey75", style="filled", fontcolor="black",tooltip=" "];
  Node2 -> Node1 [dir="back",color="midnightblue",fontsize="10",style="solid",arrowtail="onormal"];
  Node2 [label="{object\n||}",height=0.2,width=0.4,color="grey75", fillcolor="white", style="filled",tooltip=" "];
}
