digraph "pip._internal.cache.SimpleWheelCache.get_path_for_link"
{
 // LATEX_PDF_SIZE
  edge [fontname="Helvetica",fontsize="10",labelfontname="Helvetica",labelfontsize="10"];
  node [fontname="Helvetica",fontsize="10",shape=record];
  rankdir="LR";
  Node1 [label="pip._internal.cache.Simple\lWheelCache.get_path_for_link",height=0.2,width=0.4,color="black", fillcolor="grey75", style="filled", fontcolor="black",tooltip=" "];
  Node1 -> Node2 [color="midnightblue",fontsize="10",style="solid",fontname="Helvetica"];
  Node2 [label="pip._internal.cache.Cache.\l_get_cache_path_parts",height=0.2,width=0.4,color="black", fillcolor="white", style="filled",URL="$de/d43/classpip_1_1__internal_1_1cache_1_1_cache.html#aeab5c50e16471e9b72084dbbec536539",tooltip=" "];
  Node2 -> Node3 [color="midnightblue",fontsize="10",style="solid",fontname="Helvetica"];
  Node3 [label="pip._internal.cache.\l_hash_dict",height=0.2,width=0.4,color="black", fillcolor="white", style="filled",URL="$d1/d08/namespacepip_1_1__internal_1_1cache.html#a7e2b5c1a4f466e6ead50ba1035eb04c7",tooltip=" "];
  Node2 -> Node4 [color="midnightblue",fontsize="10",style="solid",fontname="Helvetica"];
  Node4 [label="pip._vendor.packaging.tags.interpreter_name",height=0.2,width=0.4,color="black", fillcolor="white", style="filled",URL="$da/df2/namespacepip_1_1__vendor_1_1packaging_1_1tags.html#ac61b060acc6cd20bcbf8ccd0efff665d",tooltip=" "];
  Node2 -> Node5 [color="midnightblue",fontsize="10",style="solid",fontname="Helvetica"];
  Node5 [label="pip._vendor.packaging.tags.interpreter\l_version",height=0.2,width=0.4,color="black", fillcolor="white", style="filled",URL="$da/df2/namespacepip_1_1__vendor_1_1packaging_1_1tags.html#abb01d4d13f8d0d205bbe9d793a83f6f5",tooltip=" "];
  Node5 -> Node6 [color="midnightblue",fontsize="10",style="solid",fontname="Helvetica"];
  Node6 [label="pip._vendor.packaging.tags.\l_get_config_var",height=0.2,width=0.4,color="black", fillcolor="white", style="filled",URL="$da/df2/namespacepip_1_1__vendor_1_1packaging_1_1tags.html#a66188d55f57ebf4f78be82c79d842f0a",tooltip=" "];
  Node5 -> Node7 [color="midnightblue",fontsize="10",style="solid",fontname="Helvetica"];
  Node7 [label="pip._vendor.packaging.tags.\l_version_nodot",height=0.2,width=0.4,color="black", fillcolor="white", style="filled",URL="$da/df2/namespacepip_1_1__vendor_1_1packaging_1_1tags.html#a7d38202293a612e1821ef7dbccdc9f24",tooltip=" "];
  Node5 -> Node8 [color="midnightblue",fontsize="10",style="solid",fontname="Helvetica"];
  Node8 [label="pip._vendor.packaging.tags.\l_warn_keyword_parameter",height=0.2,width=0.4,color="black", fillcolor="white", style="filled",URL="$da/df2/namespacepip_1_1__vendor_1_1packaging_1_1tags.html#a5aafabe33891ce10e3790faa3632832c",tooltip=" "];
}
