digraph "pip._vendor.ipaddress._BaseNetwork"
{
 // LATEX_PDF_SIZE
  edge [fontname="Helvetica",fontsize="10",labelfontname="Helvetica",labelfontsize="10"];
  node [fontname="Helvetica",fontsize="10",shape=record];
  Node1 [label="{pip._vendor.ipaddress.\l_BaseNetwork\n|+ network_address\l- _cache\l- _version\l- _prefixlen\l|+ __init__()\l+ __repr__()\l+ __str__()\l+ hosts()\l+ __iter__()\l+ __getitem__()\l+ __lt__()\l+ __eq__()\l+ __hash__()\l+ __contains__()\land 21 more...\l- _address_class()\l- _get_networks_key()\l- _is_subnet_of()\l}",height=0.2,width=0.4,color="black", fillcolor="grey75", style="filled", fontcolor="black",tooltip=" "];
  Node2 -> Node1 [dir="back",color="midnightblue",fontsize="10",style="solid",arrowtail="onormal",fontname="Helvetica"];
  Node2 [label="{pip._vendor.ipaddress.\l_IPAddressBase\n|- __slots__\l|+ exploded()\l+ compressed()\l+ reverse_pointer()\l+ version()\l+ __reduce__()\l- _check_int_address()\l- _check_packed_address()\l- _ip_int_from_prefix()\l- _prefix_from_ip_int()\l- _report_invalid_netmask()\l- _prefix_from_prefix\l_string()\l- _prefix_from_ip_string()\l}",height=0.2,width=0.4,color="black", fillcolor="white", style="filled",URL="$d5/df6/classpip_1_1__vendor_1_1ipaddress_1_1___i_p_address_base.html",tooltip=" "];
  Node3 -> Node2 [dir="back",color="midnightblue",fontsize="10",style="solid",arrowtail="onormal",fontname="Helvetica"];
  Node3 [label="{pip._vendor.ipaddress.\l_TotalOrderingMixin\n|- __slots__\l|+ __eq__()\l+ __ne__()\l+ __lt__()\l+ __le__()\l+ __gt__()\l+ __ge__()\l}",height=0.2,width=0.4,color="black", fillcolor="white", style="filled",URL="$da/dbd/classpip_1_1__vendor_1_1ipaddress_1_1___total_ordering_mixin.html",tooltip=" "];
  Node4 -> Node3 [dir="back",color="midnightblue",fontsize="10",style="solid",arrowtail="onormal",fontname="Helvetica"];
  Node4 [label="{object\n||}",height=0.2,width=0.4,color="grey75", fillcolor="white", style="filled",tooltip=" "];
}
