digraph "pip._vendor.html5lib.treewalkers.base.TreeWalker.emptyTag"
{
 // LATEX_PDF_SIZE
  edge [fontname="Helvetica",fontsize="10",labelfontname="Helvetica",labelfontsize="10"];
  node [fontname="Helvetica",fontsize="10",shape=record];
  rankdir="RL";
  Node1 [label="pip._vendor.html5lib.treewalkers.base.\lTreeWalker.emptyTag",height=0.2,width=0.4,color="black", fillcolor="grey75", style="filled", fontcolor="black",tooltip=" "];
  Node1 -> Node2 [dir="back",color="midnightblue",fontsize="10",style="solid"];
  Node2 [label="pip._vendor.html5lib.treewalkers.base.\lNonRecursiveTreeWalker.__iter__",height=0.2,width=0.4,color="black", fillcolor="white", style="filled",URL="$d7/d49/classpip_1_1__vendor_1_1html5lib_1_1treewalkers_1_1base_1_1_non_recursive_tree_walker.html#a0ccaa634e5651e4ac1243dd234fe3766",tooltip=" "];
  Node1 -> Node3 [dir="back",color="midnightblue",fontsize="10",style="solid"];
  Node3 [label="pip._vendor.html5lib.treewalkers.genshi.\lTreeWalker.tokens",height=0.2,width=0.4,color="black", fillcolor="white", style="filled",URL="$db/d04/classpip_1_1__vendor_1_1html5lib_1_1treewalkers_1_1genshi_1_1_tree_walker.html#aaa7cd4013932d988edef6e126ab998a3",tooltip=" "];
  Node3 -> Node4 [dir="back",color="midnightblue",fontsize="10",style="solid"];
  Node4 [label="pip._vendor.html5lib.treewalkers.genshi.\lTreeWalker.__iter__",height=0.2,width=0.4,color="black", fillcolor="white", style="filled",URL="$db/d04/classpip_1_1__vendor_1_1html5lib_1_1treewalkers_1_1genshi_1_1_tree_walker.html#a1a0f4130277a4abe0941f924516a9525",tooltip=" "];
}
