digraph "pip._internal.commands.show.search_packages_info"
{
 // LATEX_PDF_SIZE
  edge [fontname="Helvetica",fontsize="10",labelfontname="Helvetica",labelfontsize="10"];
  node [fontname="Helvetica",fontsize="10",shape=record];
  rankdir="RL";
  Node1 [label="pip._internal.commands.show.search\l_packages_info",height=0.2,width=0.4,color="black", fillcolor="grey75", style="filled", fontcolor="black",tooltip=" "];
  Node1 -> Node2 [dir="back",color="midnightblue",fontsize="10",style="solid",fontname="Helvetica"];
  Node2 [label="pip._internal.commands.show.\lShowCommand.run",height=0.2,width=0.4,color="black", fillcolor="white", style="filled",URL="$d8/df9/classpip_1_1__internal_1_1commands_1_1show_1_1_show_command.html#af2f7fe79c57366c51790e0705809394e",tooltip=" "];
}
