digraph "pip._vendor.packaging.version.Version"
{
 // LATEX_PDF_SIZE
  edge [fontname="Helvetica",fontsize="10",labelfontname="Helvetica",labelfontsize="10"];
  node [fontname="Helvetica",fontsize="10",shape=record];
  Node1 [label="{pip._vendor.packaging.version.\lVersion\n|- _version\l- _key\l- _regex\l|+ __init__()\l+ __repr__()\l+ __str__()\l+ epoch()\l+ release()\l+ pre()\l+ post()\l+ dev()\l+ local()\l+ public()\land 7 more...\l}",height=0.2,width=0.4,color="black", fillcolor="grey75", style="filled", fontcolor="black",tooltip=" "];
  Node2 -> Node1 [dir="back",color="midnightblue",fontsize="10",style="solid",arrowtail="onormal"];
  Node2 [label="{pip._vendor.packaging.version.\l_BaseVersion\n|- _key\l|+ __hash__()\l+ __lt__()\l+ __le__()\l+ __eq__()\l+ __ge__()\l+ __gt__()\l+ __ne__()\l- _compare()\l}",height=0.2,width=0.4,color="black", fillcolor="white", style="filled",URL="$d9/d99/classpip_1_1__vendor_1_1packaging_1_1version_1_1___base_version.html",tooltip=" "];
  Node3 -> Node2 [dir="back",color="midnightblue",fontsize="10",style="solid",arrowtail="onormal"];
  Node3 [label="{object\n||}",height=0.2,width=0.4,color="grey75", fillcolor="white", style="filled",tooltip=" "];
}
