digraph "pip._vendor.ipaddress.IPv4Address.__init__"
{
 // LATEX_PDF_SIZE
  edge [fontname="Helvetica",fontsize="10",labelfontname="Helvetica",labelfontsize="10"];
  node [fontname="Helvetica",fontsize="10",shape=record];
  rankdir="LR";
  Node1 [label="pip._vendor.ipaddress.IPv4\lAddress.__init__",height=0.2,width=0.4,color="black", fillcolor="grey75", style="filled", fontcolor="black",tooltip=" "];
  Node1 -> Node2 [color="midnightblue",fontsize="10",style="solid"];
  Node2 [label="pip._vendor.ipaddress.\l_IPAddressBase._check\l_int_address",height=0.2,width=0.4,color="black", fillcolor="white", style="filled",URL="$d5/df6/classpip_1_1__vendor_1_1ipaddress_1_1___i_p_address_base.html#a346e24d4907da196e1de294da93d7ffb",tooltip=" "];
}
