digraph "pip._vendor.distlib._backport.shutil._ensure_directory"
{
 // LATEX_PDF_SIZE
  edge [fontname="Helvetica",fontsize="10",labelfontname="Helvetica",labelfontsize="10"];
  node [fontname="Helvetica",fontsize="10",shape=record];
  rankdir="RL";
  Node1 [label="pip._vendor.distlib.\l_backport.shutil._ensure\l_directory",height=0.2,width=0.4,color="black", fillcolor="grey75", style="filled", fontcolor="black",tooltip=" "];
  Node1 -> Node2 [dir="back",color="midnightblue",fontsize="10",style="solid"];
  Node2 [label="pip._vendor.distlib.\l_backport.shutil._unpack\l_zipfile",height=0.2,width=0.4,color="black", fillcolor="white", style="filled",URL="$d9/d37/namespacepip_1_1__vendor_1_1distlib_1_1__backport_1_1shutil.html#a5a3ebcd448732e2e961fe3afcd7b5455",tooltip=" "];
}
