digraph "pip._vendor.distlib._backport.shutil.move"
{
 // LATEX_PDF_SIZE
  edge [fontname="Helvetica",fontsize="10",labelfontname="Helvetica",labelfontsize="10"];
  node [fontname="Helvetica",fontsize="10",shape=record];
  rankdir="LR";
  Node1 [label="pip._vendor.distlib.\l_backport.shutil.move",height=0.2,width=0.4,color="black", fillcolor="grey75", style="filled", fontcolor="black",tooltip=" "];
  Node1 -> Node2 [color="midnightblue",fontsize="10",style="solid"];
  Node2 [label="pip._vendor.distlib.\l_backport.shutil._basename",height=0.2,width=0.4,color="black", fillcolor="white", style="filled",URL="$d9/d37/namespacepip_1_1__vendor_1_1distlib_1_1__backport_1_1shutil.html#a9f6bc12db71c8a27b235386cd8b95614",tooltip=" "];
  Node1 -> Node3 [color="midnightblue",fontsize="10",style="solid"];
  Node3 [label="pip._vendor.distlib.\l_backport.shutil._destinsrc",height=0.2,width=0.4,color="black", fillcolor="white", style="filled",URL="$d9/d37/namespacepip_1_1__vendor_1_1distlib_1_1__backport_1_1shutil.html#aa84a5f65c3ade373db94ad60fee08dee",tooltip=" "];
  Node1 -> Node4 [color="midnightblue",fontsize="10",style="solid"];
  Node4 [label="pip._vendor.distlib.\l_backport.shutil._samefile",height=0.2,width=0.4,color="black", fillcolor="white", style="filled",URL="$d9/d37/namespacepip_1_1__vendor_1_1distlib_1_1__backport_1_1shutil.html#a402257f4a89979655a5cc9d1bc1a4ed4",tooltip=" "];
  Node1 -> Node5 [color="midnightblue",fontsize="10",style="solid"];
  Node5 [label="pip._vendor.distlib.\l_backport.shutil.copy2",height=0.2,width=0.4,color="black", fillcolor="white", style="filled",URL="$d9/d37/namespacepip_1_1__vendor_1_1distlib_1_1__backport_1_1shutil.html#af85eb3a739ebeb55736df79248341bb5",tooltip=" "];
  Node5 -> Node6 [color="midnightblue",fontsize="10",style="solid"];
  Node6 [label="pip._vendor.distlib.\l_backport.shutil.copyfile",height=0.2,width=0.4,color="black", fillcolor="white", style="filled",URL="$d9/d37/namespacepip_1_1__vendor_1_1distlib_1_1__backport_1_1shutil.html#af6299c4bda796051a67a4fa1b38c3f11",tooltip=" "];
  Node6 -> Node4 [color="midnightblue",fontsize="10",style="solid"];
  Node6 -> Node7 [color="midnightblue",fontsize="10",style="solid"];
  Node7 [label="pip._vendor.distlib.\l_backport.shutil.copyfileobj",height=0.2,width=0.4,color="black", fillcolor="white", style="filled",URL="$d9/d37/namespacepip_1_1__vendor_1_1distlib_1_1__backport_1_1shutil.html#a7442a4e81c79063ab281db6efd529217",tooltip=" "];
  Node5 -> Node8 [color="midnightblue",fontsize="10",style="solid"];
  Node8 [label="pip._vendor.distlib.\l_backport.shutil.copystat",height=0.2,width=0.4,color="black", fillcolor="white", style="filled",URL="$d9/d37/namespacepip_1_1__vendor_1_1distlib_1_1__backport_1_1shutil.html#aa7588cc037e9e7257a99c99f1ba5e436",tooltip=" "];
  Node1 -> Node9 [color="midnightblue",fontsize="10",style="solid"];
  Node9 [label="pip._vendor.distlib.\l_backport.shutil.copytree",height=0.2,width=0.4,color="black", fillcolor="white", style="filled",URL="$d9/d37/namespacepip_1_1__vendor_1_1distlib_1_1__backport_1_1shutil.html#ac26f34e45d01ee06abf3b2cd47e154a1",tooltip=" "];
  Node9 -> Node8 [color="midnightblue",fontsize="10",style="solid"];
  Node1 -> Node10 [color="midnightblue",fontsize="10",style="solid"];
  Node10 [label="pip._vendor.distlib.\l_backport.shutil.rmtree",height=0.2,width=0.4,color="black", fillcolor="white", style="filled",URL="$d9/d37/namespacepip_1_1__vendor_1_1distlib_1_1__backport_1_1shutil.html#ad9316bb980d6a793b7310511c09d95d4",tooltip=" "];
}
