digraph "pip._vendor.distlib._backport.shutil._find_unpack_format"
{
 // LATEX_PDF_SIZE
  edge [fontname="Helvetica",fontsize="10",labelfontname="Helvetica",labelfontsize="10"];
  node [fontname="Helvetica",fontsize="10",shape=record];
  rankdir="RL";
  Node1 [label="pip._vendor.distlib.\l_backport.shutil._find\l_unpack_format",height=0.2,width=0.4,color="black", fillcolor="grey75", style="filled", fontcolor="black",tooltip=" "];
  Node1 -> Node2 [dir="back",color="midnightblue",fontsize="10",style="solid"];
  Node2 [label="pip._vendor.distlib.\l_backport.shutil.unpack\l_archive",height=0.2,width=0.4,color="black", fillcolor="white", style="filled",URL="$d9/d37/namespacepip_1_1__vendor_1_1distlib_1_1__backport_1_1shutil.html#a6944b8125b511c84213d186e05dd6187",tooltip=" "];
  Node2 -> Node3 [dir="back",color="midnightblue",fontsize="10",style="solid"];
  Node3 [label="setuptools.command.install\l_egg_info.install_egg_info.copytree",height=0.2,width=0.4,color="black", fillcolor="white", style="filled",URL="$d7/d62/classsetuptools_1_1command_1_1install__egg__info_1_1install__egg__info.html#afb27066e412852b61f7d909f61512a15",tooltip=" "];
  Node3 -> Node4 [dir="back",color="midnightblue",fontsize="10",style="solid"];
  Node4 [label="setuptools.command.install\l_egg_info.install_egg_info.run",height=0.2,width=0.4,color="black", fillcolor="white", style="filled",URL="$d7/d62/classsetuptools_1_1command_1_1install__egg__info_1_1install__egg__info.html#ab796e0cd113ca97b504d05f167ef3ea3",tooltip=" "];
  Node2 -> Node5 [dir="back",color="midnightblue",fontsize="10",style="solid"];
  Node5 [label="setuptools.command.easy\l_install.easy_install.exe\l_to_egg",height=0.2,width=0.4,color="black", fillcolor="white", style="filled",URL="$da/d83/classsetuptools_1_1command_1_1easy__install_1_1easy__install.html#a6f10cb0ea951a92815d653d2c0dca597",tooltip=" "];
  Node5 -> Node6 [dir="back",color="midnightblue",fontsize="10",style="solid"];
  Node6 [label="setuptools.command.easy\l_install.easy_install.install_exe",height=0.2,width=0.4,color="black", fillcolor="white", style="filled",URL="$da/d83/classsetuptools_1_1command_1_1easy__install_1_1easy__install.html#aa6205c453a7e8eefbf75ec80ee93195d",tooltip=" "];
  Node6 -> Node7 [dir="back",color="midnightblue",fontsize="10",style="solid"];
  Node7 [label="setuptools.command.easy\l_install.easy_install.install_eggs",height=0.2,width=0.4,color="black", fillcolor="white", style="filled",URL="$da/d83/classsetuptools_1_1command_1_1easy__install_1_1easy__install.html#afb2b25bc2760450a095011037b5bc5f5",tooltip=" "];
  Node7 -> Node8 [dir="back",color="midnightblue",fontsize="10",style="solid"];
  Node8 [label="setuptools.command.easy\l_install.easy_install.install_item",height=0.2,width=0.4,color="black", fillcolor="white", style="filled",URL="$da/d83/classsetuptools_1_1command_1_1easy__install_1_1easy__install.html#a436bb487b6dcb071193cdf4cc5dd9f3b",tooltip=" "];
  Node8 -> Node9 [dir="back",color="midnightblue",fontsize="10",style="solid"];
  Node9 [label="setuptools.command.easy\l_install.easy_install.easy\l_install",height=0.2,width=0.4,color="black", fillcolor="white", style="filled",URL="$da/d83/classsetuptools_1_1command_1_1easy__install_1_1easy__install.html#ac31f17115e3242d7bb4a09f30d917682",tooltip=" "];
  Node9 -> Node10 [dir="back",color="midnightblue",fontsize="10",style="solid"];
  Node10 [label="setuptools.command.develop.develop.install\l_for_development",height=0.2,width=0.4,color="black", fillcolor="white", style="filled",URL="$d0/d3d/classsetuptools_1_1command_1_1develop_1_1develop.html#a0334bc03494f1c1b9361789a1f080b36",tooltip=" "];
  Node9 -> Node11 [dir="back",color="midnightblue",fontsize="10",style="solid"];
  Node11 [label="setuptools.command.easy\l_install.easy_install.process\l_distribution",height=0.2,width=0.4,color="black", fillcolor="white", style="filled",URL="$da/d83/classsetuptools_1_1command_1_1easy__install_1_1easy__install.html#a279a6c1ee26f42a35dda86261684d250",tooltip=" "];
  Node11 -> Node9 [dir="back",color="midnightblue",fontsize="10",style="solid"];
  Node11 -> Node10 [dir="back",color="midnightblue",fontsize="10",style="solid"];
  Node11 -> Node8 [dir="back",color="midnightblue",fontsize="10",style="solid"];
  Node9 -> Node12 [dir="back",color="midnightblue",fontsize="10",style="solid"];
  Node12 [label="setuptools.command.easy\l_install.easy_install.run",height=0.2,width=0.4,color="black", fillcolor="white", style="filled",URL="$da/d83/classsetuptools_1_1command_1_1easy__install_1_1easy__install.html#a8c2f41e6e60c3702e69e833184c0acd0",tooltip=" "];
  Node2 -> Node7 [dir="back",color="midnightblue",fontsize="10",style="solid"];
  Node2 -> Node13 [dir="back",color="midnightblue",fontsize="10",style="solid"];
  Node13 [label="setuptools.command.easy\l_install.easy_install.unpack\l_and_compile",height=0.2,width=0.4,color="black", fillcolor="white", style="filled",URL="$da/d83/classsetuptools_1_1command_1_1easy__install_1_1easy__install.html#aae5fc3f2c8f88abfa4cd229f05393fd0",tooltip=" "];
  Node13 -> Node14 [dir="back",color="midnightblue",fontsize="10",style="solid"];
  Node14 [label="setuptools.command.easy\l_install.easy_install.install_egg",height=0.2,width=0.4,color="black", fillcolor="white", style="filled",URL="$da/d83/classsetuptools_1_1command_1_1easy__install_1_1easy__install.html#a04769d37e9ac958b38314bf794fed23d",tooltip=" "];
  Node14 -> Node15 [dir="back",color="midnightblue",fontsize="10",style="solid"];
  Node15 [label="setuptools.command.easy\l_install.easy_install.build\l_and_install",height=0.2,width=0.4,color="black", fillcolor="white", style="filled",URL="$da/d83/classsetuptools_1_1command_1_1easy__install_1_1easy__install.html#aedb975b7cb24ab74e468302387685233",tooltip=" "];
  Node15 -> Node7 [dir="back",color="midnightblue",fontsize="10",style="solid"];
  Node14 -> Node7 [dir="back",color="midnightblue",fontsize="10",style="solid"];
  Node14 -> Node6 [dir="back",color="midnightblue",fontsize="10",style="solid"];
}
