digraph "pip._vendor.distlib._backport.shutil._make_tarball"
{
 // LATEX_PDF_SIZE
  edge [fontname="Helvetica",fontsize="10",labelfontname="Helvetica",labelfontsize="10"];
  node [fontname="Helvetica",fontsize="10",shape=record];
  rankdir="LR";
  Node1 [label="pip._vendor.distlib.\l_backport.shutil._make\l_tarball",height=0.2,width=0.4,color="black", fillcolor="grey75", style="filled", fontcolor="black",tooltip=" "];
  Node1 -> Node2 [color="midnightblue",fontsize="10",style="solid"];
  Node2 [label="pip._vendor.distlib.\l_backport.shutil._get_gid",height=0.2,width=0.4,color="black", fillcolor="white", style="filled",URL="$d9/d37/namespacepip_1_1__vendor_1_1distlib_1_1__backport_1_1shutil.html#af020999ff77aea5186a7165f755c389b",tooltip=" "];
  Node1 -> Node3 [color="midnightblue",fontsize="10",style="solid"];
  Node3 [label="pip._vendor.distlib.\l_backport.shutil._get_uid",height=0.2,width=0.4,color="black", fillcolor="white", style="filled",URL="$d9/d37/namespacepip_1_1__vendor_1_1distlib_1_1__backport_1_1shutil.html#a0613ebcfa4120c8b449a10236425808f",tooltip=" "];
}
