digraph "pip._vendor.distlib._backport.shutil.copy"
{
 // LATEX_PDF_SIZE
  edge [fontname="Helvetica",fontsize="10",labelfontname="Helvetica",labelfontsize="10"];
  node [fontname="Helvetica",fontsize="10",shape=record];
  rankdir="LR";
  Node1 [label="pip._vendor.distlib.\l_backport.shutil.copy",height=0.2,width=0.4,color="black", fillcolor="grey75", style="filled", fontcolor="black",tooltip=" "];
  Node1 -> Node2 [color="midnightblue",fontsize="10",style="solid"];
  Node2 [label="pip._vendor.distlib.\l_backport.shutil.copyfile",height=0.2,width=0.4,color="black", fillcolor="white", style="filled",URL="$d9/d37/namespacepip_1_1__vendor_1_1distlib_1_1__backport_1_1shutil.html#af6299c4bda796051a67a4fa1b38c3f11",tooltip=" "];
  Node2 -> Node3 [color="midnightblue",fontsize="10",style="solid"];
  Node3 [label="pip._vendor.distlib.\l_backport.shutil._samefile",height=0.2,width=0.4,color="black", fillcolor="white", style="filled",URL="$d9/d37/namespacepip_1_1__vendor_1_1distlib_1_1__backport_1_1shutil.html#a402257f4a89979655a5cc9d1bc1a4ed4",tooltip=" "];
  Node2 -> Node4 [color="midnightblue",fontsize="10",style="solid"];
  Node4 [label="pip._vendor.distlib.\l_backport.shutil.copyfileobj",height=0.2,width=0.4,color="black", fillcolor="white", style="filled",URL="$d9/d37/namespacepip_1_1__vendor_1_1distlib_1_1__backport_1_1shutil.html#a7442a4e81c79063ab281db6efd529217",tooltip=" "];
  Node1 -> Node5 [color="midnightblue",fontsize="10",style="solid"];
  Node5 [label="pip._vendor.distlib.\l_backport.shutil.copymode",height=0.2,width=0.4,color="black", fillcolor="white", style="filled",URL="$d9/d37/namespacepip_1_1__vendor_1_1distlib_1_1__backport_1_1shutil.html#a142322b1c0471c60f6d055dc61968bc7",tooltip=" "];
}
