digraph "pip._vendor.distlib._backport.tarfile.TarInfo._create_gnu_long_header"
{
 // LATEX_PDF_SIZE
  edge [fontname="Helvetica",fontsize="10",labelfontname="Helvetica",labelfontsize="10"];
  node [fontname="Helvetica",fontsize="10",shape=record];
  rankdir="RL";
  Node1 [label="pip._vendor.distlib.\l_backport.tarfile.TarInfo.\l_create_gnu_long_header",height=0.2,width=0.4,color="black", fillcolor="grey75", style="filled", fontcolor="black",tooltip=" "];
  Node1 -> Node2 [dir="back",color="midnightblue",fontsize="10",style="solid"];
  Node2 [label="pip._vendor.distlib.\l_backport.tarfile.TarInfo.create\l_gnu_header",height=0.2,width=0.4,color="black", fillcolor="white", style="filled",URL="$df/d3f/classpip_1_1__vendor_1_1distlib_1_1__backport_1_1tarfile_1_1_tar_info.html#adf3483c743b1c86b6d3b7da825bcbbdf",tooltip=" "];
  Node2 -> Node3 [dir="back",color="midnightblue",fontsize="10",style="solid"];
  Node3 [label="pip._vendor.distlib.\l_backport.tarfile.TarInfo.tobuf",height=0.2,width=0.4,color="black", fillcolor="white", style="filled",URL="$df/d3f/classpip_1_1__vendor_1_1distlib_1_1__backport_1_1tarfile_1_1_tar_info.html#a08bb83dcbd0061866526b4a8023b08fc",tooltip=" "];
}
