digraph "pip._vendor.distlib._backport.sysconfig._getuserbase"
{
 // LATEX_PDF_SIZE
  edge [fontname="Helvetica",fontsize="10",labelfontname="Helvetica",labelfontsize="10"];
  node [fontname="Helvetica",fontsize="10",shape=record];
  rankdir="RL";
  Node1 [label="pip._vendor.distlib.\l_backport.sysconfig.\l_getuserbase",height=0.2,width=0.4,color="black", fillcolor="grey75", style="filled", fontcolor="black",tooltip=" "];
  Node1 -> Node2 [dir="back",color="midnightblue",fontsize="10",style="solid",fontname="Helvetica"];
  Node2 [label="pip._vendor.distlib.\l_backport.sysconfig.get\l_config_vars",height=0.2,width=0.4,color="black", fillcolor="white", style="filled",URL="$de/df1/namespacepip_1_1__vendor_1_1distlib_1_1__backport_1_1sysconfig.html#a7303e5602c636744808cea6e4f6954b2",tooltip=" "];
  Node2 -> Node3 [dir="back",color="midnightblue",fontsize="10",style="solid",fontname="Helvetica"];
  Node3 [label="pip._vendor.distlib.\l_backport.sysconfig.\l_expand_vars",height=0.2,width=0.4,color="black", fillcolor="white", style="filled",URL="$de/df1/namespacepip_1_1__vendor_1_1distlib_1_1__backport_1_1sysconfig.html#af4cbf0db5d9e4117566c2035242c2694",tooltip=" "];
  Node3 -> Node4 [dir="back",color="midnightblue",fontsize="10",style="solid",fontname="Helvetica"];
  Node4 [label="pip._vendor.distlib.\l_backport.sysconfig.get_paths",height=0.2,width=0.4,color="black", fillcolor="white", style="filled",URL="$de/df1/namespacepip_1_1__vendor_1_1distlib_1_1__backport_1_1sysconfig.html#ac0a1acd16bd40f3db547376ce31fe1c9",tooltip=" "];
  Node4 -> Node5 [dir="back",color="midnightblue",fontsize="10",style="solid",fontname="Helvetica"];
  Node5 [label="pip._vendor.distlib.\l_backport.sysconfig._main",height=0.2,width=0.4,color="black", fillcolor="white", style="filled",URL="$de/df1/namespacepip_1_1__vendor_1_1distlib_1_1__backport_1_1sysconfig.html#a44984b4b1c016ad8b21ecc624d771454",tooltip=" "];
  Node4 -> Node6 [dir="back",color="midnightblue",fontsize="10",style="solid",fontname="Helvetica"];
  Node6 [label="pip._vendor.distlib.\l_backport.sysconfig.get_path",height=0.2,width=0.4,color="black", fillcolor="white", style="filled",URL="$de/df1/namespacepip_1_1__vendor_1_1distlib_1_1__backport_1_1sysconfig.html#a59aa125eaa4f24e4333d8050492643cb",tooltip=" "];
  Node6 -> Node7 [dir="back",color="midnightblue",fontsize="10",style="solid",fontname="Helvetica"];
  Node7 [label="setuptools.command.bdist\l_egg._get_purelib",height=0.2,width=0.4,color="black", fillcolor="white", style="filled",URL="$db/daf/namespacesetuptools_1_1command_1_1bdist__egg.html#a9cffb1d0aca39639a043cc354dede75f",tooltip=" "];
  Node7 -> Node8 [dir="back",color="midnightblue",fontsize="10",style="solid",fontname="Helvetica"];
  Node8 [label="setuptools.command.bdist\l_egg.bdist_egg.do_install_data",height=0.2,width=0.4,color="black", fillcolor="white", style="filled",URL="$da/daa/classsetuptools_1_1command_1_1bdist__egg_1_1bdist__egg.html#a7e5c3429cd7af6d1666efa7d302a99a9",tooltip=" "];
  Node6 -> Node9 [dir="back",color="midnightblue",fontsize="10",style="solid",fontname="Helvetica"];
  Node9 [label="pip._vendor.distlib.\l_backport.sysconfig.\l_init_non_posix",height=0.2,width=0.4,color="black", fillcolor="white", style="filled",URL="$de/df1/namespacepip_1_1__vendor_1_1distlib_1_1__backport_1_1sysconfig.html#afe9d4d4122a45dac314cfa7267a826e0",tooltip=" "];
  Node9 -> Node2 [dir="back",color="midnightblue",fontsize="10",style="solid",fontname="Helvetica"];
  Node6 -> Node10 [dir="back",color="midnightblue",fontsize="10",style="solid",fontname="Helvetica"];
  Node10 [label="pip._vendor.distlib.\l_backport.sysconfig.get\l_config_h_filename",height=0.2,width=0.4,color="black", fillcolor="white", style="filled",URL="$de/df1/namespacepip_1_1__vendor_1_1distlib_1_1__backport_1_1sysconfig.html#ac1c0653f6bf7d2c28680558fd6db37bd",tooltip=" "];
  Node10 -> Node11 [dir="back",color="midnightblue",fontsize="10",style="solid",fontname="Helvetica"];
  Node11 [label="pip._vendor.distlib.\l_backport.sysconfig.\l_init_posix",height=0.2,width=0.4,color="black", fillcolor="white", style="filled",URL="$de/df1/namespacepip_1_1__vendor_1_1distlib_1_1__backport_1_1sysconfig.html#a9791fd234c48fda1f0e78cf2f058ade7",tooltip=" "];
  Node11 -> Node2 [dir="back",color="midnightblue",fontsize="10",style="solid",fontname="Helvetica"];
  Node10 -> Node12 [dir="back",color="midnightblue",fontsize="10",style="solid",fontname="Helvetica"];
  Node12 [label="setuptools._distutils.command.build\l_ext.build_ext.finalize_options",height=0.2,width=0.4,color="black", fillcolor="white", style="filled",URL="$d0/d4b/classsetuptools_1_1__distutils_1_1command_1_1build__ext_1_1build__ext.html#ac37e44017ecb8c528a10df9bbffcf130",tooltip=" "];
  Node12 -> Node13 [dir="back",color="midnightblue",fontsize="10",style="solid",fontname="Helvetica"];
  Node13 [label="setuptools._distutils.command.register.register.run",height=0.2,width=0.4,color="black", fillcolor="white", style="filled",URL="$de/de8/classsetuptools_1_1__distutils_1_1command_1_1register_1_1register.html#abd5bb7740da36e4892bc45621a73d781",tooltip=" "];
  Node6 -> Node14 [dir="back",color="midnightblue",fontsize="10",style="solid",fontname="Helvetica"];
  Node14 [label="pip._vendor.distlib.\l_backport.sysconfig.get\l_makefile_filename",height=0.2,width=0.4,color="black", fillcolor="white", style="filled",URL="$de/df1/namespacepip_1_1__vendor_1_1distlib_1_1__backport_1_1sysconfig.html#a088aae485c0e31e3cd49080997281543",tooltip=" "];
  Node14 -> Node11 [dir="back",color="midnightblue",fontsize="10",style="solid",fontname="Helvetica"];
  Node6 -> Node15 [dir="back",color="midnightblue",fontsize="10",style="solid",fontname="Helvetica"];
  Node15 [label="setuptools.command.easy\l_install.get_site_dirs",height=0.2,width=0.4,color="black", fillcolor="white", style="filled",URL="$d4/d53/namespacesetuptools_1_1command_1_1easy__install.html#a2c8e8bb7ad16bf452892898a80bc9958",tooltip=" "];
  Node6 -> Node16 [dir="back",color="midnightblue",fontsize="10",style="solid",fontname="Helvetica"];
  Node16 [label="pip._vendor.certifi.core.where",height=0.2,width=0.4,color="black", fillcolor="white", style="filled",URL="$d3/de6/namespacepip_1_1__vendor_1_1certifi_1_1core.html#af98c5a6769006200c2f7074b488e9f03",tooltip=" "];
  Node16 -> Node17 [dir="back",color="midnightblue",fontsize="10",style="solid",fontname="Helvetica"];
  Node17 [label="setuptools.ssl_support.\l_certifi_where",height=0.2,width=0.4,color="black", fillcolor="white", style="filled",URL="$df/d39/namespacesetuptools_1_1ssl__support.html#ae89e47da4c45bddff468a353663fa694",tooltip=" "];
  Node17 -> Node18 [dir="back",color="midnightblue",fontsize="10",style="solid",fontname="Helvetica"];
  Node18 [label="setuptools.ssl_support.find\l_ca_bundle",height=0.2,width=0.4,color="black", fillcolor="white", style="filled",URL="$df/d39/namespacesetuptools_1_1ssl__support.html#a52d0214adb152f4c38aebc413e404278",tooltip=" "];
  Node18 -> Node19 [dir="back",color="midnightblue",fontsize="10",style="solid",fontname="Helvetica"];
  Node19 [label="setuptools.ssl_support.opener_for",height=0.2,width=0.4,color="black", fillcolor="white", style="filled",URL="$df/d39/namespacesetuptools_1_1ssl__support.html#ace7164bc765a0d578ae9c82eeb76b13a",tooltip=" "];
  Node16 -> Node20 [dir="back",color="midnightblue",fontsize="10",style="solid",fontname="Helvetica"];
  Node20 [label="pip._vendor.certifi.core.read_text",height=0.2,width=0.4,color="black", fillcolor="white", style="filled",URL="$d3/de6/namespacepip_1_1__vendor_1_1certifi_1_1core.html#a5097f182c2fa5d8d4da2f7497bc5807d",tooltip=" "];
  Node20 -> Node21 [dir="back",color="midnightblue",fontsize="10",style="solid",fontname="Helvetica"];
  Node21 [label="pip._vendor.certifi.core.contents",height=0.2,width=0.4,color="black", fillcolor="white", style="filled",URL="$d3/de6/namespacepip_1_1__vendor_1_1certifi_1_1core.html#a3dfec4dec4b25a5361392472f9ad92a3",tooltip=" "];
  Node16 -> Node22 [dir="back",color="midnightblue",fontsize="10",style="solid",fontname="Helvetica"];
  Node22 [label="pip._internal.commands.debug.\lDebugCommand.run",height=0.2,width=0.4,color="black", fillcolor="white", style="filled",URL="$db/d7b/classpip_1_1__internal_1_1commands_1_1debug_1_1_debug_command.html#a68464110a60097e9ba489abbee105751",tooltip=" "];
  Node2 -> Node5 [dir="back",color="midnightblue",fontsize="10",style="solid",fontname="Helvetica"];
  Node2 -> Node23 [dir="back",color="midnightblue",fontsize="10",style="solid",fontname="Helvetica"];
  Node23 [label="setuptools._distutils.command.install.install.finalize\l_options",height=0.2,width=0.4,color="black", fillcolor="white", style="filled",URL="$de/df7/classsetuptools_1_1__distutils_1_1command_1_1install_1_1install.html#a57fd33667f362fe438802b3e810249fa",tooltip=" "];
  Node23 -> Node13 [dir="back",color="midnightblue",fontsize="10",style="solid",fontname="Helvetica"];
  Node2 -> Node24 [dir="back",color="midnightblue",fontsize="10",style="solid",fontname="Helvetica"];
  Node24 [label="setuptools.command.easy\l_install.easy_install.finalize\l_options",height=0.2,width=0.4,color="black", fillcolor="white", style="filled",URL="$da/d83/classsetuptools_1_1command_1_1easy__install_1_1easy__install.html#a12cbd7f893894bedc60abf12b6cf8ab6",tooltip=" "];
  Node2 -> Node25 [dir="back",color="midnightblue",fontsize="10",style="solid",fontname="Helvetica"];
  Node25 [label="pip._vendor.distlib.\l_backport.sysconfig.get\l_config_var",height=0.2,width=0.4,color="black", fillcolor="white", style="filled",URL="$de/df1/namespacepip_1_1__vendor_1_1distlib_1_1__backport_1_1sysconfig.html#ad4f932848014ef28313f3645eb6472a9",tooltip=" "];
  Node25 -> Node1 [dir="back",color="midnightblue",fontsize="10",style="solid",fontname="Helvetica"];
  Node25 -> Node26 [dir="back",color="midnightblue",fontsize="10",style="solid",fontname="Helvetica"];
  Node26 [label="wheel.bdist_wheel.get\l_abi_tag",height=0.2,width=0.4,color="black", fillcolor="white", style="filled",URL="$d4/db0/namespacewheel_1_1bdist__wheel.html#a6eb23762f46bbd118ec204d9aa5bc875",tooltip=" "];
  Node26 -> Node27 [dir="back",color="midnightblue",fontsize="10",style="solid",fontname="Helvetica"];
  Node27 [label="wheel.bdist_wheel.bdist\l_wheel.get_tag",height=0.2,width=0.4,color="black", fillcolor="white", style="filled",URL="$d9/d71/classwheel_1_1bdist__wheel_1_1bdist__wheel.html#a17dbf4e1e246b2a13d1ca413b4517a79",tooltip=" "];
  Node27 -> Node28 [dir="back",color="midnightblue",fontsize="10",style="solid",fontname="Helvetica"];
  Node28 [label="wheel.bdist_wheel.bdist\l_wheel.write_wheelfile",height=0.2,width=0.4,color="black", fillcolor="white", style="filled",URL="$d9/d71/classwheel_1_1bdist__wheel_1_1bdist__wheel.html#a9c34b4a4a9f70461e6feb9ca086e7b59",tooltip=" "];
  Node25 -> Node29 [dir="back",color="midnightblue",fontsize="10",style="solid",fontname="Helvetica"];
  Node29 [label="setuptools._distutils.command.build\l_ext.build_ext.get_ext_filename",height=0.2,width=0.4,color="black", fillcolor="white", style="filled",URL="$d0/d4b/classsetuptools_1_1__distutils_1_1command_1_1build__ext_1_1build__ext.html#af6138fb9dd87086f6032e8ac24789d11",tooltip=" "];
  Node29 -> Node30 [dir="back",color="midnightblue",fontsize="10",style="solid",fontname="Helvetica"];
  Node30 [label="setuptools.command.build\l_ext.build_ext.copy_extensions\l_to_source",height=0.2,width=0.4,color="black", fillcolor="white", style="filled",URL="$da/d6a/classsetuptools_1_1command_1_1build__ext_1_1build__ext.html#a48d3a798a1f80e22af46ea54bf353780",tooltip=" "];
  Node29 -> Node31 [dir="back",color="midnightblue",fontsize="10",style="solid",fontname="Helvetica"];
  Node31 [label="setuptools._distutils.command.build\l_ext.build_ext.get_ext_fullpath",height=0.2,width=0.4,color="black", fillcolor="white", style="filled",URL="$d0/d4b/classsetuptools_1_1__distutils_1_1command_1_1build__ext_1_1build__ext.html#a1e619afeaa4594ee0c43f39990dd4216",tooltip=" "];
  Node31 -> Node32 [dir="back",color="midnightblue",fontsize="10",style="solid",fontname="Helvetica"];
  Node32 [label="setuptools._distutils.command.build\l_ext.build_ext.build_extension",height=0.2,width=0.4,color="black", fillcolor="white", style="filled",URL="$d0/d4b/classsetuptools_1_1__distutils_1_1command_1_1build__ext_1_1build__ext.html#a30e4b74b5abc9049d3f6abcf4280204d",tooltip=" "];
  Node32 -> Node33 [dir="back",color="midnightblue",fontsize="10",style="solid",fontname="Helvetica"];
  Node33 [label="setuptools._distutils.command.build\l_ext.build_ext._build_extensions\l_parallel",height=0.2,width=0.4,color="black", fillcolor="white", style="filled",URL="$d0/d4b/classsetuptools_1_1__distutils_1_1command_1_1build__ext_1_1build__ext.html#a5542e48162e040fec31df78b9a694a7f",tooltip=" "];
  Node33 -> Node34 [dir="back",color="midnightblue",fontsize="10",style="solid",fontname="Helvetica"];
  Node34 [label="setuptools._distutils.command.build\l_ext.build_ext.build_extensions",height=0.2,width=0.4,color="black", fillcolor="white", style="filled",URL="$d0/d4b/classsetuptools_1_1__distutils_1_1command_1_1build__ext_1_1build__ext.html#a8082c90e29bb8c071df75df44b733fa4",tooltip=" "];
  Node34 -> Node35 [dir="back",color="midnightblue",fontsize="10",style="solid",fontname="Helvetica"];
  Node35 [label="setuptools._distutils.command.build\l_ext.build_ext.run",height=0.2,width=0.4,color="black", fillcolor="white", style="filled",URL="$d0/d4b/classsetuptools_1_1__distutils_1_1command_1_1build__ext_1_1build__ext.html#a95c9af7afdca3f4d104a3ce249f56de1",tooltip=" "];
  Node32 -> Node36 [dir="back",color="midnightblue",fontsize="10",style="solid",fontname="Helvetica"];
  Node36 [label="setuptools._distutils.command.build\l_ext.build_ext._build_extensions_serial",height=0.2,width=0.4,color="black", fillcolor="white", style="filled",URL="$d0/d4b/classsetuptools_1_1__distutils_1_1command_1_1build__ext_1_1build__ext.html#a4a9cb347ad91e7ad6c1c822a8baf4d7e",tooltip=" "];
  Node36 -> Node33 [dir="back",color="midnightblue",fontsize="10",style="solid",fontname="Helvetica"];
  Node36 -> Node34 [dir="back",color="midnightblue",fontsize="10",style="solid",fontname="Helvetica"];
  Node31 -> Node37 [dir="back",color="midnightblue",fontsize="10",style="solid",fontname="Helvetica"];
  Node37 [label="setuptools._distutils.command.build\l_ext.build_ext.get_outputs",height=0.2,width=0.4,color="black", fillcolor="white", style="filled",URL="$d0/d4b/classsetuptools_1_1__distutils_1_1command_1_1build__ext_1_1build__ext.html#a135f56c739c5ef1325851c6252c70888",tooltip=" "];
  Node37 -> Node38 [dir="back",color="midnightblue",fontsize="10",style="solid",fontname="Helvetica"];
  Node38 [label="setuptools._distutils.command.build\l_py.build_py.run",height=0.2,width=0.4,color="black", fillcolor="white", style="filled",URL="$dd/d1f/classsetuptools_1_1__distutils_1_1command_1_1build__py_1_1build__py.html#a601d7d2af344082666e61130fb8a1a95",tooltip=" "];
  Node37 -> Node39 [dir="back",color="midnightblue",fontsize="10",style="solid",fontname="Helvetica"];
  Node39 [label="setuptools._distutils.command.install.install.run",height=0.2,width=0.4,color="black", fillcolor="white", style="filled",URL="$de/df7/classsetuptools_1_1__distutils_1_1command_1_1install_1_1install.html#ae12edd991819be7f8cb0ca36de30c3ed",tooltip=" "];
  Node25 -> Node40 [dir="back",color="midnightblue",fontsize="10",style="solid",fontname="Helvetica"];
  Node40 [label="setuptools.command.build\l_ext.build_ext.get_ext\l_filename",height=0.2,width=0.4,color="black", fillcolor="white", style="filled",URL="$da/d6a/classsetuptools_1_1command_1_1build__ext_1_1build__ext.html#aa70c67c690d0bf9105529fccd60418a4",tooltip=" "];
  Node40 -> Node30 [dir="back",color="midnightblue",fontsize="10",style="solid",fontname="Helvetica"];
  Node25 -> Node41 [dir="back",color="midnightblue",fontsize="10",style="solid",fontname="Helvetica"];
  Node41 [label="wheel.bdist_wheel.get_flag",height=0.2,width=0.4,color="black", fillcolor="white", style="filled",URL="$d4/db0/namespacewheel_1_1bdist__wheel.html#ad78961082011fad391e05a61a9e67a3b",tooltip=" "];
  Node41 -> Node26 [dir="back",color="midnightblue",fontsize="10",style="solid",fontname="Helvetica"];
  Node25 -> Node42 [dir="back",color="midnightblue",fontsize="10",style="solid",fontname="Helvetica"];
  Node42 [label="setuptools._distutils.command.build\l_ext.build_ext.get_libraries",height=0.2,width=0.4,color="black", fillcolor="white", style="filled",URL="$d0/d4b/classsetuptools_1_1__distutils_1_1command_1_1build__ext_1_1build__ext.html#aa16981011f122a07b498a2ec3e14dec0",tooltip=" "];
  Node2 -> Node43 [dir="back",color="midnightblue",fontsize="10",style="solid",fontname="Helvetica"];
  Node43 [label="pip._vendor.distlib.\l_backport.sysconfig.get\l_platform",height=0.2,width=0.4,color="black", fillcolor="white", style="filled",URL="$de/df1/namespacepip_1_1__vendor_1_1distlib_1_1__backport_1_1sysconfig.html#a571427e3fde39508adc48fe58a2d6986",tooltip=" "];
  Node43 -> Node5 [dir="back",color="midnightblue",fontsize="10",style="solid",fontname="Helvetica"];
}
