digraph "pip._vendor.pep517.check.check"
{
 // LATEX_PDF_SIZE
  edge [fontname="Helvetica",fontsize="10",labelfontname="Helvetica",labelfontsize="10"];
  node [fontname="Helvetica",fontsize="10",shape=record];
  rankdir="LR";
  Node1 [label="pip._vendor.pep517.check.check",height=0.2,width=0.4,color="black", fillcolor="grey75", style="filled", fontcolor="black",tooltip=" "];
  Node1 -> Node2 [color="midnightblue",fontsize="10",style="solid"];
  Node2 [label="pip._vendor.pep517.check.check\l_build_sdist",height=0.2,width=0.4,color="black", fillcolor="white", style="filled",URL="$d9/da5/namespacepip_1_1__vendor_1_1pep517_1_1check.html#a3a47dab668d25537ec30491d2e22e56c",tooltip=" "];
  Node1 -> Node3 [color="midnightblue",fontsize="10",style="solid"];
  Node3 [label="pip._vendor.pep517.check.check\l_build_wheel",height=0.2,width=0.4,color="black", fillcolor="white", style="filled",URL="$d9/da5/namespacepip_1_1__vendor_1_1pep517_1_1check.html#a7b1f730ec661149c95e01df2ba63d97b",tooltip=" "];
}
