digraph "pip._vendor.msgpack.ext.Timestamp.to_unix"
{
 // LATEX_PDF_SIZE
  edge [fontname="Helvetica",fontsize="10",labelfontname="Helvetica",labelfontsize="10"];
  node [fontname="Helvetica",fontsize="10",shape=record];
  rankdir="RL";
  Node1 [label="pip._vendor.msgpack.ext.\lTimestamp.to_unix",height=0.2,width=0.4,color="black", fillcolor="grey75", style="filled", fontcolor="black",tooltip=" "];
  Node1 -> Node2 [dir="back",color="midnightblue",fontsize="10",style="solid"];
  Node2 [label="pip._vendor.msgpack.ext.\lTimestamp.to_datetime",height=0.2,width=0.4,color="black", fillcolor="white", style="filled",URL="$d6/dd9/classpip_1_1__vendor_1_1msgpack_1_1ext_1_1_timestamp.html#a39c65017f3feb922755eb646ef1d9d01",tooltip=" "];
}
