digraph "pip._vendor.chardet.hebrewprober.HebrewProber.state"
{
 // LATEX_PDF_SIZE
  edge [fontname="Helvetica",fontsize="10",labelfontname="Helvetica",labelfontsize="10"];
  node [fontname="Helvetica",fontsize="10",shape=record];
  rankdir="RL";
  Node1 [label="pip._vendor.chardet.hebrewprober.\lHebrewProber.state",height=0.2,width=0.4,color="black", fillcolor="grey75", style="filled", fontcolor="black",tooltip=" "];
  Node1 -> Node2 [dir="back",color="midnightblue",fontsize="10",style="solid"];
  Node2 [label="pip._vendor.resolvelib.resolvers.\lResolution._attempt_to_pin\l_criterion",height=0.2,width=0.4,color="black", fillcolor="white", style="filled",URL="$da/d77/classpip_1_1__vendor_1_1resolvelib_1_1resolvers_1_1_resolution.html#aa6c30acdfdea13cc6620fa7815bc304b",tooltip=" "];
  Node2 -> Node3 [dir="back",color="midnightblue",fontsize="10",style="solid"];
  Node3 [label="pip._vendor.resolvelib.resolvers.\lResolution.resolve",height=0.2,width=0.4,color="black", fillcolor="white", style="filled",URL="$da/d77/classpip_1_1__vendor_1_1resolvelib_1_1resolvers_1_1_resolution.html#ab753d46c8fb1eaa2909f12ef51d67b0f",tooltip=" "];
  Node3 -> Node4 [dir="back",color="midnightblue",fontsize="10",style="solid"];
  Node4 [label="pkg_resources.EntryPoint.load",height=0.2,width=0.4,color="black", fillcolor="white", style="filled",URL="$de/dfa/classpkg__resources_1_1_entry_point.html#aca40d6504feabd38a326c0d6f51ecb6a",tooltip=" "];
  Node3 -> Node5 [dir="back",color="midnightblue",fontsize="10",style="solid"];
  Node5 [label="pkg_resources.WorkingSet.require",height=0.2,width=0.4,color="black", fillcolor="white", style="filled",URL="$d5/d96/classpkg__resources_1_1_working_set.html#a335262cb577b8fa37a8fa92cff024cf9",tooltip=" "];
  Node5 -> Node4 [dir="back",color="midnightblue",fontsize="10",style="solid"];
  Node5 -> Node6 [dir="back",color="midnightblue",fontsize="10",style="solid"];
  Node6 [label="pkg_resources.WorkingSet.run\l_script",height=0.2,width=0.4,color="black", fillcolor="white", style="filled",URL="$d5/d96/classpkg__resources_1_1_working_set.html#ab2b93a4b8818042f319d7f9d7d2884bf",tooltip=" "];
  Node1 -> Node7 [dir="back",color="midnightblue",fontsize="10",style="solid"];
  Node7 [label="pip._vendor.resolvelib.resolvers.\lResolution._backtrack",height=0.2,width=0.4,color="black", fillcolor="white", style="filled",URL="$da/d77/classpip_1_1__vendor_1_1resolvelib_1_1resolvers_1_1_resolution.html#a6464c80f3b99f99d9ee72d34fb37ba07",tooltip=" "];
  Node7 -> Node3 [dir="back",color="midnightblue",fontsize="10",style="solid"];
  Node1 -> Node8 [dir="back",color="midnightblue",fontsize="10",style="solid"];
  Node8 [label="pip._vendor.resolvelib.resolvers.\lResolution._get_criterion_item\l_preference",height=0.2,width=0.4,color="black", fillcolor="white", style="filled",URL="$da/d77/classpip_1_1__vendor_1_1resolvelib_1_1resolvers_1_1_resolution.html#a03f49d3f7b284c52e9cba413c6c2ec93",tooltip=" "];
  Node8 -> Node3 [dir="back",color="midnightblue",fontsize="10",style="solid"];
  Node1 -> Node9 [dir="back",color="midnightblue",fontsize="10",style="solid"];
  Node9 [label="pip._vendor.resolvelib.resolvers.\lResolution._is_current_pin\l_satisfying",height=0.2,width=0.4,color="black", fillcolor="white", style="filled",URL="$da/d77/classpip_1_1__vendor_1_1resolvelib_1_1resolvers_1_1_resolution.html#a6dfb58c8a1544ea6eddf2267dd4ffcaa",tooltip=" "];
  Node9 -> Node3 [dir="back",color="midnightblue",fontsize="10",style="solid"];
  Node1 -> Node10 [dir="back",color="midnightblue",fontsize="10",style="solid"];
  Node10 [label="pip._vendor.resolvelib.resolvers.\lResolution._merge_into_criterion",height=0.2,width=0.4,color="black", fillcolor="white", style="filled",URL="$da/d77/classpip_1_1__vendor_1_1resolvelib_1_1resolvers_1_1_resolution.html#a1120bd581062b3ec066bb487482bf27f",tooltip=" "];
  Node10 -> Node11 [dir="back",color="midnightblue",fontsize="10",style="solid"];
  Node11 [label="pip._vendor.resolvelib.resolvers.\lResolution._get_criteria_to_update",height=0.2,width=0.4,color="black", fillcolor="white", style="filled",URL="$da/d77/classpip_1_1__vendor_1_1resolvelib_1_1resolvers_1_1_resolution.html#acf701836f212ea38747441a2961ad474",tooltip=" "];
  Node11 -> Node2 [dir="back",color="midnightblue",fontsize="10",style="solid"];
  Node10 -> Node3 [dir="back",color="midnightblue",fontsize="10",style="solid"];
  Node1 -> Node3 [dir="back",color="midnightblue",fontsize="10",style="solid"];
}
