digraph "pip._vendor.chardet.hebrewprober.HebrewProber.charset_name"
{
 // LATEX_PDF_SIZE
  edge [fontname="Helvetica",fontsize="10",labelfontname="Helvetica",labelfontsize="10"];
  node [fontname="Helvetica",fontsize="10",shape=record];
  rankdir="LR";
  Node1 [label="pip._vendor.chardet.hebrewprober.\lHebrewProber.charset_name",height=0.2,width=0.4,color="black", fillcolor="grey75", style="filled", fontcolor="black",tooltip=" "];
  Node1 -> Node2 [color="midnightblue",fontsize="10",style="solid"];
  Node2 [label="pip._vendor.chardet.charsetprober.\lCharSetProber.get_confidence",height=0.2,width=0.4,color="black", fillcolor="white", style="filled",URL="$da/d33/classpip_1_1__vendor_1_1chardet_1_1charsetprober_1_1_char_set_prober.html#a99c08657a0a1ec7a7f8b8609330383fc",tooltip=" "];
}
