digraph "pip._internal.utils.wheel.WheelMetadata.get_metadata"
{
 // LATEX_PDF_SIZE
  edge [fontname="Helvetica",fontsize="10",labelfontname="Helvetica",labelfontsize="10"];
  node [fontname="Helvetica",fontsize="10",shape=record];
  rankdir="RL";
  Node1 [label="pip._internal.utils.wheel.\lWheelMetadata.get_metadata",height=0.2,width=0.4,color="black", fillcolor="grey75", style="filled", fontcolor="black",tooltip=" "];
  Node1 -> Node2 [dir="back",color="midnightblue",fontsize="10",style="solid",fontname="Helvetica"];
  Node2 [label="pip._vendor.pkg_resources.\lDistInfoDistribution._parsed\l_pkg_info",height=0.2,width=0.4,color="black", fillcolor="white", style="filled",URL="$d0/d07/classpip_1_1__vendor_1_1pkg__resources_1_1_dist_info_distribution.html#a008755182ca5d5b54f5fdda153cc4b33",tooltip=" "];
  Node2 -> Node3 [dir="back",color="midnightblue",fontsize="10",style="solid",fontname="Helvetica"];
  Node3 [label="pip._vendor.pkg_resources.\lDistInfoDistribution._compute\l_dependencies",height=0.2,width=0.4,color="black", fillcolor="white", style="filled",URL="$d0/d07/classpip_1_1__vendor_1_1pkg__resources_1_1_dist_info_distribution.html#a64bd001351d83698b814306deddf9be0",tooltip=" "];
  Node2 -> Node4 [dir="back",color="midnightblue",fontsize="10",style="solid",fontname="Helvetica"];
  Node4 [label="pkg_resources.DistInfoDistribution.\l_compute_dependencies",height=0.2,width=0.4,color="black", fillcolor="white", style="filled",URL="$d1/d06/classpkg__resources_1_1_dist_info_distribution.html#a813a4d3348613b9f6d43dd2960a65f31",tooltip=" "];
  Node1 -> Node5 [dir="back",color="midnightblue",fontsize="10",style="solid",fontname="Helvetica"];
  Node5 [label="pkg_resources.DistInfoDistribution.\l_parsed_pkg_info",height=0.2,width=0.4,color="black", fillcolor="white", style="filled",URL="$d1/d06/classpkg__resources_1_1_dist_info_distribution.html#a5d820a7dc6cee005ec9defd61f9e4d48",tooltip=" "];
  Node5 -> Node4 [dir="back",color="midnightblue",fontsize="10",style="solid",fontname="Helvetica"];
  Node1 -> Node6 [dir="back",color="midnightblue",fontsize="10",style="solid",fontname="Helvetica"];
  Node6 [label="pip._vendor.pkg_resources.\lNullProvider.get_metadata_lines",height=0.2,width=0.4,color="black", fillcolor="white", style="filled",URL="$dd/dc4/classpip_1_1__vendor_1_1pkg__resources_1_1_null_provider.html#af9fe76eb0ebc5819cf0d2a2f3b8501af",tooltip=" "];
  Node6 -> Node7 [dir="back",color="midnightblue",fontsize="10",style="solid",fontname="Helvetica"];
  Node7 [label="pip._vendor.pkg_resources.\lZipProvider._get_eager\l_resources",height=0.2,width=0.4,color="black", fillcolor="white", style="filled",URL="$de/dc9/classpip_1_1__vendor_1_1pkg__resources_1_1_zip_provider.html#a3f35e6ed55f988f4f18e19a11a29b874",tooltip=" "];
  Node7 -> Node8 [dir="back",color="midnightblue",fontsize="10",style="solid",fontname="Helvetica"];
  Node8 [label="pip._vendor.pkg_resources.\lZipProvider.get_resource\l_filename",height=0.2,width=0.4,color="black", fillcolor="white", style="filled",URL="$de/dc9/classpip_1_1__vendor_1_1pkg__resources_1_1_zip_provider.html#a86f81d4504722cafa68dad0f29058450",tooltip=" "];
  Node7 -> Node9 [dir="back",color="midnightblue",fontsize="10",style="solid",fontname="Helvetica"];
  Node9 [label="pkg_resources.ZipProvider.get\l_resource_filename",height=0.2,width=0.4,color="black", fillcolor="white", style="filled",URL="$d3/d1e/classpkg__resources_1_1_zip_provider.html#afa80d21e26b8d79d8be636f3bfe5d94b",tooltip=" "];
  Node6 -> Node10 [dir="back",color="midnightblue",fontsize="10",style="solid",fontname="Helvetica"];
  Node10 [label="pkg_resources.ZipProvider.\l_get_eager_resources",height=0.2,width=0.4,color="black", fillcolor="white", style="filled",URL="$d3/d1e/classpkg__resources_1_1_zip_provider.html#ab59d9f67973ec7fee401d1ed38239b91",tooltip=" "];
  Node10 -> Node9 [dir="back",color="midnightblue",fontsize="10",style="solid",fontname="Helvetica"];
  Node6 -> Node11 [dir="back",color="midnightblue",fontsize="10",style="solid",fontname="Helvetica"];
  Node11 [label="pip._vendor.pkg_resources.\lDistribution._get_metadata",height=0.2,width=0.4,color="black", fillcolor="white", style="filled",URL="$d0/ddb/classpip_1_1__vendor_1_1pkg__resources_1_1_distribution.html#afb412e48215aa26610c2b5e8a2f7dedf",tooltip=" "];
  Node11 -> Node12 [dir="back",color="midnightblue",fontsize="10",style="solid",fontname="Helvetica"];
  Node12 [label="pip._vendor.pkg_resources.\lDistribution._build_dep_map",height=0.2,width=0.4,color="black", fillcolor="white", style="filled",URL="$d0/ddb/classpip_1_1__vendor_1_1pkg__resources_1_1_distribution.html#a2fd7e221db7d589996df637039aaec54",tooltip=" "];
  Node11 -> Node13 [dir="back",color="midnightblue",fontsize="10",style="solid",fontname="Helvetica"];
  Node13 [label="pkg_resources.Distribution.\l_build_dep_map",height=0.2,width=0.4,color="black", fillcolor="white", style="filled",URL="$d8/d25/classpkg__resources_1_1_distribution.html#a75b8ac998893d064a95a0a7da2d87cc7",tooltip=" "];
  Node11 -> Node14 [dir="back",color="midnightblue",fontsize="10",style="solid",fontname="Helvetica"];
  Node14 [label="pip._vendor.pkg_resources.\lDistribution._get_version",height=0.2,width=0.4,color="black", fillcolor="white", style="filled",URL="$d0/ddb/classpip_1_1__vendor_1_1pkg__resources_1_1_distribution.html#acdafee5cecb6b52e9e73bfc4e3624322",tooltip=" "];
  Node14 -> Node15 [dir="back",color="midnightblue",fontsize="10",style="solid",fontname="Helvetica"];
  Node15 [label="pip._vendor.pkg_resources.\lEggInfoDistribution._reload\l_version",height=0.2,width=0.4,color="black", fillcolor="white", style="filled",URL="$da/d9a/classpip_1_1__vendor_1_1pkg__resources_1_1_egg_info_distribution.html#aefecc9932672660de5c662beb8c98cbc",tooltip=" "];
  Node14 -> Node16 [dir="back",color="midnightblue",fontsize="10",style="solid",fontname="Helvetica"];
  Node16 [label="pkg_resources.EggInfoDistribution.\l_reload_version",height=0.2,width=0.4,color="black", fillcolor="white", style="filled",URL="$d4/dc5/classpkg__resources_1_1_egg_info_distribution.html#aef8f091a74e0ddd247286ed3ef2e43aa",tooltip=" "];
  Node14 -> Node17 [dir="back",color="midnightblue",fontsize="10",style="solid",fontname="Helvetica"];
  Node17 [label="pip._vendor.pkg_resources.\lDistribution.version",height=0.2,width=0.4,color="black", fillcolor="white", style="filled",URL="$d0/ddb/classpip_1_1__vendor_1_1pkg__resources_1_1_distribution.html#acd94a7f669ee4fc277245673ea39e748",tooltip=" "];
  Node17 -> Node18 [dir="back",color="midnightblue",fontsize="10",style="solid",fontname="Helvetica"];
  Node18 [label="pip._vendor.distlib.metadata.\lLegacyMetadata.__repr__",height=0.2,width=0.4,color="black", fillcolor="white", style="filled",URL="$d3/dc5/classpip_1_1__vendor_1_1distlib_1_1metadata_1_1_legacy_metadata.html#a368ff1d11ec3a0476833acdf59541d16",tooltip=" "];
  Node17 -> Node19 [dir="back",color="midnightblue",fontsize="10",style="solid",fontname="Helvetica"];
  Node19 [label="pip._vendor.distlib.metadata.\lMetadata.__repr__",height=0.2,width=0.4,color="black", fillcolor="white", style="filled",URL="$d3/df6/classpip_1_1__vendor_1_1distlib_1_1metadata_1_1_metadata.html#a08105ca0987f9e74cb1341a463d6cbe5",tooltip=" "];
  Node17 -> Node20 [dir="back",color="midnightblue",fontsize="10",style="solid",fontname="Helvetica"];
  Node20 [label="setuptools.wheel.Wheel.\l_install_as_egg",height=0.2,width=0.4,color="black", fillcolor="white", style="filled",URL="$d8/de5/classsetuptools_1_1wheel_1_1_wheel.html#af38ad98deb2dd9550fdb649d6394af38",tooltip=" "];
  Node20 -> Node21 [dir="back",color="midnightblue",fontsize="10",style="solid",fontname="Helvetica"];
  Node21 [label="setuptools.wheel.Wheel.install\l_as_egg",height=0.2,width=0.4,color="black", fillcolor="white", style="filled",URL="$d8/de5/classsetuptools_1_1wheel_1_1_wheel.html#a4d5d8dcde757279d6509a1f9137e595d",tooltip=" "];
  Node17 -> Node22 [dir="back",color="midnightblue",fontsize="10",style="solid",fontname="Helvetica"];
  Node22 [label="pip._vendor.pkg_resources.\lDistribution._warn_legacy\l_version",height=0.2,width=0.4,color="black", fillcolor="white", style="filled",URL="$d0/ddb/classpip_1_1__vendor_1_1pkg__resources_1_1_distribution.html#a1b072988ec5f6b3637bcb0d0be0a2772",tooltip=" "];
  Node17 -> Node23 [dir="back",color="midnightblue",fontsize="10",style="solid",fontname="Helvetica"];
  Node23 [label="pkg_resources.Distribution.\l_warn_legacy_version",height=0.2,width=0.4,color="black", fillcolor="white", style="filled",URL="$d8/d25/classpkg__resources_1_1_distribution.html#a65484374785d4460c6b92f015fe19a3c",tooltip=" "];
  Node17 -> Node24 [dir="back",color="midnightblue",fontsize="10",style="solid",fontname="Helvetica"];
  Node24 [label="pkg_resources._vendor.packaging.specifiers.\l_IndividualSpecifier.contains",height=0.2,width=0.4,color="black", fillcolor="white", style="filled",URL="$d7/d3d/classpkg__resources_1_1__vendor_1_1packaging_1_1specifiers_1_1___individual_specifier.html#afc614431c7e139a948866248f6f01bb4",tooltip=" "];
  Node24 -> Node25 [dir="back",color="midnightblue",fontsize="10",style="solid",fontname="Helvetica"];
  Node25 [label="setuptools._vendor.packaging.specifiers.\l_IndividualSpecifier.__contains__",height=0.2,width=0.4,color="black", fillcolor="white", style="filled",URL="$d2/dfa/classsetuptools_1_1__vendor_1_1packaging_1_1specifiers_1_1___individual_specifier.html#ac8c5634a825694d276f2cf5c4b3cb9bd",tooltip=" "];
  Node24 -> Node26 [dir="back",color="midnightblue",fontsize="10",style="solid",fontname="Helvetica"];
  Node26 [label="setuptools._vendor.packaging.specifiers.\lSpecifierSet.__contains__",height=0.2,width=0.4,color="black", fillcolor="white", style="filled",URL="$d6/d78/classsetuptools_1_1__vendor_1_1packaging_1_1specifiers_1_1_specifier_set.html#a883c1e784aebcb300e68cd5e08c7ea8a",tooltip=" "];
  Node24 -> Node27 [dir="back",color="midnightblue",fontsize="10",style="solid",fontname="Helvetica"];
  Node27 [label="setuptools._vendor.packaging.specifiers.\l_IndividualSpecifier.filter",height=0.2,width=0.4,color="black", fillcolor="white", style="filled",URL="$d2/dfa/classsetuptools_1_1__vendor_1_1packaging_1_1specifiers_1_1___individual_specifier.html#af07e3f018647cb7a004791b6436993e1",tooltip=" "];
  Node17 -> Node28 [dir="back",color="midnightblue",fontsize="10",style="solid",fontname="Helvetica"];
  Node28 [label="setuptools._vendor.packaging.specifiers.\l_IndividualSpecifier.contains",height=0.2,width=0.4,color="black", fillcolor="white", style="filled",URL="$d2/dfa/classsetuptools_1_1__vendor_1_1packaging_1_1specifiers_1_1___individual_specifier.html#add310771a2fd25ae2670e7ed15c81160",tooltip=" "];
  Node17 -> Node29 [dir="back",color="midnightblue",fontsize="10",style="solid",fontname="Helvetica"];
  Node29 [label="pip._vendor.pkg_resources.\lDistribution.egg_name",height=0.2,width=0.4,color="black", fillcolor="white", style="filled",URL="$d0/ddb/classpip_1_1__vendor_1_1pkg__resources_1_1_distribution.html#aa61d5600e0896e46b1708c4dcb9393f5",tooltip=" "];
  Node17 -> Node30 [dir="back",color="midnightblue",fontsize="10",style="solid",fontname="Helvetica"];
  Node30 [label="pkg_resources.Distribution.egg_name",height=0.2,width=0.4,color="black", fillcolor="white", style="filled",URL="$d8/d25/classpkg__resources_1_1_distribution.html#a229d424f62d10b7e83bba3b3efe6dbbb",tooltip=" "];
  Node17 -> Node31 [dir="back",color="midnightblue",fontsize="10",style="solid",fontname="Helvetica"];
  Node31 [label="setuptools.wheel.Wheel.egg_name",height=0.2,width=0.4,color="black", fillcolor="white", style="filled",URL="$d8/de5/classsetuptools_1_1wheel_1_1_wheel.html#a8003a0c439abab30a420897c391dfbe1",tooltip=" "];
  Node17 -> Node32 [dir="back",color="midnightblue",fontsize="10",style="solid",fontname="Helvetica"];
  Node32 [label="pip._vendor.pkg_resources.\lDistribution.has_version",height=0.2,width=0.4,color="black", fillcolor="white", style="filled",URL="$d0/ddb/classpip_1_1__vendor_1_1pkg__resources_1_1_distribution.html#acc58f778b2bb60f7b306e4d1bdef759e",tooltip=" "];
  Node17 -> Node33 [dir="back",color="midnightblue",fontsize="10",style="solid",fontname="Helvetica"];
  Node33 [label="pkg_resources.Distribution.has\l_version",height=0.2,width=0.4,color="black", fillcolor="white", style="filled",URL="$d8/d25/classpkg__resources_1_1_distribution.html#aa8b8ad9f54c86275b77b1966881df122",tooltip=" "];
  Node17 -> Node34 [dir="back",color="midnightblue",fontsize="10",style="solid",fontname="Helvetica"];
  Node34 [label="pip._vendor.distlib.metadata.\lMetadata.name_and_version",height=0.2,width=0.4,color="black", fillcolor="white", style="filled",URL="$d3/df6/classpip_1_1__vendor_1_1distlib_1_1metadata_1_1_metadata.html#a958dc84c5959001c3c94c99c262c8268",tooltip=" "];
  Node17 -> Node35 [dir="back",color="midnightblue",fontsize="10",style="solid",fontname="Helvetica"];
  Node35 [label="pip._vendor.distlib.metadata.\lMetadata.provides",height=0.2,width=0.4,color="black", fillcolor="white", style="filled",URL="$d3/df6/classpip_1_1__vendor_1_1distlib_1_1metadata_1_1_metadata.html#a700307186309aa299c50bbe7515cb58d",tooltip=" "];
  Node35 -> Node36 [dir="back",color="midnightblue",fontsize="10",style="solid",fontname="Helvetica"];
  Node36 [label="pip._vendor.distlib.metadata.\lMetadata._from_legacy",height=0.2,width=0.4,color="black", fillcolor="white", style="filled",URL="$d3/df6/classpip_1_1__vendor_1_1distlib_1_1metadata_1_1_metadata.html#a78ae3c1cd2c31e4376d991cba08ba678",tooltip=" "];
  Node36 -> Node37 [dir="back",color="midnightblue",fontsize="10",style="solid",fontname="Helvetica"];
  Node37 [label="pip._vendor.distlib.metadata.\lMetadata.dictionary",height=0.2,width=0.4,color="black", fillcolor="white", style="filled",URL="$d3/df6/classpip_1_1__vendor_1_1distlib_1_1metadata_1_1_metadata.html#a3b22b5416933750ac4e0de8f43ff6e2b",tooltip=" "];
  Node36 -> Node38 [dir="back",color="midnightblue",fontsize="10",style="solid",fontname="Helvetica"];
  Node38 [label="pip._vendor.distlib.metadata.\lMetadata.write",height=0.2,width=0.4,color="red", fillcolor="white", style="filled",URL="$d3/df6/classpip_1_1__vendor_1_1distlib_1_1metadata_1_1_metadata.html#a1765c04d32c8b3e84ad87b6083694569",tooltip=" "];
  Node38 -> Node39 [dir="back",color="midnightblue",fontsize="10",style="solid",fontname="Helvetica"];
  Node39 [label="pip._vendor.progress.counter.\lCounter.update",height=0.2,width=0.4,color="black", fillcolor="white", style="filled",URL="$d6/dbf/classpip_1_1__vendor_1_1progress_1_1counter_1_1_counter.html#a66bd8824561e1565e96015dbddb60366",tooltip=" "];
  Node35 -> Node44 [dir="back",color="midnightblue",fontsize="10",style="solid",fontname="Helvetica"];
  Node44 [label="pip._vendor.distlib.metadata.\lMetadata.provides",height=0.2,width=0.4,color="black", fillcolor="white", style="filled",URL="$d3/df6/classpip_1_1__vendor_1_1distlib_1_1metadata_1_1_metadata.html#a058ff05fbfaee325e2adc105f9ff6748",tooltip=" "];
  Node14 -> Node45 [dir="back",color="midnightblue",fontsize="10",style="solid",fontname="Helvetica"];
  Node45 [label="pkg_resources.Distribution.version",height=0.2,width=0.4,color="black", fillcolor="white", style="filled",URL="$d8/d25/classpkg__resources_1_1_distribution.html#a454a1c3eae52dee89980a24d7c67f036",tooltip=" "];
  Node45 -> Node18 [dir="back",color="midnightblue",fontsize="10",style="solid",fontname="Helvetica"];
  Node45 -> Node19 [dir="back",color="midnightblue",fontsize="10",style="solid",fontname="Helvetica"];
  Node45 -> Node20 [dir="back",color="midnightblue",fontsize="10",style="solid",fontname="Helvetica"];
  Node45 -> Node23 [dir="back",color="midnightblue",fontsize="10",style="solid",fontname="Helvetica"];
  Node45 -> Node24 [dir="back",color="midnightblue",fontsize="10",style="solid",fontname="Helvetica"];
  Node45 -> Node28 [dir="back",color="midnightblue",fontsize="10",style="solid",fontname="Helvetica"];
  Node45 -> Node30 [dir="back",color="midnightblue",fontsize="10",style="solid",fontname="Helvetica"];
  Node45 -> Node31 [dir="back",color="midnightblue",fontsize="10",style="solid",fontname="Helvetica"];
  Node45 -> Node33 [dir="back",color="midnightblue",fontsize="10",style="solid",fontname="Helvetica"];
  Node45 -> Node34 [dir="back",color="midnightblue",fontsize="10",style="solid",fontname="Helvetica"];
  Node45 -> Node35 [dir="back",color="midnightblue",fontsize="10",style="solid",fontname="Helvetica"];
  Node11 -> Node46 [dir="back",color="midnightblue",fontsize="10",style="solid",fontname="Helvetica"];
  Node46 [label="pkg_resources.Distribution.\l_get_version",height=0.2,width=0.4,color="black", fillcolor="white", style="filled",URL="$d8/d25/classpkg__resources_1_1_distribution.html#af5dae4847c9577a7d705d347cee0050c",tooltip=" "];
  Node46 -> Node16 [dir="back",color="midnightblue",fontsize="10",style="solid",fontname="Helvetica"];
  Node46 -> Node45 [dir="back",color="midnightblue",fontsize="10",style="solid",fontname="Helvetica"];
  Node11 -> Node47 [dir="back",color="midnightblue",fontsize="10",style="solid",fontname="Helvetica"];
  Node47 [label="pip._vendor.pkg_resources.\lDistribution.activate",height=0.2,width=0.4,color="black", fillcolor="white", style="filled",URL="$d0/ddb/classpip_1_1__vendor_1_1pkg__resources_1_1_distribution.html#a01dcb36642b9cabcedd14c3f50a59657",tooltip=" "];
  Node11 -> Node48 [dir="back",color="midnightblue",fontsize="10",style="solid",fontname="Helvetica"];
  Node48 [label="pkg_resources.Distribution.activate",height=0.2,width=0.4,color="black", fillcolor="white", style="filled",URL="$d8/d25/classpkg__resources_1_1_distribution.html#a4c4474f066527ee18c2dc15af67911df",tooltip=" "];
  Node6 -> Node49 [dir="back",color="midnightblue",fontsize="10",style="solid",fontname="Helvetica"];
  Node49 [label="pkg_resources.Distribution.\l_get_metadata",height=0.2,width=0.4,color="black", fillcolor="white", style="filled",URL="$d8/d25/classpkg__resources_1_1_distribution.html#aef94e0673364008155aef7b4d2475601",tooltip=" "];
  Node49 -> Node13 [dir="back",color="midnightblue",fontsize="10",style="solid",fontname="Helvetica"];
  Node49 -> Node46 [dir="back",color="midnightblue",fontsize="10",style="solid",fontname="Helvetica"];
  Node49 -> Node48 [dir="back",color="midnightblue",fontsize="10",style="solid",fontname="Helvetica"];
  Node1 -> Node50 [dir="back",color="midnightblue",fontsize="10",style="solid",fontname="Helvetica"];
  Node50 [label="pip._vendor.pkg_resources.\lFileMetadata.get_metadata_lines",height=0.2,width=0.4,color="black", fillcolor="white", style="filled",URL="$d8/d2b/classpip_1_1__vendor_1_1pkg__resources_1_1_file_metadata.html#acfa8be19ceb50c3e43434e2cd3d14e3d",tooltip=" "];
  Node50 -> Node10 [dir="back",color="midnightblue",fontsize="10",style="solid",fontname="Helvetica"];
  Node50 -> Node11 [dir="back",color="midnightblue",fontsize="10",style="solid",fontname="Helvetica"];
  Node50 -> Node49 [dir="back",color="midnightblue",fontsize="10",style="solid",fontname="Helvetica"];
  Node1 -> Node51 [dir="back",color="midnightblue",fontsize="10",style="solid",fontname="Helvetica"];
  Node51 [label="pkg_resources.NullProvider.get\l_metadata_lines",height=0.2,width=0.4,color="black", fillcolor="white", style="filled",URL="$d3/da0/classpkg__resources_1_1_null_provider.html#a3ea4f5544efb05812dea1035eb5643a3",tooltip=" "];
  Node51 -> Node10 [dir="back",color="midnightblue",fontsize="10",style="solid",fontname="Helvetica"];
  Node51 -> Node11 [dir="back",color="midnightblue",fontsize="10",style="solid",fontname="Helvetica"];
  Node51 -> Node49 [dir="back",color="midnightblue",fontsize="10",style="solid",fontname="Helvetica"];
  Node1 -> Node52 [dir="back",color="midnightblue",fontsize="10",style="solid",fontname="Helvetica"];
  Node52 [label="pkg_resources.FileMetadata.get\l_metadata_lines",height=0.2,width=0.4,color="black", fillcolor="white", style="filled",URL="$dd/dda/classpkg__resources_1_1_file_metadata.html#a493e91a4a2a75d0b3600ad9f52a148cb",tooltip=" "];
  Node52 -> Node11 [dir="back",color="midnightblue",fontsize="10",style="solid",fontname="Helvetica"];
  Node52 -> Node49 [dir="back",color="midnightblue",fontsize="10",style="solid",fontname="Helvetica"];
  Node1 -> Node53 [dir="back",color="midnightblue",fontsize="10",style="solid",fontname="Helvetica"];
  Node53 [label="pip._vendor.pkg_resources.\lNullProvider.run_script",height=0.2,width=0.4,color="black", fillcolor="white", style="filled",URL="$dd/dc4/classpip_1_1__vendor_1_1pkg__resources_1_1_null_provider.html#ad3cba73f9f405f1e3e3567ad9295aae2",tooltip=" "];
  Node1 -> Node54 [dir="back",color="midnightblue",fontsize="10",style="solid",fontname="Helvetica"];
  Node54 [label="pkg_resources.NullProvider.run\l_script",height=0.2,width=0.4,color="black", fillcolor="white", style="filled",URL="$d3/da0/classpkg__resources_1_1_null_provider.html#a03ae8028263462bb68477eb92f1610a2",tooltip=" "];
}
