digraph "pip._vendor.html5lib.treewalkers.base.NonRecursiveTreeWalker.__iter__"
{
 // LATEX_PDF_SIZE
  edge [fontname="Helvetica",fontsize="10",labelfontname="Helvetica",labelfontsize="10"];
  node [fontname="Helvetica",fontsize="10",shape=record];
  rankdir="LR";
  Node1 [label="pip._vendor.html5lib.treewalkers.base.\lNonRecursiveTreeWalker.__iter__",height=0.2,width=0.4,color="black", fillcolor="grey75", style="filled", fontcolor="black",tooltip=" "];
  Node1 -> Node2 [color="midnightblue",fontsize="10",style="solid"];
  Node2 [label="pip._vendor.html5lib.treewalkers.base.\lTreeWalker.comment",height=0.2,width=0.4,color="black", fillcolor="white", style="filled",URL="$d5/de6/classpip_1_1__vendor_1_1html5lib_1_1treewalkers_1_1base_1_1_tree_walker.html#a15701795d9b411c1949b2cad210298cc",tooltip=" "];
  Node1 -> Node3 [color="midnightblue",fontsize="10",style="solid"];
  Node3 [label="pip._vendor.html5lib.treewalkers.base.\lTreeWalker.doctype",height=0.2,width=0.4,color="black", fillcolor="white", style="filled",URL="$d5/de6/classpip_1_1__vendor_1_1html5lib_1_1treewalkers_1_1base_1_1_tree_walker.html#abc5d1c504158c353d9461a125569bd31",tooltip=" "];
  Node1 -> Node4 [color="midnightblue",fontsize="10",style="solid"];
  Node4 [label="pip._vendor.html5lib.treewalkers.base.\lTreeWalker.emptyTag",height=0.2,width=0.4,color="black", fillcolor="white", style="filled",URL="$d5/de6/classpip_1_1__vendor_1_1html5lib_1_1treewalkers_1_1base_1_1_tree_walker.html#adb45eb58b7c9dc77a1d059a8f75b8ccf",tooltip=" "];
  Node4 -> Node5 [color="midnightblue",fontsize="10",style="solid"];
  Node5 [label="pip._internal.cli.parser.\lConfigOptionParser.error",height=0.2,width=0.4,color="black", fillcolor="white", style="filled",URL="$d5/da5/classpip_1_1__internal_1_1cli_1_1parser_1_1_config_option_parser.html#a117b2b9285713ae8dada4e122adcfd83",tooltip=" "];
  Node4 -> Node6 [color="midnightblue",fontsize="10",style="solid"];
  Node6 [label="pip._vendor.html5lib.treewalkers.base.\lTreeWalker.error",height=0.2,width=0.4,color="black", fillcolor="white", style="filled",URL="$d5/de6/classpip_1_1__vendor_1_1html5lib_1_1treewalkers_1_1base_1_1_tree_walker.html#aed90492e5fc3449c9530531238aad993",tooltip=" "];
  Node1 -> Node7 [color="midnightblue",fontsize="10",style="solid"];
  Node7 [label="pip._vendor.html5lib.treewalkers.base.\lTreeWalker.endTag",height=0.2,width=0.4,color="black", fillcolor="white", style="filled",URL="$d5/de6/classpip_1_1__vendor_1_1html5lib_1_1treewalkers_1_1base_1_1_tree_walker.html#a604859d9a761510d7611c9196a45afe6",tooltip=" "];
  Node1 -> Node8 [color="midnightblue",fontsize="10",style="solid"];
  Node8 [label="pip._vendor.html5lib.treewalkers.base.\lTreeWalker.entity",height=0.2,width=0.4,color="black", fillcolor="white", style="filled",URL="$d5/de6/classpip_1_1__vendor_1_1html5lib_1_1treewalkers_1_1base_1_1_tree_walker.html#a120a3a4ac6ec4016efe1bd5b86aeb52e",tooltip=" "];
  Node1 -> Node9 [color="midnightblue",fontsize="10",style="solid"];
  Node9 [label="pip._vendor.html5lib.treewalkers.base.\lNonRecursiveTreeWalker.getFirstChild",height=0.2,width=0.4,color="black", fillcolor="white", style="filled",URL="$d7/d49/classpip_1_1__vendor_1_1html5lib_1_1treewalkers_1_1base_1_1_non_recursive_tree_walker.html#afc1cac32b8556af8b10045d9790558a7",tooltip=" "];
  Node1 -> Node10 [color="midnightblue",fontsize="10",style="solid"];
  Node10 [label="pip._vendor.html5lib.treewalkers.base.\lNonRecursiveTreeWalker.getNextSibling",height=0.2,width=0.4,color="black", fillcolor="white", style="filled",URL="$d7/d49/classpip_1_1__vendor_1_1html5lib_1_1treewalkers_1_1base_1_1_non_recursive_tree_walker.html#ad7ac7f993487a56b5c7ae146a28bf306",tooltip=" "];
  Node1 -> Node11 [color="midnightblue",fontsize="10",style="solid"];
  Node11 [label="pip._vendor.html5lib.treewalkers.base.\lNonRecursiveTreeWalker.getNodeDetails",height=0.2,width=0.4,color="black", fillcolor="white", style="filled",URL="$d7/d49/classpip_1_1__vendor_1_1html5lib_1_1treewalkers_1_1base_1_1_non_recursive_tree_walker.html#af017320dfc23f4a534430ff83d966ca7",tooltip=" "];
  Node1 -> Node12 [color="midnightblue",fontsize="10",style="solid"];
  Node12 [label="pip._vendor.html5lib.treewalkers.base.\lNonRecursiveTreeWalker.getParentNode",height=0.2,width=0.4,color="black", fillcolor="white", style="filled",URL="$d7/d49/classpip_1_1__vendor_1_1html5lib_1_1treewalkers_1_1base_1_1_non_recursive_tree_walker.html#af1df748c2e1089b5bea6ed12cbc94afa",tooltip=" "];
  Node1 -> Node13 [color="midnightblue",fontsize="10",style="solid"];
  Node13 [label="pip._vendor.html5lib.treewalkers.base.\lTreeWalker.startTag",height=0.2,width=0.4,color="black", fillcolor="white", style="filled",URL="$d5/de6/classpip_1_1__vendor_1_1html5lib_1_1treewalkers_1_1base_1_1_tree_walker.html#a856cb47dbeacd8f1ed7a3daed61491d8",tooltip=" "];
  Node1 -> Node14 [color="midnightblue",fontsize="10",style="solid"];
  Node14 [label="pip._vendor.html5lib.treewalkers.base.\lTreeWalker.text",height=0.2,width=0.4,color="black", fillcolor="white", style="filled",URL="$d5/de6/classpip_1_1__vendor_1_1html5lib_1_1treewalkers_1_1base_1_1_tree_walker.html#a0a33de7f434938befd593353fb6cf030",tooltip=" "];
  Node1 -> Node15 [color="midnightblue",fontsize="10",style="solid"];
  Node15 [label="pip._vendor.html5lib.treewalkers.base.\lTreeWalker.unknown",height=0.2,width=0.4,color="black", fillcolor="white", style="filled",URL="$d5/de6/classpip_1_1__vendor_1_1html5lib_1_1treewalkers_1_1base_1_1_tree_walker.html#a460c48a4ce52afe6ed79fbf334307249",tooltip=" "];
  Node15 -> Node5 [color="midnightblue",fontsize="10",style="solid"];
  Node15 -> Node6 [color="midnightblue",fontsize="10",style="solid"];
}
