digraph "pip._internal.req.req_file.handle_line"
{
 // LATEX_PDF_SIZE
  edge [fontname="Helvetica",fontsize="10",labelfontname="Helvetica",labelfontsize="10"];
  node [fontname="Helvetica",fontsize="10",shape=record];
  rankdir="LR";
  Node1 [label="pip._internal.req.req\l_file.handle_line",height=0.2,width=0.4,color="black", fillcolor="grey75", style="filled", fontcolor="black",tooltip=" "];
  Node1 -> Node2 [color="midnightblue",fontsize="10",style="solid"];
  Node2 [label="pip._internal.req.req\l_file.handle_option_line",height=0.2,width=0.4,color="black", fillcolor="white", style="filled",URL="$d9/d27/namespacepip_1_1__internal_1_1req_1_1req__file.html#a54d25df51acbdd71432aadb2af1df991",tooltip=" "];
  Node1 -> Node3 [color="midnightblue",fontsize="10",style="solid"];
  Node3 [label="pip._internal.req.req\l_file.handle_requirement_line",height=0.2,width=0.4,color="black", fillcolor="white", style="filled",URL="$d9/d27/namespacepip_1_1__internal_1_1req_1_1req__file.html#a08eb89957cfc2e8ceaead212f682b756",tooltip=" "];
}
