digraph "pip._internal.req.req_file.handle_option_line"
{
 // LATEX_PDF_SIZE
  edge [fontname="Helvetica",fontsize="10",labelfontname="Helvetica",labelfontsize="10"];
  node [fontname="Helvetica",fontsize="10",shape=record];
  rankdir="RL";
  Node1 [label="pip._internal.req.req\l_file.handle_option_line",height=0.2,width=0.4,color="black", fillcolor="grey75", style="filled", fontcolor="black",tooltip=" "];
  Node1 -> Node2 [dir="back",color="midnightblue",fontsize="10",style="solid"];
  Node2 [label="pip._internal.req.req\l_file.handle_line",height=0.2,width=0.4,color="black", fillcolor="white", style="filled",URL="$d9/d27/namespacepip_1_1__internal_1_1req_1_1req__file.html#a84c3d53ffb4cac1346b54ab540ef58be",tooltip=" "];
  Node2 -> Node3 [dir="back",color="midnightblue",fontsize="10",style="solid"];
  Node3 [label="pip._internal.req.req\l_file.parse_requirements",height=0.2,width=0.4,color="black", fillcolor="white", style="filled",URL="$d9/d27/namespacepip_1_1__internal_1_1req_1_1req__file.html#a26157dbab79dc73771f38f1eb08d29c8",tooltip=" "];
  Node3 -> Node4 [dir="back",color="midnightblue",fontsize="10",style="solid"];
  Node4 [label="pip._internal.req.constructors.deduce\l_helpful_msg",height=0.2,width=0.4,color="black", fillcolor="white", style="filled",URL="$df/dd2/namespacepip_1_1__internal_1_1req_1_1constructors.html#a361bce2fe5fcf2c86d37f602878d096b",tooltip=" "];
  Node4 -> Node5 [dir="back",color="midnightblue",fontsize="10",style="solid"];
  Node5 [label="pip._internal.req.constructors.parse\l_req_from_line",height=0.2,width=0.4,color="black", fillcolor="white", style="filled",URL="$df/dd2/namespacepip_1_1__internal_1_1req_1_1constructors.html#acfb2162125bb400c1b7d8a9abbe1771d",tooltip=" "];
  Node5 -> Node6 [dir="back",color="midnightblue",fontsize="10",style="solid"];
  Node6 [label="pip._internal.req.constructors.install\l_req_from_line",height=0.2,width=0.4,color="black", fillcolor="white", style="filled",URL="$df/dd2/namespacepip_1_1__internal_1_1req_1_1constructors.html#a627ed3c7246a72ae1e9c5aa38120a497",tooltip=" "];
  Node6 -> Node7 [dir="back",color="midnightblue",fontsize="10",style="solid"];
  Node7 [label="pip._internal.operations.freeze.freeze",height=0.2,width=0.4,color="black", fillcolor="white", style="filled",URL="$dc/df1/namespacepip_1_1__internal_1_1operations_1_1freeze.html#a6d7300aae94617a96245a81a64ab9398",tooltip=" "];
  Node7 -> Node8 [dir="back",color="midnightblue",fontsize="10",style="solid"];
  Node8 [label="pip._internal.commands.freeze.\lFreezeCommand.run",height=0.2,width=0.4,color="black", fillcolor="white", style="filled",URL="$df/d4e/classpip_1_1__internal_1_1commands_1_1freeze_1_1_freeze_command.html#a30bb1986d12b08faefb3010f9bfd74e2",tooltip=" "];
  Node6 -> Node9 [dir="back",color="midnightblue",fontsize="10",style="solid"];
  Node9 [label="pip._internal.cli.req\l_command.RequirementCommand.get\l_requirements",height=0.2,width=0.4,color="black", fillcolor="white", style="filled",URL="$d4/db3/classpip_1_1__internal_1_1cli_1_1req__command_1_1_requirement_command.html#abec6b583dd1834f5bdc35eab1c5e8ca0",tooltip=" "];
  Node9 -> Node10 [dir="back",color="midnightblue",fontsize="10",style="solid"];
  Node10 [label="pip._vendor.distlib.metadata.\lMetadata.get_requirements",height=0.2,width=0.4,color="black", fillcolor="white", style="filled",URL="$d3/df6/classpip_1_1__vendor_1_1distlib_1_1metadata_1_1_metadata.html#a372528ac411fd419ac0f6ff4306e7290",tooltip=" "];
  Node10 -> Node10 [dir="back",color="midnightblue",fontsize="10",style="solid"];
  Node9 -> Node11 [dir="back",color="midnightblue",fontsize="10",style="solid"];
  Node11 [label="pip._internal.commands.download.\lDownloadCommand.run",height=0.2,width=0.4,color="black", fillcolor="white", style="filled",URL="$d9/d03/classpip_1_1__internal_1_1commands_1_1download_1_1_download_command.html#a4992cef595bc4f38a1635e91a7557a54",tooltip=" "];
  Node9 -> Node12 [dir="back",color="midnightblue",fontsize="10",style="solid"];
  Node12 [label="pip._internal.commands.install.\lInstallCommand.run",height=0.2,width=0.4,color="black", fillcolor="white", style="filled",URL="$d2/dff/classpip_1_1__internal_1_1commands_1_1install_1_1_install_command.html#aed853149716837d308440b8e2405a75c",tooltip=" "];
  Node9 -> Node13 [dir="back",color="midnightblue",fontsize="10",style="solid"];
  Node13 [label="pip._internal.commands.wheel.\lWheelCommand.run",height=0.2,width=0.4,color="black", fillcolor="white", style="filled",URL="$d7/d9d/classpip_1_1__internal_1_1commands_1_1wheel_1_1_wheel_command.html#a4cb8665d201b720369f174eae955f875",tooltip=" "];
  Node6 -> Node14 [dir="back",color="midnightblue",fontsize="10",style="solid"];
  Node14 [label="pip._internal.req.constructors.install\l_req_from_parsed_requirement",height=0.2,width=0.4,color="black", fillcolor="white", style="filled",URL="$df/dd2/namespacepip_1_1__internal_1_1req_1_1constructors.html#a093d3da992203ec555c1f58cb9d83fe5",tooltip=" "];
  Node14 -> Node9 [dir="back",color="midnightblue",fontsize="10",style="solid"];
  Node14 -> Node15 [dir="back",color="midnightblue",fontsize="10",style="solid"];
  Node15 [label="pip._internal.commands.uninstall.\lUninstallCommand.run",height=0.2,width=0.4,color="black", fillcolor="white", style="filled",URL="$d6/d33/classpip_1_1__internal_1_1commands_1_1uninstall_1_1_uninstall_command.html#a2471671e1b8bf4fb7f7015c925f7e1e0",tooltip=" "];
  Node6 -> Node16 [dir="back",color="midnightblue",fontsize="10",style="solid"];
  Node16 [label="pip._internal.resolution.resolvelib.candidates.make\l_install_req_from_dist",height=0.2,width=0.4,color="black", fillcolor="white", style="filled",URL="$d6/d5c/namespacepip_1_1__internal_1_1resolution_1_1resolvelib_1_1candidates.html#a159f4c468a9fc51363f6503d0f0a91c2",tooltip=" "];
  Node6 -> Node17 [dir="back",color="midnightblue",fontsize="10",style="solid"];
  Node17 [label="pip._internal.resolution.resolvelib.candidates.make\l_install_req_from_link",height=0.2,width=0.4,color="black", fillcolor="white", style="filled",URL="$d6/d5c/namespacepip_1_1__internal_1_1resolution_1_1resolvelib_1_1candidates.html#add272345f75186f1331779615b28d6cf",tooltip=" "];
  Node17 -> Node18 [dir="back",color="midnightblue",fontsize="10",style="solid"];
  Node18 [label="pip._internal.resolution.resolvelib.candidates.\lLinkCandidate.__init__",height=0.2,width=0.4,color="black", fillcolor="white", style="filled",URL="$d1/def/classpip_1_1__internal_1_1resolution_1_1resolvelib_1_1candidates_1_1_link_candidate.html#ab501dd65fd5b2ad22126b4ac46b71814",tooltip=" "];
  Node18 -> Node19 [dir="back",color="midnightblue",fontsize="10",style="solid"];
  Node19 [label="setuptools._vendor.ordered\l_set.OrderedSet.__setstate__",height=0.2,width=0.4,color="black", fillcolor="white", style="filled",URL="$d0/d40/classsetuptools_1_1__vendor_1_1ordered__set_1_1_ordered_set.html#a852740634ccd2e3158b599082cf086de",tooltip=" "];
  Node6 -> Node15 [dir="back",color="midnightblue",fontsize="10",style="solid"];
  Node3 -> Node20 [dir="back",color="midnightblue",fontsize="10",style="solid"];
  Node20 [label="setuptools.build_meta.Distribution.fetch\l_build_eggs",height=0.2,width=0.4,color="black", fillcolor="white", style="filled",URL="$df/de0/classsetuptools_1_1build__meta_1_1_distribution.html#a0750a768f6ccf6b86bf22d5d9c54c5c8",tooltip=" "];
  Node3 -> Node21 [dir="back",color="midnightblue",fontsize="10",style="solid"];
  Node21 [label="setuptools.command.egg\l_info.egg_info.finalize\l_options",height=0.2,width=0.4,color="black", fillcolor="white", style="filled",URL="$d4/dd5/classsetuptools_1_1command_1_1egg__info_1_1egg__info.html#ab62dc812cd7873e55721c014fcf3207f",tooltip=" "];
  Node3 -> Node9 [dir="back",color="midnightblue",fontsize="10",style="solid"];
  Node3 -> Node15 [dir="back",color="midnightblue",fontsize="10",style="solid"];
}
