digraph "pip._vendor.ipaddress._collapse_addresses_internal"
{
 // LATEX_PDF_SIZE
  edge [fontname="Helvetica",fontsize="10",labelfontname="Helvetica",labelfontsize="10"];
  node [fontname="Helvetica",fontsize="10",shape=record];
  rankdir="RL";
  Node1 [label="pip._vendor.ipaddress.\l_collapse_addresses_internal",height=0.2,width=0.4,color="black", fillcolor="grey75", style="filled", fontcolor="black",tooltip=" "];
  Node1 -> Node2 [dir="back",color="midnightblue",fontsize="10",style="solid",fontname="Helvetica"];
  Node2 [label="pip._vendor.ipaddress.collapse\l_addresses",height=0.2,width=0.4,color="black", fillcolor="white", style="filled",URL="$dd/d25/namespacepip_1_1__vendor_1_1ipaddress.html#aa1e95f822669f4aefed2df74fdb44eeb",tooltip=" "];
}
