digraph "pip._vendor.contextlib2._reraise_with_existing_context"
{
 // LATEX_PDF_SIZE
  edge [fontname="Helvetica",fontsize="10",labelfontname="Helvetica",labelfontsize="10"];
  node [fontname="Helvetica",fontsize="10",shape=record];
  rankdir="LR";
  Node1 [label="pip._vendor.contextlib2.\l_reraise_with_existing\l_context",height=0.2,width=0.4,color="black", fillcolor="grey75", style="filled", fontcolor="black",tooltip=" "];
  Node1 -> Node2 [color="midnightblue",fontsize="10",style="solid"];
  Node2 [label="pip._vendor.contextlib2.\l_make_context_fixer",height=0.2,width=0.4,color="black", fillcolor="white", style="filled",URL="$d3/d7d/namespacepip_1_1__vendor_1_1contextlib2.html#a46d1e44d36046d1a4e8383054f4c7ae5",tooltip=" "];
}
