digraph "pip._vendor.contextlib2._check_methods"
{
 // LATEX_PDF_SIZE
  edge [fontname="Helvetica",fontsize="10",labelfontname="Helvetica",labelfontsize="10"];
  node [fontname="Helvetica",fontsize="10",shape=record];
  rankdir="LR";
  Node1 [label="pip._vendor.contextlib2.\l_check_methods",height=0.2,width=0.4,color="black", fillcolor="grey75", style="filled", fontcolor="black",tooltip=" "];
  Node1 -> Node2 [color="midnightblue",fontsize="10",style="solid"];
  Node2 [label="pip._vendor.contextlib2.\l_classic_mro",height=0.2,width=0.4,color="black", fillcolor="white", style="filled",URL="$d3/d7d/namespacepip_1_1__vendor_1_1contextlib2.html#a64da53c77c538e63e65f013db58dd7ba",tooltip=" "];
}
