digraph "pip._vendor.contextlib2._make_context_fixer"
{
 // LATEX_PDF_SIZE
  edge [fontname="Helvetica",fontsize="10",labelfontname="Helvetica",labelfontsize="10"];
  node [fontname="Helvetica",fontsize="10",shape=record];
  rankdir="RL";
  Node1 [label="pip._vendor.contextlib2.\l_make_context_fixer",height=0.2,width=0.4,color="black", fillcolor="grey75", style="filled", fontcolor="black",tooltip=" "];
  Node1 -> Node2 [dir="back",color="midnightblue",fontsize="10",style="solid"];
  Node2 [label="pip._vendor.contextlib2.\lExitStack.__exit__",height=0.2,width=0.4,color="black", fillcolor="white", style="filled",URL="$da/d9c/classpip_1_1__vendor_1_1contextlib2_1_1_exit_stack.html#a6436ba3c985d9ad346bcf8ed88ffd82a",tooltip=" "];
  Node2 -> Node3 [dir="back",color="midnightblue",fontsize="10",style="solid"];
  Node3 [label="pip._vendor.contextlib2.\lExitStack.close",height=0.2,width=0.4,color="black", fillcolor="white", style="filled",URL="$da/d9c/classpip_1_1__vendor_1_1contextlib2_1_1_exit_stack.html#a8af5c655eac1f37c928a7e51a87e4c93",tooltip=" "];
  Node3 -> Node4 [dir="back",color="midnightblue",fontsize="10",style="solid"];
  Node4 [label="pip._vendor.distlib.\l_backport.tarfile._Stream.\l__del__",height=0.2,width=0.4,color="black", fillcolor="white", style="filled",URL="$de/d60/classpip_1_1__vendor_1_1distlib_1_1__backport_1_1tarfile_1_1___stream.html#acc211b52c05d61db562ecadfcf63bad9",tooltip=" "];
  Node3 -> Node5 [dir="back",color="midnightblue",fontsize="10",style="solid"];
  Node5 [label="pip._vendor.requests.models.\lResponse.__exit__",height=0.2,width=0.4,color="black", fillcolor="white", style="filled",URL="$d4/da7/classpip_1_1__vendor_1_1requests_1_1models_1_1_response.html#a175243222fbeb1ea0b15de44582b7c41",tooltip=" "];
  Node3 -> Node6 [dir="back",color="midnightblue",fontsize="10",style="solid"];
  Node6 [label="pip._vendor.requests.sessions.\lSession.__exit__",height=0.2,width=0.4,color="black", fillcolor="white", style="filled",URL="$da/de9/classpip_1_1__vendor_1_1requests_1_1sessions_1_1_session.html#a334f4530b38faa75c0c03166d0252ddb",tooltip=" "];
  Node3 -> Node7 [dir="back",color="midnightblue",fontsize="10",style="solid"];
  Node7 [label="pip._vendor.distlib.compat.\lZipExtFile.__exit__",height=0.2,width=0.4,color="black", fillcolor="white", style="filled",URL="$de/d15/classpip_1_1__vendor_1_1distlib_1_1compat_1_1_zip_ext_file.html#a505b9b236aa0ec39325d4998fa2d8a91",tooltip=" "];
  Node3 -> Node8 [dir="back",color="midnightblue",fontsize="10",style="solid"];
  Node8 [label="pip._vendor.distlib.compat.\lZipFile.__exit__",height=0.2,width=0.4,color="black", fillcolor="white", style="filled",URL="$dc/d17/classpip_1_1__vendor_1_1distlib_1_1compat_1_1_zip_file.html#ad230e5cdc21d69886f572a8b1a39472f",tooltip=" "];
  Node3 -> Node9 [dir="back",color="midnightblue",fontsize="10",style="solid"];
  Node9 [label="pip._vendor.urllib3.connectionpool.\lConnectionPool.__exit__",height=0.2,width=0.4,color="black", fillcolor="white", style="filled",URL="$de/d81/classpip_1_1__vendor_1_1urllib3_1_1connectionpool_1_1_connection_pool.html#a68ff9060a12413aebcb49d08091a75ca",tooltip=" "];
  Node3 -> Node10 [dir="back",color="midnightblue",fontsize="10",style="solid"];
  Node10 [label="pip._vendor.distlib.\l_backport.tarfile.TarFile.\l__exit__",height=0.2,width=0.4,color="black", fillcolor="white", style="filled",URL="$d7/d1d/classpip_1_1__vendor_1_1distlib_1_1__backport_1_1tarfile_1_1_tar_file.html#a8b53d864815cbd5cd87453362dc3a393",tooltip=" "];
  Node3 -> Node11 [dir="back",color="midnightblue",fontsize="10",style="solid"];
  Node11 [label="pip._vendor.urllib3.contrib.pyopenssl.\lWrappedSocket._decref_socketios",height=0.2,width=0.4,color="black", fillcolor="white", style="filled",URL="$d3/d95/classpip_1_1__vendor_1_1urllib3_1_1contrib_1_1pyopenssl_1_1_wrapped_socket.html#a8fefeb96b11476486d44ed996e712faa",tooltip=" "];
  Node3 -> Node12 [dir="back",color="midnightblue",fontsize="10",style="solid"];
  Node12 [label="pip._vendor.urllib3.contrib.securetransport.\lWrappedSocket._decref_socketios",height=0.2,width=0.4,color="black", fillcolor="white", style="filled",URL="$da/dfd/classpip_1_1__vendor_1_1urllib3_1_1contrib_1_1securetransport_1_1_wrapped_socket.html#af6af6969c26a5c32fff160de3af744f6",tooltip=" "];
  Node3 -> Node13 [dir="back",color="midnightblue",fontsize="10",style="solid"];
  Node13 [label="pip._vendor.urllib3.contrib.pyopenssl.\lWrappedSocket._drop",height=0.2,width=0.4,color="black", fillcolor="white", style="filled",URL="$d3/d95/classpip_1_1__vendor_1_1urllib3_1_1contrib_1_1pyopenssl_1_1_wrapped_socket.html#af21b0c393b0f71839db631ddde8912a7",tooltip=" "];
  Node3 -> Node14 [dir="back",color="midnightblue",fontsize="10",style="solid"];
  Node14 [label="pip._vendor.urllib3.contrib.securetransport.\lWrappedSocket._drop",height=0.2,width=0.4,color="black", fillcolor="white", style="filled",URL="$da/dfd/classpip_1_1__vendor_1_1urllib3_1_1contrib_1_1securetransport_1_1_wrapped_socket.html#ad7a2fd7d94da5d887aada153cb76d713",tooltip=" "];
  Node3 -> Node15 [dir="back",color="midnightblue",fontsize="10",style="solid"];
  Node15 [label="pip._vendor.urllib3.contrib.securetransport.\lWrappedSocket._raise_on_error",height=0.2,width=0.4,color="black", fillcolor="white", style="filled",URL="$da/dfd/classpip_1_1__vendor_1_1urllib3_1_1contrib_1_1securetransport_1_1_wrapped_socket.html#adfddd3dd231e91a3387d3f8ac8271f96",tooltip=" "];
  Node15 -> Node16 [dir="back",color="midnightblue",fontsize="10",style="solid"];
  Node16 [label="pip._vendor.urllib3.contrib.securetransport.\lWrappedSocket.handshake",height=0.2,width=0.4,color="black", fillcolor="white", style="filled",URL="$da/dfd/classpip_1_1__vendor_1_1urllib3_1_1contrib_1_1securetransport_1_1_wrapped_socket.html#af239b38582dc204d2147eb5b5a408e43",tooltip=" "];
  Node15 -> Node17 [dir="back",color="midnightblue",fontsize="10",style="solid"];
  Node17 [label="pip._vendor.urllib3.contrib.securetransport.\lWrappedSocket.recv_into",height=0.2,width=0.4,color="black", fillcolor="white", style="filled",URL="$da/dfd/classpip_1_1__vendor_1_1urllib3_1_1contrib_1_1securetransport_1_1_wrapped_socket.html#ab0ca1914c71fa5334fe5793cb636adb1",tooltip=" "];
  Node17 -> Node18 [dir="back",color="midnightblue",fontsize="10",style="solid"];
  Node18 [label="pip._vendor.urllib3.contrib.securetransport.\lWrappedSocket.recv",height=0.2,width=0.4,color="black", fillcolor="white", style="filled",URL="$da/dfd/classpip_1_1__vendor_1_1urllib3_1_1contrib_1_1securetransport_1_1_wrapped_socket.html#a3832e7a008b3a38b6b9abc8941f7e062",tooltip=" "];
  Node15 -> Node19 [dir="back",color="midnightblue",fontsize="10",style="solid"];
  Node19 [label="pip._vendor.urllib3.contrib.securetransport.\lWrappedSocket.send",height=0.2,width=0.4,color="black", fillcolor="white", style="filled",URL="$da/dfd/classpip_1_1__vendor_1_1urllib3_1_1contrib_1_1securetransport_1_1_wrapped_socket.html#a28869d3bbbcd6d0517f106a7192642f5",tooltip=" "];
  Node19 -> Node20 [dir="back",color="midnightblue",fontsize="10",style="solid"];
  Node20 [label="pip._vendor.urllib3.connection.\lHTTPConnection.request_chunked",height=0.2,width=0.4,color="black", fillcolor="white", style="filled",URL="$d2/d75/classpip_1_1__vendor_1_1urllib3_1_1connection_1_1_h_t_t_p_connection.html#ad0ce9861382a0268d64ee1d58d3d83c4",tooltip=" "];
  Node19 -> Node21 [dir="back",color="midnightblue",fontsize="10",style="solid"];
  Node21 [label="pip._vendor.requests.sessions.\lSessionRedirectMixin.resolve\l_redirects",height=0.2,width=0.4,color="black", fillcolor="white", style="filled",URL="$d3/def/classpip_1_1__vendor_1_1requests_1_1sessions_1_1_session_redirect_mixin.html#af9bcf31587685a33dbbb517f8e1b71b3",tooltip=" "];
  Node21 -> Node22 [dir="back",color="midnightblue",fontsize="10",style="solid"];
  Node22 [label="pip._vendor.requests.sessions.\lSession.send",height=0.2,width=0.4,color="black", fillcolor="white", style="filled",URL="$da/de9/classpip_1_1__vendor_1_1requests_1_1sessions_1_1_session.html#ae8fcb76dca3180b80dfd66c07587aeb2",tooltip=" "];
  Node22 -> Node23 [dir="back",color="midnightblue",fontsize="10",style="solid"];
  Node23 [label="pip._vendor.requests.sessions.\lSession.request",height=0.2,width=0.4,color="black", fillcolor="white", style="filled",URL="$da/de9/classpip_1_1__vendor_1_1requests_1_1sessions_1_1_session.html#a718b60e99280c6ef1a346cb6dc0a90c8",tooltip=" "];
  Node23 -> Node24 [dir="back",color="midnightblue",fontsize="10",style="solid"];
  Node24 [label="pip._vendor.requests.sessions.\lSession.delete",height=0.2,width=0.4,color="black", fillcolor="white", style="filled",URL="$da/de9/classpip_1_1__vendor_1_1requests_1_1sessions_1_1_session.html#a10a0d9552a108655ec064bd587678247",tooltip=" "];
  Node23 -> Node25 [dir="back",color="midnightblue",fontsize="10",style="solid"];
  Node25 [label="pip._vendor.requests.sessions.\lSession.get",height=0.2,width=0.4,color="black", fillcolor="white", style="filled",URL="$da/de9/classpip_1_1__vendor_1_1requests_1_1sessions_1_1_session.html#a637a2a933183e90943aabeab91d0e475",tooltip=" "];
  Node25 -> Node26 [dir="back",color="midnightblue",fontsize="10",style="solid"];
  Node26 [label="setuptools.package\l_index.PyPIConfig._get\l_repo_cred",height=0.2,width=0.4,color="black", fillcolor="white", style="filled",URL="$d3/d47/classsetuptools_1_1package__index_1_1_py_p_i_config.html#a8560244cd85a884510096d2b673838a9",tooltip=" "];
  Node26 -> Node27 [dir="back",color="midnightblue",fontsize="10",style="solid"];
  Node27 [label="setuptools.package\l_index.PyPIConfig.creds\l_by_repository",height=0.2,width=0.4,color="black", fillcolor="white", style="filled",URL="$d3/d47/classsetuptools_1_1package__index_1_1_py_p_i_config.html#adc322072461ff5f3499d6187040ebc91",tooltip=" "];
  Node27 -> Node28 [dir="back",color="midnightblue",fontsize="10",style="solid"];
  Node28 [label="setuptools.package\l_index.PyPIConfig.find\l_credential",height=0.2,width=0.4,color="black", fillcolor="white", style="filled",URL="$d3/d47/classsetuptools_1_1package__index_1_1_py_p_i_config.html#a591eed255577ae924d683a1cdfc6cbbd",tooltip=" "];
  Node25 -> Node27 [dir="back",color="midnightblue",fontsize="10",style="solid"];
  Node25 -> Node29 [dir="back",color="midnightblue",fontsize="10",style="solid"];
  Node29 [label="pip._vendor.pkg_resources.\l_ReqExtras.markers_pass",height=0.2,width=0.4,color="black", fillcolor="white", style="filled",URL="$d9/dd5/classpip_1_1__vendor_1_1pkg__resources_1_1___req_extras.html#a1b0256ec9bc9da2aac912b35898fda5f",tooltip=" "];
  Node25 -> Node30 [dir="back",color="midnightblue",fontsize="10",style="solid"];
  Node30 [label="pkg_resources._ReqExtras.markers_pass",height=0.2,width=0.4,color="black", fillcolor="white", style="filled",URL="$d9/d9f/classpkg__resources_1_1___req_extras.html#a435242531f1af2132de48679c5edf3c7",tooltip=" "];
  Node23 -> Node31 [dir="back",color="midnightblue",fontsize="10",style="solid"];
  Node31 [label="pip._vendor.requests.sessions.\lSession.head",height=0.2,width=0.4,color="black", fillcolor="white", style="filled",URL="$da/de9/classpip_1_1__vendor_1_1requests_1_1sessions_1_1_session.html#a0b4eedeb465ba385aa984ac58617dd79",tooltip=" "];
  Node31 -> Node32 [dir="back",color="midnightblue",fontsize="10",style="solid"];
  Node32 [label="pip._internal.exceptions.\lHashErrors.__str__",height=0.2,width=0.4,color="black", fillcolor="white", style="filled",URL="$da/d1a/classpip_1_1__internal_1_1exceptions_1_1_hash_errors.html#a1f0df3404102191fd54a5a1cee1445f4",tooltip=" "];
  Node23 -> Node33 [dir="back",color="midnightblue",fontsize="10",style="solid"];
  Node33 [label="pip._vendor.requests.sessions.\lSession.options",height=0.2,width=0.4,color="black", fillcolor="white", style="filled",URL="$da/de9/classpip_1_1__vendor_1_1requests_1_1sessions_1_1_session.html#a782817284df10ee3d0c9a656670017b6",tooltip=" "];
  Node23 -> Node34 [dir="back",color="midnightblue",fontsize="10",style="solid"];
  Node34 [label="pip._vendor.requests.sessions.\lSession.patch",height=0.2,width=0.4,color="black", fillcolor="white", style="filled",URL="$da/de9/classpip_1_1__vendor_1_1requests_1_1sessions_1_1_session.html#a30572ac06f35dd3711887d17f3ecc709",tooltip=" "];
  Node23 -> Node35 [dir="back",color="midnightblue",fontsize="10",style="solid"];
  Node35 [label="pip._vendor.requests.sessions.\lSession.post",height=0.2,width=0.4,color="black", fillcolor="white", style="filled",URL="$da/de9/classpip_1_1__vendor_1_1requests_1_1sessions_1_1_session.html#a5e106cded162e6aa992e012347ac066f",tooltip=" "];
  Node35 -> Node36 [dir="back",color="midnightblue",fontsize="10",style="solid"];
  Node36 [label="pkg_resources._vendor.packaging.version.\lVersion.__str__",height=0.2,width=0.4,color="black", fillcolor="white", style="filled",URL="$d9/da7/classpkg__resources_1_1__vendor_1_1packaging_1_1version_1_1_version.html#a9a90e18e451e2e46f4cecb59e159d3d7",tooltip=" "];
  Node35 -> Node37 [dir="back",color="midnightblue",fontsize="10",style="solid"];
  Node37 [label="setuptools._vendor.packaging.version.\lVersion.__str__",height=0.2,width=0.4,color="black", fillcolor="white", style="filled",URL="$da/de8/classsetuptools_1_1__vendor_1_1packaging_1_1version_1_1_version.html#ad7799d4b1432a9a0ec3f8569b61e94a1",tooltip=" "];
  Node35 -> Node38 [dir="back",color="midnightblue",fontsize="10",style="solid"];
  Node38 [label="pkg_resources._vendor.packaging.version.\lVersion.is_postrelease",height=0.2,width=0.4,color="black", fillcolor="white", style="filled",URL="$d9/da7/classpkg__resources_1_1__vendor_1_1packaging_1_1version_1_1_version.html#af9bfffa937f9cf6206e4bd6c183bbb2d",tooltip=" "];
  Node35 -> Node39 [dir="back",color="midnightblue",fontsize="10",style="solid"];
  Node39 [label="setuptools._vendor.packaging.version.\lVersion.is_postrelease",height=0.2,width=0.4,color="black", fillcolor="white", style="filled",URL="$da/de8/classsetuptools_1_1__vendor_1_1packaging_1_1version_1_1_version.html#a473df1b65542159470e42b342de3f123",tooltip=" "];
  Node23 -> Node40 [dir="back",color="midnightblue",fontsize="10",style="solid"];
  Node40 [label="pip._vendor.requests.sessions.\lSession.put",height=0.2,width=0.4,color="black", fillcolor="white", style="filled",URL="$da/de9/classpip_1_1__vendor_1_1requests_1_1sessions_1_1_session.html#a9ddc29cd786a7cf9c1e1e07b2d140adb",tooltip=" "];
  Node22 -> Node20 [dir="back",color="midnightblue",fontsize="10",style="solid"];
  Node22 -> Node21 [dir="back",color="midnightblue",fontsize="10",style="solid"];
  Node22 -> Node41 [dir="back",color="midnightblue",fontsize="10",style="solid"];
  Node41 [label="pip._vendor.urllib3.contrib.securetransport.\lWrappedSocket.sendall",height=0.2,width=0.4,color="black", fillcolor="white", style="filled",URL="$da/dfd/classpip_1_1__vendor_1_1urllib3_1_1contrib_1_1securetransport_1_1_wrapped_socket.html#ab9e8aadb499f4166567dbdb815e44f9f",tooltip=" "];
  Node19 -> Node41 [dir="back",color="midnightblue",fontsize="10",style="solid"];
  Node15 -> Node42 [dir="back",color="midnightblue",fontsize="10",style="solid"];
  Node42 [label="pip._vendor.urllib3.contrib.securetransport.\lWrappedSocket.shutdown",height=0.2,width=0.4,color="black", fillcolor="white", style="filled",URL="$da/dfd/classpip_1_1__vendor_1_1urllib3_1_1contrib_1_1securetransport_1_1_wrapped_socket.html#ab66073871c2338ba89e2de6994f72ce6",tooltip=" "];
  Node3 -> Node43 [dir="back",color="midnightblue",fontsize="10",style="solid"];
  Node43 [label="pip._vendor.urllib3.response.\lHTTPResponse._update_chunk_length",height=0.2,width=0.4,color="black", fillcolor="white", style="filled",URL="$dd/d5a/classpip_1_1__vendor_1_1urllib3_1_1response_1_1_h_t_t_p_response.html#afd9dde1480029c22d5be27adfbec5dcf",tooltip=" "];
  Node43 -> Node44 [dir="back",color="midnightblue",fontsize="10",style="solid"];
  Node44 [label="pip._vendor.urllib3.response.\lHTTPResponse.read_chunked",height=0.2,width=0.4,color="black", fillcolor="white", style="filled",URL="$dd/d5a/classpip_1_1__vendor_1_1urllib3_1_1response_1_1_h_t_t_p_response.html#a4c7a442f95795a5db145a0680ffbd658",tooltip=" "];
  Node44 -> Node45 [dir="back",color="midnightblue",fontsize="10",style="solid"];
  Node45 [label="pip._vendor.urllib3.response.\lHTTPResponse.stream",height=0.2,width=0.4,color="black", fillcolor="white", style="filled",URL="$dd/d5a/classpip_1_1__vendor_1_1urllib3_1_1response_1_1_h_t_t_p_response.html#aad7ca8755c86a2cfe56f28e64b7f9e77",tooltip=" "];
  Node45 -> Node46 [dir="back",color="midnightblue",fontsize="10",style="solid"];
  Node46 [label="pip._vendor.urllib3.response.\lHTTPResponse.__iter__",height=0.2,width=0.4,color="black", fillcolor="white", style="filled",URL="$dd/d5a/classpip_1_1__vendor_1_1urllib3_1_1response_1_1_h_t_t_p_response.html#a6c8b3fa3d2feed5623f67b3cf07755dd",tooltip=" "];
  Node3 -> Node17 [dir="back",color="midnightblue",fontsize="10",style="solid"];
  Node1 -> Node47 [dir="back",color="midnightblue",fontsize="10",style="solid"];
  Node47 [label="pip._vendor.contextlib2.\l_reraise_with_existing\l_context",height=0.2,width=0.4,color="black", fillcolor="white", style="filled",URL="$d3/d7d/namespacepip_1_1__vendor_1_1contextlib2.html#a994239e4afadbee1f0ae1a614aff7d69",tooltip=" "];
  Node47 -> Node2 [dir="back",color="midnightblue",fontsize="10",style="solid"];
}
