digraph "pip._vendor.html5lib._trie.py.Trie"
{
 // LATEX_PDF_SIZE
  edge [fontname="Helvetica",fontsize="10",labelfontname="Helvetica",labelfontsize="10"];
  node [fontname="Helvetica",fontsize="10",shape=record];
  Node1 [label="{pip._vendor.html5lib.\l_trie.py.Trie\n|- _data\l- _keys\l- _cachestr\l- _cachepoints\l|+ __init__()\l+ __contains__()\l+ __len__()\l+ __iter__()\l+ __getitem__()\l+ keys()\l+ has_keys_with_prefix()\l}",height=0.2,width=0.4,color="black", fillcolor="grey75", style="filled", fontcolor="black",tooltip=" "];
  Node2 -> Node1 [dir="back",color="midnightblue",fontsize="10",style="solid",arrowtail="onormal"];
  Node2 [label="{ABCTrie\n||}",height=0.2,width=0.4,color="grey75", fillcolor="white", style="filled",tooltip=" "];
}
