digraph "pip._internal.operations.prepare._copy_source_tree"
{
 // LATEX_PDF_SIZE
  edge [fontname="Helvetica",fontsize="10",labelfontname="Helvetica",labelfontsize="10"];
  node [fontname="Helvetica",fontsize="10",shape=record];
  rankdir="RL";
  Node1 [label="pip._internal.operations.prepare.\l_copy_source_tree",height=0.2,width=0.4,color="black", fillcolor="grey75", style="filled", fontcolor="black",tooltip=" "];
  Node1 -> Node2 [dir="back",color="midnightblue",fontsize="10",style="solid"];
  Node2 [label="pip._internal.operations.prepare.unpack_url",height=0.2,width=0.4,color="black", fillcolor="white", style="filled",URL="$d5/d0e/namespacepip_1_1__internal_1_1operations_1_1prepare.html#ac7ba0da24379107e74c3fb2950a733d4",tooltip=" "];
  Node2 -> Node3 [dir="back",color="midnightblue",fontsize="10",style="solid"];
  Node3 [label="pip._internal.operations.prepare.\lRequirementPreparer.prepare\l_linked_requirement",height=0.2,width=0.4,color="black", fillcolor="white", style="filled",URL="$d3/dc5/classpip_1_1__internal_1_1operations_1_1prepare_1_1_requirement_preparer.html#a112bf5c78474500ff9c4c6b4101e4a6b",tooltip=" "];
}
