digraph "pip._internal.commands.list.ListCommand._build_package_finder"
{
 // LATEX_PDF_SIZE
  edge [fontname="Helvetica",fontsize="10",labelfontname="Helvetica",labelfontsize="10"];
  node [fontname="Helvetica",fontsize="10",shape=record];
  rankdir="RL";
  Node1 [label="pip._internal.commands.list.\lListCommand._build_package_finder",height=0.2,width=0.4,color="black", fillcolor="grey75", style="filled", fontcolor="black",tooltip=" "];
  Node1 -> Node2 [dir="back",color="midnightblue",fontsize="10",style="solid",fontname="Helvetica"];
  Node2 [label="pip._internal.commands.list.\lListCommand.iter_packages\l_latest_infos",height=0.2,width=0.4,color="black", fillcolor="white", style="filled",URL="$d8/d3b/classpip_1_1__internal_1_1commands_1_1list_1_1_list_command.html#a25ce6dc6767925bf06f378f78b0476fe",tooltip=" "];
  Node2 -> Node3 [dir="back",color="midnightblue",fontsize="10",style="solid",fontname="Helvetica"];
  Node3 [label="pip._internal.commands.list.\lListCommand.get_outdated",height=0.2,width=0.4,color="black", fillcolor="white", style="filled",URL="$d8/d3b/classpip_1_1__internal_1_1commands_1_1list_1_1_list_command.html#a5f8d0b55afffa5dc7cbd11f60abce153",tooltip=" "];
  Node3 -> Node4 [dir="back",color="midnightblue",fontsize="10",style="solid",fontname="Helvetica"];
  Node4 [label="pip._internal.commands.list.\lListCommand.run",height=0.2,width=0.4,color="black", fillcolor="white", style="filled",URL="$d8/d3b/classpip_1_1__internal_1_1commands_1_1list_1_1_list_command.html#a4e1efdaeb20691bf7149a2ac43a6ce45",tooltip=" "];
  Node2 -> Node5 [dir="back",color="midnightblue",fontsize="10",style="solid",fontname="Helvetica"];
  Node5 [label="pip._internal.commands.list.\lListCommand.get_uptodate",height=0.2,width=0.4,color="black", fillcolor="white", style="filled",URL="$d8/d3b/classpip_1_1__internal_1_1commands_1_1list_1_1_list_command.html#af365abae319821a24173ea4468242aa4",tooltip=" "];
  Node5 -> Node4 [dir="back",color="midnightblue",fontsize="10",style="solid",fontname="Helvetica"];
}
