digraph "pip._vendor.distlib.markers._is_literal"
{
 // LATEX_PDF_SIZE
  edge [fontname="Helvetica",fontsize="10",labelfontname="Helvetica",labelfontsize="10"];
  node [fontname="Helvetica",fontsize="10",shape=record];
  rankdir="RL";
  Node1 [label="pip._vendor.distlib.markers.\l_is_literal",height=0.2,width=0.4,color="black", fillcolor="grey75", style="filled", fontcolor="black",tooltip=" "];
  Node1 -> Node2 [dir="back",color="midnightblue",fontsize="10",style="solid",fontname="Helvetica"];
  Node2 [label="pip._vendor.distlib.markers.\lEvaluator.evaluate",height=0.2,width=0.4,color="black", fillcolor="white", style="filled",URL="$de/dda/classpip_1_1__vendor_1_1distlib_1_1markers_1_1_evaluator.html#aa4ac9be35d86c0601dfab712e2e47d5a",tooltip=" "];
  Node2 -> Node2 [dir="back",color="midnightblue",fontsize="10",style="solid",fontname="Helvetica"];
}
