digraph "pip._vendor.pyparsing._PositionToken"
{
 // LATEX_PDF_SIZE
  edge [fontname="Helvetica",fontsize="10",labelfontname="Helvetica",labelfontsize="10"];
  node [fontname="Helvetica",fontsize="10",shape=record];
  Node1 [label="{pip._vendor.pyparsing.\l_PositionToken\n|+ name\l+ mayReturnEmpty\l+ mayIndexError\l|+ __init__()\l}",height=0.2,width=0.4,color="black", fillcolor="grey75", style="filled", fontcolor="black",tooltip=" "];
  Node2 -> Node1 [dir="back",color="midnightblue",fontsize="10",style="solid",arrowtail="onormal"];
  Node2 [label="{pip._vendor.pyparsing.Token\n||+ __init__()\l}",height=0.2,width=0.4,color="black", fillcolor="white", style="filled",URL="$de/dd7/classpip_1_1__vendor_1_1pyparsing_1_1_token.html",tooltip=" "];
  Node3 -> Node2 [dir="back",color="midnightblue",fontsize="10",style="solid",arrowtail="onormal"];
  Node3 [label="{pip._vendor.pyparsing.Parser\lElement\n|+ parseAction\l+ failAction\l+ strRepr\l+ resultsName\l+ saveAsList\l+ skipWhitespace\l+ whiteChars\l+ copyDefaultWhiteChars\l+ mayReturnEmpty\l+ keepTabs\land 11 more...\l+ DEFAULT_WHITE_CHARS\l+ verbose_stacktrace\l+ packrat_cache\l+ packrat_cache_lock\l+ packrat_cache_stats\l- _parse\l- _parse\l- _packratEnabled\l|+ __init__()\l+ copy()\l+ setName()\l+ setResultsName()\l+ setBreak()\l+ setParseAction()\l+ addParseAction()\l+ addCondition()\l+ setFailAction()\l+ preParse()\land 45 more...\l+ setDefaultWhitespaceChars()\l+ inlineLiteralsUsing()\l+ resetCache()\l+ enablePackrat()\l- _trim_traceback()\l- _setResultsName()\l- _skipIgnorables()\l- _parseNoCache()\l- _parseCache()\l}",height=0.2,width=0.4,color="black", fillcolor="white", style="filled",URL="$df/d7f/classpip_1_1__vendor_1_1pyparsing_1_1_parser_element.html",tooltip=" "];
  Node4 -> Node3 [dir="back",color="midnightblue",fontsize="10",style="solid",arrowtail="onormal"];
  Node4 [label="{object\n||}",height=0.2,width=0.4,color="grey75", fillcolor="white", style="filled",tooltip=" "];
  Node1 -> Node5 [dir="back",color="midnightblue",fontsize="10",style="solid",arrowtail="onormal"];
  Node5 [label="{pip._vendor.pyparsing.Go\lToColumn\n|+ col\l|+ __init__()\l+ preParse()\l+ parseImpl()\l}",height=0.2,width=0.4,color="black", fillcolor="white", style="filled",URL="$dc/d7c/classpip_1_1__vendor_1_1pyparsing_1_1_go_to_column.html",tooltip=" "];
  Node1 -> Node6 [dir="back",color="midnightblue",fontsize="10",style="solid",arrowtail="onormal"];
  Node6 [label="{pip._vendor.pyparsing.LineEnd\n|+ errmsg\l|+ __init__()\l+ parseImpl()\l}",height=0.2,width=0.4,color="black", fillcolor="white", style="filled",URL="$d2/d3b/classpip_1_1__vendor_1_1pyparsing_1_1_line_end.html",tooltip=" "];
  Node1 -> Node7 [dir="back",color="midnightblue",fontsize="10",style="solid",arrowtail="onormal"];
  Node7 [label="{pip._vendor.pyparsing.Line\lStart\n|+ errmsg\l|+ __init__()\l+ parseImpl()\l}",height=0.2,width=0.4,color="black", fillcolor="white", style="filled",URL="$d2/d7b/classpip_1_1__vendor_1_1pyparsing_1_1_line_start.html",tooltip=" "];
  Node1 -> Node8 [dir="back",color="midnightblue",fontsize="10",style="solid",arrowtail="onormal"];
  Node8 [label="{pip._vendor.pyparsing.StringEnd\n|+ errmsg\l|+ __init__()\l+ parseImpl()\l}",height=0.2,width=0.4,color="black", fillcolor="white", style="filled",URL="$d6/dec/classpip_1_1__vendor_1_1pyparsing_1_1_string_end.html",tooltip=" "];
  Node1 -> Node9 [dir="back",color="midnightblue",fontsize="10",style="solid",arrowtail="onormal"];
  Node9 [label="{pip._vendor.pyparsing.String\lStart\n|+ errmsg\l|+ __init__()\l+ parseImpl()\l}",height=0.2,width=0.4,color="black", fillcolor="white", style="filled",URL="$d9/de4/classpip_1_1__vendor_1_1pyparsing_1_1_string_start.html",tooltip=" "];
  Node1 -> Node10 [dir="back",color="midnightblue",fontsize="10",style="solid",arrowtail="onormal"];
  Node10 [label="{pip._vendor.pyparsing.WordEnd\n|+ wordChars\l+ skipWhitespace\l+ errmsg\l|+ __init__()\l+ parseImpl()\l}",height=0.2,width=0.4,color="black", fillcolor="white", style="filled",URL="$d8/d96/classpip_1_1__vendor_1_1pyparsing_1_1_word_end.html",tooltip=" "];
  Node1 -> Node11 [dir="back",color="midnightblue",fontsize="10",style="solid",arrowtail="onormal"];
  Node11 [label="{pip._vendor.pyparsing.Word\lStart\n|+ wordChars\l+ errmsg\l|+ __init__()\l+ parseImpl()\l}",height=0.2,width=0.4,color="black", fillcolor="white", style="filled",URL="$d6/da2/classpip_1_1__vendor_1_1pyparsing_1_1_word_start.html",tooltip=" "];
}
