digraph "pip._vendor.pep517.build.build"
{
 // LATEX_PDF_SIZE
  edge [fontname="Helvetica",fontsize="10",labelfontname="Helvetica",labelfontsize="10"];
  node [fontname="Helvetica",fontsize="10",shape=record];
  rankdir="RL";
  Node1 [label="pip._vendor.pep517.build.build",height=0.2,width=0.4,color="black", fillcolor="grey75", style="filled", fontcolor="black",tooltip=" "];
  Node1 -> Node2 [dir="back",color="midnightblue",fontsize="10",style="solid"];
  Node2 [label="pip._vendor.pep517.build.\l_do_build",height=0.2,width=0.4,color="black", fillcolor="white", style="filled",URL="$d5/d84/namespacepip_1_1__vendor_1_1pep517_1_1build.html#a48af2895c63f274123898c67178139ee",tooltip=" "];
  Node2 -> Node1 [dir="back",color="midnightblue",fontsize="10",style="solid"];
  Node1 -> Node3 [dir="back",color="midnightblue",fontsize="10",style="solid"];
  Node3 [label="pip._vendor.pep517.build.main",height=0.2,width=0.4,color="black", fillcolor="white", style="filled",URL="$d5/d84/namespacepip_1_1__vendor_1_1pep517_1_1build.html#aa3bf9002f1471764cf8359ec8a9e5ce0",tooltip=" "];
}
