digraph "pip._internal.req.req_uninstall.UninstallPathSet._allowed_to_proceed"
{
 // LATEX_PDF_SIZE
  edge [fontname="Helvetica",fontsize="10",labelfontname="Helvetica",labelfontsize="10"];
  node [fontname="Helvetica",fontsize="10",shape=record];
  rankdir="LR";
  Node1 [label="pip._internal.req.req\l_uninstall.UninstallPathSet.\l_allowed_to_proceed",height=0.2,width=0.4,color="black", fillcolor="grey75", style="filled", fontcolor="black",tooltip=" "];
  Node1 -> Node2 [color="midnightblue",fontsize="10",style="solid"];
  Node2 [label="pip._internal.utils.misc.ask",height=0.2,width=0.4,color="black", fillcolor="white", style="filled",URL="$de/dc3/namespacepip_1_1__internal_1_1utils_1_1misc.html#a58fde5883882cc9ed5d6187ccb0bf074",tooltip=" "];
  Node2 -> Node3 [color="midnightblue",fontsize="10",style="solid"];
  Node3 [label="pip._internal.utils.misc.\l_check_no_input",height=0.2,width=0.4,color="black", fillcolor="white", style="filled",URL="$de/dc3/namespacepip_1_1__internal_1_1utils_1_1misc.html#a1d698b415d18ecdbe380c01428c04cba",tooltip=" "];
  Node1 -> Node4 [color="midnightblue",fontsize="10",style="solid"];
  Node4 [label="pip._internal.req.req\l_uninstall.compact",height=0.2,width=0.4,color="black", fillcolor="white", style="filled",URL="$d4/d3c/namespacepip_1_1__internal_1_1req_1_1req__uninstall.html#ae9a7aba4977c8cfbd7059fec3cf8ef79",tooltip=" "];
  Node1 -> Node5 [color="midnightblue",fontsize="10",style="solid"];
  Node5 [label="pip._internal.req.req\l_uninstall.compress_for\l_output_listing",height=0.2,width=0.4,color="black", fillcolor="white", style="filled",URL="$d4/d3c/namespacepip_1_1__internal_1_1req_1_1req__uninstall.html#abfdb308ee3c2dfd82ad1f596315ab7ac",tooltip=" "];
  Node5 -> Node4 [color="midnightblue",fontsize="10",style="solid"];
  Node1 -> Node6 [color="midnightblue",fontsize="10",style="solid"];
  Node6 [label="pip._internal.req.req\l_uninstall.compress_for\l_rename",height=0.2,width=0.4,color="black", fillcolor="white", style="filled",URL="$d4/d3c/namespacepip_1_1__internal_1_1req_1_1req__uninstall.html#a9e8ccdf527f6bd79fbaaf7bf316ef7a7",tooltip=" "];
  Node1 -> Node7 [color="midnightblue",fontsize="10",style="solid"];
  Node7 [label="pip._internal.utils.logging.indent_log",height=0.2,width=0.4,color="black", fillcolor="white", style="filled",URL="$d2/d7f/namespacepip_1_1__internal_1_1utils_1_1logging.html#a085a5d65b0702800d0a9d48a0a4615a8",tooltip=" "];
  Node7 -> Node8 [color="midnightblue",fontsize="10",style="solid"];
  Node8 [label="pip._internal.utils.logging.get\l_indentation",height=0.2,width=0.4,color="black", fillcolor="white", style="filled",URL="$d2/d7f/namespacepip_1_1__internal_1_1utils_1_1logging.html#a44d946c100e5712775abb26dc67d1c51",tooltip=" "];
}
