digraph "pip._vendor.distlib.markers.Evaluator.evaluate"
{
 // LATEX_PDF_SIZE
  edge [fontname="Helvetica",fontsize="10",labelfontname="Helvetica",labelfontsize="10"];
  node [fontname="Helvetica",fontsize="10",shape=record];
  rankdir="LR";
  Node1 [label="pip._vendor.distlib.markers.\lEvaluator.evaluate",height=0.2,width=0.4,color="black", fillcolor="grey75", style="filled", fontcolor="black",tooltip=" "];
  Node1 -> Node2 [color="midnightblue",fontsize="10",style="solid",fontname="Helvetica"];
  Node2 [label="pip._vendor.distlib.markers.\l_is_literal",height=0.2,width=0.4,color="black", fillcolor="white", style="filled",URL="$d9/d7c/namespacepip_1_1__vendor_1_1distlib_1_1markers.html#a44d7ca3e0e9b09b6f5de13a173b56fa0",tooltip=" "];
  Node1 -> Node1 [color="midnightblue",fontsize="10",style="solid",fontname="Helvetica"];
}
