digraph "pip._vendor.packaging.specifiers._IndividualSpecifier._coerce_version"
{
 // LATEX_PDF_SIZE
  edge [fontname="Helvetica",fontsize="10",labelfontname="Helvetica",labelfontsize="10"];
  node [fontname="Helvetica",fontsize="10",shape=record];
  rankdir="RL";
  Node1 [label="pip._vendor.packaging.specifiers.\l_IndividualSpecifier._coerce_version",height=0.2,width=0.4,color="black", fillcolor="grey75", style="filled", fontcolor="black",tooltip=" "];
  Node1 -> Node2 [dir="back",color="midnightblue",fontsize="10",style="solid"];
  Node2 [label="pip._vendor.packaging.specifiers.\lLegacySpecifier._compare_equal",height=0.2,width=0.4,color="black", fillcolor="white", style="filled",URL="$d0/de6/classpip_1_1__vendor_1_1packaging_1_1specifiers_1_1_legacy_specifier.html#a24c73acf45689bea773980ffe5bbf7c1",tooltip=" "];
  Node2 -> Node3 [dir="back",color="midnightblue",fontsize="10",style="solid"];
  Node3 [label="pip._vendor.packaging.specifiers.\lSpecifier._compare_not_equal",height=0.2,width=0.4,color="black", fillcolor="white", style="filled",URL="$d3/dc8/classpip_1_1__vendor_1_1packaging_1_1specifiers_1_1_specifier.html#a4afb563a949227b53cbb9e1779a04a21",tooltip=" "];
  Node2 -> Node4 [dir="back",color="midnightblue",fontsize="10",style="solid"];
  Node4 [label="pkg_resources._vendor.packaging.specifiers.\lSpecifier._compare_not_equal",height=0.2,width=0.4,color="black", fillcolor="white", style="filled",URL="$d3/de8/classpkg__resources_1_1__vendor_1_1packaging_1_1specifiers_1_1_specifier.html#a3e62a4aaccc3471f94dd28e9b9867299",tooltip=" "];
  Node2 -> Node5 [dir="back",color="midnightblue",fontsize="10",style="solid"];
  Node5 [label="setuptools._vendor.packaging.specifiers.\lSpecifier._compare_not_equal",height=0.2,width=0.4,color="black", fillcolor="white", style="filled",URL="$d0/d8b/classsetuptools_1_1__vendor_1_1packaging_1_1specifiers_1_1_specifier.html#a0264d6f6f021626fdd501e2580db436d",tooltip=" "];
  Node1 -> Node6 [dir="back",color="midnightblue",fontsize="10",style="solid"];
  Node6 [label="pkg_resources._vendor.packaging.specifiers.\lLegacySpecifier._compare_equal",height=0.2,width=0.4,color="black", fillcolor="white", style="filled",URL="$d2/d30/classpkg__resources_1_1__vendor_1_1packaging_1_1specifiers_1_1_legacy_specifier.html#a6219cc293180493f5d93c81431a5a02c",tooltip=" "];
  Node6 -> Node4 [dir="back",color="midnightblue",fontsize="10",style="solid"];
  Node6 -> Node5 [dir="back",color="midnightblue",fontsize="10",style="solid"];
  Node1 -> Node7 [dir="back",color="midnightblue",fontsize="10",style="solid"];
  Node7 [label="setuptools._vendor.packaging.specifiers.\lLegacySpecifier._compare_equal",height=0.2,width=0.4,color="black", fillcolor="white", style="filled",URL="$dd/d46/classsetuptools_1_1__vendor_1_1packaging_1_1specifiers_1_1_legacy_specifier.html#ab92d95731ca7d96aafb1d0874a238ffb",tooltip=" "];
  Node7 -> Node5 [dir="back",color="midnightblue",fontsize="10",style="solid"];
  Node1 -> Node8 [dir="back",color="midnightblue",fontsize="10",style="solid"];
  Node8 [label="pip._vendor.packaging.specifiers.\lLegacySpecifier._compare_greater_than",height=0.2,width=0.4,color="black", fillcolor="white", style="filled",URL="$d0/de6/classpip_1_1__vendor_1_1packaging_1_1specifiers_1_1_legacy_specifier.html#ad827499a959ce8dce65dedcf2791bbf1",tooltip=" "];
  Node1 -> Node9 [dir="back",color="midnightblue",fontsize="10",style="solid"];
  Node9 [label="pkg_resources._vendor.packaging.specifiers.\lLegacySpecifier._compare_greater_than",height=0.2,width=0.4,color="black", fillcolor="white", style="filled",URL="$d2/d30/classpkg__resources_1_1__vendor_1_1packaging_1_1specifiers_1_1_legacy_specifier.html#a53c4017a7313c732810e07ddea7b4a2b",tooltip=" "];
  Node1 -> Node10 [dir="back",color="midnightblue",fontsize="10",style="solid"];
  Node10 [label="setuptools._vendor.packaging.specifiers.\lLegacySpecifier._compare_greater_than",height=0.2,width=0.4,color="black", fillcolor="white", style="filled",URL="$dd/d46/classsetuptools_1_1__vendor_1_1packaging_1_1specifiers_1_1_legacy_specifier.html#a812756171ebb69810838b918f119f129",tooltip=" "];
  Node1 -> Node11 [dir="back",color="midnightblue",fontsize="10",style="solid"];
  Node11 [label="pip._vendor.packaging.specifiers.\lLegacySpecifier._compare_greater\l_than_equal",height=0.2,width=0.4,color="black", fillcolor="white", style="filled",URL="$d0/de6/classpip_1_1__vendor_1_1packaging_1_1specifiers_1_1_legacy_specifier.html#a61780aa7edb3b5e1a2dfea3949435a04",tooltip=" "];
  Node1 -> Node12 [dir="back",color="midnightblue",fontsize="10",style="solid"];
  Node12 [label="pkg_resources._vendor.packaging.specifiers.\lLegacySpecifier._compare_greater\l_than_equal",height=0.2,width=0.4,color="black", fillcolor="white", style="filled",URL="$d2/d30/classpkg__resources_1_1__vendor_1_1packaging_1_1specifiers_1_1_legacy_specifier.html#a05cc4534e5facc39392a221a209bd3cc",tooltip=" "];
  Node1 -> Node13 [dir="back",color="midnightblue",fontsize="10",style="solid"];
  Node13 [label="setuptools._vendor.packaging.specifiers.\lLegacySpecifier._compare_greater\l_than_equal",height=0.2,width=0.4,color="black", fillcolor="white", style="filled",URL="$dd/d46/classsetuptools_1_1__vendor_1_1packaging_1_1specifiers_1_1_legacy_specifier.html#a1eaa16d9b0a5856936285c7668b1a4b2",tooltip=" "];
  Node1 -> Node14 [dir="back",color="midnightblue",fontsize="10",style="solid"];
  Node14 [label="pip._vendor.packaging.specifiers.\lLegacySpecifier._compare_less_than",height=0.2,width=0.4,color="black", fillcolor="white", style="filled",URL="$d0/de6/classpip_1_1__vendor_1_1packaging_1_1specifiers_1_1_legacy_specifier.html#accb348329784ca47eb9857447b6945ba",tooltip=" "];
  Node1 -> Node15 [dir="back",color="midnightblue",fontsize="10",style="solid"];
  Node15 [label="pkg_resources._vendor.packaging.specifiers.\lLegacySpecifier._compare_less_than",height=0.2,width=0.4,color="black", fillcolor="white", style="filled",URL="$d2/d30/classpkg__resources_1_1__vendor_1_1packaging_1_1specifiers_1_1_legacy_specifier.html#a57e7a735677fab01c2ffbd8cb8de94a4",tooltip=" "];
  Node1 -> Node16 [dir="back",color="midnightblue",fontsize="10",style="solid"];
  Node16 [label="setuptools._vendor.packaging.specifiers.\lLegacySpecifier._compare_less_than",height=0.2,width=0.4,color="black", fillcolor="white", style="filled",URL="$dd/d46/classsetuptools_1_1__vendor_1_1packaging_1_1specifiers_1_1_legacy_specifier.html#ab04a2abf67a6bb2751906e2e92510c9e",tooltip=" "];
  Node1 -> Node17 [dir="back",color="midnightblue",fontsize="10",style="solid"];
  Node17 [label="pip._vendor.packaging.specifiers.\lLegacySpecifier._compare_less\l_than_equal",height=0.2,width=0.4,color="black", fillcolor="white", style="filled",URL="$d0/de6/classpip_1_1__vendor_1_1packaging_1_1specifiers_1_1_legacy_specifier.html#a6fee308735e126e0a5afe31cb8d2d749",tooltip=" "];
  Node1 -> Node18 [dir="back",color="midnightblue",fontsize="10",style="solid"];
  Node18 [label="pkg_resources._vendor.packaging.specifiers.\lLegacySpecifier._compare_less_than_equal",height=0.2,width=0.4,color="black", fillcolor="white", style="filled",URL="$d2/d30/classpkg__resources_1_1__vendor_1_1packaging_1_1specifiers_1_1_legacy_specifier.html#a169f2ccd44c637a630e52c322670981c",tooltip=" "];
  Node1 -> Node19 [dir="back",color="midnightblue",fontsize="10",style="solid"];
  Node19 [label="setuptools._vendor.packaging.specifiers.\lLegacySpecifier._compare_less\l_than_equal",height=0.2,width=0.4,color="black", fillcolor="white", style="filled",URL="$dd/d46/classsetuptools_1_1__vendor_1_1packaging_1_1specifiers_1_1_legacy_specifier.html#a5aa487ef2c8437ab4d0a3d64d1fce907",tooltip=" "];
  Node1 -> Node20 [dir="back",color="midnightblue",fontsize="10",style="solid"];
  Node20 [label="pip._vendor.packaging.specifiers.\lLegacySpecifier._compare_not_equal",height=0.2,width=0.4,color="black", fillcolor="white", style="filled",URL="$d0/de6/classpip_1_1__vendor_1_1packaging_1_1specifiers_1_1_legacy_specifier.html#a0fc12124633c08b45a4de72344fea1f6",tooltip=" "];
  Node1 -> Node21 [dir="back",color="midnightblue",fontsize="10",style="solid"];
  Node21 [label="pkg_resources._vendor.packaging.specifiers.\lLegacySpecifier._compare_not_equal",height=0.2,width=0.4,color="black", fillcolor="white", style="filled",URL="$d2/d30/classpkg__resources_1_1__vendor_1_1packaging_1_1specifiers_1_1_legacy_specifier.html#a358e9bd6f034aaf9e21fb3e4731a72ef",tooltip=" "];
  Node1 -> Node22 [dir="back",color="midnightblue",fontsize="10",style="solid"];
  Node22 [label="setuptools._vendor.packaging.specifiers.\lLegacySpecifier._compare_not_equal",height=0.2,width=0.4,color="black", fillcolor="white", style="filled",URL="$dd/d46/classsetuptools_1_1__vendor_1_1packaging_1_1specifiers_1_1_legacy_specifier.html#ac898f0429f1e3e26b380a9ec63523a56",tooltip=" "];
  Node1 -> Node23 [dir="back",color="midnightblue",fontsize="10",style="solid"];
  Node23 [label="pip._vendor.packaging.specifiers.\l_IndividualSpecifier.contains",height=0.2,width=0.4,color="black", fillcolor="white", style="filled",URL="$d9/d98/classpip_1_1__vendor_1_1packaging_1_1specifiers_1_1___individual_specifier.html#a3463e67496c28c09997aa61fa02fbcd6",tooltip=" "];
  Node23 -> Node24 [dir="back",color="midnightblue",fontsize="10",style="solid"];
  Node24 [label="pkg_resources._vendor.packaging.specifiers.\l_IndividualSpecifier.__contains__",height=0.2,width=0.4,color="black", fillcolor="white", style="filled",URL="$d7/d3d/classpkg__resources_1_1__vendor_1_1packaging_1_1specifiers_1_1___individual_specifier.html#a998cb585da2ce2cbddd8788ab1dec2e9",tooltip=" "];
  Node23 -> Node25 [dir="back",color="midnightblue",fontsize="10",style="solid"];
  Node25 [label="pkg_resources._vendor.packaging.specifiers.\lSpecifierSet.__contains__",height=0.2,width=0.4,color="black", fillcolor="white", style="filled",URL="$d2/d90/classpkg__resources_1_1__vendor_1_1packaging_1_1specifiers_1_1_specifier_set.html#af68a49be1fe37bc12da13ca6ac4b9e49",tooltip=" "];
  Node23 -> Node26 [dir="back",color="midnightblue",fontsize="10",style="solid"];
  Node26 [label="setuptools._vendor.packaging.specifiers.\l_IndividualSpecifier.__contains__",height=0.2,width=0.4,color="black", fillcolor="white", style="filled",URL="$d2/dfa/classsetuptools_1_1__vendor_1_1packaging_1_1specifiers_1_1___individual_specifier.html#ac8c5634a825694d276f2cf5c4b3cb9bd",tooltip=" "];
  Node23 -> Node27 [dir="back",color="midnightblue",fontsize="10",style="solid"];
  Node27 [label="setuptools._vendor.packaging.specifiers.\lSpecifierSet.__contains__",height=0.2,width=0.4,color="black", fillcolor="white", style="filled",URL="$d6/d78/classsetuptools_1_1__vendor_1_1packaging_1_1specifiers_1_1_specifier_set.html#a883c1e784aebcb300e68cd5e08c7ea8a",tooltip=" "];
  Node23 -> Node28 [dir="back",color="midnightblue",fontsize="10",style="solid"];
  Node28 [label="pkg_resources._vendor.packaging.specifiers.\l_IndividualSpecifier.filter",height=0.2,width=0.4,color="black", fillcolor="white", style="filled",URL="$d7/d3d/classpkg__resources_1_1__vendor_1_1packaging_1_1specifiers_1_1___individual_specifier.html#a23722d79e6f85960e214288f3b782962",tooltip=" "];
  Node23 -> Node29 [dir="back",color="midnightblue",fontsize="10",style="solid"];
  Node29 [label="setuptools._vendor.packaging.specifiers.\l_IndividualSpecifier.filter",height=0.2,width=0.4,color="black", fillcolor="white", style="filled",URL="$d2/dfa/classsetuptools_1_1__vendor_1_1packaging_1_1specifiers_1_1___individual_specifier.html#af07e3f018647cb7a004791b6436993e1",tooltip=" "];
  Node1 -> Node30 [dir="back",color="midnightblue",fontsize="10",style="solid"];
  Node30 [label="pkg_resources._vendor.packaging.specifiers.\l_IndividualSpecifier.contains",height=0.2,width=0.4,color="black", fillcolor="white", style="filled",URL="$d7/d3d/classpkg__resources_1_1__vendor_1_1packaging_1_1specifiers_1_1___individual_specifier.html#afc614431c7e139a948866248f6f01bb4",tooltip=" "];
  Node30 -> Node26 [dir="back",color="midnightblue",fontsize="10",style="solid"];
  Node30 -> Node27 [dir="back",color="midnightblue",fontsize="10",style="solid"];
  Node30 -> Node29 [dir="back",color="midnightblue",fontsize="10",style="solid"];
  Node1 -> Node31 [dir="back",color="midnightblue",fontsize="10",style="solid"];
  Node31 [label="setuptools._vendor.packaging.specifiers.\l_IndividualSpecifier.contains",height=0.2,width=0.4,color="black", fillcolor="white", style="filled",URL="$d2/dfa/classsetuptools_1_1__vendor_1_1packaging_1_1specifiers_1_1___individual_specifier.html#add310771a2fd25ae2670e7ed15c81160",tooltip=" "];
  Node1 -> Node32 [dir="back",color="midnightblue",fontsize="10",style="solid"];
  Node32 [label="pip._vendor.packaging.specifiers.\l_IndividualSpecifier.filter",height=0.2,width=0.4,color="black", fillcolor="white", style="filled",URL="$d9/d98/classpip_1_1__vendor_1_1packaging_1_1specifiers_1_1___individual_specifier.html#a847a1acce445e4905e873053dbb8f1ee",tooltip=" "];
  Node1 -> Node28 [dir="back",color="midnightblue",fontsize="10",style="solid"];
  Node1 -> Node29 [dir="back",color="midnightblue",fontsize="10",style="solid"];
}
