digraph "pip._vendor.packaging.specifiers._IndividualSpecifier._get_operator"
{
 // LATEX_PDF_SIZE
  edge [fontname="Helvetica",fontsize="10",labelfontname="Helvetica",labelfontsize="10"];
  node [fontname="Helvetica",fontsize="10",shape=record];
  rankdir="RL";
  Node1 [label="pip._vendor.packaging.specifiers.\l_IndividualSpecifier._get_operator",height=0.2,width=0.4,color="black", fillcolor="grey75", style="filled", fontcolor="black",tooltip=" "];
  Node1 -> Node2 [dir="back",color="midnightblue",fontsize="10",style="solid"];
  Node2 [label="pip._vendor.packaging.specifiers.\lSpecifier._compare_compatible",height=0.2,width=0.4,color="black", fillcolor="white", style="filled",URL="$d3/dc8/classpip_1_1__vendor_1_1packaging_1_1specifiers_1_1_specifier.html#afde168c294129afdc0794f2d2c538f81",tooltip=" "];
  Node1 -> Node3 [dir="back",color="midnightblue",fontsize="10",style="solid"];
  Node3 [label="pkg_resources._vendor.packaging.specifiers.\lSpecifier._compare_compatible",height=0.2,width=0.4,color="black", fillcolor="white", style="filled",URL="$d3/de8/classpkg__resources_1_1__vendor_1_1packaging_1_1specifiers_1_1_specifier.html#ae303e9cab9b0eab993656593d654d840",tooltip=" "];
  Node1 -> Node4 [dir="back",color="midnightblue",fontsize="10",style="solid"];
  Node4 [label="setuptools._vendor.packaging.specifiers.\lSpecifier._compare_compatible",height=0.2,width=0.4,color="black", fillcolor="white", style="filled",URL="$d0/d8b/classsetuptools_1_1__vendor_1_1packaging_1_1specifiers_1_1_specifier.html#a4d3dbf4f8ef179371206a6354fba8b3c",tooltip=" "];
  Node1 -> Node5 [dir="back",color="midnightblue",fontsize="10",style="solid"];
  Node5 [label="pip._vendor.packaging.specifiers.\l_IndividualSpecifier.contains",height=0.2,width=0.4,color="black", fillcolor="white", style="filled",URL="$d9/d98/classpip_1_1__vendor_1_1packaging_1_1specifiers_1_1___individual_specifier.html#a3463e67496c28c09997aa61fa02fbcd6",tooltip=" "];
  Node5 -> Node6 [dir="back",color="midnightblue",fontsize="10",style="solid"];
  Node6 [label="pkg_resources._vendor.packaging.specifiers.\l_IndividualSpecifier.__contains__",height=0.2,width=0.4,color="black", fillcolor="white", style="filled",URL="$d7/d3d/classpkg__resources_1_1__vendor_1_1packaging_1_1specifiers_1_1___individual_specifier.html#a998cb585da2ce2cbddd8788ab1dec2e9",tooltip=" "];
  Node5 -> Node7 [dir="back",color="midnightblue",fontsize="10",style="solid"];
  Node7 [label="pkg_resources._vendor.packaging.specifiers.\lSpecifierSet.__contains__",height=0.2,width=0.4,color="black", fillcolor="white", style="filled",URL="$d2/d90/classpkg__resources_1_1__vendor_1_1packaging_1_1specifiers_1_1_specifier_set.html#af68a49be1fe37bc12da13ca6ac4b9e49",tooltip=" "];
  Node5 -> Node8 [dir="back",color="midnightblue",fontsize="10",style="solid"];
  Node8 [label="setuptools._vendor.packaging.specifiers.\l_IndividualSpecifier.__contains__",height=0.2,width=0.4,color="black", fillcolor="white", style="filled",URL="$d2/dfa/classsetuptools_1_1__vendor_1_1packaging_1_1specifiers_1_1___individual_specifier.html#ac8c5634a825694d276f2cf5c4b3cb9bd",tooltip=" "];
  Node5 -> Node9 [dir="back",color="midnightblue",fontsize="10",style="solid"];
  Node9 [label="setuptools._vendor.packaging.specifiers.\lSpecifierSet.__contains__",height=0.2,width=0.4,color="black", fillcolor="white", style="filled",URL="$d6/d78/classsetuptools_1_1__vendor_1_1packaging_1_1specifiers_1_1_specifier_set.html#a883c1e784aebcb300e68cd5e08c7ea8a",tooltip=" "];
  Node5 -> Node10 [dir="back",color="midnightblue",fontsize="10",style="solid"];
  Node10 [label="pkg_resources._vendor.packaging.specifiers.\l_IndividualSpecifier.filter",height=0.2,width=0.4,color="black", fillcolor="white", style="filled",URL="$d7/d3d/classpkg__resources_1_1__vendor_1_1packaging_1_1specifiers_1_1___individual_specifier.html#a23722d79e6f85960e214288f3b782962",tooltip=" "];
  Node5 -> Node11 [dir="back",color="midnightblue",fontsize="10",style="solid"];
  Node11 [label="setuptools._vendor.packaging.specifiers.\l_IndividualSpecifier.filter",height=0.2,width=0.4,color="black", fillcolor="white", style="filled",URL="$d2/dfa/classsetuptools_1_1__vendor_1_1packaging_1_1specifiers_1_1___individual_specifier.html#af07e3f018647cb7a004791b6436993e1",tooltip=" "];
  Node1 -> Node12 [dir="back",color="midnightblue",fontsize="10",style="solid"];
  Node12 [label="pkg_resources._vendor.packaging.specifiers.\l_IndividualSpecifier.contains",height=0.2,width=0.4,color="black", fillcolor="white", style="filled",URL="$d7/d3d/classpkg__resources_1_1__vendor_1_1packaging_1_1specifiers_1_1___individual_specifier.html#afc614431c7e139a948866248f6f01bb4",tooltip=" "];
  Node12 -> Node8 [dir="back",color="midnightblue",fontsize="10",style="solid"];
  Node12 -> Node9 [dir="back",color="midnightblue",fontsize="10",style="solid"];
  Node12 -> Node11 [dir="back",color="midnightblue",fontsize="10",style="solid"];
  Node1 -> Node13 [dir="back",color="midnightblue",fontsize="10",style="solid"];
  Node13 [label="setuptools._vendor.packaging.specifiers.\l_IndividualSpecifier.contains",height=0.2,width=0.4,color="black", fillcolor="white", style="filled",URL="$d2/dfa/classsetuptools_1_1__vendor_1_1packaging_1_1specifiers_1_1___individual_specifier.html#add310771a2fd25ae2670e7ed15c81160",tooltip=" "];
}
