digraph "pip._vendor.pkg_resources.EggProvider"
{
 // LATEX_PDF_SIZE
  edge [fontname="Helvetica",fontsize="10",labelfontname="Helvetica",labelfontsize="10"];
  node [fontname="Helvetica",fontsize="10",shape=record];
  Node1 [label="{pip._vendor.pkg_resources.\lEggProvider\n|+ egg_name\l+ egg_info\l+ egg_root\l|+ __init__()\l- _setup_prefix()\l}",height=0.2,width=0.4,color="black", fillcolor="grey75", style="filled", fontcolor="black",tooltip=" "];
  Node2 -> Node1 [dir="back",color="midnightblue",fontsize="10",style="solid",arrowtail="onormal"];
  Node2 [label="{pip._vendor.pkg_resources.\lNullProvider\n|+ module_path\l+ egg_name\l+ egg_info\l+ loader\l|+ __init__()\l+ get_resource_filename()\l+ get_resource_stream()\l+ get_resource_string()\l+ has_resource()\l+ has_metadata()\l+ get_metadata()\l+ get_metadata_lines()\l+ resource_isdir()\l+ metadata_isdir()\l+ resource_listdir()\l+ metadata_listdir()\l+ run_script()\l- _get_metadata_path()\l- _has()\l- _isdir()\l- _listdir()\l- _fn()\l- _get()\l- _validate_resource_path()\l}",height=0.2,width=0.4,color="black", fillcolor="white", style="filled",URL="$dd/dc4/classpip_1_1__vendor_1_1pkg__resources_1_1_null_provider.html",tooltip=" "];
}
