digraph "pip._vendor.distlib.resources.Resource.bytes"
{
 // LATEX_PDF_SIZE
  edge [fontname="Helvetica",fontsize="10",labelfontname="Helvetica",labelfontsize="10"];
  node [fontname="Helvetica",fontsize="10",shape=record];
  rankdir="RL";
  Node1 [label="pip._vendor.distlib.resources.\lResource.bytes",height=0.2,width=0.4,color="black", fillcolor="grey75", style="filled", fontcolor="black",tooltip=" "];
  Node1 -> Node2 [dir="back",color="midnightblue",fontsize="10",style="solid"];
  Node2 [label="pip._vendor.msgpack.fallback.\lPacker.getbuffer",height=0.2,width=0.4,color="black", fillcolor="white", style="filled",URL="$d8/da6/classpip_1_1__vendor_1_1msgpack_1_1fallback_1_1_packer.html#a92863e8de2789cdfbc5a9b84b9f55ed3",tooltip=" "];
}
