digraph "pip._vendor.pyparsing.ParseElementEnhance"
{
 // LATEX_PDF_SIZE
  edge [fontname="Helvetica",fontsize="10",labelfontname="Helvetica",labelfontsize="10"];
  node [fontname="Helvetica",fontsize="10",shape=record];
  Node1 [label="{pip._vendor.pyparsing.Parse\lElementEnhance\n|+ expr\l+ strRepr\l+ mayIndexError\l+ mayReturnEmpty\l+ skipWhitespace\l+ saveAsList\l+ callPreparse\l|+ __init__()\l+ parseImpl()\l+ leaveWhitespace()\l+ ignore()\l+ streamline()\l+ checkRecursion()\l+ validate()\l+ __str__()\l}",height=0.2,width=0.4,color="black", fillcolor="grey75", style="filled", fontcolor="black",tooltip=" "];
  Node2 -> Node1 [dir="back",color="midnightblue",fontsize="10",style="solid",arrowtail="onormal",fontname="Helvetica"];
  Node2 [label="{pip._vendor.pyparsing.Parser\lElement\n|+ parseAction\l+ failAction\l+ strRepr\l+ resultsName\l+ saveAsList\l+ skipWhitespace\l+ whiteChars\l+ copyDefaultWhiteChars\l+ mayReturnEmpty\l+ keepTabs\land 11 more...\l+ DEFAULT_WHITE_CHARS\l+ verbose_stacktrace\l+ packrat_cache\l+ packrat_cache_lock\l+ packrat_cache_stats\l- _parse\l- _parse\l- _packratEnabled\l|+ __init__()\l+ copy()\l+ setName()\l+ setResultsName()\l+ setBreak()\l+ setParseAction()\l+ addParseAction()\l+ addCondition()\l+ setFailAction()\l+ preParse()\land 45 more...\l+ setDefaultWhitespaceChars()\l+ inlineLiteralsUsing()\l+ resetCache()\l+ enablePackrat()\l- _trim_traceback()\l- _setResultsName()\l- _skipIgnorables()\l- _parseNoCache()\l- _parseCache()\l}",height=0.2,width=0.4,color="black", fillcolor="white", style="filled",URL="$df/d7f/classpip_1_1__vendor_1_1pyparsing_1_1_parser_element.html",tooltip=" "];
  Node3 -> Node2 [dir="back",color="midnightblue",fontsize="10",style="solid",arrowtail="onormal",fontname="Helvetica"];
  Node3 [label="{object\n||}",height=0.2,width=0.4,color="grey75", fillcolor="white", style="filled",tooltip=" "];
  Node1 -> Node4 [dir="back",color="midnightblue",fontsize="10",style="solid",arrowtail="onormal",fontname="Helvetica"];
  Node4 [label="{pip._vendor.pyparsing.\l_MultipleMatch\n|+ saveAsList\l+ not_ender\l|+ __init__()\l+ stopOn()\l+ parseImpl()\l- _setResultsName()\l}",height=0.2,width=0.4,color="black", fillcolor="white", style="filled",URL="$d8/df0/classpip_1_1__vendor_1_1pyparsing_1_1___multiple_match.html",tooltip=" "];
  Node4 -> Node5 [dir="back",color="midnightblue",fontsize="10",style="solid",arrowtail="onormal",fontname="Helvetica"];
  Node5 [label="{pip._vendor.pyparsing.One\lOrMore\n|+ strRepr\l|+ __str__()\l}",height=0.2,width=0.4,color="black", fillcolor="white", style="filled",URL="$dc/de5/classpip_1_1__vendor_1_1pyparsing_1_1_one_or_more.html",tooltip=" "];
  Node4 -> Node6 [dir="back",color="midnightblue",fontsize="10",style="solid",arrowtail="onormal",fontname="Helvetica"];
  Node6 [label="{pip._vendor.pyparsing.Zero\lOrMore\n|+ mayReturnEmpty\l+ strRepr\l|+ __init__()\l+ parseImpl()\l+ __str__()\l}",height=0.2,width=0.4,color="black", fillcolor="white", style="filled",URL="$db/d6c/classpip_1_1__vendor_1_1pyparsing_1_1_zero_or_more.html",tooltip=" "];
  Node1 -> Node7 [dir="back",color="midnightblue",fontsize="10",style="solid",arrowtail="onormal",fontname="Helvetica"];
  Node7 [label="{pip._vendor.pyparsing.FollowedBy\n|+ mayReturnEmpty\l|+ __init__()\l+ parseImpl()\l}",height=0.2,width=0.4,color="black", fillcolor="white", style="filled",URL="$da/d59/classpip_1_1__vendor_1_1pyparsing_1_1_followed_by.html",tooltip=" "];
  Node1 -> Node8 [dir="back",color="midnightblue",fontsize="10",style="solid",arrowtail="onormal",fontname="Helvetica"];
  Node8 [label="{pip._vendor.pyparsing.Forward\n|+ expr\l+ strRepr\l+ mayIndexError\l+ mayReturnEmpty\l+ skipWhitespace\l+ saveAsList\l+ streamlined\l|+ __init__()\l+ __lshift__()\l+ __ilshift__()\l+ leaveWhitespace()\l+ streamline()\l+ validate()\l+ __str__()\l+ copy()\l- _setResultsName()\l}",height=0.2,width=0.4,color="black", fillcolor="white", style="filled",URL="$de/dd9/classpip_1_1__vendor_1_1pyparsing_1_1_forward.html",tooltip=" "];
  Node1 -> Node9 [dir="back",color="midnightblue",fontsize="10",style="solid",arrowtail="onormal",fontname="Helvetica"];
  Node9 [label="{pip._vendor.pyparsing.NotAny\n|+ skipWhitespace\l+ mayReturnEmpty\l+ errmsg\l+ strRepr\l|+ __init__()\l+ parseImpl()\l+ __str__()\l}",height=0.2,width=0.4,color="black", fillcolor="white", style="filled",URL="$d0/d27/classpip_1_1__vendor_1_1pyparsing_1_1_not_any.html",tooltip=" "];
  Node1 -> Node10 [dir="back",color="midnightblue",fontsize="10",style="solid",arrowtail="onormal",fontname="Helvetica"];
  Node10 [label="{pip._vendor.pyparsing.Optional\n|+ saveAsList\l+ defaultValue\l+ mayReturnEmpty\l+ strRepr\l- __optionalNotMatched\l|+ __init__()\l+ parseImpl()\l+ __str__()\l}",height=0.2,width=0.4,color="black", fillcolor="white", style="filled",URL="$de/d9c/classpip_1_1__vendor_1_1pyparsing_1_1_optional.html",tooltip=" "];
  Node1 -> Node11 [dir="back",color="midnightblue",fontsize="10",style="solid",arrowtail="onormal",fontname="Helvetica"];
  Node11 [label="{pip._vendor.pyparsing.PrecededBy\n|+ expr\l+ mayReturnEmpty\l+ mayIndexError\l+ exact\l+ retreat\l+ errmsg\l+ skipWhitespace\l|+ __init__()\l+ parseImpl()\l}",height=0.2,width=0.4,color="black", fillcolor="white", style="filled",URL="$d7/d79/classpip_1_1__vendor_1_1pyparsing_1_1_preceded_by.html",tooltip=" "];
  Node1 -> Node12 [dir="back",color="midnightblue",fontsize="10",style="solid",arrowtail="onormal",fontname="Helvetica"];
  Node12 [label="{pip._vendor.pyparsing.SkipTo\n|+ ignoreExpr\l+ mayReturnEmpty\l+ mayIndexError\l+ includeMatch\l+ saveAsList\l+ failOn\l+ errmsg\l|+ __init__()\l+ parseImpl()\l}",height=0.2,width=0.4,color="black", fillcolor="white", style="filled",URL="$d9/db6/classpip_1_1__vendor_1_1pyparsing_1_1_skip_to.html",tooltip=" "];
  Node1 -> Node13 [dir="back",color="midnightblue",fontsize="10",style="solid",arrowtail="onormal",fontname="Helvetica"];
  Node13 [label="{pip._vendor.pyparsing.Token\lConverter\n|+ saveAsList\l|+ __init__()\l}",height=0.2,width=0.4,color="black", fillcolor="white", style="filled",URL="$d4/d00/classpip_1_1__vendor_1_1pyparsing_1_1_token_converter.html",tooltip=" "];
  Node13 -> Node14 [dir="back",color="midnightblue",fontsize="10",style="solid",arrowtail="onormal",fontname="Helvetica"];
  Node14 [label="{pip._vendor.pyparsing.Combine\n|+ adjacent\l+ skipWhitespace\l+ joinString\l+ callPreparse\l|+ __init__()\l+ ignore()\l+ postParse()\l}",height=0.2,width=0.4,color="black", fillcolor="white", style="filled",URL="$da/d73/classpip_1_1__vendor_1_1pyparsing_1_1_combine.html",tooltip=" "];
  Node13 -> Node15 [dir="back",color="midnightblue",fontsize="10",style="solid",arrowtail="onormal",fontname="Helvetica"];
  Node15 [label="{pip._vendor.pyparsing.Dict\n|+ saveAsList\l|+ __init__()\l+ postParse()\l}",height=0.2,width=0.4,color="black", fillcolor="white", style="filled",URL="$d4/d79/classpip_1_1__vendor_1_1pyparsing_1_1_dict.html",tooltip=" "];
  Node13 -> Node16 [dir="back",color="midnightblue",fontsize="10",style="solid",arrowtail="onormal",fontname="Helvetica"];
  Node16 [label="{pip._vendor.pyparsing.Group\n|+ saveAsList\l|+ __init__()\l+ postParse()\l}",height=0.2,width=0.4,color="black", fillcolor="white", style="filled",URL="$d3/d51/classpip_1_1__vendor_1_1pyparsing_1_1_group.html",tooltip=" "];
  Node13 -> Node17 [dir="back",color="midnightblue",fontsize="10",style="solid",arrowtail="onormal",fontname="Helvetica"];
  Node17 [label="{pip._vendor.pyparsing.Suppress\n||+ postParse()\l+ suppress()\l}",height=0.2,width=0.4,color="black", fillcolor="white", style="filled",URL="$d8/d0e/classpip_1_1__vendor_1_1pyparsing_1_1_suppress.html",tooltip=" "];
}
