digraph "pip._internal.configuration.Configuration._normalized_keys"
{
 // LATEX_PDF_SIZE
  edge [fontname="Helvetica",fontsize="10",labelfontname="Helvetica",labelfontsize="10"];
  node [fontname="Helvetica",fontsize="10",shape=record];
  rankdir="LR";
  Node1 [label="pip._internal.configuration.\lConfiguration._normalized_keys",height=0.2,width=0.4,color="black", fillcolor="grey75", style="filled", fontcolor="black",tooltip=" "];
  Node1 -> Node2 [color="midnightblue",fontsize="10",style="solid"];
  Node2 [label="pip._internal.configuration.\l_normalize_name",height=0.2,width=0.4,color="black", fillcolor="white", style="filled",URL="$d7/dd5/namespacepip_1_1__internal_1_1configuration.html#ae54d152bd70c9556efaee26fc59f9da0",tooltip=" "];
}
