digraph "pip._internal.configuration.Configuration._normalized_keys"
{
 // LATEX_PDF_SIZE
  edge [fontname="Helvetica",fontsize="10",labelfontname="Helvetica",labelfontsize="10"];
  node [fontname="Helvetica",fontsize="10",shape=record];
  rankdir="RL";
  Node1 [label="pip._internal.configuration.\lConfiguration._normalized_keys",height=0.2,width=0.4,color="black", fillcolor="grey75", style="filled", fontcolor="black",tooltip=" "];
  Node1 -> Node2 [dir="back",color="midnightblue",fontsize="10",style="solid"];
  Node2 [label="pip._internal.configuration.\lConfiguration._load_environment_vars",height=0.2,width=0.4,color="black", fillcolor="white", style="filled",URL="$dc/da9/classpip_1_1__internal_1_1configuration_1_1_configuration.html#ab0aa575dbccd6583c0b3738268444306",tooltip=" "];
  Node2 -> Node3 [dir="back",color="midnightblue",fontsize="10",style="solid"];
  Node3 [label="pip._internal.configuration.\lConfiguration.load",height=0.2,width=0.4,color="black", fillcolor="white", style="filled",URL="$dc/da9/classpip_1_1__internal_1_1configuration_1_1_configuration.html#a3573a999426cabbc3e8dbc2424943d5c",tooltip=" "];
  Node1 -> Node4 [dir="back",color="midnightblue",fontsize="10",style="solid"];
  Node4 [label="pip._internal.configuration.\lConfiguration._load_file",height=0.2,width=0.4,color="black", fillcolor="white", style="filled",URL="$dc/da9/classpip_1_1__internal_1_1configuration_1_1_configuration.html#abc9cae599dd463b83d6a79bacbbd5ca5",tooltip=" "];
  Node4 -> Node5 [dir="back",color="midnightblue",fontsize="10",style="solid"];
  Node5 [label="pip._internal.configuration.\lConfiguration._load_config_files",height=0.2,width=0.4,color="black", fillcolor="white", style="filled",URL="$dc/da9/classpip_1_1__internal_1_1configuration_1_1_configuration.html#ac892483b1402afa7acf43f267edcaa4a",tooltip=" "];
  Node5 -> Node3 [dir="back",color="midnightblue",fontsize="10",style="solid"];
}
