digraph "pip._internal.configuration.Configuration._load_environment_vars"
{
 // LATEX_PDF_SIZE
  edge [fontname="Helvetica",fontsize="10",labelfontname="Helvetica",labelfontsize="10"];
  node [fontname="Helvetica",fontsize="10",shape=record];
  rankdir="LR";
  Node1 [label="pip._internal.configuration.\lConfiguration._load_environment_vars",height=0.2,width=0.4,color="black", fillcolor="grey75", style="filled", fontcolor="black",tooltip=" "];
  Node1 -> Node2 [color="midnightblue",fontsize="10",style="solid"];
  Node2 [label="pip._internal.configuration.\lConfiguration._normalized_keys",height=0.2,width=0.4,color="black", fillcolor="white", style="filled",URL="$dc/da9/classpip_1_1__internal_1_1configuration_1_1_configuration.html#ac8377e3e87f367deab1745d6fc014009",tooltip=" "];
  Node2 -> Node3 [color="midnightblue",fontsize="10",style="solid"];
  Node3 [label="pip._internal.configuration.\l_normalize_name",height=0.2,width=0.4,color="black", fillcolor="white", style="filled",URL="$d7/dd5/namespacepip_1_1__internal_1_1configuration.html#ae54d152bd70c9556efaee26fc59f9da0",tooltip=" "];
  Node1 -> Node4 [color="midnightblue",fontsize="10",style="solid"];
  Node4 [label="pip._internal.configuration.\lConfiguration.get_environ_vars",height=0.2,width=0.4,color="black", fillcolor="white", style="filled",URL="$dc/da9/classpip_1_1__internal_1_1configuration_1_1_configuration.html#a0fd53cdc1576075bf88eed44d3cacac8",tooltip=" "];
}
