digraph "pip._vendor.cachecontrol.adapter.CacheControlAdapter.build_response"
{
 // LATEX_PDF_SIZE
  edge [fontname="Helvetica",fontsize="10",labelfontname="Helvetica",labelfontsize="10"];
  node [fontname="Helvetica",fontsize="10",shape=record];
  rankdir="RL";
  Node1 [label="pip._vendor.cachecontrol.adapter.\lCacheControlAdapter.build_response",height=0.2,width=0.4,color="black", fillcolor="grey75", style="filled", fontcolor="black",tooltip=" "];
  Node1 -> Node2 [dir="back",color="midnightblue",fontsize="10",style="solid",fontname="Helvetica"];
  Node2 [label="pip._vendor.cachecontrol.adapter.\lCacheControlAdapter.send",height=0.2,width=0.4,color="black", fillcolor="white", style="filled",URL="$d6/def/classpip_1_1__vendor_1_1cachecontrol_1_1adapter_1_1_cache_control_adapter.html#abddb11a29bd96615d01a19259912ef5d",tooltip=" "];
  Node2 -> Node3 [dir="back",color="midnightblue",fontsize="10",style="solid",fontname="Helvetica"];
  Node3 [label="pip._vendor.requests.sessions.\lSession.request",height=0.2,width=0.4,color="black", fillcolor="white", style="filled",URL="$da/de9/classpip_1_1__vendor_1_1requests_1_1sessions_1_1_session.html#a718b60e99280c6ef1a346cb6dc0a90c8",tooltip=" "];
  Node3 -> Node4 [dir="back",color="midnightblue",fontsize="10",style="solid",fontname="Helvetica"];
  Node4 [label="pip._vendor.requests.sessions.\lSession.delete",height=0.2,width=0.4,color="black", fillcolor="white", style="filled",URL="$da/de9/classpip_1_1__vendor_1_1requests_1_1sessions_1_1_session.html#a10a0d9552a108655ec064bd587678247",tooltip=" "];
  Node3 -> Node5 [dir="back",color="midnightblue",fontsize="10",style="solid",fontname="Helvetica"];
  Node5 [label="pip._vendor.requests.sessions.\lSession.get",height=0.2,width=0.4,color="black", fillcolor="white", style="filled",URL="$da/de9/classpip_1_1__vendor_1_1requests_1_1sessions_1_1_session.html#a637a2a933183e90943aabeab91d0e475",tooltip=" "];
  Node5 -> Node6 [dir="back",color="midnightblue",fontsize="10",style="solid",fontname="Helvetica"];
  Node6 [label="setuptools.package\l_index.PyPIConfig._get\l_repo_cred",height=0.2,width=0.4,color="black", fillcolor="white", style="filled",URL="$d3/d47/classsetuptools_1_1package__index_1_1_py_p_i_config.html#a8560244cd85a884510096d2b673838a9",tooltip=" "];
  Node6 -> Node7 [dir="back",color="midnightblue",fontsize="10",style="solid",fontname="Helvetica"];
  Node7 [label="setuptools.package\l_index.PyPIConfig.creds\l_by_repository",height=0.2,width=0.4,color="black", fillcolor="white", style="filled",URL="$d3/d47/classsetuptools_1_1package__index_1_1_py_p_i_config.html#adc322072461ff5f3499d6187040ebc91",tooltip=" "];
  Node7 -> Node8 [dir="back",color="midnightblue",fontsize="10",style="solid",fontname="Helvetica"];
  Node8 [label="setuptools.package\l_index.PyPIConfig.find\l_credential",height=0.2,width=0.4,color="black", fillcolor="white", style="filled",URL="$d3/d47/classsetuptools_1_1package__index_1_1_py_p_i_config.html#a591eed255577ae924d683a1cdfc6cbbd",tooltip=" "];
  Node5 -> Node7 [dir="back",color="midnightblue",fontsize="10",style="solid",fontname="Helvetica"];
  Node5 -> Node9 [dir="back",color="midnightblue",fontsize="10",style="solid",fontname="Helvetica"];
  Node9 [label="pip._vendor.pkg_resources.\l_ReqExtras.markers_pass",height=0.2,width=0.4,color="black", fillcolor="white", style="filled",URL="$d9/dd5/classpip_1_1__vendor_1_1pkg__resources_1_1___req_extras.html#a1b0256ec9bc9da2aac912b35898fda5f",tooltip=" "];
  Node5 -> Node10 [dir="back",color="midnightblue",fontsize="10",style="solid",fontname="Helvetica"];
  Node10 [label="pkg_resources._ReqExtras.markers_pass",height=0.2,width=0.4,color="black", fillcolor="white", style="filled",URL="$d9/d9f/classpkg__resources_1_1___req_extras.html#a435242531f1af2132de48679c5edf3c7",tooltip=" "];
  Node3 -> Node11 [dir="back",color="midnightblue",fontsize="10",style="solid",fontname="Helvetica"];
  Node11 [label="pip._vendor.requests.sessions.\lSession.head",height=0.2,width=0.4,color="black", fillcolor="white", style="filled",URL="$da/de9/classpip_1_1__vendor_1_1requests_1_1sessions_1_1_session.html#a0b4eedeb465ba385aa984ac58617dd79",tooltip=" "];
  Node11 -> Node12 [dir="back",color="midnightblue",fontsize="10",style="solid",fontname="Helvetica"];
  Node12 [label="pip._internal.exceptions.\lHashErrors.__str__",height=0.2,width=0.4,color="black", fillcolor="white", style="filled",URL="$da/d1a/classpip_1_1__internal_1_1exceptions_1_1_hash_errors.html#a1f0df3404102191fd54a5a1cee1445f4",tooltip=" "];
  Node3 -> Node13 [dir="back",color="midnightblue",fontsize="10",style="solid",fontname="Helvetica"];
  Node13 [label="pip._vendor.requests.sessions.\lSession.options",height=0.2,width=0.4,color="black", fillcolor="white", style="filled",URL="$da/de9/classpip_1_1__vendor_1_1requests_1_1sessions_1_1_session.html#a782817284df10ee3d0c9a656670017b6",tooltip=" "];
  Node3 -> Node14 [dir="back",color="midnightblue",fontsize="10",style="solid",fontname="Helvetica"];
  Node14 [label="pip._vendor.requests.sessions.\lSession.patch",height=0.2,width=0.4,color="black", fillcolor="white", style="filled",URL="$da/de9/classpip_1_1__vendor_1_1requests_1_1sessions_1_1_session.html#a30572ac06f35dd3711887d17f3ecc709",tooltip=" "];
  Node3 -> Node15 [dir="back",color="midnightblue",fontsize="10",style="solid",fontname="Helvetica"];
  Node15 [label="pip._vendor.requests.sessions.\lSession.post",height=0.2,width=0.4,color="black", fillcolor="white", style="filled",URL="$da/de9/classpip_1_1__vendor_1_1requests_1_1sessions_1_1_session.html#a5e106cded162e6aa992e012347ac066f",tooltip=" "];
  Node15 -> Node16 [dir="back",color="midnightblue",fontsize="10",style="solid",fontname="Helvetica"];
  Node16 [label="pkg_resources._vendor.packaging.version.\lVersion.__str__",height=0.2,width=0.4,color="black", fillcolor="white", style="filled",URL="$d9/da7/classpkg__resources_1_1__vendor_1_1packaging_1_1version_1_1_version.html#a9a90e18e451e2e46f4cecb59e159d3d7",tooltip=" "];
  Node15 -> Node17 [dir="back",color="midnightblue",fontsize="10",style="solid",fontname="Helvetica"];
  Node17 [label="setuptools._vendor.packaging.version.\lVersion.__str__",height=0.2,width=0.4,color="black", fillcolor="white", style="filled",URL="$da/de8/classsetuptools_1_1__vendor_1_1packaging_1_1version_1_1_version.html#ad7799d4b1432a9a0ec3f8569b61e94a1",tooltip=" "];
  Node15 -> Node18 [dir="back",color="midnightblue",fontsize="10",style="solid",fontname="Helvetica"];
  Node18 [label="pkg_resources._vendor.packaging.version.\lVersion.is_postrelease",height=0.2,width=0.4,color="black", fillcolor="white", style="filled",URL="$d9/da7/classpkg__resources_1_1__vendor_1_1packaging_1_1version_1_1_version.html#af9bfffa937f9cf6206e4bd6c183bbb2d",tooltip=" "];
  Node15 -> Node19 [dir="back",color="midnightblue",fontsize="10",style="solid",fontname="Helvetica"];
  Node19 [label="setuptools._vendor.packaging.version.\lVersion.is_postrelease",height=0.2,width=0.4,color="black", fillcolor="white", style="filled",URL="$da/de8/classsetuptools_1_1__vendor_1_1packaging_1_1version_1_1_version.html#a473df1b65542159470e42b342de3f123",tooltip=" "];
  Node3 -> Node20 [dir="back",color="midnightblue",fontsize="10",style="solid",fontname="Helvetica"];
  Node20 [label="pip._vendor.requests.sessions.\lSession.put",height=0.2,width=0.4,color="black", fillcolor="white", style="filled",URL="$da/de9/classpip_1_1__vendor_1_1requests_1_1sessions_1_1_session.html#a9ddc29cd786a7cf9c1e1e07b2d140adb",tooltip=" "];
  Node2 -> Node21 [dir="back",color="midnightblue",fontsize="10",style="solid",fontname="Helvetica"];
  Node21 [label="pip._vendor.urllib3.connection.\lHTTPConnection.request_chunked",height=0.2,width=0.4,color="black", fillcolor="white", style="filled",URL="$d2/d75/classpip_1_1__vendor_1_1urllib3_1_1connection_1_1_h_t_t_p_connection.html#ad0ce9861382a0268d64ee1d58d3d83c4",tooltip=" "];
  Node2 -> Node22 [dir="back",color="midnightblue",fontsize="10",style="solid",fontname="Helvetica"];
  Node22 [label="pip._vendor.requests.sessions.\lSessionRedirectMixin.resolve\l_redirects",height=0.2,width=0.4,color="black", fillcolor="white", style="filled",URL="$d3/def/classpip_1_1__vendor_1_1requests_1_1sessions_1_1_session_redirect_mixin.html#af9bcf31587685a33dbbb517f8e1b71b3",tooltip=" "];
  Node22 -> Node23 [dir="back",color="midnightblue",fontsize="10",style="solid",fontname="Helvetica"];
  Node23 [label="pip._vendor.requests.sessions.\lSession.send",height=0.2,width=0.4,color="black", fillcolor="white", style="filled",URL="$da/de9/classpip_1_1__vendor_1_1requests_1_1sessions_1_1_session.html#ae8fcb76dca3180b80dfd66c07587aeb2",tooltip=" "];
  Node23 -> Node3 [dir="back",color="midnightblue",fontsize="10",style="solid",fontname="Helvetica"];
  Node23 -> Node21 [dir="back",color="midnightblue",fontsize="10",style="solid",fontname="Helvetica"];
  Node23 -> Node22 [dir="back",color="midnightblue",fontsize="10",style="solid",fontname="Helvetica"];
  Node23 -> Node24 [dir="back",color="midnightblue",fontsize="10",style="solid",fontname="Helvetica"];
  Node24 [label="pip._vendor.urllib3.contrib.securetransport.\lWrappedSocket.sendall",height=0.2,width=0.4,color="black", fillcolor="white", style="filled",URL="$da/dfd/classpip_1_1__vendor_1_1urllib3_1_1contrib_1_1securetransport_1_1_wrapped_socket.html#ab9e8aadb499f4166567dbdb815e44f9f",tooltip=" "];
  Node2 -> Node24 [dir="back",color="midnightblue",fontsize="10",style="solid",fontname="Helvetica"];
  Node1 -> Node25 [dir="back",color="midnightblue",fontsize="10",style="solid",fontname="Helvetica"];
  Node25 [label="pip._vendor.requests.adapters.\lHTTPAdapter.send",height=0.2,width=0.4,color="black", fillcolor="white", style="filled",URL="$da/dd8/classpip_1_1__vendor_1_1requests_1_1adapters_1_1_h_t_t_p_adapter.html#a6b8cb9b4129cbc1c9aa685dc69f869a4",tooltip=" "];
  Node25 -> Node3 [dir="back",color="midnightblue",fontsize="10",style="solid",fontname="Helvetica"];
  Node25 -> Node21 [dir="back",color="midnightblue",fontsize="10",style="solid",fontname="Helvetica"];
  Node25 -> Node22 [dir="back",color="midnightblue",fontsize="10",style="solid",fontname="Helvetica"];
  Node25 -> Node24 [dir="back",color="midnightblue",fontsize="10",style="solid",fontname="Helvetica"];
}
