digraph "pip._vendor.distlib.util.read_exports"
{
 // LATEX_PDF_SIZE
  edge [fontname="Helvetica",fontsize="10",labelfontname="Helvetica",labelfontsize="10"];
  node [fontname="Helvetica",fontsize="10",shape=record];
  rankdir="RL";
  Node1 [label="pip._vendor.distlib.util.read\l_exports",height=0.2,width=0.4,color="black", fillcolor="grey75", style="filled", fontcolor="black",tooltip=" "];
  Node1 -> Node2 [dir="back",color="midnightblue",fontsize="10",style="solid",fontname="Helvetica"];
  Node2 [label="pip._vendor.distlib.wheel.\lWheel.install",height=0.2,width=0.4,color="black", fillcolor="white", style="filled",URL="$d1/d0b/classpip_1_1__vendor_1_1distlib_1_1wheel_1_1_wheel.html#ab1ff84ba7378dd67f5758510eda70b69",tooltip=" "];
  Node2 -> Node3 [dir="back",color="midnightblue",fontsize="10",style="solid",fontname="Helvetica"];
  Node3 [label="setuptools._distutils.command.install\l_lib.install_lib.run",height=0.2,width=0.4,color="black", fillcolor="white", style="filled",URL="$de/d3b/classsetuptools_1_1__distutils_1_1command_1_1install__lib_1_1install__lib.html#a1c0172f47a7203a3044af96bf632f80e",tooltip=" "];
  Node2 -> Node4 [dir="back",color="midnightblue",fontsize="10",style="solid",fontname="Helvetica"];
  Node4 [label="setuptools.command.install\l_lib.install_lib.run",height=0.2,width=0.4,color="black", fillcolor="white", style="filled",URL="$db/d8e/classsetuptools_1_1command_1_1install__lib_1_1install__lib.html#a72adda63714aa1fdf24bdf6e6a5ca9f3",tooltip=" "];
}
