digraph "pip._vendor.chardet.latin1prober.Latin1Prober.feed"
{
 // LATEX_PDF_SIZE
  edge [fontname="Helvetica",fontsize="10",labelfontname="Helvetica",labelfontsize="10"];
  node [fontname="Helvetica",fontsize="10",shape=record];
  rankdir="LR";
  Node1 [label="pip._vendor.chardet.latin1prober.\lLatin1Prober.feed",height=0.2,width=0.4,color="black", fillcolor="grey75", style="filled", fontcolor="black",tooltip=" "];
  Node1 -> Node2 [color="midnightblue",fontsize="10",style="solid",fontname="Helvetica"];
  Node2 [label="pip._vendor.chardet.charsetprober.\lCharSetProber.filter_with_english_letters",height=0.2,width=0.4,color="black", fillcolor="white", style="filled",URL="$da/d33/classpip_1_1__vendor_1_1chardet_1_1charsetprober_1_1_char_set_prober.html#a1b7cf5cf78aac1f4c22881131478b3b6",tooltip=" "];
}
