digraph "pip._internal.network.download._get_http_response_size"
{
 // LATEX_PDF_SIZE
  edge [fontname="Helvetica",fontsize="10",labelfontname="Helvetica",labelfontsize="10"];
  node [fontname="Helvetica",fontsize="10",shape=record];
  rankdir="RL";
  Node1 [label="pip._internal.network.download.\l_get_http_response_size",height=0.2,width=0.4,color="black", fillcolor="grey75", style="filled", fontcolor="black",tooltip=" "];
  Node1 -> Node2 [dir="back",color="midnightblue",fontsize="10",style="solid"];
  Node2 [label="pip._internal.network.download.\l_prepare_download",height=0.2,width=0.4,color="black", fillcolor="white", style="filled",URL="$d1/d20/namespacepip_1_1__internal_1_1network_1_1download.html#a4da9e1327bf105eee856417bcaf08af7",tooltip=" "];
  Node2 -> Node3 [dir="back",color="midnightblue",fontsize="10",style="solid"];
  Node3 [label="pip._internal.network.download.\lDownloader.__call__",height=0.2,width=0.4,color="black", fillcolor="white", style="filled",URL="$d5/d7f/classpip_1_1__internal_1_1network_1_1download_1_1_downloader.html#af64093575b0f0de5e41da199fe394c6c",tooltip=" "];
}
