digraph "pip._vendor.distlib._backport.tarfile._FileInFile.read"
{
 // LATEX_PDF_SIZE
  edge [fontname="Helvetica",fontsize="10",labelfontname="Helvetica",labelfontsize="10"];
  node [fontname="Helvetica",fontsize="10",shape=record];
  rankdir="LR";
  Node1 [label="pip._vendor.distlib.\l_backport.tarfile._FileInFile.read",height=0.2,width=0.4,color="black", fillcolor="grey75", style="filled", fontcolor="black",tooltip=" "];
  Node1 -> Node2 [color="midnightblue",fontsize="10",style="solid"];
  Node2 [label="pip._vendor.distlib.\l_backport.tarfile._FileInFile.seek",height=0.2,width=0.4,color="black", fillcolor="white", style="filled",URL="$d4/dc3/classpip_1_1__vendor_1_1distlib_1_1__backport_1_1tarfile_1_1___file_in_file.html#a441f0f70ba08106737e7fcc1cc0dfec4",tooltip=" "];
}
