digraph "pip._vendor.chardet.mbcharsetprober.MultiByteCharSetProber"
{
 // LATEX_PDF_SIZE
  edge [fontname="Helvetica",fontsize="10",labelfontname="Helvetica",labelfontsize="10"];
  node [fontname="Helvetica",fontsize="10",shape=record];
  Node1 [label="{pip._vendor.chardet.mbcharsetprober.\lMultiByteCharSetProber\n|+ distribution_analyzer\l+ coding_sm\l+ state\l- _last_char\l- _state\l|+ __init__()\l+ reset()\l+ charset_name()\l+ language()\l+ feed()\l+ get_confidence()\l}",height=0.2,width=0.4,color="black", fillcolor="grey75", style="filled", fontcolor="black",tooltip=" "];
  Node2 -> Node1 [dir="back",color="midnightblue",fontsize="10",style="solid",arrowtail="onormal",fontname="Helvetica"];
  Node2 [label="{pip._vendor.chardet.charsetprober.\lCharSetProber\n|+ lang_filter\l+ logger\l+ SHORTCUT_THRESHOLD\l- _state\l|+ __init__()\l+ reset()\l+ charset_name()\l+ feed()\l+ state()\l+ get_confidence()\l+ filter_high_byte_only()\l+ filter_international\l_words()\l+ filter_with_english\l_letters()\l}",height=0.2,width=0.4,color="black", fillcolor="white", style="filled",URL="$da/d33/classpip_1_1__vendor_1_1chardet_1_1charsetprober_1_1_char_set_prober.html",tooltip=" "];
  Node3 -> Node2 [dir="back",color="midnightblue",fontsize="10",style="solid",arrowtail="onormal",fontname="Helvetica"];
  Node3 [label="{object\n||}",height=0.2,width=0.4,color="grey75", fillcolor="white", style="filled",tooltip=" "];
}
