digraph "pip._vendor.ipaddress.summarize_address_range"
{
 // LATEX_PDF_SIZE
  edge [fontname="Helvetica",fontsize="10",labelfontname="Helvetica",labelfontsize="10"];
  node [fontname="Helvetica",fontsize="10",shape=record];
  rankdir="LR";
  Node1 [label="pip._vendor.ipaddress.summarize\l_address_range",height=0.2,width=0.4,color="black", fillcolor="grey75", style="filled", fontcolor="black",tooltip=" "];
  Node1 -> Node2 [color="midnightblue",fontsize="10",style="solid"];
  Node2 [label="pip._vendor.ipaddress.\l_compat_bit_length",height=0.2,width=0.4,color="black", fillcolor="white", style="filled",URL="$dd/d25/namespacepip_1_1__vendor_1_1ipaddress.html#ae976e77162777f6b75d1e89690e16115",tooltip=" "];
  Node1 -> Node3 [color="midnightblue",fontsize="10",style="solid"];
  Node3 [label="pip._vendor.ipaddress.\l_count_righthand_zero_bits",height=0.2,width=0.4,color="black", fillcolor="white", style="filled",URL="$dd/d25/namespacepip_1_1__vendor_1_1ipaddress.html#ad7683e49eec39d432c537ed50164ad7e",tooltip=" "];
  Node3 -> Node2 [color="midnightblue",fontsize="10",style="solid"];
}
