digraph "pip._vendor.distlib._backport.tarfile.TarFile"
{
 // LATEX_PDF_SIZE
  edge [fontname="Helvetica",fontsize="10",labelfontname="Helvetica",labelfontsize="10"];
  node [fontname="Helvetica",fontsize="10",shape=record];
  Node1 [label="{pip._vendor.distlib.\l_backport.tarfile.TarFile\n|+ mode\l+ name\l+ fileobj\l+ dereference\l+ ignore_zeros\l+ pax_headers\l+ debug\l+ errorlevel\l+ closed\l+ members\l+ offset\l+ inodes\l+ firstmember\l+ debug\l+ dereference\l+ ignore_zeros\l+ errorlevel\l+ format\l+ encoding\l+ errors\l+ tarinfo\l+ fileobject\l+ OPEN_METH\l- _mode\l- _extfileobj\l- _loaded\l|+ __init__()\l+ open()\l+ taropen()\l+ gzopen()\l+ bz2open()\l+ close()\l+ getmember()\l+ getmembers()\l+ getnames()\l+ gettarinfo()\land 19 more...\l- _extract_member()\l- _getmember()\l- _load()\l- _check()\l- _find_link_target()\l- _dbg()\l}",height=0.2,width=0.4,color="black", fillcolor="grey75", style="filled", fontcolor="black",tooltip=" "];
  Node2 -> Node1 [dir="back",color="midnightblue",fontsize="10",style="solid",arrowtail="onormal"];
  Node2 [label="{object\n||}",height=0.2,width=0.4,color="grey75", fillcolor="white", style="filled",tooltip=" "];
}
