digraph "pip._internal.req.req_install.InstallRequirement.ensure_build_location"
{
 // LATEX_PDF_SIZE
  edge [fontname="Helvetica",fontsize="10",labelfontname="Helvetica",labelfontsize="10"];
  node [fontname="Helvetica",fontsize="10",shape=record];
  rankdir="RL";
  Node1 [label="pip._internal.req.req\l_install.InstallRequirement.ensure\l_build_location",height=0.2,width=0.4,color="black", fillcolor="grey75", style="filled", fontcolor="black",tooltip=" "];
  Node1 -> Node2 [dir="back",color="midnightblue",fontsize="10",style="solid"];
  Node2 [label="pip._internal.req.req\l_install.InstallRequirement.ensure\l_has_source_dir",height=0.2,width=0.4,color="black", fillcolor="white", style="filled",URL="$d2/daa/classpip_1_1__internal_1_1req_1_1req__install_1_1_install_requirement.html#aa0a0b073674a8f2abe57daf4c673b2eb",tooltip=" "];
}
