digraph "pip._internal.utils.compatibility_tags.version_info_to_nodot"
{
 // LATEX_PDF_SIZE
  edge [fontname="Helvetica",fontsize="10",labelfontname="Helvetica",labelfontsize="10"];
  node [fontname="Helvetica",fontsize="10",shape=record];
  rankdir="RL";
  Node1 [label="pip._internal.utils.compatibility\l_tags.version_info_to_nodot",height=0.2,width=0.4,color="black", fillcolor="grey75", style="filled", fontcolor="black",tooltip=" "];
  Node1 -> Node2 [dir="back",color="midnightblue",fontsize="10",style="solid",fontname="Helvetica"];
  Node2 [label="pip._internal.models.target\l_python.TargetPython.get_tags",height=0.2,width=0.4,color="black", fillcolor="white", style="filled",URL="$db/d1c/classpip_1_1__internal_1_1models_1_1target__python_1_1_target_python.html#a03f74edf70da08177b563c742106b510",tooltip=" "];
}
