digraph "pip._internal.cache.Cache._get_candidates"
{
 // LATEX_PDF_SIZE
  edge [fontname="Helvetica",fontsize="10",labelfontname="Helvetica",labelfontsize="10"];
  node [fontname="Helvetica",fontsize="10",shape=record];
  rankdir="LR";
  Node1 [label="pip._internal.cache.Cache.\l_get_candidates",height=0.2,width=0.4,color="black", fillcolor="grey75", style="filled", fontcolor="black",tooltip=" "];
  Node1 -> Node2 [color="midnightblue",fontsize="10",style="solid"];
  Node2 [label="pip._internal.cache.Cache.get\l_path_for_link",height=0.2,width=0.4,color="black", fillcolor="white", style="filled",URL="$de/d43/classpip_1_1__internal_1_1cache_1_1_cache.html#a95a2a7b3fd47f18987558738366660fe",tooltip=" "];
  Node1 -> Node3 [color="midnightblue",fontsize="10",style="solid"];
  Node3 [label="pip._internal.cache.Cache.get\l_path_for_link_legacy",height=0.2,width=0.4,color="black", fillcolor="white", style="filled",URL="$de/d43/classpip_1_1__internal_1_1cache_1_1_cache.html#a6509d1b073ff687b81369d58b52ea155",tooltip=" "];
}
