digraph "pip._vendor.contextlib2.ContextStack.register"
{
 // LATEX_PDF_SIZE
  edge [fontname="Helvetica",fontsize="10",labelfontname="Helvetica",labelfontsize="10"];
  node [fontname="Helvetica",fontsize="10",shape=record];
  rankdir="LR";
  Node1 [label="pip._vendor.contextlib2.\lContextStack.register",height=0.2,width=0.4,color="black", fillcolor="grey75", style="filled", fontcolor="black",tooltip=" "];
  Node1 -> Node2 [color="midnightblue",fontsize="10",style="solid"];
  Node2 [label="pip._vendor.contextlib2.\lExitStack.callback",height=0.2,width=0.4,color="black", fillcolor="white", style="filled",URL="$da/d9c/classpip_1_1__vendor_1_1contextlib2_1_1_exit_stack.html#a28eca500bcddd3e7d98c3ecc034519de",tooltip=" "];
  Node2 -> Node3 [color="midnightblue",fontsize="10",style="solid"];
  Node3 [label="pip._vendor.contextlib2.\lExitStack.push",height=0.2,width=0.4,color="black", fillcolor="white", style="filled",URL="$da/d9c/classpip_1_1__vendor_1_1contextlib2_1_1_exit_stack.html#a4fe1ed215c6a569798cf65a1e4c8d179",tooltip=" "];
  Node3 -> Node4 [color="midnightblue",fontsize="10",style="solid"];
  Node4 [label="pip._vendor.contextlib2.\lExitStack._push_cm_exit",height=0.2,width=0.4,color="black", fillcolor="white", style="filled",URL="$da/d9c/classpip_1_1__vendor_1_1contextlib2_1_1_exit_stack.html#acd00d6e9bd24e03a556cdf826cbafbbf",tooltip=" "];
  Node4 -> Node3 [color="midnightblue",fontsize="10",style="solid"];
}
