digraph "pip._internal.wheel_builder._clean_one_legacy"
{
 // LATEX_PDF_SIZE
  edge [fontname="Helvetica",fontsize="10",labelfontname="Helvetica",labelfontsize="10"];
  node [fontname="Helvetica",fontsize="10",shape=record];
  rankdir="RL";
  Node1 [label="pip._internal.wheel\l_builder._clean_one\l_legacy",height=0.2,width=0.4,color="black", fillcolor="grey75", style="filled", fontcolor="black",tooltip=" "];
  Node1 -> Node2 [dir="back",color="midnightblue",fontsize="10",style="solid",fontname="Helvetica"];
  Node2 [label="pip._internal.wheel\l_builder._build_one\l_inside_env",height=0.2,width=0.4,color="black", fillcolor="white", style="filled",URL="$d4/d97/namespacepip_1_1__internal_1_1wheel__builder.html#a3eb2f88abebca472ebac930b8b08a12e",tooltip=" "];
  Node2 -> Node3 [dir="back",color="midnightblue",fontsize="10",style="solid",fontname="Helvetica"];
  Node3 [label="pip._internal.wheel\l_builder._build_one",height=0.2,width=0.4,color="black", fillcolor="white", style="filled",URL="$d4/d97/namespacepip_1_1__internal_1_1wheel__builder.html#afa10f7ae8aca8f46c73b44cef86c7eba",tooltip=" "];
  Node3 -> Node4 [dir="back",color="midnightblue",fontsize="10",style="solid",fontname="Helvetica"];
  Node4 [label="pip._internal.wheel\l_builder.build",height=0.2,width=0.4,color="black", fillcolor="white", style="filled",URL="$d4/d97/namespacepip_1_1__internal_1_1wheel__builder.html#a2a9acda2a7731c259870b179e283caab",tooltip=" "];
  Node4 -> Node5 [dir="back",color="midnightblue",fontsize="10",style="solid",fontname="Helvetica"];
  Node5 [label="pip._vendor.msgpack.fallback.\lStringIO.getvalue",height=0.2,width=0.4,color="black", fillcolor="white", style="filled",URL="$db/d71/classpip_1_1__vendor_1_1msgpack_1_1fallback_1_1_string_i_o.html#a904a1d9be5e5f9dd28d5d856fe9d5142",tooltip=" "];
  Node4 -> Node6 [dir="back",color="midnightblue",fontsize="10",style="solid",fontname="Helvetica"];
  Node6 [label="pip._internal.commands.install.\lInstallCommand.run",height=0.2,width=0.4,color="black", fillcolor="white", style="filled",URL="$d2/dff/classpip_1_1__internal_1_1commands_1_1install_1_1_install_command.html#aed853149716837d308440b8e2405a75c",tooltip=" "];
  Node4 -> Node7 [dir="back",color="midnightblue",fontsize="10",style="solid",fontname="Helvetica"];
  Node7 [label="pip._internal.commands.wheel.\lWheelCommand.run",height=0.2,width=0.4,color="black", fillcolor="white", style="filled",URL="$d7/d9d/classpip_1_1__internal_1_1commands_1_1wheel_1_1_wheel_command.html#a4cb8665d201b720369f174eae955f875",tooltip=" "];
}
