digraph "pip._internal.resolution.resolvelib.candidates._InstallRequirementBackedCandidate._fetch_metadata"
{
 // LATEX_PDF_SIZE
  edge [fontname="Helvetica",fontsize="10",labelfontname="Helvetica",labelfontsize="10"];
  node [fontname="Helvetica",fontsize="10",shape=record];
  rankdir="LR";
  Node1 [label="pip._internal.resolution.resolvelib.candidates.\l_InstallRequirementBackedCandidate.\l_fetch_metadata",height=0.2,width=0.4,color="black", fillcolor="grey75", style="filled", fontcolor="black",tooltip=" "];
  Node1 -> Node2 [color="midnightblue",fontsize="10",style="solid"];
  Node2 [label="pip._internal.resolution.resolvelib.candidates.\l_InstallRequirementBackedCandidate.\l_check_metadata_consistency",height=0.2,width=0.4,color="black", fillcolor="white", style="filled",URL="$dc/d03/classpip_1_1__internal_1_1resolution_1_1resolvelib_1_1candidates_1_1___install_requirement_backed_candidate.html#a9788859d3e680a1f91399e237cfc4e0b",tooltip=" "];
  Node2 -> Node3 [color="midnightblue",fontsize="10",style="solid"];
  Node3 [label="pip._vendor.packaging.utils.canonicalize_name",height=0.2,width=0.4,color="black", fillcolor="white", style="filled",URL="$dc/da8/namespacepip_1_1__vendor_1_1packaging_1_1utils.html#af20daae928523ea0ae9d2c4215887232",tooltip=" "];
  Node3 -> Node4 [color="midnightblue",fontsize="10",style="solid"];
  Node4 [label="pip._internal.utils.typing.cast",height=0.2,width=0.4,color="black", fillcolor="white", style="filled",URL="$d9/d56/namespacepip_1_1__internal_1_1utils_1_1typing.html#ab37e3e9039b01929d8ac2bd74d7c37db",tooltip=" "];
  Node1 -> Node5 [color="midnightblue",fontsize="10",style="solid"];
  Node5 [label="pip._internal.resolution.resolvelib.candidates.\l_InstallRequirementBackedCandidate._prepare",height=0.2,width=0.4,color="black", fillcolor="white", style="filled",URL="$dc/d03/classpip_1_1__internal_1_1resolution_1_1resolvelib_1_1candidates_1_1___install_requirement_backed_candidate.html#a552452ed4b9faa6b400c9cd48b2e98bf",tooltip=" "];
  Node5 -> Node2 [color="midnightblue",fontsize="10",style="solid"];
  Node5 -> Node6 [color="midnightblue",fontsize="10",style="solid"];
  Node6 [label="pip._internal.resolution.resolvelib.candidates.\l_InstallRequirementBackedCandidate.\l_prepare_abstract_distribution",height=0.2,width=0.4,color="black", fillcolor="white", style="filled",URL="$dc/d03/classpip_1_1__internal_1_1resolution_1_1resolvelib_1_1candidates_1_1___install_requirement_backed_candidate.html#a710c5b62ed82fc1479504323da33bbd9",tooltip=" "];
  Node1 -> Node7 [color="midnightblue",fontsize="10",style="solid"];
  Node7 [label="pip._internal.network.lazy\l_wheel.dist_from_wheel_url",height=0.2,width=0.4,color="black", fillcolor="white", style="filled",URL="$d2/d8c/namespacepip_1_1__internal_1_1network_1_1lazy__wheel.html#a35a4bbb63205e75fdf71a52a2f0af374",tooltip=" "];
  Node1 -> Node8 [color="midnightblue",fontsize="10",style="solid"];
  Node8 [label="pip._internal.utils.logging.indent_log",height=0.2,width=0.4,color="black", fillcolor="white", style="filled",URL="$d2/d7f/namespacepip_1_1__internal_1_1utils_1_1logging.html#a085a5d65b0702800d0a9d48a0a4615a8",tooltip=" "];
  Node8 -> Node9 [color="midnightblue",fontsize="10",style="solid"];
  Node9 [label="pip._internal.utils.logging.get\l_indentation",height=0.2,width=0.4,color="black", fillcolor="white", style="filled",URL="$d2/d7f/namespacepip_1_1__internal_1_1utils_1_1logging.html#a44d946c100e5712775abb26dc67d1c51",tooltip=" "];
}
