digraph "pip._internal.operations.freeze.freeze"
{
 // LATEX_PDF_SIZE
  edge [fontname="Helvetica",fontsize="10",labelfontname="Helvetica",labelfontsize="10"];
  node [fontname="Helvetica",fontsize="10",shape=record];
  rankdir="LR";
  Node1 [label="pip._internal.operations.freeze.freeze",height=0.2,width=0.4,color="black", fillcolor="grey75", style="filled", fontcolor="black",tooltip=" "];
  Node1 -> Node2 [color="midnightblue",fontsize="10",style="solid"];
  Node2 [label="pip._vendor.packaging.utils.canonicalize_name",height=0.2,width=0.4,color="black", fillcolor="white", style="filled",URL="$dc/da8/namespacepip_1_1__vendor_1_1packaging_1_1utils.html#af20daae928523ea0ae9d2c4215887232",tooltip=" "];
  Node2 -> Node3 [color="midnightblue",fontsize="10",style="solid"];
  Node3 [label="pip._internal.utils.typing.cast",height=0.2,width=0.4,color="black", fillcolor="white", style="filled",URL="$d9/d56/namespacepip_1_1__internal_1_1utils_1_1typing.html#ab37e3e9039b01929d8ac2bd74d7c37db",tooltip=" "];
  Node1 -> Node4 [color="midnightblue",fontsize="10",style="solid"];
  Node4 [label="pip._internal.utils.misc.get\l_installed_distributions",height=0.2,width=0.4,color="black", fillcolor="white", style="filled",URL="$de/dc3/namespacepip_1_1__internal_1_1utils_1_1misc.html#a4c2dc9f6323695ffca115f2d1ed9c068",tooltip=" "];
  Node4 -> Node5 [color="midnightblue",fontsize="10",style="solid"];
  Node5 [label="pip._internal.utils.misc.dist\l_is_editable",height=0.2,width=0.4,color="black", fillcolor="white", style="filled",URL="$de/dc3/namespacepip_1_1__internal_1_1utils_1_1misc.html#a9abdfe6fcceccee8a7c651f6c9014a87",tooltip=" "];
  Node1 -> Node6 [color="midnightblue",fontsize="10",style="solid"];
  Node6 [label="pip._internal.req.constructors.install\l_req_from_editable",height=0.2,width=0.4,color="black", fillcolor="white", style="filled",URL="$df/dd2/namespacepip_1_1__internal_1_1req_1_1constructors.html#a6ef0babd0219317e92de885ca7e37489",tooltip=" "];
  Node6 -> Node7 [color="midnightblue",fontsize="10",style="solid"];
  Node7 [label="pip._internal.req.constructors.parse\l_req_from_editable",height=0.2,width=0.4,color="black", fillcolor="white", style="filled",URL="$df/dd2/namespacepip_1_1__internal_1_1req_1_1constructors.html#ad1f17d71e7bf4a4f3e7e1f9219e92654",tooltip=" "];
  Node7 -> Node8 [color="midnightblue",fontsize="10",style="solid"];
  Node8 [label="pip._internal.req.constructors.parse\l_editable",height=0.2,width=0.4,color="black", fillcolor="white", style="filled",URL="$df/dd2/namespacepip_1_1__internal_1_1req_1_1constructors.html#ac2c68d670442590283ec2d86c1d13dd4",tooltip=" "];
  Node8 -> Node9 [color="midnightblue",fontsize="10",style="solid"];
  Node9 [label="pip._internal.req.constructors.\l_strip_extras",height=0.2,width=0.4,color="black", fillcolor="white", style="filled",URL="$df/dd2/namespacepip_1_1__internal_1_1req_1_1constructors.html#ac966ea668059516ba80fe95838e1d2ec",tooltip=" "];
  Node8 -> Node10 [color="midnightblue",fontsize="10",style="solid"];
  Node10 [label="pip._internal.pyproject.make\l_pyproject_path",height=0.2,width=0.4,color="black", fillcolor="white", style="filled",URL="$d9/d29/namespacepip_1_1__internal_1_1pyproject.html#aa0250284deda8acb0915feb29cbf0fc9",tooltip=" "];
  Node8 -> Node11 [color="midnightblue",fontsize="10",style="solid"];
  Node11 [label="pip._internal.utils.urls.path\l_to_url",height=0.2,width=0.4,color="black", fillcolor="white", style="filled",URL="$d7/d48/namespacepip_1_1__internal_1_1utils_1_1urls.html#a789117f8d3114e952ead88416e5493d9",tooltip=" "];
  Node1 -> Node12 [color="midnightblue",fontsize="10",style="solid"];
  Node12 [label="pip._internal.req.constructors.install\l_req_from_line",height=0.2,width=0.4,color="black", fillcolor="white", style="filled",URL="$df/dd2/namespacepip_1_1__internal_1_1req_1_1constructors.html#a627ed3c7246a72ae1e9c5aa38120a497",tooltip=" "];
  Node12 -> Node13 [color="midnightblue",fontsize="10",style="solid"];
  Node13 [label="pip._internal.req.constructors.parse\l_req_from_line",height=0.2,width=0.4,color="black", fillcolor="white", style="filled",URL="$df/dd2/namespacepip_1_1__internal_1_1req_1_1constructors.html#acfb2162125bb400c1b7d8a9abbe1771d",tooltip=" "];
  Node13 -> Node14 [color="midnightblue",fontsize="10",style="solid"];
  Node14 [label="pip._internal.req.constructors.\l_get_url_from_path",height=0.2,width=0.4,color="black", fillcolor="white", style="filled",URL="$df/dd2/namespacepip_1_1__internal_1_1req_1_1constructors.html#a7c6b770e45fa26d341bb67477c1ffe36",tooltip=" "];
  Node14 -> Node15 [color="midnightblue",fontsize="10",style="solid"];
  Node15 [label="pip._internal.req.constructors.\l_looks_like_path",height=0.2,width=0.4,color="black", fillcolor="white", style="filled",URL="$df/dd2/namespacepip_1_1__internal_1_1req_1_1constructors.html#a95ce5b118c03d61ee7f4482ce9db3415",tooltip=" "];
  Node14 -> Node16 [color="midnightblue",fontsize="10",style="solid"];
  Node16 [label="pip._internal.req.constructors.is\l_archive_file",height=0.2,width=0.4,color="black", fillcolor="white", style="filled",URL="$df/dd2/namespacepip_1_1__internal_1_1req_1_1constructors.html#ab664d504bab236974a158a88984fe657",tooltip=" "];
  Node16 -> Node17 [color="midnightblue",fontsize="10",style="solid"];
  Node17 [label="pip._internal.utils.misc.splitext",height=0.2,width=0.4,color="black", fillcolor="white", style="filled",URL="$de/dc3/namespacepip_1_1__internal_1_1utils_1_1misc.html#a6060934981bde6e18b7e138df65640ec",tooltip=" "];
  Node14 -> Node18 [color="midnightblue",fontsize="10",style="solid"];
  Node18 [label="pip._internal.utils.misc.is\l_installable_dir",height=0.2,width=0.4,color="black", fillcolor="white", style="filled",URL="$de/dc3/namespacepip_1_1__internal_1_1utils_1_1misc.html#aa0a3f4f5231d8f6fe06e209c36e4710f",tooltip=" "];
  Node14 -> Node11 [color="midnightblue",fontsize="10",style="solid"];
  Node13 -> Node9 [color="midnightblue",fontsize="10",style="solid"];
  Node13 -> Node19 [color="midnightblue",fontsize="10",style="solid"];
  Node19 [label="pip._internal.req.constructors.convert\l_extras",height=0.2,width=0.4,color="black", fillcolor="white", style="filled",URL="$df/dd2/namespacepip_1_1__internal_1_1req_1_1constructors.html#a29955c4bc32fc2f80ca49ebb585100af",tooltip=" "];
  Node13 -> Node20 [color="midnightblue",fontsize="10",style="solid"];
  Node20 [label="pip._internal.req.constructors.deduce\l_helpful_msg",height=0.2,width=0.4,color="black", fillcolor="white", style="filled",URL="$df/dd2/namespacepip_1_1__internal_1_1req_1_1constructors.html#a361bce2fe5fcf2c86d37f602878d096b",tooltip=" "];
  Node20 -> Node21 [color="midnightblue",fontsize="10",style="solid"];
  Node21 [label="pip._internal.req.req\l_file.parse_requirements",height=0.2,width=0.4,color="black", fillcolor="white", style="filled",URL="$d9/d27/namespacepip_1_1__internal_1_1req_1_1req__file.html#a26157dbab79dc73771f38f1eb08d29c8",tooltip=" "];
  Node21 -> Node22 [color="midnightblue",fontsize="10",style="solid"];
  Node22 [label="pip._internal.req.req\l_file.get_line_parser",height=0.2,width=0.4,color="black", fillcolor="white", style="filled",URL="$d9/d27/namespacepip_1_1__internal_1_1req_1_1req__file.html#ab28e7931f03ea251630e063377a33936",tooltip=" "];
  Node22 -> Node23 [color="midnightblue",fontsize="10",style="solid"];
  Node23 [label="pip._internal.req.req\l_file.break_args_options",height=0.2,width=0.4,color="black", fillcolor="white", style="filled",URL="$d9/d27/namespacepip_1_1__internal_1_1req_1_1req__file.html#a4af0019abe61898b2e2556bfd9c103f9",tooltip=" "];
  Node22 -> Node24 [color="midnightblue",fontsize="10",style="solid"];
  Node24 [label="pip._internal.req.req\l_file.build_parser",height=0.2,width=0.4,color="black", fillcolor="white", style="filled",URL="$d9/d27/namespacepip_1_1__internal_1_1req_1_1req__file.html#ad877f09761f42a82cda8fe3630689b20",tooltip=" "];
  Node21 -> Node25 [color="midnightblue",fontsize="10",style="solid"];
  Node25 [label="pip._internal.req.req\l_file.handle_line",height=0.2,width=0.4,color="black", fillcolor="white", style="filled",URL="$d9/d27/namespacepip_1_1__internal_1_1req_1_1req__file.html#a84c3d53ffb4cac1346b54ab540ef58be",tooltip=" "];
  Node25 -> Node26 [color="midnightblue",fontsize="10",style="solid"];
  Node26 [label="pip._internal.req.req\l_file.handle_option_line",height=0.2,width=0.4,color="black", fillcolor="white", style="filled",URL="$d9/d27/namespacepip_1_1__internal_1_1req_1_1req__file.html#a54d25df51acbdd71432aadb2af1df991",tooltip=" "];
  Node25 -> Node27 [color="midnightblue",fontsize="10",style="solid"];
  Node27 [label="pip._internal.req.req\l_file.handle_requirement_line",height=0.2,width=0.4,color="black", fillcolor="white", style="filled",URL="$d9/d27/namespacepip_1_1__internal_1_1req_1_1req__file.html#a08eb89957cfc2e8ceaead212f682b756",tooltip=" "];
  Node13 -> Node28 [color="midnightblue",fontsize="10",style="solid"];
  Node28 [label="pip._internal.utils.deprecation.deprecated",height=0.2,width=0.4,color="black", fillcolor="white", style="filled",URL="$da/df1/namespacepip_1_1__internal_1_1utils_1_1deprecation.html#a7f64ef4a2a3e8999461e6d63b6929543",tooltip=" "];
  Node28 -> Node29 [color="midnightblue",fontsize="10",style="solid"];
  Node29 [label="pip._vendor.html5lib.html5parser.parse",height=0.2,width=0.4,color="black", fillcolor="white", style="filled",URL="$d2/d86/namespacepip_1_1__vendor_1_1html5lib_1_1html5parser.html#a2987549a868788409adca199412a27e4",tooltip=" "];
  Node13 -> Node30 [color="midnightblue",fontsize="10",style="solid"];
  Node30 [label="pip._internal.vcs.versioncontrol.is_url",height=0.2,width=0.4,color="black", fillcolor="white", style="filled",URL="$d1/d2c/namespacepip_1_1__internal_1_1vcs_1_1versioncontrol.html#a885afc288d59bd52197f024fa2fb779c",tooltip=" "];
  Node30 -> Node31 [color="midnightblue",fontsize="10",style="solid"];
  Node31 [label="pip._internal.utils.urls.get\l_url_scheme",height=0.2,width=0.4,color="black", fillcolor="white", style="filled",URL="$d7/d48/namespacepip_1_1__internal_1_1utils_1_1urls.html#ad87043afb534368959c3a324598b96f5",tooltip=" "];
  Node13 -> Node11 [color="midnightblue",fontsize="10",style="solid"];
}
