digraph "pip._internal.utils.logging.indent_log"
{
 // LATEX_PDF_SIZE
  edge [fontname="Helvetica",fontsize="10",labelfontname="Helvetica",labelfontsize="10"];
  node [fontname="Helvetica",fontsize="10",shape=record];
  rankdir="RL";
  Node1 [label="pip._internal.utils.logging.indent_log",height=0.2,width=0.4,color="black", fillcolor="grey75", style="filled", fontcolor="black",tooltip=" "];
  Node1 -> Node2 [dir="back",color="midnightblue",fontsize="10",style="solid",fontname="Helvetica"];
  Node2 [label="pip._internal.req.req\l_uninstall.UninstallPathSet.\l_allowed_to_proceed",height=0.2,width=0.4,color="black", fillcolor="white", style="filled",URL="$d9/d6e/classpip_1_1__internal_1_1req_1_1req__uninstall_1_1_uninstall_path_set.html#a7b9282bb1f823cfcf469578308092131",tooltip=" "];
  Node2 -> Node3 [dir="back",color="midnightblue",fontsize="10",style="solid",fontname="Helvetica"];
  Node3 [label="pip._internal.req.req\l_uninstall.UninstallPathSet.remove",height=0.2,width=0.4,color="black", fillcolor="white", style="filled",URL="$d9/d6e/classpip_1_1__internal_1_1req_1_1req__uninstall_1_1_uninstall_path_set.html#ad07b6057fe01d6ab9564123c396a6e90",tooltip=" "];
  Node3 -> Node4 [dir="back",color="midnightblue",fontsize="10",style="solid",fontname="Helvetica"];
  Node4 [label="pip._vendor.html5lib.treebuilders.base.\lActiveFormattingElements.append",height=0.2,width=0.4,color="red", fillcolor="white", style="filled",URL="$d6/dbf/classpip_1_1__vendor_1_1html5lib_1_1treebuilders_1_1base_1_1_active_formatting_elements.html#aa31b917a8deb849aa62a9736a488eb82",tooltip=" "];
  Node4 -> Node5 [dir="back",color="midnightblue",fontsize="10",style="solid",fontname="Helvetica"];
  Node5 [label="pip._vendor.pyparsing.And.\l__iadd__",height=0.2,width=0.4,color="black", fillcolor="white", style="filled",URL="$d7/d75/classpip_1_1__vendor_1_1pyparsing_1_1_and.html#aed06063711527027f539322ed846dfdd",tooltip=" "];
  Node4 -> Node6 [dir="back",color="midnightblue",fontsize="10",style="solid",fontname="Helvetica"];
  Node6 [label="pkg_resources._vendor.pyparsing.\lAnd.__iadd__",height=0.2,width=0.4,color="black", fillcolor="white", style="filled",URL="$d3/dbf/classpkg__resources_1_1__vendor_1_1pyparsing_1_1_and.html#aab46d1c623b48f6b5556975df8b97aba",tooltip=" "];
  Node4 -> Node7 [dir="back",color="midnightblue",fontsize="10",style="solid",fontname="Helvetica"];
  Node7 [label="setuptools._vendor.pyparsing.\lAnd.__iadd__",height=0.2,width=0.4,color="black", fillcolor="white", style="filled",URL="$d4/d33/classsetuptools_1_1__vendor_1_1pyparsing_1_1_and.html#abd80bd1cba05b111f1c56661ced6f228",tooltip=" "];
  Node4 -> Node8 [dir="back",color="midnightblue",fontsize="10",style="solid",fontname="Helvetica"];
  Node8 [label="pip._vendor.pyparsing.Match\lFirst.__ior__",height=0.2,width=0.4,color="black", fillcolor="white", style="filled",URL="$d6/d76/classpip_1_1__vendor_1_1pyparsing_1_1_match_first.html#a6b9546fc831474039b8074a14c6d9ec2",tooltip=" "];
  Node4 -> Node9 [dir="back",color="midnightblue",fontsize="10",style="solid",fontname="Helvetica"];
  Node9 [label="pkg_resources._vendor.pyparsing.\lMatchFirst.__ior__",height=0.2,width=0.4,color="black", fillcolor="white", style="filled",URL="$d6/d2c/classpkg__resources_1_1__vendor_1_1pyparsing_1_1_match_first.html#a685ce1ceb8cb54316cced1e61638a85b",tooltip=" "];
  Node3 -> Node14 [dir="back",color="midnightblue",fontsize="10",style="solid",fontname="Helvetica"];
  Node14 [label="pip._vendor.distlib.util.\lSequencer.remove_node",height=0.2,width=0.4,color="black", fillcolor="white", style="filled",URL="$d4/d7c/classpip_1_1__vendor_1_1distlib_1_1util_1_1_sequencer.html#a23f9b0df51114ed834d6ebb1e8c2fe07",tooltip=" "];
  Node1 -> Node15 [dir="back",color="midnightblue",fontsize="10",style="solid",fontname="Helvetica"];
  Node15 [label="pip._internal.resolution.resolvelib.candidates.\l_InstallRequirementBackedCandidate.\l_fetch_metadata",height=0.2,width=0.4,color="black", fillcolor="white", style="filled",URL="$dc/d03/classpip_1_1__internal_1_1resolution_1_1resolvelib_1_1candidates_1_1___install_requirement_backed_candidate.html#a1e35381549cf5ffbb5c0ec7cb0c3104a",tooltip=" "];
  Node15 -> Node16 [dir="back",color="midnightblue",fontsize="10",style="solid",fontname="Helvetica"];
  Node16 [label="pip._internal.resolution.resolvelib.candidates.\l_InstallRequirementBackedCandidate.dist",height=0.2,width=0.4,color="black", fillcolor="white", style="filled",URL="$dc/d03/classpip_1_1__internal_1_1resolution_1_1resolvelib_1_1candidates_1_1___install_requirement_backed_candidate.html#aa6d5af80d994f28e44534ad4a73dbb23",tooltip=" "];
  Node16 -> Node17 [dir="back",color="midnightblue",fontsize="10",style="solid",fontname="Helvetica"];
  Node17 [label="pip._internal.resolution.resolvelib.candidates.\l_InstallRequirementBackedCandidate.\l_get_requires_python_dependency",height=0.2,width=0.4,color="black", fillcolor="white", style="filled",URL="$dc/d03/classpip_1_1__internal_1_1resolution_1_1resolvelib_1_1candidates_1_1___install_requirement_backed_candidate.html#af091e0d266b0fdf7eee058bb2f7d7d96",tooltip=" "];
  Node17 -> Node18 [dir="back",color="midnightblue",fontsize="10",style="solid",fontname="Helvetica"];
  Node18 [label="pip._internal.resolution.resolvelib.candidates.\l_InstallRequirementBackedCandidate.iter\l_dependencies",height=0.2,width=0.4,color="black", fillcolor="white", style="filled",URL="$dc/d03/classpip_1_1__internal_1_1resolution_1_1resolvelib_1_1candidates_1_1___install_requirement_backed_candidate.html#a6b60557a552757c829f765f2b7cc2c93",tooltip=" "];
  Node16 -> Node18 [dir="back",color="midnightblue",fontsize="10",style="solid",fontname="Helvetica"];
  Node16 -> Node19 [dir="back",color="midnightblue",fontsize="10",style="solid",fontname="Helvetica"];
  Node19 [label="pip._internal.resolution.resolvelib.candidates.\l_InstallRequirementBackedCandidate.name",height=0.2,width=0.4,color="red", fillcolor="white", style="filled",URL="$dc/d03/classpip_1_1__internal_1_1resolution_1_1resolvelib_1_1candidates_1_1___install_requirement_backed_candidate.html#a9fe3d0379250da42bc610a688f43ca84",tooltip=" "];
  Node16 -> Node40 [dir="back",color="midnightblue",fontsize="10",style="solid",fontname="Helvetica"];
  Node40 [label="pip._internal.resolution.resolvelib.candidates.\l_InstallRequirementBackedCandidate.version",height=0.2,width=0.4,color="red", fillcolor="white", style="filled",URL="$dc/d03/classpip_1_1__internal_1_1resolution_1_1resolvelib_1_1candidates_1_1___install_requirement_backed_candidate.html#a84e4b295977cbe12099db867a3c182dd",tooltip=" "];
  Node1 -> Node85 [dir="back",color="midnightblue",fontsize="10",style="solid",fontname="Helvetica"];
  Node85 [label="pip._internal.resolution.legacy.resolver.\lResolver._resolve_one",height=0.2,width=0.4,color="black", fillcolor="white", style="filled",URL="$db/d5b/classpip_1_1__internal_1_1resolution_1_1legacy_1_1resolver_1_1_resolver.html#a5058b440022bccc6a3b12041b562a323",tooltip=" "];
  Node85 -> Node86 [dir="back",color="midnightblue",fontsize="10",style="solid",fontname="Helvetica"];
  Node86 [label="pip._internal.resolution.legacy.resolver.\lResolver.resolve",height=0.2,width=0.4,color="black", fillcolor="white", style="filled",URL="$db/d5b/classpip_1_1__internal_1_1resolution_1_1legacy_1_1resolver_1_1_resolver.html#a1321882f40c26aa4b44a693b4be74ae2",tooltip=" "];
  Node86 -> Node87 [dir="back",color="midnightblue",fontsize="10",style="solid",fontname="Helvetica"];
  Node87 [label="pip._vendor.distlib.compat.\lBaseConfigurator.configure_custom",height=0.2,width=0.4,color="red", fillcolor="white", style="filled",URL="$dc/d1f/classpip_1_1__vendor_1_1distlib_1_1compat_1_1_base_configurator.html#a413001393d55f20868bf168573a1ff1d",tooltip=" "];
  Node87 -> Node89 [dir="back",color="midnightblue",fontsize="10",style="solid",fontname="Helvetica"];
  Node89 [label="pip._vendor.distlib.util.\lConfigurator.configure_custom",height=0.2,width=0.4,color="black", fillcolor="white", style="filled",URL="$db/d94/classpip_1_1__vendor_1_1distlib_1_1util_1_1_configurator.html#a0d009327a85c6a6843254c1f00907b99",tooltip=" "];
  Node86 -> Node89 [dir="back",color="midnightblue",fontsize="10",style="solid",fontname="Helvetica"];
  Node86 -> Node90 [dir="back",color="midnightblue",fontsize="10",style="solid",fontname="Helvetica"];
  Node90 [label="pip._vendor.distlib.compat.\lBaseConfigurator.ext_convert",height=0.2,width=0.4,color="black", fillcolor="white", style="filled",URL="$dc/d1f/classpip_1_1__vendor_1_1distlib_1_1compat_1_1_base_configurator.html#a99583d9b1713e0e7ed6f5e6024f6146c",tooltip=" "];
  Node86 -> Node91 [dir="back",color="midnightblue",fontsize="10",style="solid",fontname="Helvetica"];
  Node91 [label="pip._vendor.pkg_resources.\lEntryPoint.load",height=0.2,width=0.4,color="black", fillcolor="white", style="filled",URL="$dc/d51/classpip_1_1__vendor_1_1pkg__resources_1_1_entry_point.html#a1dc35c835e4f04102cf03311a85282cf",tooltip=" "];
  Node86 -> Node92 [dir="back",color="midnightblue",fontsize="10",style="solid",fontname="Helvetica"];
  Node92 [label="pkg_resources.EntryPoint.load",height=0.2,width=0.4,color="black", fillcolor="white", style="filled",URL="$de/dfa/classpkg__resources_1_1_entry_point.html#aca40d6504feabd38a326c0d6f51ecb6a",tooltip=" "];
  Node86 -> Node93 [dir="back",color="midnightblue",fontsize="10",style="solid",fontname="Helvetica"];
  Node93 [label="pip._vendor.pkg_resources.\lWorkingSet.require",height=0.2,width=0.4,color="red", fillcolor="white", style="filled",URL="$da/d4f/classpip_1_1__vendor_1_1pkg__resources_1_1_working_set.html#a3e06498f30579d47e25fffe036206a80",tooltip=" "];
  Node93 -> Node91 [dir="back",color="midnightblue",fontsize="10",style="solid",fontname="Helvetica"];
  Node93 -> Node92 [dir="back",color="midnightblue",fontsize="10",style="solid",fontname="Helvetica"];
  Node86 -> Node96 [dir="back",color="midnightblue",fontsize="10",style="solid",fontname="Helvetica"];
  Node96 [label="pkg_resources.WorkingSet.require",height=0.2,width=0.4,color="red", fillcolor="white", style="filled",URL="$d5/d96/classpkg__resources_1_1_working_set.html#a335262cb577b8fa37a8fa92cff024cf9",tooltip=" "];
  Node96 -> Node92 [dir="back",color="midnightblue",fontsize="10",style="solid",fontname="Helvetica"];
  Node1 -> Node97 [dir="back",color="midnightblue",fontsize="10",style="solid",fontname="Helvetica"];
  Node97 [label="pip._internal.wheel\l_builder.build",height=0.2,width=0.4,color="black", fillcolor="white", style="filled",URL="$d4/d97/namespacepip_1_1__internal_1_1wheel__builder.html#a2a9acda2a7731c259870b179e283caab",tooltip=" "];
  Node97 -> Node98 [dir="back",color="midnightblue",fontsize="10",style="solid",fontname="Helvetica"];
  Node98 [label="pip._vendor.msgpack.fallback.\lStringIO.getvalue",height=0.2,width=0.4,color="black", fillcolor="white", style="filled",URL="$db/d71/classpip_1_1__vendor_1_1msgpack_1_1fallback_1_1_string_i_o.html#a904a1d9be5e5f9dd28d5d856fe9d5142",tooltip=" "];
  Node97 -> Node99 [dir="back",color="midnightblue",fontsize="10",style="solid",fontname="Helvetica"];
  Node99 [label="pip._internal.commands.install.\lInstallCommand.run",height=0.2,width=0.4,color="black", fillcolor="white", style="filled",URL="$d2/dff/classpip_1_1__internal_1_1commands_1_1install_1_1_install_command.html#aed853149716837d308440b8e2405a75c",tooltip=" "];
  Node97 -> Node100 [dir="back",color="midnightblue",fontsize="10",style="solid",fontname="Helvetica"];
  Node100 [label="pip._internal.commands.wheel.\lWheelCommand.run",height=0.2,width=0.4,color="black", fillcolor="white", style="filled",URL="$d7/d9d/classpip_1_1__internal_1_1commands_1_1wheel_1_1_wheel_command.html#a4cb8665d201b720369f174eae955f875",tooltip=" "];
  Node1 -> Node101 [dir="back",color="midnightblue",fontsize="10",style="solid",fontname="Helvetica"];
  Node101 [label="pip._internal.vcs.subversion.\lSubversion.export",height=0.2,width=0.4,color="black", fillcolor="white", style="filled",URL="$d2/db0/classpip_1_1__internal_1_1vcs_1_1subversion_1_1_subversion.html#a4a09b6d0b7ffe53e34051cd0b2fca41b",tooltip=" "];
  Node1 -> Node102 [dir="back",color="midnightblue",fontsize="10",style="solid",fontname="Helvetica"];
  Node102 [label="pip._internal.operations.install.legacy.install",height=0.2,width=0.4,color="black", fillcolor="white", style="filled",URL="$de/d0b/namespacepip_1_1__internal_1_1operations_1_1install_1_1legacy.html#ab710071c8c71980601a4d22a49f61f89",tooltip=" "];
  Node1 -> Node103 [dir="back",color="midnightblue",fontsize="10",style="solid",fontname="Helvetica"];
  Node103 [label="pip._internal.operations.install.editable\l_legacy.install_editable",height=0.2,width=0.4,color="black", fillcolor="white", style="filled",URL="$dd/dcb/namespacepip_1_1__internal_1_1operations_1_1install_1_1editable__legacy.html#aa69d3b30ba26cc7729f81548b7e7b09a",tooltip=" "];
  Node1 -> Node104 [dir="back",color="midnightblue",fontsize="10",style="solid",fontname="Helvetica"];
  Node104 [label="pip._internal.req.install\l_given_reqs",height=0.2,width=0.4,color="black", fillcolor="white", style="filled",URL="$d5/d77/namespacepip_1_1__internal_1_1req.html#a31f7d0da3aef02d25ef5c566c5292a81",tooltip=" "];
  Node104 -> Node99 [dir="back",color="midnightblue",fontsize="10",style="solid",fontname="Helvetica"];
  Node1 -> Node105 [dir="back",color="midnightblue",fontsize="10",style="solid",fontname="Helvetica"];
  Node105 [label="pip._internal.commands.configuration.\lConfigurationCommand.list_config_values",height=0.2,width=0.4,color="black", fillcolor="white", style="filled",URL="$d7/d3b/classpip_1_1__internal_1_1commands_1_1configuration_1_1_configuration_command.html#aa8a58b1c9ef6abefef7b9aa445347ce1",tooltip=" "];
  Node105 -> Node106 [dir="back",color="midnightblue",fontsize="10",style="solid",fontname="Helvetica"];
  Node106 [label="pip._internal.commands.configuration.\lConfigurationCommand.run",height=0.2,width=0.4,color="black", fillcolor="white", style="filled",URL="$d7/d3b/classpip_1_1__internal_1_1commands_1_1configuration_1_1_configuration_command.html#a94d31df345a805f5ff97861d3b9c7f4d",tooltip=" "];
  Node1 -> Node107 [dir="back",color="midnightblue",fontsize="10",style="solid",fontname="Helvetica"];
  Node107 [label="pip._internal.operations.prepare.\lRequirementPreparer.prepare\l_editable_requirement",height=0.2,width=0.4,color="black", fillcolor="white", style="filled",URL="$d3/dc5/classpip_1_1__internal_1_1operations_1_1prepare_1_1_requirement_preparer.html#a49bae56966abd8173ed34ebf0612a563",tooltip=" "];
  Node1 -> Node108 [dir="back",color="midnightblue",fontsize="10",style="solid",fontname="Helvetica"];
  Node108 [label="pip._internal.operations.prepare.\lRequirementPreparer.prepare\l_installed_requirement",height=0.2,width=0.4,color="black", fillcolor="white", style="filled",URL="$d3/dc5/classpip_1_1__internal_1_1operations_1_1prepare_1_1_requirement_preparer.html#ad78b3768deaacc67f0a9c4c9ef640595",tooltip=" "];
  Node1 -> Node109 [dir="back",color="midnightblue",fontsize="10",style="solid",fontname="Helvetica"];
  Node109 [label="pip._internal.operations.prepare.\lRequirementPreparer.prepare\l_linked_requirement",height=0.2,width=0.4,color="black", fillcolor="white", style="filled",URL="$d3/dc5/classpip_1_1__internal_1_1operations_1_1prepare_1_1_requirement_preparer.html#a112bf5c78474500ff9c4c6b4101e4a6b",tooltip=" "];
  Node1 -> Node110 [dir="back",color="midnightblue",fontsize="10",style="solid",fontname="Helvetica"];
  Node110 [label="pip._internal.req.req\l_install.InstallRequirement.prepare\l_metadata",height=0.2,width=0.4,color="black", fillcolor="white", style="filled",URL="$d2/daa/classpip_1_1__internal_1_1req_1_1req__install_1_1_install_requirement.html#a048131d02e7f12b151a9cf8fb3b38df6",tooltip=" "];
  Node1 -> Node111 [dir="back",color="midnightblue",fontsize="10",style="solid",fontname="Helvetica"];
  Node111 [label="pip._internal.commands.configuration.\lConfigurationCommand.print_config\l_file_values",height=0.2,width=0.4,color="black", fillcolor="white", style="filled",URL="$d7/d3b/classpip_1_1__internal_1_1commands_1_1configuration_1_1_configuration_command.html#a1127233400fcb3a7294654cd6f685a9a",tooltip=" "];
  Node111 -> Node105 [dir="back",color="midnightblue",fontsize="10",style="solid",fontname="Helvetica"];
  Node1 -> Node112 [dir="back",color="midnightblue",fontsize="10",style="solid",fontname="Helvetica"];
  Node112 [label="pip._internal.commands.configuration.\lConfigurationCommand.print_env\l_var_values",height=0.2,width=0.4,color="black", fillcolor="white", style="filled",URL="$d7/d3b/classpip_1_1__internal_1_1commands_1_1configuration_1_1_configuration_command.html#a4e69579d21c3eaa8a38684a0bdb94e53",tooltip=" "];
  Node112 -> Node105 [dir="back",color="midnightblue",fontsize="10",style="solid",fontname="Helvetica"];
  Node1 -> Node113 [dir="back",color="midnightblue",fontsize="10",style="solid",fontname="Helvetica"];
  Node113 [label="pip._internal.commands.search.print\l_results",height=0.2,width=0.4,color="black", fillcolor="white", style="filled",URL="$de/d2c/namespacepip_1_1__internal_1_1commands_1_1search.html#a87022e63ef0aebf90e837d77bd42f5ae",tooltip=" "];
  Node113 -> Node114 [dir="back",color="midnightblue",fontsize="10",style="solid",fontname="Helvetica"];
  Node114 [label="pip._internal.commands.search.\lSearchCommand.run",height=0.2,width=0.4,color="black", fillcolor="white", style="filled",URL="$db/d61/classpip_1_1__internal_1_1commands_1_1search_1_1_search_command.html#af3bd62eca99b1aa041c8a85696093ea2",tooltip=" "];
  Node1 -> Node115 [dir="back",color="midnightblue",fontsize="10",style="solid",fontname="Helvetica"];
  Node115 [label="pip._internal.index.package\l_finder.PackageFinder.process\l_project_url",height=0.2,width=0.4,color="black", fillcolor="white", style="filled",URL="$da/d3f/classpip_1_1__internal_1_1index_1_1package__finder_1_1_package_finder.html#ac0b76766a4593d7d99b10cd42247c8b1",tooltip=" "];
  Node115 -> Node116 [dir="back",color="midnightblue",fontsize="10",style="solid",fontname="Helvetica"];
  Node116 [label="pip._internal.index.package\l_finder.PackageFinder.find\l_all_candidates",height=0.2,width=0.4,color="black", fillcolor="white", style="filled",URL="$da/d3f/classpip_1_1__internal_1_1index_1_1package__finder_1_1_package_finder.html#a5a5983a537d26bda6853b1e4da376961",tooltip=" "];
  Node116 -> Node117 [dir="back",color="midnightblue",fontsize="10",style="solid",fontname="Helvetica"];
  Node117 [label="pip._internal.index.package\l_finder.PackageFinder.find\l_best_candidate",height=0.2,width=0.4,color="red", fillcolor="white", style="filled",URL="$da/d3f/classpip_1_1__internal_1_1index_1_1package__finder_1_1_package_finder.html#a023e0d9f893f733ecbb6896cb6070b9f",tooltip=" "];
  Node1 -> Node3 [dir="back",color="midnightblue",fontsize="10",style="solid",fontname="Helvetica"];
  Node1 -> Node119 [dir="back",color="midnightblue",fontsize="10",style="solid",fontname="Helvetica"];
  Node119 [label="pip._internal.commands.debug.show\l_sys_implementation",height=0.2,width=0.4,color="black", fillcolor="white", style="filled",URL="$df/d72/namespacepip_1_1__internal_1_1commands_1_1debug.html#a07a4f79f7d87301a97d34fbeebf06691",tooltip=" "];
  Node119 -> Node120 [dir="back",color="midnightblue",fontsize="10",style="solid",fontname="Helvetica"];
  Node120 [label="pip._internal.commands.debug.\lDebugCommand.run",height=0.2,width=0.4,color="black", fillcolor="white", style="filled",URL="$db/d7b/classpip_1_1__internal_1_1commands_1_1debug_1_1_debug_command.html#a68464110a60097e9ba489abbee105751",tooltip=" "];
  Node1 -> Node121 [dir="back",color="midnightblue",fontsize="10",style="solid",fontname="Helvetica"];
  Node121 [label="pip._internal.commands.debug.show_tags",height=0.2,width=0.4,color="black", fillcolor="white", style="filled",URL="$df/d72/namespacepip_1_1__internal_1_1commands_1_1debug.html#a17394251d25dce395eb22eb3923ce01e",tooltip=" "];
  Node121 -> Node120 [dir="back",color="midnightblue",fontsize="10",style="solid",fontname="Helvetica"];
  Node1 -> Node122 [dir="back",color="midnightblue",fontsize="10",style="solid",fontname="Helvetica"];
  Node122 [label="pip._internal.commands.debug.show\l_vendor_versions",height=0.2,width=0.4,color="black", fillcolor="white", style="filled",URL="$df/d72/namespacepip_1_1__internal_1_1commands_1_1debug.html#a872ca30fb17574d3220321f398c8cc8a",tooltip=" "];
  Node122 -> Node120 [dir="back",color="midnightblue",fontsize="10",style="solid",fontname="Helvetica"];
}
