digraph "pip._internal.operations.build.wheel_legacy.format_command_result"
{
 // LATEX_PDF_SIZE
  edge [fontname="Helvetica",fontsize="10",labelfontname="Helvetica",labelfontsize="10"];
  node [fontname="Helvetica",fontsize="10",shape=record];
  rankdir="LR";
  Node1 [label="pip._internal.operations.build.wheel\l_legacy.format_command_result",height=0.2,width=0.4,color="black", fillcolor="grey75", style="filled", fontcolor="black",tooltip=" "];
  Node1 -> Node2 [color="midnightblue",fontsize="10",style="solid",fontname="Helvetica"];
  Node2 [label="pip._internal.utils.subprocess.format\l_command_args",height=0.2,width=0.4,color="black", fillcolor="white", style="filled",URL="$de/d4d/namespacepip_1_1__internal_1_1utils_1_1subprocess.html#a555d52c519beee42615b9db004f18d59",tooltip=" "];
}
