digraph "pip._internal.commands.debug.get_vendor_version_from_module"
{
 // LATEX_PDF_SIZE
  edge [fontname="Helvetica",fontsize="10",labelfontname="Helvetica",labelfontsize="10"];
  node [fontname="Helvetica",fontsize="10",shape=record];
  rankdir="RL";
  Node1 [label="pip._internal.commands.debug.get\l_vendor_version_from_module",height=0.2,width=0.4,color="black", fillcolor="grey75", style="filled", fontcolor="black",tooltip=" "];
  Node1 -> Node2 [dir="back",color="midnightblue",fontsize="10",style="solid"];
  Node2 [label="pip._internal.commands.debug.show\l_actual_vendor_versions",height=0.2,width=0.4,color="black", fillcolor="white", style="filled",URL="$df/d72/namespacepip_1_1__internal_1_1commands_1_1debug.html#aef9a28d00f93b050e518bd07676cda78",tooltip=" "];
  Node2 -> Node3 [dir="back",color="midnightblue",fontsize="10",style="solid"];
  Node3 [label="pip._internal.commands.debug.show\l_vendor_versions",height=0.2,width=0.4,color="black", fillcolor="white", style="filled",URL="$df/d72/namespacepip_1_1__internal_1_1commands_1_1debug.html#a872ca30fb17574d3220321f398c8cc8a",tooltip=" "];
  Node3 -> Node4 [dir="back",color="midnightblue",fontsize="10",style="solid"];
  Node4 [label="pip._internal.commands.debug.\lDebugCommand.run",height=0.2,width=0.4,color="black", fillcolor="white", style="filled",URL="$db/d7b/classpip_1_1__internal_1_1commands_1_1debug_1_1_debug_command.html#a68464110a60097e9ba489abbee105751",tooltip=" "];
}
