digraph "pip._vendor.distlib.scripts.ScriptMaker._get_launcher"
{
 // LATEX_PDF_SIZE
  edge [fontname="Helvetica",fontsize="10",labelfontname="Helvetica",labelfontsize="10"];
  node [fontname="Helvetica",fontsize="10",shape=record];
  rankdir="LR";
  Node1 [label="pip._vendor.distlib.scripts.\lScriptMaker._get_launcher",height=0.2,width=0.4,color="black", fillcolor="grey75", style="filled", fontcolor="black",tooltip=" "];
  Node1 -> Node2 [color="midnightblue",fontsize="10",style="solid",fontname="Helvetica"];
  Node2 [label="pip._vendor.distlib.resources.finder",height=0.2,width=0.4,color="black", fillcolor="white", style="filled",URL="$d9/dfe/namespacepip_1_1__vendor_1_1distlib_1_1resources.html#a19cb1b460cca0d3a5c6bea20e4ebc4b3",tooltip=" "];
}
