digraph "pip._vendor.pyparsing.ParseElementEnhance.checkRecursion"
{
 // LATEX_PDF_SIZE
  edge [fontname="Helvetica",fontsize="10",labelfontname="Helvetica",labelfontsize="10"];
  node [fontname="Helvetica",fontsize="10",shape=record];
  rankdir="RL";
  Node1 [label="pip._vendor.pyparsing.Parse\lElementEnhance.checkRecursion",height=0.2,width=0.4,color="black", fillcolor="grey75", style="filled", fontcolor="black",tooltip=" "];
  Node1 -> Node2 [dir="back",color="midnightblue",fontsize="10",style="solid"];
  Node2 [label="pkg_resources._vendor.pyparsing.\lParseExpression.validate",height=0.2,width=0.4,color="black", fillcolor="white", style="filled",URL="$d4/d3a/classpkg__resources_1_1__vendor_1_1pyparsing_1_1_parse_expression.html#a1b1f5c9a08dd00461b991465cc5e2fd6",tooltip=" "];
  Node1 -> Node3 [dir="back",color="midnightblue",fontsize="10",style="solid"];
  Node3 [label="pkg_resources._vendor.pyparsing.\lParseElementEnhance.validate",height=0.2,width=0.4,color="black", fillcolor="white", style="filled",URL="$d4/d4b/classpkg__resources_1_1__vendor_1_1pyparsing_1_1_parse_element_enhance.html#a84ea6a2aac0f4058a4e989a4284010d5",tooltip=" "];
  Node1 -> Node4 [dir="back",color="midnightblue",fontsize="10",style="solid"];
  Node4 [label="pkg_resources._vendor.pyparsing.\lForward.validate",height=0.2,width=0.4,color="black", fillcolor="white", style="filled",URL="$da/d8a/classpkg__resources_1_1__vendor_1_1pyparsing_1_1_forward.html#a59125ffa3d42492c89e898fc40e3d018",tooltip=" "];
  Node1 -> Node5 [dir="back",color="midnightblue",fontsize="10",style="solid"];
  Node5 [label="setuptools._vendor.pyparsing.\lParseExpression.validate",height=0.2,width=0.4,color="black", fillcolor="white", style="filled",URL="$d5/d4b/classsetuptools_1_1__vendor_1_1pyparsing_1_1_parse_expression.html#afd00af0802389bfdf4ece57c5b934ede",tooltip=" "];
  Node1 -> Node6 [dir="back",color="midnightblue",fontsize="10",style="solid"];
  Node6 [label="setuptools._vendor.pyparsing.\lParseElementEnhance.validate",height=0.2,width=0.4,color="black", fillcolor="white", style="filled",URL="$d2/daf/classsetuptools_1_1__vendor_1_1pyparsing_1_1_parse_element_enhance.html#a70e4a0d7327720444d26654ee616e35d",tooltip=" "];
  Node1 -> Node7 [dir="back",color="midnightblue",fontsize="10",style="solid"];
  Node7 [label="setuptools._vendor.pyparsing.\lForward.validate",height=0.2,width=0.4,color="black", fillcolor="white", style="filled",URL="$d2/ddc/classsetuptools_1_1__vendor_1_1pyparsing_1_1_forward.html#a5909b6cd69413a1118fced026cbdac6f",tooltip=" "];
}
