digraph "pip._internal.configuration.Configuration.get_environ_vars"
{
 // LATEX_PDF_SIZE
  edge [fontname="Helvetica",fontsize="10",labelfontname="Helvetica",labelfontsize="10"];
  node [fontname="Helvetica",fontsize="10",shape=record];
  rankdir="RL";
  Node1 [label="pip._internal.configuration.\lConfiguration.get_environ_vars",height=0.2,width=0.4,color="black", fillcolor="grey75", style="filled", fontcolor="black",tooltip=" "];
  Node1 -> Node2 [dir="back",color="midnightblue",fontsize="10",style="solid",fontname="Helvetica"];
  Node2 [label="pip._internal.configuration.\lConfiguration._load_environment_vars",height=0.2,width=0.4,color="black", fillcolor="white", style="filled",URL="$dc/da9/classpip_1_1__internal_1_1configuration_1_1_configuration.html#ab0aa575dbccd6583c0b3738268444306",tooltip=" "];
  Node2 -> Node3 [dir="back",color="midnightblue",fontsize="10",style="solid",fontname="Helvetica"];
  Node3 [label="pip._internal.configuration.\lConfiguration.load",height=0.2,width=0.4,color="black", fillcolor="white", style="filled",URL="$dc/da9/classpip_1_1__internal_1_1configuration_1_1_configuration.html#a3573a999426cabbc3e8dbc2424943d5c",tooltip=" "];
}
