digraph "pip._internal.configuration.Configuration.get_file_to_edit"
{
 // LATEX_PDF_SIZE
  edge [fontname="Helvetica",fontsize="10",labelfontname="Helvetica",labelfontsize="10"];
  node [fontname="Helvetica",fontsize="10",shape=record];
  rankdir="LR";
  Node1 [label="pip._internal.configuration.\lConfiguration.get_file_to_edit",height=0.2,width=0.4,color="black", fillcolor="grey75", style="filled", fontcolor="black",tooltip=" "];
  Node1 -> Node2 [color="midnightblue",fontsize="10",style="solid",fontname="Helvetica"];
  Node2 [label="pip._internal.configuration.\lConfiguration._get_parser\l_to_modify",height=0.2,width=0.4,color="black", fillcolor="white", style="filled",URL="$dc/da9/classpip_1_1__internal_1_1configuration_1_1_configuration.html#ae6844b0d1c0472d91cad0f2e29e3e31a",tooltip=" "];
}
