digraph "pip._internal.models.target_python.TargetPython"
{
 // LATEX_PDF_SIZE
  edge [fontname="Helvetica",fontsize="10",labelfontname="Helvetica",labelfontsize="10"];
  node [fontname="Helvetica",fontsize="10",shape=record];
  Node1 [label="{pip._internal.models.target\l_python.TargetPython\n|+ abi\l+ implementation\l+ platform\l+ py_version\l+ py_version_info\l- _given_py_version_info\l- _valid_tags\l- __slots__\l|+ __init__()\l+ format_given()\l+ get_tags()\l}",height=0.2,width=0.4,color="black", fillcolor="grey75", style="filled", fontcolor="black",tooltip=" "];
  Node2 -> Node1 [dir="back",color="midnightblue",fontsize="10",style="solid",arrowtail="onormal",fontname="Helvetica"];
  Node2 [label="{object\n||}",height=0.2,width=0.4,color="grey75", fillcolor="white", style="filled",tooltip=" "];
}
