digraph "pip._vendor.distlib.database.Distribution"
{
 // LATEX_PDF_SIZE
  edge [fontname="Helvetica",fontsize="10",labelfontname="Helvetica",labelfontsize="10"];
  node [fontname="Helvetica",fontsize="10",shape=record];
  Node1 [label="{pip._vendor.distlib.database.\lDistribution\n|+ metadata\l+ name\l+ key\l+ version\l+ locator\l+ digest\l+ extras\l+ context\l+ download_urls\l+ digests\l+ source_url\l+ build_time_dependency\l+ requested\l+ download_url\l|+ __init__()\l+ source_url()\l+ name_and_version()\l+ provides()\l+ run_requires()\l+ meta_requires()\l+ build_requires()\l+ test_requires()\l+ dev_requires()\l+ matches_requirement()\l+ __repr__()\l+ __eq__()\l+ __hash__()\l- _get_requirements()\l}",height=0.2,width=0.4,color="black", fillcolor="grey75", style="filled", fontcolor="black",tooltip=" "];
  Node2 -> Node1 [dir="back",color="midnightblue",fontsize="10",style="solid",arrowtail="onormal"];
  Node2 [label="{object\n||}",height=0.2,width=0.4,color="grey75", fillcolor="white", style="filled",tooltip=" "];
  Node1 -> Node3 [dir="back",color="midnightblue",fontsize="10",style="solid",arrowtail="onormal"];
  Node3 [label="{pip._vendor.distlib.database.\lBaseInstalledDistribution\n|+ path\l+ dist_path\l+ hasher\l|+ __init__()\l+ get_hash()\l}",height=0.2,width=0.4,color="black", fillcolor="white", style="filled",URL="$d3/d43/classpip_1_1__vendor_1_1distlib_1_1database_1_1_base_installed_distribution.html",tooltip=" "];
  Node3 -> Node4 [dir="back",color="midnightblue",fontsize="10",style="solid",arrowtail="onormal"];
  Node4 [label="{pip._vendor.distlib.database.\lEggInfoDistribution\n|+ path\l+ dist_path\l+ modules\l+ requested\l+ shared_locations\l- __hash__\l|+ __init__()\l+ __repr__()\l+ __str__()\l+ check_installed_files()\l+ list_installed_files()\l+ list_distinfo_files()\l+ __eq__()\l- _get_metadata()\l}",height=0.2,width=0.4,color="black", fillcolor="white", style="filled",URL="$d7/d4f/classpip_1_1__vendor_1_1distlib_1_1database_1_1_egg_info_distribution.html",tooltip=" "];
  Node3 -> Node5 [dir="back",color="midnightblue",fontsize="10",style="solid",arrowtail="onormal"];
  Node5 [label="{pip._vendor.distlib.database.\lInstalledDistribution\n|+ modules\l+ finder\l+ requested\l+ path\l+ hasher\l- __hash__\l|+ __init__()\l+ __repr__()\l+ __str__()\l+ exports()\l+ read_exports()\l+ write_exports()\l+ get_resource_path()\l+ list_installed_files()\l+ write_installed_files()\l+ check_installed_files()\land 6 more...\l- _get_records()\l}",height=0.2,width=0.4,color="black", fillcolor="white", style="filled",URL="$d5/d3f/classpip_1_1__vendor_1_1distlib_1_1database_1_1_installed_distribution.html",tooltip=" "];
}
