digraph "pip._internal.utils.entrypoints._wrapper"
{
 // LATEX_PDF_SIZE
  edge [fontname="Helvetica",fontsize="10",labelfontname="Helvetica",labelfontsize="10"];
  node [fontname="Helvetica",fontsize="10",shape=record];
  rankdir="RL";
  Node1 [label="pip._internal.utils.entrypoints.\l_wrapper",height=0.2,width=0.4,color="black", fillcolor="grey75", style="filled", fontcolor="black",tooltip=" "];
  Node1 -> Node2 [dir="back",color="midnightblue",fontsize="10",style="solid",fontname="Helvetica"];
  Node2 [label="pip.main",height=0.2,width=0.4,color="black", fillcolor="white", style="filled",URL="$d4/d6e/namespacepip.html#a1340561c3142d80bbe6ac01d74fa79e2",tooltip=" "];
  Node1 -> Node3 [dir="back",color="midnightblue",fontsize="10",style="solid",fontname="Helvetica"];
  Node3 [label="pip._internal.main",height=0.2,width=0.4,color="black", fillcolor="white", style="filled",URL="$d9/da0/namespacepip_1_1__internal.html#a0bb1ac54213ea4735a6a990952deafa8",tooltip=" "];
  Node3 -> Node1 [dir="back",color="midnightblue",fontsize="10",style="solid",fontname="Helvetica"];
  Node1 -> Node4 [dir="back",color="midnightblue",fontsize="10",style="solid",fontname="Helvetica"];
  Node4 [label="pip._internal.main.main",height=0.2,width=0.4,color="black", fillcolor="white", style="filled",URL="$d7/d0d/namespacepip_1_1__internal_1_1main.html#a7a98bd6406b7ffedc57ca6190e2770b6",tooltip=" "];
  Node1 -> Node5 [dir="back",color="midnightblue",fontsize="10",style="solid",fontname="Helvetica"];
  Node5 [label="pip._internal.utils.compat.noop\l_lru_cache",height=0.2,width=0.4,color="black", fillcolor="white", style="filled",URL="$d1/dbe/namespacepip_1_1__internal_1_1utils_1_1compat.html#a167847854a4e123b1d97552c482aa527",tooltip=" "];
}
