digraph "pip._vendor.distlib.locators.DependencyFinder.get_matcher"
{
 // LATEX_PDF_SIZE
  edge [fontname="Helvetica",fontsize="10",labelfontname="Helvetica",labelfontsize="10"];
  node [fontname="Helvetica",fontsize="10",shape=record];
  rankdir="RL";
  Node1 [label="pip._vendor.distlib.locators.\lDependencyFinder.get_matcher",height=0.2,width=0.4,color="black", fillcolor="grey75", style="filled", fontcolor="black",tooltip=" "];
  Node1 -> Node2 [dir="back",color="midnightblue",fontsize="10",style="solid",fontname="Helvetica"];
  Node2 [label="pip._vendor.distlib.locators.\lDependencyFinder.find_providers",height=0.2,width=0.4,color="black", fillcolor="white", style="filled",URL="$d1/de5/classpip_1_1__vendor_1_1distlib_1_1locators_1_1_dependency_finder.html#ac3932b4a3b8d90ee83ae21a847619727",tooltip=" "];
  Node1 -> Node3 [dir="back",color="midnightblue",fontsize="10",style="solid",fontname="Helvetica"];
  Node3 [label="pip._vendor.distlib.locators.\lDependencyFinder.try_to_replace",height=0.2,width=0.4,color="black", fillcolor="white", style="filled",URL="$d1/de5/classpip_1_1__vendor_1_1distlib_1_1locators_1_1_dependency_finder.html#ae5188bef19f3bfb756cb122d2ffbd6a7",tooltip=" "];
}
