digraph "pip._vendor.distlib.locators.DependencyFinder.try_to_replace"
{
 // LATEX_PDF_SIZE
  edge [fontname="Helvetica",fontsize="10",labelfontname="Helvetica",labelfontsize="10"];
  node [fontname="Helvetica",fontsize="10",shape=record];
  rankdir="LR";
  Node1 [label="pip._vendor.distlib.locators.\lDependencyFinder.try_to_replace",height=0.2,width=0.4,color="black", fillcolor="grey75", style="filled", fontcolor="black",tooltip=" "];
  Node1 -> Node2 [color="midnightblue",fontsize="10",style="solid",fontname="Helvetica"];
  Node2 [label="pip._vendor.distlib.locators.\lDependencyFinder.add_distribution",height=0.2,width=0.4,color="black", fillcolor="white", style="filled",URL="$d1/de5/classpip_1_1__vendor_1_1distlib_1_1locators_1_1_dependency_finder.html#a256ba1ddbc7415fedc398a1c9acc90ae",tooltip=" "];
  Node2 -> Node3 [color="midnightblue",fontsize="10",style="solid",fontname="Helvetica"];
  Node3 [label="pip._vendor.distlib.util.parse\l_name_and_version",height=0.2,width=0.4,color="black", fillcolor="white", style="filled",URL="$d6/d99/namespacepip_1_1__vendor_1_1distlib_1_1util.html#a790092804a63d6bd8b2c17117864b1b6",tooltip=" "];
  Node1 -> Node4 [color="midnightblue",fontsize="10",style="solid",fontname="Helvetica"];
  Node4 [label="pip._vendor.distlib.database.\lDependencyGraph.add_distribution",height=0.2,width=0.4,color="black", fillcolor="white", style="filled",URL="$d6/d1f/classpip_1_1__vendor_1_1distlib_1_1database_1_1_dependency_graph.html#a7f6602ca9050ec3c01cdf446f7b30665",tooltip=" "];
  Node1 -> Node5 [color="midnightblue",fontsize="10",style="solid",fontname="Helvetica"];
  Node5 [label="pip._vendor.distlib.locators.\lDependencyFinder.get_matcher",height=0.2,width=0.4,color="black", fillcolor="white", style="filled",URL="$d1/de5/classpip_1_1__vendor_1_1distlib_1_1locators_1_1_dependency_finder.html#abc4b69b38d73d3501a3cf44eadf39528",tooltip=" "];
  Node1 -> Node6 [color="midnightblue",fontsize="10",style="solid",fontname="Helvetica"];
  Node6 [label="pip._vendor.distlib.locators.\lDependencyFinder.remove_distribution",height=0.2,width=0.4,color="black", fillcolor="white", style="filled",URL="$d1/de5/classpip_1_1__vendor_1_1distlib_1_1locators_1_1_dependency_finder.html#a59c66e9bfaeefec64bd58bb58e5427ec",tooltip=" "];
  Node6 -> Node3 [color="midnightblue",fontsize="10",style="solid",fontname="Helvetica"];
}
