digraph "pip._vendor.distlib.locators.DependencyFinder.find"
{
 // LATEX_PDF_SIZE
  edge [fontname="Helvetica",fontsize="10",labelfontname="Helvetica",labelfontsize="10"];
  node [fontname="Helvetica",fontsize="10",shape=record];
  rankdir="RL";
  Node1 [label="pip._vendor.distlib.locators.\lDependencyFinder.find",height=0.2,width=0.4,color="black", fillcolor="grey75", style="filled", fontcolor="black",tooltip=" "];
  Node1 -> Node2 [dir="back",color="midnightblue",fontsize="10",style="solid",fontname="Helvetica"];
  Node2 [label="pip._vendor.distlib.resources.\lResourceFinder.iterator",height=0.2,width=0.4,color="black", fillcolor="white", style="filled",URL="$df/d96/classpip_1_1__vendor_1_1distlib_1_1resources_1_1_resource_finder.html#ab0f86812727cc97d40911589de5511bc",tooltip=" "];
}
