digraph "pip._vendor.ipaddress._BaseV6"
{
 // LATEX_PDF_SIZE
  edge [fontname="Helvetica",fontsize="10",labelfontname="Helvetica",labelfontsize="10"];
  node [fontname="Helvetica",fontsize="10",shape=record];
  Node1 [label="{pip._vendor.ipaddress.\l_BaseV6\n|- __slots__\l- _version\l- _ALL_ONES\l- _HEXTET_COUNT\l- _HEX_DIGITS\l- _max_prefixlen\l- _netmask_cache\l|+ max_prefixlen()\l+ version()\l- _make_netmask()\l- _ip_int_from_string()\l- _parse_hextet()\l- _compress_hextets()\l- _string_from_ip_int()\l- _explode_shorthand\l_ip_string()\l- _reverse_pointer()\l}",height=0.2,width=0.4,color="black", fillcolor="grey75", style="filled", fontcolor="black",tooltip=" "];
  Node2 -> Node1 [dir="back",color="midnightblue",fontsize="10",style="solid",arrowtail="onormal"];
  Node2 [label="{object\n||}",height=0.2,width=0.4,color="grey75", fillcolor="white", style="filled",tooltip=" "];
}
