digraph "pip._vendor.html5lib._inputstream.HTMLBinaryInputStream.detectBOM"
{
 // LATEX_PDF_SIZE
  edge [fontname="Helvetica",fontsize="10",labelfontname="Helvetica",labelfontsize="10"];
  node [fontname="Helvetica",fontsize="10",shape=record];
  rankdir="LR";
  Node1 [label="pip._vendor.html5lib.\l_inputstream.HTMLBinaryInput\lStream.detectBOM",height=0.2,width=0.4,color="black", fillcolor="grey75", style="filled", fontcolor="black",tooltip=" "];
  Node1 -> Node2 [color="midnightblue",fontsize="10",style="solid"];
  Node2 [label="pip._vendor.html5lib.\l_inputstream.lookupEncoding",height=0.2,width=0.4,color="black", fillcolor="white", style="filled",URL="$d7/d06/namespacepip_1_1__vendor_1_1html5lib_1_1__inputstream.html#a11b8ac94763b999dc1e626bf5eea3601",tooltip=" "];
}
