digraph "pip._vendor.pep517.wrappers.LoggerWrapper.run"
{
 // LATEX_PDF_SIZE
  edge [fontname="Helvetica",fontsize="10",labelfontname="Helvetica",labelfontsize="10"];
  node [fontname="Helvetica",fontsize="10",shape=record];
  rankdir="LR";
  Node1 [label="pip._vendor.pep517.wrappers.\lLoggerWrapper.run",height=0.2,width=0.4,color="black", fillcolor="grey75", style="filled", fontcolor="black",tooltip=" "];
  Node1 -> Node2 [color="midnightblue",fontsize="10",style="solid"];
  Node2 [label="pip._vendor.pep517.wrappers.\lLoggerWrapper._write",height=0.2,width=0.4,color="black", fillcolor="white", style="filled",URL="$d0/d92/classpip_1_1__vendor_1_1pep517_1_1wrappers_1_1_logger_wrapper.html#a81e4afdfe63e9ba2eb2d85db7b7a9efd",tooltip=" "];
  Node1 -> Node3 [color="midnightblue",fontsize="10",style="solid"];
  Node3 [label="pip._internal.cli.spinners.\lInteractiveSpinner._write",height=0.2,width=0.4,color="black", fillcolor="white", style="filled",URL="$db/d12/classpip_1_1__internal_1_1cli_1_1spinners_1_1_interactive_spinner.html#a2213c86969f0f602551ca237f5a017bf",tooltip=" "];
  Node1 -> Node4 [color="midnightblue",fontsize="10",style="solid"];
  Node4 [label="pip._vendor.pep517.wrappers.\lLoggerWrapper.remove_newline",height=0.2,width=0.4,color="black", fillcolor="white", style="filled",URL="$d0/d92/classpip_1_1__vendor_1_1pep517_1_1wrappers_1_1_logger_wrapper.html#a738ed86306650cbed9544a5b7c10f1b6",tooltip=" "];
}
