digraph "pip._vendor.html5lib.treebuilders.base.TreeBuilder"
{
 // LATEX_PDF_SIZE
  edge [fontname="Helvetica",fontsize="10",labelfontname="Helvetica",labelfontsize="10"];
  node [fontname="Helvetica",fontsize="10",shape=record];
  Node1 [label="{pip._vendor.html5lib.treebuilders.base.\lTreeBuilder\n|+ defaultNamespace\l+ openElements\l+ activeFormattingElements\l+ headPointer\l+ formPointer\l+ document\l+ insertElement\l+ documentClass\l+ elementClass\l+ commentClass\l+ doctypeClass\l+ fragmentClass\l+ insertFromTable\l- _insertFromTable\l|+ __init__()\l+ reset()\l+ elementInScope()\l+ reconstructActiveFormatting\lElements()\l+ clearActiveFormattingElements()\l+ elementInActiveFormatting\lElements()\l+ insertRoot()\l+ insertDoctype()\l+ insertComment()\l+ createElement()\land 8 more...\l- _getInsertFromTable()\l- _setInsertFromTable()\l}",height=0.2,width=0.4,color="black", fillcolor="grey75", style="filled", fontcolor="black",tooltip=" "];
  Node2 -> Node1 [dir="back",color="midnightblue",fontsize="10",style="solid",arrowtail="onormal"];
  Node2 [label="{object\n||}",height=0.2,width=0.4,color="grey75", fillcolor="white", style="filled",tooltip=" "];
}
