digraph "pip._vendor.packaging.version._BaseVersion._compare"
{
 // LATEX_PDF_SIZE
  edge [fontname="Helvetica",fontsize="10",labelfontname="Helvetica",labelfontsize="10"];
  node [fontname="Helvetica",fontsize="10",shape=record];
  rankdir="RL";
  Node1 [label="pip._vendor.packaging.version.\l_BaseVersion._compare",height=0.2,width=0.4,color="black", fillcolor="grey75", style="filled", fontcolor="black",tooltip=" "];
  Node1 -> Node2 [dir="back",color="midnightblue",fontsize="10",style="solid"];
  Node2 [label="pip._vendor.packaging.version.\l_BaseVersion.__eq__",height=0.2,width=0.4,color="black", fillcolor="white", style="filled",URL="$d9/d99/classpip_1_1__vendor_1_1packaging_1_1version_1_1___base_version.html#ad89e467a666ff72cd78c128d33ad20e2",tooltip=" "];
  Node2 -> Node3 [dir="back",color="midnightblue",fontsize="10",style="solid"];
  Node3 [label="pip._vendor.urllib3.\l_collections.HTTPHeaderDict.__ne__",height=0.2,width=0.4,color="black", fillcolor="white", style="filled",URL="$d8/dc7/classpip_1_1__vendor_1_1urllib3_1_1__collections_1_1_h_t_t_p_header_dict.html#a3f4d576e6b092d091cedfd92fe4becb2",tooltip=" "];
  Node1 -> Node4 [dir="back",color="midnightblue",fontsize="10",style="solid"];
  Node4 [label="pkg_resources._vendor.packaging.version.\l_BaseVersion.__eq__",height=0.2,width=0.4,color="black", fillcolor="white", style="filled",URL="$df/da3/classpkg__resources_1_1__vendor_1_1packaging_1_1version_1_1___base_version.html#aa7df680623586d3963b9ea276e73a6e2",tooltip=" "];
  Node1 -> Node5 [dir="back",color="midnightblue",fontsize="10",style="solid"];
  Node5 [label="setuptools._vendor.packaging.version.\l_BaseVersion.__eq__",height=0.2,width=0.4,color="black", fillcolor="white", style="filled",URL="$d6/d08/classsetuptools_1_1__vendor_1_1packaging_1_1version_1_1___base_version.html#af48e2f9cb763dccb458a4d0b9a23f1a3",tooltip=" "];
  Node1 -> Node6 [dir="back",color="midnightblue",fontsize="10",style="solid"];
  Node6 [label="pip._vendor.packaging.version.\l_BaseVersion.__ge__",height=0.2,width=0.4,color="black", fillcolor="white", style="filled",URL="$d9/d99/classpip_1_1__vendor_1_1packaging_1_1version_1_1___base_version.html#a38d5434d53e416ce849997f9cd7836df",tooltip=" "];
  Node1 -> Node7 [dir="back",color="midnightblue",fontsize="10",style="solid"];
  Node7 [label="pkg_resources._vendor.packaging.version.\l_BaseVersion.__ge__",height=0.2,width=0.4,color="black", fillcolor="white", style="filled",URL="$df/da3/classpkg__resources_1_1__vendor_1_1packaging_1_1version_1_1___base_version.html#ab70e84262e778d55f03e0faca98d37ba",tooltip=" "];
  Node1 -> Node8 [dir="back",color="midnightblue",fontsize="10",style="solid"];
  Node8 [label="setuptools._vendor.packaging.version.\l_BaseVersion.__ge__",height=0.2,width=0.4,color="black", fillcolor="white", style="filled",URL="$d6/d08/classsetuptools_1_1__vendor_1_1packaging_1_1version_1_1___base_version.html#a1540bb23ab0a359c40020118eba60407",tooltip=" "];
  Node1 -> Node9 [dir="back",color="midnightblue",fontsize="10",style="solid"];
  Node9 [label="pip._vendor.packaging.version.\l_BaseVersion.__gt__",height=0.2,width=0.4,color="black", fillcolor="white", style="filled",URL="$d9/d99/classpip_1_1__vendor_1_1packaging_1_1version_1_1___base_version.html#aa468fdcbb92fb38afc6a517150bd15e6",tooltip=" "];
  Node1 -> Node10 [dir="back",color="midnightblue",fontsize="10",style="solid"];
  Node10 [label="pkg_resources._vendor.packaging.version.\l_BaseVersion.__gt__",height=0.2,width=0.4,color="black", fillcolor="white", style="filled",URL="$df/da3/classpkg__resources_1_1__vendor_1_1packaging_1_1version_1_1___base_version.html#a90615e99a9d83c8434923bfe763d598c",tooltip=" "];
  Node1 -> Node11 [dir="back",color="midnightblue",fontsize="10",style="solid"];
  Node11 [label="setuptools._vendor.packaging.version.\l_BaseVersion.__gt__",height=0.2,width=0.4,color="black", fillcolor="white", style="filled",URL="$d6/d08/classsetuptools_1_1__vendor_1_1packaging_1_1version_1_1___base_version.html#a177dc7a3808df42256904d188848b824",tooltip=" "];
  Node1 -> Node12 [dir="back",color="midnightblue",fontsize="10",style="solid"];
  Node12 [label="pip._vendor.packaging.version.\l_BaseVersion.__le__",height=0.2,width=0.4,color="black", fillcolor="white", style="filled",URL="$d9/d99/classpip_1_1__vendor_1_1packaging_1_1version_1_1___base_version.html#a915576cb0f135be68ec8dfabd97706bc",tooltip=" "];
  Node1 -> Node13 [dir="back",color="midnightblue",fontsize="10",style="solid"];
  Node13 [label="pkg_resources._vendor.packaging.version.\l_BaseVersion.__le__",height=0.2,width=0.4,color="black", fillcolor="white", style="filled",URL="$df/da3/classpkg__resources_1_1__vendor_1_1packaging_1_1version_1_1___base_version.html#a33fd377a1abd86fe7b248798542b7bbe",tooltip=" "];
  Node1 -> Node14 [dir="back",color="midnightblue",fontsize="10",style="solid"];
  Node14 [label="setuptools._vendor.packaging.version.\l_BaseVersion.__le__",height=0.2,width=0.4,color="black", fillcolor="white", style="filled",URL="$d6/d08/classsetuptools_1_1__vendor_1_1packaging_1_1version_1_1___base_version.html#a5cffa6a46c9d06cff6706bc814e8123e",tooltip=" "];
  Node1 -> Node15 [dir="back",color="midnightblue",fontsize="10",style="solid"];
  Node15 [label="pip._vendor.packaging.version.\l_BaseVersion.__lt__",height=0.2,width=0.4,color="black", fillcolor="white", style="filled",URL="$d9/d99/classpip_1_1__vendor_1_1packaging_1_1version_1_1___base_version.html#af3fa2ce7cdd1152f7d20f0eb56249bd2",tooltip=" "];
  Node1 -> Node16 [dir="back",color="midnightblue",fontsize="10",style="solid"];
  Node16 [label="pkg_resources._vendor.packaging.version.\l_BaseVersion.__lt__",height=0.2,width=0.4,color="black", fillcolor="white", style="filled",URL="$df/da3/classpkg__resources_1_1__vendor_1_1packaging_1_1version_1_1___base_version.html#a9de5dc61282a0ebcdebfb51f21db3a67",tooltip=" "];
  Node1 -> Node17 [dir="back",color="midnightblue",fontsize="10",style="solid"];
  Node17 [label="setuptools._vendor.packaging.version.\l_BaseVersion.__lt__",height=0.2,width=0.4,color="black", fillcolor="white", style="filled",URL="$d6/d08/classsetuptools_1_1__vendor_1_1packaging_1_1version_1_1___base_version.html#a6b30200919d1f89d2ab98607f1e5b3bf",tooltip=" "];
  Node1 -> Node18 [dir="back",color="midnightblue",fontsize="10",style="solid"];
  Node18 [label="pip._vendor.packaging.version.\l_BaseVersion.__ne__",height=0.2,width=0.4,color="black", fillcolor="white", style="filled",URL="$d9/d99/classpip_1_1__vendor_1_1packaging_1_1version_1_1___base_version.html#ad26e20f77d5afcf9be871a13f5ac39ac",tooltip=" "];
  Node1 -> Node19 [dir="back",color="midnightblue",fontsize="10",style="solid"];
  Node19 [label="pkg_resources._vendor.packaging.version.\l_BaseVersion.__ne__",height=0.2,width=0.4,color="black", fillcolor="white", style="filled",URL="$df/da3/classpkg__resources_1_1__vendor_1_1packaging_1_1version_1_1___base_version.html#a13ddf24975b4e331cdbfbd7fd9513496",tooltip=" "];
  Node1 -> Node20 [dir="back",color="midnightblue",fontsize="10",style="solid"];
  Node20 [label="setuptools._vendor.packaging.version.\l_BaseVersion.__ne__",height=0.2,width=0.4,color="black", fillcolor="white", style="filled",URL="$d6/d08/classsetuptools_1_1__vendor_1_1packaging_1_1version_1_1___base_version.html#aff0afe8376f116afd936dc82be92a60e",tooltip=" "];
}
