digraph "pip._vendor.html5lib._tokenizer.HTMLTokenizer.commentEndBangState"
{
 // LATEX_PDF_SIZE
  edge [fontname="Helvetica",fontsize="10",labelfontname="Helvetica",labelfontsize="10"];
  node [fontname="Helvetica",fontsize="10",shape=record];
  rankdir="RL";
  Node1 [label="pip._vendor.html5lib.\l_tokenizer.HTMLTokenizer.comment\lEndBangState",height=0.2,width=0.4,color="black", fillcolor="grey75", style="filled", fontcolor="black",tooltip=" "];
  Node1 -> Node2 [dir="back",color="midnightblue",fontsize="10",style="solid",fontname="Helvetica"];
  Node2 [label="pip._vendor.html5lib.\l_tokenizer.HTMLTokenizer.comment\lEndState",height=0.2,width=0.4,color="black", fillcolor="white", style="filled",URL="$d1/d15/classpip_1_1__vendor_1_1html5lib_1_1__tokenizer_1_1_h_t_m_l_tokenizer.html#a7f1c054f8262619ebe026c1c4c4edf1d",tooltip=" "];
  Node2 -> Node3 [dir="back",color="midnightblue",fontsize="10",style="solid",fontname="Helvetica"];
  Node3 [label="pip._vendor.html5lib.\l_tokenizer.HTMLTokenizer.comment\lEndDashState",height=0.2,width=0.4,color="black", fillcolor="white", style="filled",URL="$d1/d15/classpip_1_1__vendor_1_1html5lib_1_1__tokenizer_1_1_h_t_m_l_tokenizer.html#a69c493c0458133c83de8e3ca0984e34c",tooltip=" "];
  Node3 -> Node1 [dir="back",color="midnightblue",fontsize="10",style="solid",fontname="Helvetica"];
  Node3 -> Node4 [dir="back",color="midnightblue",fontsize="10",style="solid",fontname="Helvetica"];
  Node4 [label="pip._vendor.html5lib.\l_tokenizer.HTMLTokenizer.comment\lState",height=0.2,width=0.4,color="black", fillcolor="white", style="filled",URL="$d1/d15/classpip_1_1__vendor_1_1html5lib_1_1__tokenizer_1_1_h_t_m_l_tokenizer.html#aa372516e2fec3159940b40be58f12142",tooltip=" "];
  Node4 -> Node1 [dir="back",color="midnightblue",fontsize="10",style="solid",fontname="Helvetica"];
  Node4 -> Node3 [dir="back",color="midnightblue",fontsize="10",style="solid",fontname="Helvetica"];
  Node4 -> Node2 [dir="back",color="midnightblue",fontsize="10",style="solid",fontname="Helvetica"];
  Node4 -> Node5 [dir="back",color="midnightblue",fontsize="10",style="solid",fontname="Helvetica"];
  Node5 [label="pip._vendor.html5lib.\l_tokenizer.HTMLTokenizer.comment\lStartDashState",height=0.2,width=0.4,color="black", fillcolor="white", style="filled",URL="$d1/d15/classpip_1_1__vendor_1_1html5lib_1_1__tokenizer_1_1_h_t_m_l_tokenizer.html#a7298e7d8ba32e9cb5c0b71b0d7f21f98",tooltip=" "];
  Node5 -> Node6 [dir="back",color="midnightblue",fontsize="10",style="solid",fontname="Helvetica"];
  Node6 [label="pip._vendor.html5lib.\l_tokenizer.HTMLTokenizer.comment\lStartState",height=0.2,width=0.4,color="black", fillcolor="white", style="filled",URL="$d1/d15/classpip_1_1__vendor_1_1html5lib_1_1__tokenizer_1_1_h_t_m_l_tokenizer.html#a0feb931b0e479d162005f8338e7de52e",tooltip=" "];
  Node6 -> Node7 [dir="back",color="midnightblue",fontsize="10",style="solid",fontname="Helvetica"];
  Node7 [label="pip._vendor.html5lib.\l_tokenizer.HTMLTokenizer.markup\lDeclarationOpenState",height=0.2,width=0.4,color="black", fillcolor="white", style="filled",URL="$d1/d15/classpip_1_1__vendor_1_1html5lib_1_1__tokenizer_1_1_h_t_m_l_tokenizer.html#a778d110b87f171b2075034f01d235e2b",tooltip=" "];
  Node7 -> Node8 [dir="back",color="midnightblue",fontsize="10",style="solid",fontname="Helvetica"];
  Node8 [label="pip._vendor.html5lib.\l_tokenizer.HTMLTokenizer.tag\lOpenState",height=0.2,width=0.4,color="black", fillcolor="white", style="filled",URL="$d1/d15/classpip_1_1__vendor_1_1html5lib_1_1__tokenizer_1_1_h_t_m_l_tokenizer.html#add701dff4d1ada0a52ae333d50a72d84",tooltip=" "];
  Node8 -> Node9 [dir="back",color="midnightblue",fontsize="10",style="solid",fontname="Helvetica"];
  Node9 [label="pip._vendor.html5lib.\l_tokenizer.HTMLTokenizer.data\lState",height=0.2,width=0.4,color="black", fillcolor="white", style="filled",URL="$d1/d15/classpip_1_1__vendor_1_1html5lib_1_1__tokenizer_1_1_h_t_m_l_tokenizer.html#affad458a1ca066c41bcd58d57b489c4a",tooltip=" "];
  Node9 -> Node10 [dir="back",color="midnightblue",fontsize="10",style="solid",fontname="Helvetica"];
  Node10 [label="pip._vendor.html5lib.\l_tokenizer.HTMLTokenizer.after\lAttributeNameState",height=0.2,width=0.4,color="black", fillcolor="white", style="filled",URL="$d1/d15/classpip_1_1__vendor_1_1html5lib_1_1__tokenizer_1_1_h_t_m_l_tokenizer.html#ab7a81e41688058d7442ab32f6d90405c",tooltip=" "];
  Node10 -> Node11 [dir="back",color="midnightblue",fontsize="10",style="solid",fontname="Helvetica"];
  Node11 [label="pip._vendor.html5lib.\l_tokenizer.HTMLTokenizer.attribute\lNameState",height=0.2,width=0.4,color="black", fillcolor="white", style="filled",URL="$d1/d15/classpip_1_1__vendor_1_1html5lib_1_1__tokenizer_1_1_h_t_m_l_tokenizer.html#a721955f1490609f2397578f37ade5b98",tooltip=" "];
  Node11 -> Node10 [dir="back",color="midnightblue",fontsize="10",style="solid",fontname="Helvetica"];
  Node11 -> Node12 [dir="back",color="midnightblue",fontsize="10",style="solid",fontname="Helvetica"];
  Node12 [label="pip._vendor.html5lib.\l_tokenizer.HTMLTokenizer.before\lAttributeNameState",height=0.2,width=0.4,color="black", fillcolor="white", style="filled",URL="$d1/d15/classpip_1_1__vendor_1_1html5lib_1_1__tokenizer_1_1_h_t_m_l_tokenizer.html#a75947dab8d198648f83f047b7bb33474",tooltip=" "];
  Node12 -> Node13 [dir="back",color="midnightblue",fontsize="10",style="solid",fontname="Helvetica"];
  Node13 [label="pip._vendor.html5lib.\l_tokenizer.HTMLTokenizer.after\lAttributeValueState",height=0.2,width=0.4,color="black", fillcolor="white", style="filled",URL="$d1/d15/classpip_1_1__vendor_1_1html5lib_1_1__tokenizer_1_1_h_t_m_l_tokenizer.html#a40513b48271e23c6aa6b59bc7d0e2156",tooltip=" "];
  Node13 -> Node14 [dir="back",color="midnightblue",fontsize="10",style="solid",fontname="Helvetica"];
  Node14 [label="pip._vendor.html5lib.\l_tokenizer.HTMLTokenizer.attribute\lValueDoubleQuotedState",height=0.2,width=0.4,color="black", fillcolor="white", style="filled",URL="$d1/d15/classpip_1_1__vendor_1_1html5lib_1_1__tokenizer_1_1_h_t_m_l_tokenizer.html#aada4bae10c7bd0910b75c9356ecb27bf",tooltip=" "];
  Node14 -> Node15 [dir="back",color="midnightblue",fontsize="10",style="solid",fontname="Helvetica"];
  Node15 [label="pip._vendor.html5lib.\l_tokenizer.HTMLTokenizer.before\lAttributeValueState",height=0.2,width=0.4,color="black", fillcolor="white", style="filled",URL="$d1/d15/classpip_1_1__vendor_1_1html5lib_1_1__tokenizer_1_1_h_t_m_l_tokenizer.html#a0afdc918edc55b9af9f1746ca7e13dd5",tooltip=" "];
  Node15 -> Node10 [dir="back",color="midnightblue",fontsize="10",style="solid",fontname="Helvetica"];
  Node15 -> Node11 [dir="back",color="midnightblue",fontsize="10",style="solid",fontname="Helvetica"];
  Node13 -> Node16 [dir="back",color="midnightblue",fontsize="10",style="solid",fontname="Helvetica"];
  Node16 [label="pip._vendor.html5lib.\l_tokenizer.HTMLTokenizer.attribute\lValueSingleQuotedState",height=0.2,width=0.4,color="black", fillcolor="white", style="filled",URL="$d1/d15/classpip_1_1__vendor_1_1html5lib_1_1__tokenizer_1_1_h_t_m_l_tokenizer.html#a15a7dc634202c1a345875e08fdb46b5b",tooltip=" "];
  Node16 -> Node15 [dir="back",color="midnightblue",fontsize="10",style="solid",fontname="Helvetica"];
  Node12 -> Node17 [dir="back",color="midnightblue",fontsize="10",style="solid",fontname="Helvetica"];
  Node17 [label="pip._vendor.html5lib.\l_tokenizer.HTMLTokenizer.attribute\lValueUnQuotedState",height=0.2,width=0.4,color="black", fillcolor="white", style="filled",URL="$d1/d15/classpip_1_1__vendor_1_1html5lib_1_1__tokenizer_1_1_h_t_m_l_tokenizer.html#ade3e299a92cfe35edd4d8bd017e9ca98",tooltip=" "];
  Node17 -> Node15 [dir="back",color="midnightblue",fontsize="10",style="solid",fontname="Helvetica"];
  Node12 -> Node18 [dir="back",color="midnightblue",fontsize="10",style="solid",fontname="Helvetica"];
  Node18 [label="pip._vendor.html5lib.\l_tokenizer.HTMLTokenizer.rawtext\lEndTagNameState",height=0.2,width=0.4,color="red", fillcolor="white", style="filled",URL="$d1/d15/classpip_1_1__vendor_1_1html5lib_1_1__tokenizer_1_1_h_t_m_l_tokenizer.html#aa68056f6b638d3e064aacfe9bf154835",tooltip=" "];
  Node12 -> Node22 [dir="back",color="midnightblue",fontsize="10",style="solid",fontname="Helvetica"];
  Node22 [label="pip._vendor.html5lib.\l_tokenizer.HTMLTokenizer.rcdata\lEndTagNameState",height=0.2,width=0.4,color="red", fillcolor="white", style="filled",URL="$d1/d15/classpip_1_1__vendor_1_1html5lib_1_1__tokenizer_1_1_h_t_m_l_tokenizer.html#ab5926d805a5e77dca0e497be3282f521",tooltip=" "];
  Node12 -> Node24 [dir="back",color="midnightblue",fontsize="10",style="solid",fontname="Helvetica"];
  Node24 [label="pip._vendor.html5lib.\l_tokenizer.HTMLTokenizer.script\lDataEndTagNameState",height=0.2,width=0.4,color="red", fillcolor="white", style="filled",URL="$d1/d15/classpip_1_1__vendor_1_1html5lib_1_1__tokenizer_1_1_h_t_m_l_tokenizer.html#add268458ace6581fdd03ef63cbeee75e",tooltip=" "];
  Node12 -> Node38 [dir="back",color="midnightblue",fontsize="10",style="solid",fontname="Helvetica"];
  Node38 [label="pip._vendor.html5lib.\l_tokenizer.HTMLTokenizer.script\lDataEscapedEndTagNameState",height=0.2,width=0.4,color="red", fillcolor="white", style="filled",URL="$d1/d15/classpip_1_1__vendor_1_1html5lib_1_1__tokenizer_1_1_h_t_m_l_tokenizer.html#a28844de32a0c4634a9767614536a6948",tooltip=" "];
  Node12 -> Node42 [dir="back",color="midnightblue",fontsize="10",style="solid",fontname="Helvetica"];
  Node42 [label="pip._vendor.html5lib.\l_tokenizer.HTMLTokenizer.self\lClosingStartTagState",height=0.2,width=0.4,color="black", fillcolor="white", style="filled",URL="$d1/d15/classpip_1_1__vendor_1_1html5lib_1_1__tokenizer_1_1_h_t_m_l_tokenizer.html#a580af8a1781ce38d388b405d56db940e",tooltip=" "];
  Node42 -> Node10 [dir="back",color="midnightblue",fontsize="10",style="solid",fontname="Helvetica"];
  Node42 -> Node13 [dir="back",color="midnightblue",fontsize="10",style="solid",fontname="Helvetica"];
  Node42 -> Node11 [dir="back",color="midnightblue",fontsize="10",style="solid",fontname="Helvetica"];
  Node42 -> Node12 [dir="back",color="midnightblue",fontsize="10",style="solid",fontname="Helvetica"];
  Node42 -> Node18 [dir="back",color="midnightblue",fontsize="10",style="solid",fontname="Helvetica"];
  Node42 -> Node22 [dir="back",color="midnightblue",fontsize="10",style="solid",fontname="Helvetica"];
  Node42 -> Node24 [dir="back",color="midnightblue",fontsize="10",style="solid",fontname="Helvetica"];
  Node42 -> Node38 [dir="back",color="midnightblue",fontsize="10",style="solid",fontname="Helvetica"];
  Node42 -> Node43 [dir="back",color="midnightblue",fontsize="10",style="solid",fontname="Helvetica"];
  Node43 [label="pip._vendor.html5lib.\l_tokenizer.HTMLTokenizer.tag\lNameState",height=0.2,width=0.4,color="black", fillcolor="white", style="filled",URL="$d1/d15/classpip_1_1__vendor_1_1html5lib_1_1__tokenizer_1_1_h_t_m_l_tokenizer.html#a12051100f2d4f1045b834a4b303e8f8b",tooltip=" "];
  Node43 -> Node44 [dir="back",color="midnightblue",fontsize="10",style="solid",fontname="Helvetica"];
  Node44 [label="pip._vendor.html5lib.\l_tokenizer.HTMLTokenizer.close\lTagOpenState",height=0.2,width=0.4,color="black", fillcolor="white", style="filled",URL="$d1/d15/classpip_1_1__vendor_1_1html5lib_1_1__tokenizer_1_1_h_t_m_l_tokenizer.html#aab95d2ca82202a18b159a08b84637c19",tooltip=" "];
  Node44 -> Node8 [dir="back",color="midnightblue",fontsize="10",style="solid",fontname="Helvetica"];
  Node43 -> Node8 [dir="back",color="midnightblue",fontsize="10",style="solid",fontname="Helvetica"];
  Node12 -> Node43 [dir="back",color="midnightblue",fontsize="10",style="solid",fontname="Helvetica"];
  Node9 -> Node13 [dir="back",color="midnightblue",fontsize="10",style="solid",fontname="Helvetica"];
  Node9 -> Node45 [dir="back",color="midnightblue",fontsize="10",style="solid",fontname="Helvetica"];
  Node45 [label="pip._vendor.html5lib.\l_tokenizer.HTMLTokenizer.after\lDoctypeNameState",height=0.2,width=0.4,color="black", fillcolor="white", style="filled",URL="$d1/d15/classpip_1_1__vendor_1_1html5lib_1_1__tokenizer_1_1_h_t_m_l_tokenizer.html#a3705ea49281e4f8f48e62ad21e42087d",tooltip=" "];
  Node45 -> Node46 [dir="back",color="midnightblue",fontsize="10",style="solid",fontname="Helvetica"];
  Node46 [label="pip._vendor.html5lib.\l_tokenizer.HTMLTokenizer.doctype\lNameState",height=0.2,width=0.4,color="black", fillcolor="white", style="filled",URL="$d1/d15/classpip_1_1__vendor_1_1html5lib_1_1__tokenizer_1_1_h_t_m_l_tokenizer.html#a75e83ba0343c595e42a7d77909d23441",tooltip=" "];
  Node46 -> Node47 [dir="back",color="midnightblue",fontsize="10",style="solid",fontname="Helvetica"];
  Node47 [label="pip._vendor.html5lib.\l_tokenizer.HTMLTokenizer.before\lDoctypeNameState",height=0.2,width=0.4,color="black", fillcolor="white", style="filled",URL="$d1/d15/classpip_1_1__vendor_1_1html5lib_1_1__tokenizer_1_1_h_t_m_l_tokenizer.html#a5825bca2482af283b93eaff7df8ce06d",tooltip=" "];
  Node47 -> Node48 [dir="back",color="midnightblue",fontsize="10",style="solid",fontname="Helvetica"];
  Node48 [label="pip._vendor.html5lib.\l_tokenizer.HTMLTokenizer.doctype\lState",height=0.2,width=0.4,color="black", fillcolor="white", style="filled",URL="$d1/d15/classpip_1_1__vendor_1_1html5lib_1_1__tokenizer_1_1_h_t_m_l_tokenizer.html#afb1768bd3408e887cdfa490fb464cd1e",tooltip=" "];
  Node48 -> Node7 [dir="back",color="midnightblue",fontsize="10",style="solid",fontname="Helvetica"];
  Node46 -> Node46 [dir="back",color="midnightblue",fontsize="10",style="solid",fontname="Helvetica"];
  Node9 -> Node49 [dir="back",color="midnightblue",fontsize="10",style="solid",fontname="Helvetica"];
  Node49 [label="pip._vendor.html5lib.\l_tokenizer.HTMLTokenizer.after\lDoctypePublicIdentifierState",height=0.2,width=0.4,color="black", fillcolor="white", style="filled",URL="$d1/d15/classpip_1_1__vendor_1_1html5lib_1_1__tokenizer_1_1_h_t_m_l_tokenizer.html#ae5b235e441cf7fef7ebcf77e1243dc44",tooltip=" "];
  Node49 -> Node50 [dir="back",color="midnightblue",fontsize="10",style="solid",fontname="Helvetica"];
  Node50 [label="pip._vendor.html5lib.\l_tokenizer.HTMLTokenizer.doctype\lPublicIdentifierDoubleQuotedState",height=0.2,width=0.4,color="black", fillcolor="white", style="filled",URL="$d1/d15/classpip_1_1__vendor_1_1html5lib_1_1__tokenizer_1_1_h_t_m_l_tokenizer.html#ac6e808a56985fe7e4bbd6e78bbd68f18",tooltip=" "];
  Node50 -> Node51 [dir="back",color="midnightblue",fontsize="10",style="solid",fontname="Helvetica"];
  Node51 [label="pip._vendor.html5lib.\l_tokenizer.HTMLTokenizer.before\lDoctypePublicIdentifierState",height=0.2,width=0.4,color="black", fillcolor="white", style="filled",URL="$d1/d15/classpip_1_1__vendor_1_1html5lib_1_1__tokenizer_1_1_h_t_m_l_tokenizer.html#a4c987d9e7d8ef8f29453f01d4f03c32f",tooltip=" "];
  Node51 -> Node52 [dir="back",color="midnightblue",fontsize="10",style="solid",fontname="Helvetica"];
  Node52 [label="pip._vendor.html5lib.\l_tokenizer.HTMLTokenizer.after\lDoctypePublicKeywordState",height=0.2,width=0.4,color="black", fillcolor="white", style="filled",URL="$d1/d15/classpip_1_1__vendor_1_1html5lib_1_1__tokenizer_1_1_h_t_m_l_tokenizer.html#a85375ec13d048b11cd3cc5c098a7d09d",tooltip=" "];
  Node52 -> Node45 [dir="back",color="midnightblue",fontsize="10",style="solid",fontname="Helvetica"];
  Node49 -> Node53 [dir="back",color="midnightblue",fontsize="10",style="solid",fontname="Helvetica"];
  Node53 [label="pip._vendor.html5lib.\l_tokenizer.HTMLTokenizer.doctype\lPublicIdentifierSingleQuotedState",height=0.2,width=0.4,color="black", fillcolor="white", style="filled",URL="$d1/d15/classpip_1_1__vendor_1_1html5lib_1_1__tokenizer_1_1_h_t_m_l_tokenizer.html#aba3a7ce78bbfbd7d3afed507ab6bcd2d",tooltip=" "];
  Node53 -> Node51 [dir="back",color="midnightblue",fontsize="10",style="solid",fontname="Helvetica"];
  Node9 -> Node52 [dir="back",color="midnightblue",fontsize="10",style="solid",fontname="Helvetica"];
  Node9 -> Node54 [dir="back",color="midnightblue",fontsize="10",style="solid",fontname="Helvetica"];
  Node54 [label="pip._vendor.html5lib.\l_tokenizer.HTMLTokenizer.after\lDoctypeSystemIdentifierState",height=0.2,width=0.4,color="black", fillcolor="white", style="filled",URL="$d1/d15/classpip_1_1__vendor_1_1html5lib_1_1__tokenizer_1_1_h_t_m_l_tokenizer.html#a37007d3029e0065e69eb3e1baf5add5c",tooltip=" "];
  Node54 -> Node55 [dir="back",color="midnightblue",fontsize="10",style="solid",fontname="Helvetica"];
  Node55 [label="pip._vendor.html5lib.\l_tokenizer.HTMLTokenizer.doctype\lSystemIdentifierDoubleQuotedState",height=0.2,width=0.4,color="black", fillcolor="white", style="filled",URL="$d1/d15/classpip_1_1__vendor_1_1html5lib_1_1__tokenizer_1_1_h_t_m_l_tokenizer.html#a36b6412748873564b80436031ed7c405",tooltip=" "];
  Node55 -> Node49 [dir="back",color="midnightblue",fontsize="10",style="solid",fontname="Helvetica"];
  Node55 -> Node56 [dir="back",color="midnightblue",fontsize="10",style="solid",fontname="Helvetica"];
  Node56 [label="pip._vendor.html5lib.\l_tokenizer.HTMLTokenizer.before\lDoctypeSystemIdentifierState",height=0.2,width=0.4,color="black", fillcolor="white", style="filled",URL="$d1/d15/classpip_1_1__vendor_1_1html5lib_1_1__tokenizer_1_1_h_t_m_l_tokenizer.html#ae4e2226e005cc83a7454ad43758a537f",tooltip=" "];
  Node56 -> Node57 [dir="back",color="midnightblue",fontsize="10",style="solid",fontname="Helvetica"];
  Node57 [label="pip._vendor.html5lib.\l_tokenizer.HTMLTokenizer.after\lDoctypeSystemKeywordState",height=0.2,width=0.4,color="black", fillcolor="white", style="filled",URL="$d1/d15/classpip_1_1__vendor_1_1html5lib_1_1__tokenizer_1_1_h_t_m_l_tokenizer.html#a7dd4b1fcb9173bf34affcb6a0e0cfaed",tooltip=" "];
  Node57 -> Node45 [dir="back",color="midnightblue",fontsize="10",style="solid",fontname="Helvetica"];
  Node55 -> Node58 [dir="back",color="midnightblue",fontsize="10",style="solid",fontname="Helvetica"];
  Node58 [label="pip._vendor.html5lib.\l_tokenizer.HTMLTokenizer.between\lDoctypePublicAndSystemIdentifiersState",height=0.2,width=0.4,color="black", fillcolor="white", style="filled",URL="$d1/d15/classpip_1_1__vendor_1_1html5lib_1_1__tokenizer_1_1_h_t_m_l_tokenizer.html#a502d17571565673fc95038befdf2265d",tooltip=" "];
  Node58 -> Node49 [dir="back",color="midnightblue",fontsize="10",style="solid",fontname="Helvetica"];
  Node54 -> Node59 [dir="back",color="midnightblue",fontsize="10",style="solid",fontname="Helvetica"];
  Node59 [label="pip._vendor.html5lib.\l_tokenizer.HTMLTokenizer.doctype\lSystemIdentifierSingleQuotedState",height=0.2,width=0.4,color="black", fillcolor="white", style="filled",URL="$d1/d15/classpip_1_1__vendor_1_1html5lib_1_1__tokenizer_1_1_h_t_m_l_tokenizer.html#a91ba7aa006e10d6a914b367d60c60b06",tooltip=" "];
  Node59 -> Node49 [dir="back",color="midnightblue",fontsize="10",style="solid",fontname="Helvetica"];
  Node59 -> Node56 [dir="back",color="midnightblue",fontsize="10",style="solid",fontname="Helvetica"];
  Node59 -> Node58 [dir="back",color="midnightblue",fontsize="10",style="solid",fontname="Helvetica"];
  Node9 -> Node57 [dir="back",color="midnightblue",fontsize="10",style="solid",fontname="Helvetica"];
  Node9 -> Node11 [dir="back",color="midnightblue",fontsize="10",style="solid",fontname="Helvetica"];
  Node9 -> Node14 [dir="back",color="midnightblue",fontsize="10",style="solid",fontname="Helvetica"];
  Node9 -> Node16 [dir="back",color="midnightblue",fontsize="10",style="solid",fontname="Helvetica"];
  Node9 -> Node17 [dir="back",color="midnightblue",fontsize="10",style="solid",fontname="Helvetica"];
  Node9 -> Node12 [dir="back",color="midnightblue",fontsize="10",style="solid",fontname="Helvetica"];
  Node9 -> Node15 [dir="back",color="midnightblue",fontsize="10",style="solid",fontname="Helvetica"];
  Node9 -> Node47 [dir="back",color="midnightblue",fontsize="10",style="solid",fontname="Helvetica"];
  Node9 -> Node51 [dir="back",color="midnightblue",fontsize="10",style="solid",fontname="Helvetica"];
  Node9 -> Node56 [dir="back",color="midnightblue",fontsize="10",style="solid",fontname="Helvetica"];
  Node9 -> Node58 [dir="back",color="midnightblue",fontsize="10",style="solid",fontname="Helvetica"];
  Node9 -> Node60 [dir="back",color="midnightblue",fontsize="10",style="solid",fontname="Helvetica"];
  Node60 [label="pip._vendor.html5lib.\l_tokenizer.HTMLTokenizer.bogus\lCommentState",height=0.2,width=0.4,color="black", fillcolor="white", style="filled",URL="$d1/d15/classpip_1_1__vendor_1_1html5lib_1_1__tokenizer_1_1_h_t_m_l_tokenizer.html#ac0aa9cf3f362e8f08ff778f78e5f9dc9",tooltip=" "];
  Node60 -> Node44 [dir="back",color="midnightblue",fontsize="10",style="solid",fontname="Helvetica"];
  Node60 -> Node7 [dir="back",color="midnightblue",fontsize="10",style="solid",fontname="Helvetica"];
  Node60 -> Node8 [dir="back",color="midnightblue",fontsize="10",style="solid",fontname="Helvetica"];
  Node9 -> Node61 [dir="back",color="midnightblue",fontsize="10",style="solid",fontname="Helvetica"];
  Node61 [label="pip._vendor.html5lib.\l_tokenizer.HTMLTokenizer.bogus\lDoctypeState",height=0.2,width=0.4,color="black", fillcolor="white", style="filled",URL="$d1/d15/classpip_1_1__vendor_1_1html5lib_1_1__tokenizer_1_1_h_t_m_l_tokenizer.html#a855bf68db7e67ffd4dcc8be5ec283630",tooltip=" "];
  Node61 -> Node45 [dir="back",color="midnightblue",fontsize="10",style="solid",fontname="Helvetica"];
  Node61 -> Node49 [dir="back",color="midnightblue",fontsize="10",style="solid",fontname="Helvetica"];
  Node61 -> Node54 [dir="back",color="midnightblue",fontsize="10",style="solid",fontname="Helvetica"];
  Node61 -> Node51 [dir="back",color="midnightblue",fontsize="10",style="solid",fontname="Helvetica"];
  Node61 -> Node56 [dir="back",color="midnightblue",fontsize="10",style="solid",fontname="Helvetica"];
  Node61 -> Node58 [dir="back",color="midnightblue",fontsize="10",style="solid",fontname="Helvetica"];
  Node9 -> Node62 [dir="back",color="midnightblue",fontsize="10",style="solid",fontname="Helvetica"];
  Node62 [label="pip._vendor.html5lib.\l_tokenizer.HTMLTokenizer.cdata\lSectionState",height=0.2,width=0.4,color="black", fillcolor="white", style="filled",URL="$d1/d15/classpip_1_1__vendor_1_1html5lib_1_1__tokenizer_1_1_h_t_m_l_tokenizer.html#a7dc11e41a0f2a56964ac7ba6fb215a38",tooltip=" "];
  Node62 -> Node7 [dir="back",color="midnightblue",fontsize="10",style="solid",fontname="Helvetica"];
  Node9 -> Node44 [dir="back",color="midnightblue",fontsize="10",style="solid",fontname="Helvetica"];
  Node9 -> Node1 [dir="back",color="midnightblue",fontsize="10",style="solid",fontname="Helvetica"];
  Node9 -> Node3 [dir="back",color="midnightblue",fontsize="10",style="solid",fontname="Helvetica"];
  Node9 -> Node2 [dir="back",color="midnightblue",fontsize="10",style="solid",fontname="Helvetica"];
  Node9 -> Node5 [dir="back",color="midnightblue",fontsize="10",style="solid",fontname="Helvetica"];
  Node9 -> Node6 [dir="back",color="midnightblue",fontsize="10",style="solid",fontname="Helvetica"];
  Node9 -> Node4 [dir="back",color="midnightblue",fontsize="10",style="solid",fontname="Helvetica"];
  Node9 -> Node46 [dir="back",color="midnightblue",fontsize="10",style="solid",fontname="Helvetica"];
  Node9 -> Node50 [dir="back",color="midnightblue",fontsize="10",style="solid",fontname="Helvetica"];
  Node9 -> Node53 [dir="back",color="midnightblue",fontsize="10",style="solid",fontname="Helvetica"];
  Node9 -> Node48 [dir="back",color="midnightblue",fontsize="10",style="solid",fontname="Helvetica"];
  Node9 -> Node55 [dir="back",color="midnightblue",fontsize="10",style="solid",fontname="Helvetica"];
  Node9 -> Node59 [dir="back",color="midnightblue",fontsize="10",style="solid",fontname="Helvetica"];
  Node9 -> Node63 [dir="back",color="midnightblue",fontsize="10",style="solid",fontname="Helvetica"];
  Node63 [label="pip._vendor.html5lib.\l_tokenizer.HTMLTokenizer.emit\lCurrentToken",height=0.2,width=0.4,color="black", fillcolor="white", style="filled",URL="$d1/d15/classpip_1_1__vendor_1_1html5lib_1_1__tokenizer_1_1_h_t_m_l_tokenizer.html#a2764bdec69294eb88309e2f12a9bb6df",tooltip=" "];
  Node63 -> Node10 [dir="back",color="midnightblue",fontsize="10",style="solid",fontname="Helvetica"];
  Node63 -> Node13 [dir="back",color="midnightblue",fontsize="10",style="solid",fontname="Helvetica"];
  Node63 -> Node11 [dir="back",color="midnightblue",fontsize="10",style="solid",fontname="Helvetica"];
  Node63 -> Node17 [dir="back",color="midnightblue",fontsize="10",style="solid",fontname="Helvetica"];
  Node63 -> Node12 [dir="back",color="midnightblue",fontsize="10",style="solid",fontname="Helvetica"];
  Node63 -> Node15 [dir="back",color="midnightblue",fontsize="10",style="solid",fontname="Helvetica"];
  Node63 -> Node18 [dir="back",color="midnightblue",fontsize="10",style="solid",fontname="Helvetica"];
  Node63 -> Node22 [dir="back",color="midnightblue",fontsize="10",style="solid",fontname="Helvetica"];
  Node63 -> Node24 [dir="back",color="midnightblue",fontsize="10",style="solid",fontname="Helvetica"];
  Node63 -> Node38 [dir="back",color="midnightblue",fontsize="10",style="solid",fontname="Helvetica"];
  Node63 -> Node42 [dir="back",color="midnightblue",fontsize="10",style="solid",fontname="Helvetica"];
  Node63 -> Node43 [dir="back",color="midnightblue",fontsize="10",style="solid",fontname="Helvetica"];
  Node9 -> Node64 [dir="back",color="midnightblue",fontsize="10",style="solid",fontname="Helvetica"];
  Node64 [label="pip._vendor.html5lib.\l_tokenizer.HTMLTokenizer.entity\lDataState",height=0.2,width=0.4,color="black", fillcolor="white", style="filled",URL="$d1/d15/classpip_1_1__vendor_1_1html5lib_1_1__tokenizer_1_1_h_t_m_l_tokenizer.html#af78047999ff55f9b2d17a1c5e4530657",tooltip=" "];
  Node64 -> Node9 [dir="back",color="midnightblue",fontsize="10",style="solid",fontname="Helvetica"];
  Node9 -> Node18 [dir="back",color="midnightblue",fontsize="10",style="solid",fontname="Helvetica"];
  Node9 -> Node22 [dir="back",color="midnightblue",fontsize="10",style="solid",fontname="Helvetica"];
  Node9 -> Node28 [dir="back",color="midnightblue",fontsize="10",style="solid",fontname="Helvetica"];
  Node28 [label="pip._vendor.html5lib.\l_tokenizer.HTMLTokenizer.script\lDataDoubleEscapedDashDashState",height=0.2,width=0.4,color="black", fillcolor="white", style="filled",URL="$d1/d15/classpip_1_1__vendor_1_1html5lib_1_1__tokenizer_1_1_h_t_m_l_tokenizer.html#a24f1d17718847f0b9fe606afd7a72f2d",tooltip=" "];
  Node28 -> Node29 [dir="back",color="midnightblue",fontsize="10",style="solid",fontname="Helvetica"];
  Node29 [label="pip._vendor.html5lib.\l_tokenizer.HTMLTokenizer.script\lDataDoubleEscapedDashState",height=0.2,width=0.4,color="black", fillcolor="white", style="filled",URL="$d1/d15/classpip_1_1__vendor_1_1html5lib_1_1__tokenizer_1_1_h_t_m_l_tokenizer.html#ad6b3a31475cf29c9cc54c584efd90c8e",tooltip=" "];
  Node29 -> Node30 [dir="back",color="midnightblue",fontsize="10",style="solid",fontname="Helvetica"];
  Node30 [label="pip._vendor.html5lib.\l_tokenizer.HTMLTokenizer.script\lDataDoubleEscapedState",height=0.2,width=0.4,color="red", fillcolor="white", style="filled",URL="$d1/d15/classpip_1_1__vendor_1_1html5lib_1_1__tokenizer_1_1_h_t_m_l_tokenizer.html#a12074fe2e5969b354c0947056f72e44a",tooltip=" "];
  Node30 -> Node28 [dir="back",color="midnightblue",fontsize="10",style="solid",fontname="Helvetica"];
  Node30 -> Node29 [dir="back",color="midnightblue",fontsize="10",style="solid",fontname="Helvetica"];
  Node9 -> Node29 [dir="back",color="midnightblue",fontsize="10",style="solid",fontname="Helvetica"];
  Node9 -> Node30 [dir="back",color="midnightblue",fontsize="10",style="solid",fontname="Helvetica"];
  Node9 -> Node24 [dir="back",color="midnightblue",fontsize="10",style="solid",fontname="Helvetica"];
  Node9 -> Node35 [dir="back",color="midnightblue",fontsize="10",style="solid",fontname="Helvetica"];
  Node35 [label="pip._vendor.html5lib.\l_tokenizer.HTMLTokenizer.script\lDataEscapedDashDashState",height=0.2,width=0.4,color="red", fillcolor="white", style="filled",URL="$d1/d15/classpip_1_1__vendor_1_1html5lib_1_1__tokenizer_1_1_h_t_m_l_tokenizer.html#a9cc43c181b8818e138e16349c5c816b0",tooltip=" "];
  Node35 -> Node36 [dir="back",color="midnightblue",fontsize="10",style="solid",fontname="Helvetica"];
  Node36 [label="pip._vendor.html5lib.\l_tokenizer.HTMLTokenizer.script\lDataEscapedDashState",height=0.2,width=0.4,color="black", fillcolor="white", style="filled",URL="$d1/d15/classpip_1_1__vendor_1_1html5lib_1_1__tokenizer_1_1_h_t_m_l_tokenizer.html#a659b3dc3e0726fe964a432be7e267015",tooltip=" "];
  Node36 -> Node37 [dir="back",color="midnightblue",fontsize="10",style="solid",fontname="Helvetica"];
  Node37 [label="pip._vendor.html5lib.\l_tokenizer.HTMLTokenizer.script\lDataEscapedState",height=0.2,width=0.4,color="red", fillcolor="white", style="filled",URL="$d1/d15/classpip_1_1__vendor_1_1html5lib_1_1__tokenizer_1_1_h_t_m_l_tokenizer.html#ade2a0986d939b76868f140564a45418d",tooltip=" "];
  Node37 -> Node35 [dir="back",color="midnightblue",fontsize="10",style="solid",fontname="Helvetica"];
  Node37 -> Node36 [dir="back",color="midnightblue",fontsize="10",style="solid",fontname="Helvetica"];
  Node37 -> Node38 [dir="back",color="midnightblue",fontsize="10",style="solid",fontname="Helvetica"];
  Node9 -> Node36 [dir="back",color="midnightblue",fontsize="10",style="solid",fontname="Helvetica"];
  Node9 -> Node38 [dir="back",color="midnightblue",fontsize="10",style="solid",fontname="Helvetica"];
  Node9 -> Node37 [dir="back",color="midnightblue",fontsize="10",style="solid",fontname="Helvetica"];
  Node9 -> Node42 [dir="back",color="midnightblue",fontsize="10",style="solid",fontname="Helvetica"];
  Node9 -> Node43 [dir="back",color="midnightblue",fontsize="10",style="solid",fontname="Helvetica"];
  Node9 -> Node8 [dir="back",color="midnightblue",fontsize="10",style="solid",fontname="Helvetica"];
  Node4 -> Node6 [dir="back",color="midnightblue",fontsize="10",style="solid",fontname="Helvetica"];
  Node2 -> Node5 [dir="back",color="midnightblue",fontsize="10",style="solid",fontname="Helvetica"];
}
