digraph "pip._vendor.html5lib._tokenizer.HTMLTokenizer.rcdataEndTagNameState"
{
 // LATEX_PDF_SIZE
  edge [fontname="Helvetica",fontsize="10",labelfontname="Helvetica",labelfontsize="10"];
  node [fontname="Helvetica",fontsize="10",shape=record];
  rankdir="RL";
  Node1 [label="pip._vendor.html5lib.\l_tokenizer.HTMLTokenizer.rcdata\lEndTagNameState",height=0.2,width=0.4,color="black", fillcolor="grey75", style="filled", fontcolor="black",tooltip=" "];
  Node1 -> Node2 [dir="back",color="midnightblue",fontsize="10",style="solid",fontname="Helvetica"];
  Node2 [label="pip._vendor.html5lib.\l_tokenizer.HTMLTokenizer.rcdata\lEndTagOpenState",height=0.2,width=0.4,color="black", fillcolor="white", style="filled",URL="$d1/d15/classpip_1_1__vendor_1_1html5lib_1_1__tokenizer_1_1_h_t_m_l_tokenizer.html#a5d5c6b10b714d578f1df405a3fb45b51",tooltip=" "];
}
