digraph "pip._vendor.pkg_resources.Distribution._get_metadata"
{
 // LATEX_PDF_SIZE
  edge [fontname="Helvetica",fontsize="10",labelfontname="Helvetica",labelfontsize="10"];
  node [fontname="Helvetica",fontsize="10",shape=record];
  rankdir="LR";
  Node1 [label="pip._vendor.pkg_resources.\lDistribution._get_metadata",height=0.2,width=0.4,color="black", fillcolor="grey75", style="filled", fontcolor="black",tooltip=" "];
  Node1 -> Node2 [color="midnightblue",fontsize="10",style="solid"];
  Node2 [label="pip._vendor.pkg_resources.\lIMetadataProvider.get_metadata_lines",height=0.2,width=0.4,color="black", fillcolor="white", style="filled",URL="$dd/db4/classpip_1_1__vendor_1_1pkg__resources_1_1_i_metadata_provider.html#a2b8ae188c3af210fd6d0a1e38e78d59d",tooltip=" "];
  Node1 -> Node3 [color="midnightblue",fontsize="10",style="solid"];
  Node3 [label="pkg_resources.IMetadataProvider.get\l_metadata_lines",height=0.2,width=0.4,color="black", fillcolor="white", style="filled",URL="$dc/d79/classpkg__resources_1_1_i_metadata_provider.html#a54a382614fdde79c3dd5a0f1acfe6fe6",tooltip=" "];
  Node1 -> Node4 [color="midnightblue",fontsize="10",style="solid"];
  Node4 [label="pip._internal.utils.pkg\l_resources.DictMetadata.get\l_metadata_lines",height=0.2,width=0.4,color="black", fillcolor="white", style="filled",URL="$dd/d69/classpip_1_1__internal_1_1utils_1_1pkg__resources_1_1_dict_metadata.html#a6eeb861c7325f20d7b3338b7489daec0",tooltip=" "];
  Node4 -> Node5 [color="midnightblue",fontsize="10",style="solid"];
  Node5 [label="pip._internal.utils.pkg\l_resources.DictMetadata.get\l_metadata",height=0.2,width=0.4,color="black", fillcolor="white", style="filled",URL="$dd/d69/classpip_1_1__internal_1_1utils_1_1pkg__resources_1_1_dict_metadata.html#a786bc2457039886cd8a89039493526c3",tooltip=" "];
  Node5 -> Node6 [color="midnightblue",fontsize="10",style="solid"];
  Node6 [label="pip._vendor.html5lib.treewalkers.etree\l_lxml.ensure_str",height=0.2,width=0.4,color="black", fillcolor="white", style="filled",URL="$db/dd7/namespacepip_1_1__vendor_1_1html5lib_1_1treewalkers_1_1etree__lxml.html#a028cec52b33e2067b38382eb23c523b9",tooltip=" "];
  Node4 -> Node7 [color="midnightblue",fontsize="10",style="solid"];
  Node7 [label="pip._vendor.pkg_resources.yield\l_lines",height=0.2,width=0.4,color="black", fillcolor="white", style="filled",URL="$d7/dcc/namespacepip_1_1__vendor_1_1pkg__resources.html#a9154cf7836eab6cbeb1238fdc578e0fd",tooltip=" "];
  Node1 -> Node8 [color="midnightblue",fontsize="10",style="solid"];
  Node8 [label="pip._vendor.pkg_resources.\lNullProvider.get_metadata_lines",height=0.2,width=0.4,color="black", fillcolor="white", style="filled",URL="$dd/dc4/classpip_1_1__vendor_1_1pkg__resources_1_1_null_provider.html#af9fe76eb0ebc5819cf0d2a2f3b8501af",tooltip=" "];
  Node8 -> Node9 [color="midnightblue",fontsize="10",style="solid"];
  Node9 [label="pip._vendor.pkg_resources.\lIMetadataProvider.get_metadata",height=0.2,width=0.4,color="black", fillcolor="white", style="filled",URL="$dd/db4/classpip_1_1__vendor_1_1pkg__resources_1_1_i_metadata_provider.html#aa3de5cdf5527ea8371939280569fcdff",tooltip=" "];
  Node8 -> Node5 [color="midnightblue",fontsize="10",style="solid"];
  Node8 -> Node10 [color="midnightblue",fontsize="10",style="solid"];
  Node10 [label="pip._internal.utils.wheel.\lWheelMetadata.get_metadata",height=0.2,width=0.4,color="black", fillcolor="white", style="filled",URL="$d2/d49/classpip_1_1__internal_1_1utils_1_1wheel_1_1_wheel_metadata.html#afbb2b63eda7ab55b3df3b0f98469a5c5",tooltip=" "];
  Node8 -> Node11 [color="midnightblue",fontsize="10",style="solid"];
  Node11 [label="pip._vendor.pkg_resources.\lNullProvider.get_metadata",height=0.2,width=0.4,color="black", fillcolor="white", style="filled",URL="$dd/dc4/classpip_1_1__vendor_1_1pkg__resources_1_1_null_provider.html#afadc5fc87f103d3201d6cebffa6c0f18",tooltip=" "];
  Node11 -> Node12 [color="midnightblue",fontsize="10",style="solid"];
  Node12 [label="pip._vendor.pkg_resources.\lNullProvider._get",height=0.2,width=0.4,color="black", fillcolor="white", style="filled",URL="$dd/dc4/classpip_1_1__vendor_1_1pkg__resources_1_1_null_provider.html#a7659c4bfe93e91db05f2bf641c786ec2",tooltip=" "];
  Node12 -> Node13 [color="midnightblue",fontsize="10",style="solid"];
  Node13 [label="pip._vendor.pkg_resources.register\l_loader_type",height=0.2,width=0.4,color="black", fillcolor="white", style="filled",URL="$d7/dcc/namespacepip_1_1__vendor_1_1pkg__resources.html#ac15df9eeda704ffb4382ff13f2dfdc1a",tooltip=" "];
  Node11 -> Node14 [color="midnightblue",fontsize="10",style="solid"];
  Node14 [label="pip._vendor.pkg_resources.\lNullProvider._get_metadata_path",height=0.2,width=0.4,color="black", fillcolor="white", style="filled",URL="$dd/dc4/classpip_1_1__vendor_1_1pkg__resources_1_1_null_provider.html#af47cb33387840c8392ef709c84f9f3a8",tooltip=" "];
  Node14 -> Node15 [color="midnightblue",fontsize="10",style="solid"];
  Node15 [label="pip._vendor.pkg_resources.\lNullProvider._fn",height=0.2,width=0.4,color="black", fillcolor="white", style="filled",URL="$dd/dc4/classpip_1_1__vendor_1_1pkg__resources_1_1_null_provider.html#a8633d9e788b867f2ecc7e2b28f5e24f5",tooltip=" "];
  Node15 -> Node16 [color="midnightblue",fontsize="10",style="solid"];
  Node16 [label="pip._vendor.pkg_resources.\lNullProvider._validate\l_resource_path",height=0.2,width=0.4,color="black", fillcolor="white", style="filled",URL="$dd/dc4/classpip_1_1__vendor_1_1pkg__resources_1_1_null_provider.html#a4e4db1c4e925f729255e9d361b8cc29a",tooltip=" "];
  Node14 -> Node17 [color="midnightblue",fontsize="10",style="solid"];
  Node17 [label="pip._vendor.cachecontrol.caches.file\l_cache.FileCache._fn",height=0.2,width=0.4,color="black", fillcolor="white", style="filled",URL="$d4/d5e/classpip_1_1__vendor_1_1cachecontrol_1_1caches_1_1file__cache_1_1_file_cache.html#acc032338fee1e604f8e74c43b836a045",tooltip=" "];
  Node17 -> Node18 [color="midnightblue",fontsize="10",style="solid"];
  Node18 [label="pip._vendor.cachecontrol.caches.file\l_cache.FileCache.encode",height=0.2,width=0.4,color="black", fillcolor="white", style="filled",URL="$d4/d5e/classpip_1_1__vendor_1_1cachecontrol_1_1caches_1_1file__cache_1_1_file_cache.html#a332cb83da1e988931abc75e2634718de",tooltip=" "];
  Node8 -> Node7 [color="midnightblue",fontsize="10",style="solid"];
  Node1 -> Node19 [color="midnightblue",fontsize="10",style="solid"];
  Node19 [label="pip._vendor.pkg_resources.\lFileMetadata.get_metadata_lines",height=0.2,width=0.4,color="black", fillcolor="white", style="filled",URL="$d8/d2b/classpip_1_1__vendor_1_1pkg__resources_1_1_file_metadata.html#acfa8be19ceb50c3e43434e2cd3d14e3d",tooltip=" "];
  Node19 -> Node9 [color="midnightblue",fontsize="10",style="solid"];
  Node19 -> Node5 [color="midnightblue",fontsize="10",style="solid"];
  Node19 -> Node10 [color="midnightblue",fontsize="10",style="solid"];
  Node19 -> Node11 [color="midnightblue",fontsize="10",style="solid"];
  Node19 -> Node7 [color="midnightblue",fontsize="10",style="solid"];
  Node1 -> Node20 [color="midnightblue",fontsize="10",style="solid"];
  Node20 [label="pkg_resources.NullProvider.get\l_metadata_lines",height=0.2,width=0.4,color="black", fillcolor="white", style="filled",URL="$d3/da0/classpkg__resources_1_1_null_provider.html#a3ea4f5544efb05812dea1035eb5643a3",tooltip=" "];
  Node20 -> Node9 [color="midnightblue",fontsize="10",style="solid"];
  Node20 -> Node21 [color="midnightblue",fontsize="10",style="solid"];
  Node21 [label="pkg_resources.IMetadataProvider.get\l_metadata",height=0.2,width=0.4,color="black", fillcolor="white", style="filled",URL="$dc/d79/classpkg__resources_1_1_i_metadata_provider.html#ab7afa403d1009b693464e103d5bd763f",tooltip=" "];
  Node20 -> Node5 [color="midnightblue",fontsize="10",style="solid"];
  Node20 -> Node10 [color="midnightblue",fontsize="10",style="solid"];
  Node20 -> Node11 [color="midnightblue",fontsize="10",style="solid"];
  Node20 -> Node22 [color="midnightblue",fontsize="10",style="solid"];
  Node22 [label="pip._vendor.pkg_resources.\lFileMetadata.get_metadata",height=0.2,width=0.4,color="black", fillcolor="white", style="filled",URL="$d8/d2b/classpip_1_1__vendor_1_1pkg__resources_1_1_file_metadata.html#a16b779585d24edd6c220c3a2b91826f5",tooltip=" "];
  Node22 -> Node23 [color="midnightblue",fontsize="10",style="solid"];
  Node23 [label="pip._vendor.pkg_resources.\lFileMetadata._warn_on_replacement",height=0.2,width=0.4,color="black", fillcolor="white", style="filled",URL="$d8/d2b/classpip_1_1__vendor_1_1pkg__resources_1_1_file_metadata.html#a592d2bd2e2f1443cd729d83432539a94",tooltip=" "];
  Node23 -> Node24 [color="midnightblue",fontsize="10",style="solid"];
  Node24 [label="pip._vendor.webencodings.decode",height=0.2,width=0.4,color="red", fillcolor="white", style="filled",URL="$da/d8d/namespacepip_1_1__vendor_1_1webencodings.html#a8de11e3f8c23c682f8e367d23462a5d0",tooltip=" "];
  Node20 -> Node29 [color="midnightblue",fontsize="10",style="solid"];
  Node29 [label="pkg_resources.NullProvider.get\l_metadata",height=0.2,width=0.4,color="black", fillcolor="white", style="filled",URL="$d3/da0/classpkg__resources_1_1_null_provider.html#ac8f8f36f17bcd8a5e9e0621446ec4e6b",tooltip=" "];
  Node29 -> Node30 [color="midnightblue",fontsize="10",style="solid"];
  Node30 [label="pip._vendor.urllib3.util.queue.\lLifoQueue._get",height=0.2,width=0.4,color="black", fillcolor="white", style="filled",URL="$dc/d92/classpip_1_1__vendor_1_1urllib3_1_1util_1_1queue_1_1_lifo_queue.html#a4174694783468a88c1725cb8fade78c4",tooltip=" "];
  Node30 -> Node31 [color="midnightblue",fontsize="10",style="solid"];
  Node31 [label="pip._vendor.distlib.compat.pop",height=0.2,width=0.4,color="red", fillcolor="white", style="filled",URL="$d1/d99/namespacepip_1_1__vendor_1_1distlib_1_1compat.html#af2de87d4eb4e5f0c5107ef23aeeb40fa",tooltip=" "];
  Node29 -> Node12 [color="midnightblue",fontsize="10",style="solid"];
  Node29 -> Node36 [color="midnightblue",fontsize="10",style="solid"];
  Node36 [label="pip._vendor.pkg_resources.\lDefaultProvider._get",height=0.2,width=0.4,color="black", fillcolor="white", style="filled",URL="$d3/d98/classpip_1_1__vendor_1_1pkg__resources_1_1_default_provider.html#ac81adf267e47d639f49da897b4dc6c6a",tooltip=" "];
  Node29 -> Node37 [color="midnightblue",fontsize="10",style="solid"];
  Node37 [label="pip._vendor.pkg_resources.\lEmptyProvider._get",height=0.2,width=0.4,color="black", fillcolor="white", style="filled",URL="$d7/d94/classpip_1_1__vendor_1_1pkg__resources_1_1_empty_provider.html#a82c4bd88c5d601c4cf7b63acb167e146",tooltip=" "];
  Node29 -> Node38 [color="midnightblue",fontsize="10",style="solid"];
  Node38 [label="pkg_resources.NullProvider._get",height=0.2,width=0.4,color="black", fillcolor="white", style="filled",URL="$d3/da0/classpkg__resources_1_1_null_provider.html#a17e0de4cc7aa5ef158c233b1960ef186",tooltip=" "];
  Node38 -> Node39 [color="midnightblue",fontsize="10",style="solid"];
  Node39 [label="pkg_resources.register\l_loader_type",height=0.2,width=0.4,color="black", fillcolor="white", style="filled",URL="$d0/de1/namespacepkg__resources.html#aebea9035d439bfb9fd4ec75e1c2d2003",tooltip=" "];
  Node29 -> Node14 [color="midnightblue",fontsize="10",style="solid"];
  Node29 -> Node40 [color="midnightblue",fontsize="10",style="solid"];
  Node40 [label="pip._vendor.pkg_resources.\lFileMetadata._get_metadata_path",height=0.2,width=0.4,color="black", fillcolor="white", style="filled",URL="$d8/d2b/classpip_1_1__vendor_1_1pkg__resources_1_1_file_metadata.html#a7c2336ab166b53e265c4885936b6fe1f",tooltip=" "];
  Node29 -> Node41 [color="midnightblue",fontsize="10",style="solid"];
  Node41 [label="pkg_resources.NullProvider.\l_get_metadata_path",height=0.2,width=0.4,color="black", fillcolor="white", style="filled",URL="$d3/da0/classpkg__resources_1_1_null_provider.html#ae74e78ebcc88d33072ee6b0479bac0ad",tooltip=" "];
  Node41 -> Node15 [color="midnightblue",fontsize="10",style="solid"];
  Node41 -> Node42 [color="midnightblue",fontsize="10",style="solid"];
  Node42 [label="pkg_resources.NullProvider._fn",height=0.2,width=0.4,color="red", fillcolor="white", style="filled",URL="$d3/da0/classpkg__resources_1_1_null_provider.html#ac5589805a772a4cf6ed1e648c30aa703",tooltip=" "];
  Node42 -> Node16 [color="midnightblue",fontsize="10",style="solid"];
  Node41 -> Node17 [color="midnightblue",fontsize="10",style="solid"];
  Node20 -> Node44 [color="midnightblue",fontsize="10",style="solid"];
  Node44 [label="pkg_resources.yield\l_lines",height=0.2,width=0.4,color="black", fillcolor="white", style="filled",URL="$d0/de1/namespacepkg__resources.html#a0eafea5b96ff98a74cd3340af8bc1cc6",tooltip=" "];
  Node1 -> Node45 [color="midnightblue",fontsize="10",style="solid"];
  Node45 [label="pkg_resources.FileMetadata.get\l_metadata_lines",height=0.2,width=0.4,color="black", fillcolor="white", style="filled",URL="$dd/dda/classpkg__resources_1_1_file_metadata.html#a493e91a4a2a75d0b3600ad9f52a148cb",tooltip=" "];
  Node45 -> Node9 [color="midnightblue",fontsize="10",style="solid"];
  Node45 -> Node21 [color="midnightblue",fontsize="10",style="solid"];
  Node45 -> Node5 [color="midnightblue",fontsize="10",style="solid"];
  Node45 -> Node10 [color="midnightblue",fontsize="10",style="solid"];
  Node45 -> Node11 [color="midnightblue",fontsize="10",style="solid"];
  Node45 -> Node22 [color="midnightblue",fontsize="10",style="solid"];
  Node45 -> Node29 [color="midnightblue",fontsize="10",style="solid"];
  Node45 -> Node44 [color="midnightblue",fontsize="10",style="solid"];
  Node1 -> Node46 [color="midnightblue",fontsize="10",style="solid"];
  Node46 [label="pip._vendor.pkg_resources.\lIMetadataProvider.has_metadata",height=0.2,width=0.4,color="black", fillcolor="white", style="filled",URL="$dd/db4/classpip_1_1__vendor_1_1pkg__resources_1_1_i_metadata_provider.html#ac277b014eec87bcbd03b3952f77ff5fd",tooltip=" "];
  Node1 -> Node47 [color="midnightblue",fontsize="10",style="solid"];
  Node47 [label="pkg_resources.IMetadataProvider.has\l_metadata",height=0.2,width=0.4,color="black", fillcolor="white", style="filled",URL="$dc/d79/classpkg__resources_1_1_i_metadata_provider.html#a15fde1a73abacbfc3cadbcf48e046537",tooltip=" "];
  Node1 -> Node48 [color="midnightblue",fontsize="10",style="solid"];
  Node48 [label="pip._internal.utils.pkg\l_resources.DictMetadata.has\l_metadata",height=0.2,width=0.4,color="black", fillcolor="white", style="filled",URL="$dd/d69/classpip_1_1__internal_1_1utils_1_1pkg__resources_1_1_dict_metadata.html#a7af10f0f2a69c9e46d96e121dd5c36ea",tooltip=" "];
  Node1 -> Node49 [color="midnightblue",fontsize="10",style="solid"];
  Node49 [label="pip._vendor.pkg_resources.\lNullProvider.has_metadata",height=0.2,width=0.4,color="black", fillcolor="white", style="filled",URL="$dd/dc4/classpip_1_1__vendor_1_1pkg__resources_1_1_null_provider.html#afe892cd52c54d3947c58f2fb8dc8c911",tooltip=" "];
  Node49 -> Node14 [color="midnightblue",fontsize="10",style="solid"];
  Node49 -> Node50 [color="midnightblue",fontsize="10",style="solid"];
  Node50 [label="pip._vendor.pkg_resources.\lNullProvider._has",height=0.2,width=0.4,color="black", fillcolor="white", style="filled",URL="$dd/dc4/classpip_1_1__vendor_1_1pkg__resources_1_1_null_provider.html#a596dc767319e029b66f352474d01ca71",tooltip=" "];
  Node1 -> Node51 [color="midnightblue",fontsize="10",style="solid"];
  Node51 [label="pip._vendor.pkg_resources.\lFileMetadata.has_metadata",height=0.2,width=0.4,color="black", fillcolor="white", style="filled",URL="$d8/d2b/classpip_1_1__vendor_1_1pkg__resources_1_1_file_metadata.html#a8e1bf0170ef96d65a71be9cd2953f4fc",tooltip=" "];
  Node1 -> Node52 [color="midnightblue",fontsize="10",style="solid"];
  Node52 [label="pkg_resources.NullProvider.has\l_metadata",height=0.2,width=0.4,color="black", fillcolor="white", style="filled",URL="$d3/da0/classpkg__resources_1_1_null_provider.html#a670947a5ce4a05cbae651365c5294bbc",tooltip=" "];
  Node52 -> Node14 [color="midnightblue",fontsize="10",style="solid"];
  Node52 -> Node40 [color="midnightblue",fontsize="10",style="solid"];
  Node52 -> Node41 [color="midnightblue",fontsize="10",style="solid"];
  Node52 -> Node53 [color="midnightblue",fontsize="10",style="solid"];
  Node53 [label="pip._vendor.pkg_resources.\lZipProvider._has",height=0.2,width=0.4,color="black", fillcolor="white", style="filled",URL="$de/dc9/classpip_1_1__vendor_1_1pkg__resources_1_1_zip_provider.html#ab0124f416fcd91fa1c9a378e672b5651",tooltip=" "];
  Node53 -> Node54 [color="midnightblue",fontsize="10",style="solid"];
  Node54 [label="pip._vendor.pkg_resources.\lZipProvider._index",height=0.2,width=0.4,color="black", fillcolor="white", style="filled",URL="$de/dc9/classpip_1_1__vendor_1_1pkg__resources_1_1_zip_provider.html#a87997b2336cee7fa9b48312251f579e8",tooltip=" "];
  Node54 -> Node55 [color="midnightblue",fontsize="10",style="solid"];
  Node55 [label="pip._vendor.pkg_resources.\lZipProvider.zipinfo",height=0.2,width=0.4,color="black", fillcolor="white", style="filled",URL="$de/dc9/classpip_1_1__vendor_1_1pkg__resources_1_1_zip_provider.html#aa18eec9f792616d5ff701a41b3446585",tooltip=" "];
  Node53 -> Node56 [color="midnightblue",fontsize="10",style="solid"];
  Node56 [label="pip._vendor.pkg_resources.\lZipProvider._zipinfo_name",height=0.2,width=0.4,color="black", fillcolor="white", style="filled",URL="$de/dc9/classpip_1_1__vendor_1_1pkg__resources_1_1_zip_provider.html#a8051715fc360454e0d9aea05ec2bc492",tooltip=" "];
  Node53 -> Node55 [color="midnightblue",fontsize="10",style="solid"];
  Node52 -> Node50 [color="midnightblue",fontsize="10",style="solid"];
  Node52 -> Node57 [color="midnightblue",fontsize="10",style="solid"];
  Node57 [label="pip._vendor.pkg_resources.\lDefaultProvider._has",height=0.2,width=0.4,color="black", fillcolor="white", style="filled",URL="$d3/d98/classpip_1_1__vendor_1_1pkg__resources_1_1_default_provider.html#a9e8868861f27fecdc92ae32b2ab07286",tooltip=" "];
  Node52 -> Node58 [color="midnightblue",fontsize="10",style="solid"];
  Node58 [label="pkg_resources.NullProvider._has",height=0.2,width=0.4,color="black", fillcolor="white", style="filled",URL="$d3/da0/classpkg__resources_1_1_null_provider.html#ae358b8febfdb087df7118194b0ff9bbc",tooltip=" "];
  Node1 -> Node59 [color="midnightblue",fontsize="10",style="solid"];
  Node59 [label="pkg_resources.FileMetadata.has\l_metadata",height=0.2,width=0.4,color="black", fillcolor="white", style="filled",URL="$dd/dda/classpkg__resources_1_1_file_metadata.html#a369b72f554a1c35205959814237cb06d",tooltip=" "];
}
