digraph "pip._vendor.pkg_resources.Distribution._warn_legacy_version"
{
 // LATEX_PDF_SIZE
  edge [fontname="Helvetica",fontsize="10",labelfontname="Helvetica",labelfontsize="10"];
  node [fontname="Helvetica",fontsize="10",shape=record];
  rankdir="LR";
  Node1 [label="pip._vendor.pkg_resources.\lDistribution._warn_legacy\l_version",height=0.2,width=0.4,color="black", fillcolor="grey75", style="filled", fontcolor="black",tooltip=" "];
  Node1 -> Node2 [color="midnightblue",fontsize="10",style="solid"];
  Node2 [label="pip._internal.resolution.resolvelib.base.\lCandidate.version",height=0.2,width=0.4,color="black", fillcolor="white", style="filled",URL="$db/d18/classpip_1_1__internal_1_1resolution_1_1resolvelib_1_1base_1_1_candidate.html#a3438563e0acd16869e50ac3b3f0e754c",tooltip=" "];
  Node1 -> Node3 [color="midnightblue",fontsize="10",style="solid"];
  Node3 [label="pip._internal.resolution.resolvelib.candidates.\l_InstallRequirementBackedCandidate.version",height=0.2,width=0.4,color="black", fillcolor="white", style="filled",URL="$dc/d03/classpip_1_1__internal_1_1resolution_1_1resolvelib_1_1candidates_1_1___install_requirement_backed_candidate.html#a84e4b295977cbe12099db867a3c182dd",tooltip=" "];
  Node3 -> Node4 [color="midnightblue",fontsize="10",style="solid"];
  Node4 [label="pip._internal.resolution.resolvelib.candidates.\l_InstallRequirementBackedCandidate.dist",height=0.2,width=0.4,color="black", fillcolor="white", style="filled",URL="$dc/d03/classpip_1_1__internal_1_1resolution_1_1resolvelib_1_1candidates_1_1___install_requirement_backed_candidate.html#aa6d5af80d994f28e44534ad4a73dbb23",tooltip=" "];
  Node4 -> Node5 [color="midnightblue",fontsize="10",style="solid"];
  Node5 [label="pip._internal.resolution.resolvelib.candidates.\l_InstallRequirementBackedCandidate.\l_fetch_metadata",height=0.2,width=0.4,color="black", fillcolor="white", style="filled",URL="$dc/d03/classpip_1_1__internal_1_1resolution_1_1resolvelib_1_1candidates_1_1___install_requirement_backed_candidate.html#a1e35381549cf5ffbb5c0ec7cb0c3104a",tooltip=" "];
  Node5 -> Node6 [color="midnightblue",fontsize="10",style="solid"];
  Node6 [label="pip._internal.resolution.resolvelib.candidates.\l_InstallRequirementBackedCandidate.\l_check_metadata_consistency",height=0.2,width=0.4,color="red", fillcolor="white", style="filled",URL="$dc/d03/classpip_1_1__internal_1_1resolution_1_1resolvelib_1_1candidates_1_1___install_requirement_backed_candidate.html#a9788859d3e680a1f91399e237cfc4e0b",tooltip=" "];
  Node5 -> Node9 [color="midnightblue",fontsize="10",style="solid"];
  Node9 [label="pip._internal.resolution.resolvelib.candidates.\l_InstallRequirementBackedCandidate._prepare",height=0.2,width=0.4,color="red", fillcolor="white", style="filled",URL="$dc/d03/classpip_1_1__internal_1_1resolution_1_1resolvelib_1_1candidates_1_1___install_requirement_backed_candidate.html#a552452ed4b9faa6b400c9cd48b2e98bf",tooltip=" "];
  Node9 -> Node6 [color="midnightblue",fontsize="10",style="solid"];
  Node5 -> Node11 [color="midnightblue",fontsize="10",style="solid"];
  Node11 [label="pip._internal.network.lazy\l_wheel.dist_from_wheel_url",height=0.2,width=0.4,color="black", fillcolor="white", style="filled",URL="$d2/d8c/namespacepip_1_1__internal_1_1network_1_1lazy__wheel.html#a35a4bbb63205e75fdf71a52a2f0af374",tooltip=" "];
  Node5 -> Node12 [color="midnightblue",fontsize="10",style="solid"];
  Node12 [label="pip._internal.utils.logging.indent_log",height=0.2,width=0.4,color="red", fillcolor="white", style="filled",URL="$d2/d7f/namespacepip_1_1__internal_1_1utils_1_1logging.html#a085a5d65b0702800d0a9d48a0a4615a8",tooltip=" "];
  Node1 -> Node14 [color="midnightblue",fontsize="10",style="solid"];
  Node14 [label="pip._internal.resolution.resolvelib.candidates.\lExtrasCandidate.version",height=0.2,width=0.4,color="black", fillcolor="white", style="filled",URL="$d8/df7/classpip_1_1__internal_1_1resolution_1_1resolvelib_1_1candidates_1_1_extras_candidate.html#a022f947eaaa0ed18ed6dc2d295117d01",tooltip=" "];
  Node1 -> Node15 [color="midnightblue",fontsize="10",style="solid"];
  Node15 [label="pip._internal.resolution.resolvelib.candidates.\lRequiresPythonCandidate.version",height=0.2,width=0.4,color="black", fillcolor="white", style="filled",URL="$db/d0a/classpip_1_1__internal_1_1resolution_1_1resolvelib_1_1candidates_1_1_requires_python_candidate.html#af16bb188496e6e10928c39b856dc7da1",tooltip=" "];
  Node1 -> Node16 [color="midnightblue",fontsize="10",style="solid"];
  Node16 [label="pip._vendor.ipaddress.\l_IPAddressBase.version",height=0.2,width=0.4,color="black", fillcolor="white", style="filled",URL="$d5/df6/classpip_1_1__vendor_1_1ipaddress_1_1___i_p_address_base.html#a7fd526613a418ef1714a19d3fdf42a7f",tooltip=" "];
  Node1 -> Node17 [color="midnightblue",fontsize="10",style="solid"];
  Node17 [label="pip._vendor.ipaddress.\l_BaseV4.version",height=0.2,width=0.4,color="black", fillcolor="white", style="filled",URL="$db/d56/classpip_1_1__vendor_1_1ipaddress_1_1___base_v4.html#aa5e069619ac5a0f7dfff65e492259a59",tooltip=" "];
  Node1 -> Node18 [color="midnightblue",fontsize="10",style="solid"];
  Node18 [label="pip._vendor.ipaddress.\l_BaseV6.version",height=0.2,width=0.4,color="black", fillcolor="white", style="filled",URL="$de/d9f/classpip_1_1__vendor_1_1ipaddress_1_1___base_v6.html#a016fff0b8a6095d6f3596a31e286d8c0",tooltip=" "];
  Node1 -> Node19 [color="midnightblue",fontsize="10",style="solid"];
  Node19 [label="pip._vendor.packaging.specifiers.\l_IndividualSpecifier.version",height=0.2,width=0.4,color="black", fillcolor="white", style="filled",URL="$d9/d98/classpip_1_1__vendor_1_1packaging_1_1specifiers_1_1___individual_specifier.html#a846a9d6b835dd92b19fb330eb1867b66",tooltip=" "];
  Node1 -> Node20 [color="midnightblue",fontsize="10",style="solid"];
  Node20 [label="pip._vendor.pkg_resources.\lDistribution.version",height=0.2,width=0.4,color="black", fillcolor="white", style="filled",URL="$d0/ddb/classpip_1_1__vendor_1_1pkg__resources_1_1_distribution.html#acd94a7f669ee4fc277245673ea39e748",tooltip=" "];
  Node20 -> Node21 [color="midnightblue",fontsize="10",style="solid"];
  Node21 [label="pip._vendor.pkg_resources.\lDistribution._get_metadata\l_path_for_display",height=0.2,width=0.4,color="black", fillcolor="white", style="filled",URL="$d0/ddb/classpip_1_1__vendor_1_1pkg__resources_1_1_distribution.html#aba4fc46b0e5cc93f732e1a91cca7cb21",tooltip=" "];
  Node20 -> Node22 [color="midnightblue",fontsize="10",style="solid"];
  Node22 [label="pip._vendor.pkg_resources.\lDistribution._get_version",height=0.2,width=0.4,color="black", fillcolor="white", style="filled",URL="$d0/ddb/classpip_1_1__vendor_1_1pkg__resources_1_1_distribution.html#acdafee5cecb6b52e9e73bfc4e3624322",tooltip=" "];
  Node22 -> Node23 [color="midnightblue",fontsize="10",style="solid"];
  Node23 [label="pip._vendor.pkg_resources.\lDistribution._get_metadata",height=0.2,width=0.4,color="black", fillcolor="white", style="filled",URL="$d0/ddb/classpip_1_1__vendor_1_1pkg__resources_1_1_distribution.html#afb412e48215aa26610c2b5e8a2f7dedf",tooltip=" "];
  Node23 -> Node24 [color="midnightblue",fontsize="10",style="solid"];
  Node24 [label="pip._vendor.pkg_resources.\lIMetadataProvider.get_metadata_lines",height=0.2,width=0.4,color="black", fillcolor="white", style="filled",URL="$dd/db4/classpip_1_1__vendor_1_1pkg__resources_1_1_i_metadata_provider.html#a2b8ae188c3af210fd6d0a1e38e78d59d",tooltip=" "];
  Node23 -> Node25 [color="midnightblue",fontsize="10",style="solid"];
  Node25 [label="pkg_resources.IMetadataProvider.get\l_metadata_lines",height=0.2,width=0.4,color="black", fillcolor="white", style="filled",URL="$dc/d79/classpkg__resources_1_1_i_metadata_provider.html#a54a382614fdde79c3dd5a0f1acfe6fe6",tooltip=" "];
  Node23 -> Node26 [color="midnightblue",fontsize="10",style="solid"];
  Node26 [label="pip._internal.utils.pkg\l_resources.DictMetadata.get\l_metadata_lines",height=0.2,width=0.4,color="red", fillcolor="white", style="filled",URL="$dd/d69/classpip_1_1__internal_1_1utils_1_1pkg__resources_1_1_dict_metadata.html#a6eeb861c7325f20d7b3338b7489daec0",tooltip=" "];
  Node23 -> Node30 [color="midnightblue",fontsize="10",style="solid"];
  Node30 [label="pip._vendor.pkg_resources.\lNullProvider.get_metadata_lines",height=0.2,width=0.4,color="red", fillcolor="white", style="filled",URL="$dd/dc4/classpip_1_1__vendor_1_1pkg__resources_1_1_null_provider.html#af9fe76eb0ebc5819cf0d2a2f3b8501af",tooltip=" "];
  Node23 -> Node41 [color="midnightblue",fontsize="10",style="solid"];
  Node41 [label="pip._vendor.pkg_resources.\lFileMetadata.get_metadata_lines",height=0.2,width=0.4,color="red", fillcolor="white", style="filled",URL="$d8/d2b/classpip_1_1__vendor_1_1pkg__resources_1_1_file_metadata.html#acfa8be19ceb50c3e43434e2cd3d14e3d",tooltip=" "];
  Node23 -> Node42 [color="midnightblue",fontsize="10",style="solid"];
  Node42 [label="pkg_resources.NullProvider.get\l_metadata_lines",height=0.2,width=0.4,color="red", fillcolor="white", style="filled",URL="$d3/da0/classpkg__resources_1_1_null_provider.html#a3ea4f5544efb05812dea1035eb5643a3",tooltip=" "];
  Node23 -> Node67 [color="midnightblue",fontsize="10",style="solid"];
  Node67 [label="pkg_resources.FileMetadata.get\l_metadata_lines",height=0.2,width=0.4,color="red", fillcolor="white", style="filled",URL="$dd/dda/classpkg__resources_1_1_file_metadata.html#a493e91a4a2a75d0b3600ad9f52a148cb",tooltip=" "];
  Node23 -> Node68 [color="midnightblue",fontsize="10",style="solid"];
  Node68 [label="pip._vendor.pkg_resources.\lIMetadataProvider.has_metadata",height=0.2,width=0.4,color="black", fillcolor="white", style="filled",URL="$dd/db4/classpip_1_1__vendor_1_1pkg__resources_1_1_i_metadata_provider.html#ac277b014eec87bcbd03b3952f77ff5fd",tooltip=" "];
  Node23 -> Node69 [color="midnightblue",fontsize="10",style="solid"];
  Node69 [label="pkg_resources.IMetadataProvider.has\l_metadata",height=0.2,width=0.4,color="black", fillcolor="white", style="filled",URL="$dc/d79/classpkg__resources_1_1_i_metadata_provider.html#a15fde1a73abacbfc3cadbcf48e046537",tooltip=" "];
  Node23 -> Node70 [color="midnightblue",fontsize="10",style="solid"];
  Node70 [label="pip._internal.utils.pkg\l_resources.DictMetadata.has\l_metadata",height=0.2,width=0.4,color="black", fillcolor="white", style="filled",URL="$dd/d69/classpip_1_1__internal_1_1utils_1_1pkg__resources_1_1_dict_metadata.html#a7af10f0f2a69c9e46d96e121dd5c36ea",tooltip=" "];
  Node23 -> Node71 [color="midnightblue",fontsize="10",style="solid"];
  Node71 [label="pip._vendor.pkg_resources.\lNullProvider.has_metadata",height=0.2,width=0.4,color="red", fillcolor="white", style="filled",URL="$dd/dc4/classpip_1_1__vendor_1_1pkg__resources_1_1_null_provider.html#afe892cd52c54d3947c58f2fb8dc8c911",tooltip=" "];
  Node23 -> Node73 [color="midnightblue",fontsize="10",style="solid"];
  Node73 [label="pip._vendor.pkg_resources.\lFileMetadata.has_metadata",height=0.2,width=0.4,color="black", fillcolor="white", style="filled",URL="$d8/d2b/classpip_1_1__vendor_1_1pkg__resources_1_1_file_metadata.html#a8e1bf0170ef96d65a71be9cd2953f4fc",tooltip=" "];
  Node23 -> Node74 [color="midnightblue",fontsize="10",style="solid"];
  Node74 [label="pkg_resources.NullProvider.has\l_metadata",height=0.2,width=0.4,color="red", fillcolor="white", style="filled",URL="$d3/da0/classpkg__resources_1_1_null_provider.html#a670947a5ce4a05cbae651365c5294bbc",tooltip=" "];
  Node23 -> Node81 [color="midnightblue",fontsize="10",style="solid"];
  Node81 [label="pkg_resources.FileMetadata.has\l_metadata",height=0.2,width=0.4,color="black", fillcolor="white", style="filled",URL="$dd/dda/classpkg__resources_1_1_file_metadata.html#a369b72f554a1c35205959814237cb06d",tooltip=" "];
  Node22 -> Node82 [color="midnightblue",fontsize="10",style="solid"];
  Node82 [label="pip._vendor.distlib.database.\lEggInfoDistribution._get\l_metadata",height=0.2,width=0.4,color="black", fillcolor="white", style="filled",URL="$d7/d4f/classpip_1_1__vendor_1_1distlib_1_1database_1_1_egg_info_distribution.html#ae8dd9d5435eea9e26a2ed5242e9fafd0",tooltip=" "];
  Node82 -> Node83 [color="midnightblue",fontsize="10",style="solid"];
  Node83 [label="pip._vendor.idna.core.decode",height=0.2,width=0.4,color="red", fillcolor="white", style="filled",URL="$dc/dbe/namespacepip_1_1__vendor_1_1idna_1_1core.html#ab8a24800679a07c3161db86a9b0a73e6",tooltip=" "];
  Node82 -> Node99 [color="midnightblue",fontsize="10",style="solid"];
  Node99 [label="pip._vendor.distlib.util.parse\l_requirement",height=0.2,width=0.4,color="red", fillcolor="white", style="filled",URL="$d6/d99/namespacepip_1_1__vendor_1_1distlib_1_1util.html#aee45d476a44623cba51ca84e53e1d55c",tooltip=" "];
  Node22 -> Node104 [color="midnightblue",fontsize="10",style="solid"];
  Node104 [label="pip._vendor.pkg_resources.\l_version_from_file",height=0.2,width=0.4,color="red", fillcolor="white", style="filled",URL="$d7/dcc/namespacepip_1_1__vendor_1_1pkg__resources.html#a2ee0e9a6ba6b73052eadd591331b0aa0",tooltip=" "];
  Node1 -> Node106 [color="midnightblue",fontsize="10",style="solid"];
  Node106 [label="pip._vendor.distro.Linux\lDistribution.version",height=0.2,width=0.4,color="black", fillcolor="white", style="filled",URL="$db/dc1/classpip_1_1__vendor_1_1distro_1_1_linux_distribution.html#a0c37e11aca02766e25025a395c09dd8b",tooltip=" "];
  Node106 -> Node107 [color="midnightblue",fontsize="10",style="solid"];
  Node107 [label="pip._vendor.distro.Linux\lDistribution._parse_distro\l_release_content",height=0.2,width=0.4,color="black", fillcolor="white", style="filled",URL="$db/dc1/classpip_1_1__vendor_1_1distro_1_1_linux_distribution.html#aa74c8b8f216e13c0f0d81f2b952ed689",tooltip=" "];
  Node106 -> Node108 [color="midnightblue",fontsize="10",style="solid"];
  Node108 [label="pip._vendor.distro.Linux\lDistribution.codename",height=0.2,width=0.4,color="black", fillcolor="white", style="filled",URL="$db/dc1/classpip_1_1__vendor_1_1distro_1_1_linux_distribution.html#a8b01fa5c9b2883dab710ca528927a6d2",tooltip=" "];
  Node108 -> Node109 [color="midnightblue",fontsize="10",style="solid"];
  Node109 [label="pip._vendor.distro.Linux\lDistribution._os_release_info",height=0.2,width=0.4,color="red", fillcolor="white", style="filled",URL="$db/dc1/classpip_1_1__vendor_1_1distro_1_1_linux_distribution.html#a9e99d08a1ee6d485377d8a6f72c5fca9",tooltip=" "];
  Node108 -> Node111 [color="midnightblue",fontsize="10",style="solid"];
  Node111 [label="pip._vendor.distro.Linux\lDistribution.distro_release_attr",height=0.2,width=0.4,color="black", fillcolor="white", style="filled",URL="$db/dc1/classpip_1_1__vendor_1_1distro_1_1_linux_distribution.html#a783e432baf3c43e5c59d94715abe882d",tooltip=" "];
  Node111 -> Node112 [color="midnightblue",fontsize="10",style="solid"];
  Node112 [label="pip._vendor.distro.Linux\lDistribution._distro_release_info",height=0.2,width=0.4,color="red", fillcolor="white", style="filled",URL="$db/dc1/classpip_1_1__vendor_1_1distro_1_1_linux_distribution.html#a0455782d9bf0abff28527e1cc22af86e",tooltip=" "];
  Node111 -> Node114 [color="midnightblue",fontsize="10",style="solid"];
  Node114 [label="pip._vendor.requests.api.get",height=0.2,width=0.4,color="black", fillcolor="white", style="filled",URL="$de/db5/namespacepip_1_1__vendor_1_1requests_1_1api.html#af14e54be255a4489da5fa7e07a48cc63",tooltip=" "];
  Node114 -> Node115 [color="midnightblue",fontsize="10",style="solid"];
  Node115 [label="pip._vendor.requests.api.request",height=0.2,width=0.4,color="black", fillcolor="white", style="filled",URL="$de/db5/namespacepip_1_1__vendor_1_1requests_1_1api.html#a9fdead74de86ac05699e5f4d40aa8d1d",tooltip=" "];
  Node108 -> Node116 [color="midnightblue",fontsize="10",style="solid"];
  Node116 [label="pip._vendor.distro.Linux\lDistribution.lsb_release_attr",height=0.2,width=0.4,color="black", fillcolor="white", style="filled",URL="$db/dc1/classpip_1_1__vendor_1_1distro_1_1_linux_distribution.html#a2fb20b28b68f25e4868e8d4b517bb710",tooltip=" "];
  Node116 -> Node117 [color="midnightblue",fontsize="10",style="solid"];
  Node117 [label="pip._vendor.distro.Linux\lDistribution._lsb_release_info",height=0.2,width=0.4,color="red", fillcolor="white", style="filled",URL="$db/dc1/classpip_1_1__vendor_1_1distro_1_1_linux_distribution.html#a0cbc9117e4ae04e173d26260d517dea1",tooltip=" "];
  Node116 -> Node114 [color="midnightblue",fontsize="10",style="solid"];
  Node106 -> Node111 [color="midnightblue",fontsize="10",style="solid"];
  Node106 -> Node114 [color="midnightblue",fontsize="10",style="solid"];
  Node106 -> Node116 [color="midnightblue",fontsize="10",style="solid"];
  Node106 -> Node120 [color="midnightblue",fontsize="10",style="solid"];
  Node120 [label="pip._vendor.distro.Linux\lDistribution.os_release_attr",height=0.2,width=0.4,color="black", fillcolor="white", style="filled",URL="$db/dc1/classpip_1_1__vendor_1_1distro_1_1_linux_distribution.html#a2c980e7f2faf33563d32e0a0b1309cfa",tooltip=" "];
  Node120 -> Node109 [color="midnightblue",fontsize="10",style="solid"];
  Node120 -> Node114 [color="midnightblue",fontsize="10",style="solid"];
  Node106 -> Node121 [color="midnightblue",fontsize="10",style="solid"];
  Node121 [label="pip._vendor.distro.Linux\lDistribution.uname_attr",height=0.2,width=0.4,color="black", fillcolor="white", style="filled",URL="$db/dc1/classpip_1_1__vendor_1_1distro_1_1_linux_distribution.html#a82939a6850962797338a64083a30a2ec",tooltip=" "];
  Node121 -> Node122 [color="midnightblue",fontsize="10",style="solid"];
  Node122 [label="pip._vendor.distro.Linux\lDistribution._uname_info",height=0.2,width=0.4,color="red", fillcolor="white", style="filled",URL="$db/dc1/classpip_1_1__vendor_1_1distro_1_1_linux_distribution.html#ab5a3479e28ad6fb9c4073c353b62c56b",tooltip=" "];
  Node121 -> Node114 [color="midnightblue",fontsize="10",style="solid"];
}
