digraph "pip._internal.utils.direct_url_helpers.dist_get_direct_url"
{
 // LATEX_PDF_SIZE
  edge [fontname="Helvetica",fontsize="10",labelfontname="Helvetica",labelfontsize="10"];
  node [fontname="Helvetica",fontsize="10",shape=record];
  rankdir="RL";
  Node1 [label="pip._internal.utils.direct\l_url_helpers.dist_get_direct_url",height=0.2,width=0.4,color="black", fillcolor="grey75", style="filled", fontcolor="black",tooltip=" "];
  Node1 -> Node2 [dir="back",color="midnightblue",fontsize="10",style="solid"];
  Node2 [label="pip._internal.operations.freeze.\lFrozenRequirement.from_dist",height=0.2,width=0.4,color="black", fillcolor="white", style="filled",URL="$d0/dc3/classpip_1_1__internal_1_1operations_1_1freeze_1_1_frozen_requirement.html#ab3b2b456d86c93e33bb7ac91f1573b9b",tooltip=" "];
}
