digraph "pip._internal.exceptions.VcsHashUnsupported"
{
 // LATEX_PDF_SIZE
  edge [fontname="Helvetica",fontsize="10",labelfontname="Helvetica",labelfontsize="10"];
  node [fontname="Helvetica",fontsize="10",shape=record];
  Node1 [label="{pip._internal.exceptions.\lVcsHashUnsupported\n|+ order\l+ head\l|}",height=0.2,width=0.4,color="black", fillcolor="grey75", style="filled", fontcolor="black",tooltip=" "];
  Node2 -> Node1 [dir="back",color="midnightblue",fontsize="10",style="solid",arrowtail="onormal",fontname="Helvetica"];
  Node2 [label="{pip._internal.exceptions.\lHashError\n|+ req\l+ head\l+ order\l|+ body()\l+ __str__()\l- _requirement_name()\l}",height=0.2,width=0.4,color="black", fillcolor="white", style="filled",URL="$d5/d33/classpip_1_1__internal_1_1exceptions_1_1_hash_error.html",tooltip=" "];
  Node3 -> Node2 [dir="back",color="midnightblue",fontsize="10",style="solid",arrowtail="onormal",fontname="Helvetica"];
  Node3 [label="{pip._internal.exceptions.\lInstallationError\n||}",height=0.2,width=0.4,color="black", fillcolor="white", style="filled",URL="$d9/dec/classpip_1_1__internal_1_1exceptions_1_1_installation_error.html",tooltip=" "];
  Node4 -> Node3 [dir="back",color="midnightblue",fontsize="10",style="solid",arrowtail="onormal",fontname="Helvetica"];
  Node4 [label="{pip._internal.exceptions.\lPipError\n||}",height=0.2,width=0.4,color="black", fillcolor="white", style="filled",URL="$d6/d0a/classpip_1_1__internal_1_1exceptions_1_1_pip_error.html",tooltip=" "];
  Node5 -> Node4 [dir="back",color="midnightblue",fontsize="10",style="solid",arrowtail="onormal",fontname="Helvetica"];
  Node5 [label="{Exception\n||}",height=0.2,width=0.4,color="grey75", fillcolor="white", style="filled",tooltip=" "];
}
