digraph "pip._vendor.pep517.envbuild.build_sdist"
{
 // LATEX_PDF_SIZE
  edge [fontname="Helvetica",fontsize="10",labelfontname="Helvetica",labelfontsize="10"];
  node [fontname="Helvetica",fontsize="10",shape=record];
  rankdir="LR";
  Node1 [label="pip._vendor.pep517.envbuild.build\l_sdist",height=0.2,width=0.4,color="black", fillcolor="grey75", style="filled", fontcolor="black",tooltip=" "];
  Node1 -> Node2 [color="midnightblue",fontsize="10",style="solid",fontname="Helvetica"];
  Node2 [label="pip._vendor.pep517.envbuild.\l_load_pyproject",height=0.2,width=0.4,color="black", fillcolor="white", style="filled",URL="$d1/d64/namespacepip_1_1__vendor_1_1pep517_1_1envbuild.html#a56b192285cf461ce1478652a8e9661e3",tooltip=" "];
}
