digraph "pip._vendor.distlib.version._match_prefix"
{
 // LATEX_PDF_SIZE
  edge [fontname="Helvetica",fontsize="10",labelfontname="Helvetica",labelfontsize="10"];
  node [fontname="Helvetica",fontsize="10",shape=record];
  rankdir="RL";
  Node1 [label="pip._vendor.distlib.version.\l_match_prefix",height=0.2,width=0.4,color="black", fillcolor="grey75", style="filled", fontcolor="black",tooltip=" "];
  Node1 -> Node2 [dir="back",color="midnightblue",fontsize="10",style="solid"];
  Node2 [label="pip._vendor.distlib.version.\lNormalizedMatcher._match\l_compatible",height=0.2,width=0.4,color="black", fillcolor="white", style="filled",URL="$d7/d9d/classpip_1_1__vendor_1_1distlib_1_1version_1_1_normalized_matcher.html#adfde2b3d5c305e533ff4f4badc56751a",tooltip=" "];
  Node1 -> Node3 [dir="back",color="midnightblue",fontsize="10",style="solid"];
  Node3 [label="pip._vendor.distlib.version.\lLegacyMatcher._match_compatible",height=0.2,width=0.4,color="black", fillcolor="white", style="filled",URL="$d5/de6/classpip_1_1__vendor_1_1distlib_1_1version_1_1_legacy_matcher.html#ac4e19d206243256d3938817daa168361",tooltip=" "];
  Node1 -> Node4 [dir="back",color="midnightblue",fontsize="10",style="solid"];
  Node4 [label="pip._vendor.distlib.version.\lNormalizedMatcher._match_eq",height=0.2,width=0.4,color="black", fillcolor="white", style="filled",URL="$d7/d9d/classpip_1_1__vendor_1_1distlib_1_1version_1_1_normalized_matcher.html#a248b63e4547ebc22ca32cc0d77c026c1",tooltip=" "];
  Node1 -> Node5 [dir="back",color="midnightblue",fontsize="10",style="solid"];
  Node5 [label="pip._vendor.distlib.version.\lNormalizedMatcher._match_gt",height=0.2,width=0.4,color="black", fillcolor="white", style="filled",URL="$d7/d9d/classpip_1_1__vendor_1_1distlib_1_1version_1_1_normalized_matcher.html#a77c688a721278c743b9fa2d989a23932",tooltip=" "];
  Node1 -> Node6 [dir="back",color="midnightblue",fontsize="10",style="solid"];
  Node6 [label="pip._vendor.distlib.version.\lNormalizedMatcher._match_lt",height=0.2,width=0.4,color="black", fillcolor="white", style="filled",URL="$d7/d9d/classpip_1_1__vendor_1_1distlib_1_1version_1_1_normalized_matcher.html#a17134a789d9c5f6c196fa8fa977afed3",tooltip=" "];
  Node1 -> Node7 [dir="back",color="midnightblue",fontsize="10",style="solid"];
  Node7 [label="pip._vendor.distlib.version.\lNormalizedMatcher._match_ne",height=0.2,width=0.4,color="black", fillcolor="white", style="filled",URL="$d7/d9d/classpip_1_1__vendor_1_1distlib_1_1version_1_1_normalized_matcher.html#acde76fa545375195baf16cfd3027cfce",tooltip=" "];
}
