digraph "pip._internal.cli.progress_bars.DownloadProgressMixin"
{
 // LATEX_PDF_SIZE
  edge [fontname="Helvetica",fontsize="10",labelfontname="Helvetica",labelfontsize="10"];
  node [fontname="Helvetica",fontsize="10",shape=record];
  Node1 [label="{pip._internal.cli.progress\l_bars.DownloadProgressMixin\n|+ message\l+ avg\l|+ __init__()\l+ downloaded()\l+ download_speed()\l+ pretty_eta()\l+ iter()\l}",height=0.2,width=0.4,color="black", fillcolor="grey75", style="filled", fontcolor="black",tooltip=" "];
  Node2 -> Node1 [dir="back",color="midnightblue",fontsize="10",style="solid",arrowtail="onormal",fontname="Helvetica"];
  Node2 [label="{object\n||}",height=0.2,width=0.4,color="grey75", fillcolor="white", style="filled",tooltip=" "];
  Node1 -> Node3 [dir="back",color="midnightblue",fontsize="10",style="solid",arrowtail="onormal",fontname="Helvetica"];
  Node3 [label="{pip._internal.cli.progress\l_bars.BaseDownloadProgressBar\n|+ file\l+ message\l+ suffix\l|}",height=0.2,width=0.4,color="black", fillcolor="white", style="filled",URL="$d4/dfb/classpip_1_1__internal_1_1cli_1_1progress__bars_1_1_base_download_progress_bar.html",tooltip=" "];
  Node3 -> Node4 [dir="back",color="midnightblue",fontsize="10",style="solid",arrowtail="onormal",fontname="Helvetica"];
  Node4 [label="{pip._internal.cli.progress\l_bars.DefaultDownloadProgressBar\n||}",height=0.2,width=0.4,color="black", fillcolor="white", style="filled",URL="$db/d5a/classpip_1_1__internal_1_1cli_1_1progress__bars_1_1_default_download_progress_bar.html",tooltip=" "];
  Node3 -> Node5 [dir="back",color="midnightblue",fontsize="10",style="solid",arrowtail="onormal",fontname="Helvetica"];
  Node5 [label="{pip._internal.cli.progress\l_bars.DownloadBar\n||}",height=0.2,width=0.4,color="black", fillcolor="white", style="filled",URL="$dc/dcc/classpip_1_1__internal_1_1cli_1_1progress__bars_1_1_download_bar.html",tooltip=" "];
  Node3 -> Node6 [dir="back",color="midnightblue",fontsize="10",style="solid",arrowtail="onormal",fontname="Helvetica"];
  Node6 [label="{pip._internal.cli.progress\l_bars.DownloadBlueEmojiProgressBar\n||}",height=0.2,width=0.4,color="black", fillcolor="white", style="filled",URL="$df/d00/classpip_1_1__internal_1_1cli_1_1progress__bars_1_1_download_blue_emoji_progress_bar.html",tooltip=" "];
  Node3 -> Node7 [dir="back",color="midnightblue",fontsize="10",style="solid",arrowtail="onormal",fontname="Helvetica"];
  Node7 [label="{pip._internal.cli.progress\l_bars.DownloadFillingCirclesBar\n||}",height=0.2,width=0.4,color="black", fillcolor="white", style="filled",URL="$db/d09/classpip_1_1__internal_1_1cli_1_1progress__bars_1_1_download_filling_circles_bar.html",tooltip=" "];
  Node3 -> Node8 [dir="back",color="midnightblue",fontsize="10",style="solid",arrowtail="onormal",fontname="Helvetica"];
  Node8 [label="{pip._internal.cli.progress\l_bars.DownloadSilentBar\n||}",height=0.2,width=0.4,color="black", fillcolor="white", style="filled",URL="$df/dbf/classpip_1_1__internal_1_1cli_1_1progress__bars_1_1_download_silent_bar.html",tooltip=" "];
  Node1 -> Node9 [dir="back",color="midnightblue",fontsize="10",style="solid",arrowtail="onormal",fontname="Helvetica"];
  Node9 [label="{pip._internal.cli.progress\l_bars.DownloadProgressSpinner\n|+ file\l+ suffix\l- _phaser\l|+ next_phase()\l+ update()\l}",height=0.2,width=0.4,color="black", fillcolor="white", style="filled",URL="$d7/d79/classpip_1_1__internal_1_1cli_1_1progress__bars_1_1_download_progress_spinner.html",tooltip=" "];
}
