digraph "pip._vendor.pyparsing.ParserElement.parseImpl"
{
 // LATEX_PDF_SIZE
  edge [fontname="Helvetica",fontsize="10",labelfontname="Helvetica",labelfontsize="10"];
  node [fontname="Helvetica",fontsize="10",shape=record];
  rankdir="RL";
  Node1 [label="pip._vendor.pyparsing.Parser\lElement.parseImpl",height=0.2,width=0.4,color="black", fillcolor="grey75", style="filled", fontcolor="black",tooltip=" "];
  Node1 -> Node2 [dir="back",color="midnightblue",fontsize="10",style="solid"];
  Node2 [label="pip._vendor.pyparsing.Parser\lElement._parseNoCache",height=0.2,width=0.4,color="black", fillcolor="white", style="filled",URL="$df/d7f/classpip_1_1__vendor_1_1pyparsing_1_1_parser_element.html#ac9a54f0e67a3a961c6b1dbf0a9807649",tooltip=" "];
  Node2 -> Node3 [dir="back",color="midnightblue",fontsize="10",style="solid"];
  Node3 [label="pip._vendor.pyparsing.Parser\lElement._parseCache",height=0.2,width=0.4,color="black", fillcolor="white", style="filled",URL="$df/d7f/classpip_1_1__vendor_1_1pyparsing_1_1_parser_element.html#ac5d50e2e3a5b9e686ccba932dbc15619",tooltip=" "];
  Node2 -> Node4 [dir="back",color="midnightblue",fontsize="10",style="solid"];
  Node4 [label="pkg_resources._vendor.pyparsing.\lParserElement._parseCache",height=0.2,width=0.4,color="black", fillcolor="white", style="filled",URL="$de/df0/classpkg__resources_1_1__vendor_1_1pyparsing_1_1_parser_element.html#ad3d9c7144fffddd7b27aaf479419250f",tooltip=" "];
  Node2 -> Node5 [dir="back",color="midnightblue",fontsize="10",style="solid"];
  Node5 [label="setuptools._vendor.pyparsing.\lParserElement._parseCache",height=0.2,width=0.4,color="black", fillcolor="white", style="filled",URL="$d9/d25/classsetuptools_1_1__vendor_1_1pyparsing_1_1_parser_element.html#a459009cb7075fdbf592b4bb9eb15fa42",tooltip=" "];
  Node1 -> Node6 [dir="back",color="midnightblue",fontsize="10",style="solid"];
  Node6 [label="pkg_resources._vendor.pyparsing.\lParserElement._parseNoCache",height=0.2,width=0.4,color="black", fillcolor="white", style="filled",URL="$de/df0/classpkg__resources_1_1__vendor_1_1pyparsing_1_1_parser_element.html#af1b183ab0cc0c3ece2ed1bf225ff7be2",tooltip=" "];
  Node6 -> Node4 [dir="back",color="midnightblue",fontsize="10",style="solid"];
  Node6 -> Node5 [dir="back",color="midnightblue",fontsize="10",style="solid"];
  Node1 -> Node7 [dir="back",color="midnightblue",fontsize="10",style="solid"];
  Node7 [label="setuptools._vendor.pyparsing.\lParserElement._parseNoCache",height=0.2,width=0.4,color="black", fillcolor="white", style="filled",URL="$d9/d25/classsetuptools_1_1__vendor_1_1pyparsing_1_1_parser_element.html#a8b1c19a1a646f11914e196ee415750d6",tooltip=" "];
  Node7 -> Node5 [dir="back",color="midnightblue",fontsize="10",style="solid"];
}
