digraph "pip._vendor.pyparsing.ParserElement.__mul__"
{
 // LATEX_PDF_SIZE
  edge [fontname="Helvetica",fontsize="10",labelfontname="Helvetica",labelfontsize="10"];
  node [fontname="Helvetica",fontsize="10",shape=record];
  rankdir="RL";
  Node1 [label="pip._vendor.pyparsing.Parser\lElement.__mul__",height=0.2,width=0.4,color="black", fillcolor="grey75", style="filled", fontcolor="black",tooltip=" "];
  Node1 -> Node2 [dir="back",color="midnightblue",fontsize="10",style="solid"];
  Node2 [label="pip._vendor.pyparsing.Parser\lElement.__rmul__",height=0.2,width=0.4,color="black", fillcolor="white", style="filled",URL="$df/d7f/classpip_1_1__vendor_1_1pyparsing_1_1_parser_element.html#af33ce5a94d6de9c92c933830840fb811",tooltip=" "];
  Node1 -> Node3 [dir="back",color="midnightblue",fontsize="10",style="solid"];
  Node3 [label="pkg_resources._vendor.pyparsing.\lParserElement.__rmul__",height=0.2,width=0.4,color="black", fillcolor="white", style="filled",URL="$de/df0/classpkg__resources_1_1__vendor_1_1pyparsing_1_1_parser_element.html#a179747bbe3984215d56372ecc743f85e",tooltip=" "];
  Node1 -> Node4 [dir="back",color="midnightblue",fontsize="10",style="solid"];
  Node4 [label="setuptools._vendor.pyparsing.\lParserElement.__rmul__",height=0.2,width=0.4,color="black", fillcolor="white", style="filled",URL="$d9/d25/classsetuptools_1_1__vendor_1_1pyparsing_1_1_parser_element.html#ad3e9effa4fab735d4437ad66dd6abe40",tooltip=" "];
}
