digraph "pip._vendor.pkg_resources.EntryPoint"
{
 // LATEX_PDF_SIZE
  edge [fontname="Helvetica",fontsize="10",labelfontname="Helvetica",labelfontsize="10"];
  node [fontname="Helvetica",fontsize="10",shape=record];
  Node1 [label="{pip._vendor.pkg_resources.\lEntryPoint\n|+ name\l+ module_name\l+ attrs\l+ extras\l+ dist\l+ pattern\l|+ __init__()\l+ __str__()\l+ __repr__()\l+ load()\l+ resolve()\l+ require()\l+ parse()\l+ parse_group()\l+ parse_map()\l- _parse_extras()\l}",height=0.2,width=0.4,color="black", fillcolor="grey75", style="filled", fontcolor="black",tooltip=" "];
}
