digraph "pip._vendor.pep517.wrappers.LoggerWrapper"
{
 // LATEX_PDF_SIZE
  edge [fontname="Helvetica",fontsize="10",labelfontname="Helvetica",labelfontsize="10"];
  node [fontname="Helvetica",fontsize="10",shape=record];
  Node1 [label="{pip._vendor.pep517.wrappers.\lLoggerWrapper\n|+ daemon\l+ logger\l+ level\l+ fd_write\l+ reader\l|+ __init__()\l+ fileno()\l+ run()\l+ remove_newline()\l- _write()\l}",height=0.2,width=0.4,color="black", fillcolor="grey75", style="filled", fontcolor="black",tooltip=" "];
  Node2 -> Node1 [dir="back",color="midnightblue",fontsize="10",style="solid",arrowtail="onormal"];
  Node2 [label="{threading::Thread\n||}",height=0.2,width=0.4,color="grey75", fillcolor="white", style="filled",tooltip=" "];
}
