digraph "pip._vendor.pyparsing.ParserElement._FifoCache.__init__"
{
 // LATEX_PDF_SIZE
  edge [fontname="Helvetica",fontsize="10",labelfontname="Helvetica",labelfontsize="10"];
  node [fontname="Helvetica",fontsize="10",shape=record];
  rankdir="LR";
  Node1 [label="pip._vendor.pyparsing.Parser\lElement._FifoCache.__init__",height=0.2,width=0.4,color="black", fillcolor="grey75", style="filled", fontcolor="black",tooltip=" "];
  Node1 -> Node1 [color="midnightblue",fontsize="10",style="solid"];
}
