digraph "pip._internal.cache.SimpleWheelCache.get"
{
 // LATEX_PDF_SIZE
  edge [fontname="Helvetica",fontsize="10",labelfontname="Helvetica",labelfontsize="10"];
  node [fontname="Helvetica",fontsize="10",shape=record];
  rankdir="RL";
  Node1 [label="pip._internal.cache.Simple\lWheelCache.get",height=0.2,width=0.4,color="black", fillcolor="grey75", style="filled", fontcolor="black",tooltip=" "];
  Node1 -> Node2 [dir="back",color="midnightblue",fontsize="10",style="solid"];
  Node2 [label="pip._vendor.distlib.metadata.\lLegacyMetadata.__getitem__",height=0.2,width=0.4,color="black", fillcolor="white", style="filled",URL="$d3/dc5/classpip_1_1__vendor_1_1distlib_1_1metadata_1_1_legacy_metadata.html#ac912c1fc83eaa1d62506deb954f22e30",tooltip=" "];
  Node1 -> Node3 [dir="back",color="midnightblue",fontsize="10",style="solid"];
  Node3 [label="setuptools.package\l_index.PyPIConfig._get\l_repo_cred",height=0.2,width=0.4,color="black", fillcolor="white", style="filled",URL="$d3/d47/classsetuptools_1_1package__index_1_1_py_p_i_config.html#a8560244cd85a884510096d2b673838a9",tooltip=" "];
  Node3 -> Node4 [dir="back",color="midnightblue",fontsize="10",style="solid"];
  Node4 [label="setuptools.package\l_index.PyPIConfig.creds\l_by_repository",height=0.2,width=0.4,color="black", fillcolor="white", style="filled",URL="$d3/d47/classsetuptools_1_1package__index_1_1_py_p_i_config.html#adc322072461ff5f3499d6187040ebc91",tooltip=" "];
  Node4 -> Node5 [dir="back",color="midnightblue",fontsize="10",style="solid"];
  Node5 [label="setuptools.package\l_index.PyPIConfig.find\l_credential",height=0.2,width=0.4,color="black", fillcolor="white", style="filled",URL="$d3/d47/classsetuptools_1_1package__index_1_1_py_p_i_config.html#a591eed255577ae924d683a1cdfc6cbbd",tooltip=" "];
  Node1 -> Node6 [dir="back",color="midnightblue",fontsize="10",style="solid"];
  Node6 [label="pip._vendor.distlib.metadata.\lLegacyMetadata.check",height=0.2,width=0.4,color="black", fillcolor="white", style="filled",URL="$d3/dc5/classpip_1_1__vendor_1_1distlib_1_1metadata_1_1_legacy_metadata.html#a28132a5947764193c9e166d3fe8281c9",tooltip=" "];
  Node1 -> Node4 [dir="back",color="midnightblue",fontsize="10",style="solid"];
  Node1 -> Node7 [dir="back",color="midnightblue",fontsize="10",style="solid"];
  Node7 [label="pip._vendor.pkg_resources.\l_ReqExtras.markers_pass",height=0.2,width=0.4,color="black", fillcolor="white", style="filled",URL="$d9/dd5/classpip_1_1__vendor_1_1pkg__resources_1_1___req_extras.html#a1b0256ec9bc9da2aac912b35898fda5f",tooltip=" "];
  Node1 -> Node8 [dir="back",color="midnightblue",fontsize="10",style="solid"];
  Node8 [label="pkg_resources._ReqExtras.markers_pass",height=0.2,width=0.4,color="black", fillcolor="white", style="filled",URL="$d9/d9f/classpkg__resources_1_1___req_extras.html#a435242531f1af2132de48679c5edf3c7",tooltip=" "];
  Node1 -> Node9 [dir="back",color="midnightblue",fontsize="10",style="solid"];
  Node9 [label="pip._vendor.distlib.metadata.\lLegacyMetadata.write_file",height=0.2,width=0.4,color="black", fillcolor="white", style="filled",URL="$d3/dc5/classpip_1_1__vendor_1_1distlib_1_1metadata_1_1_legacy_metadata.html#aa033975ed8087aaf281be90f828a4faa",tooltip=" "];
  Node9 -> Node10 [dir="back",color="midnightblue",fontsize="10",style="solid"];
  Node10 [label="pip._vendor.distlib.metadata.\lLegacyMetadata.write",height=0.2,width=0.4,color="black", fillcolor="white", style="filled",URL="$d3/dc5/classpip_1_1__vendor_1_1distlib_1_1metadata_1_1_legacy_metadata.html#a6b21f09baf95f38b5c15ed3cfb6d28a2",tooltip=" "];
  Node10 -> Node11 [dir="back",color="midnightblue",fontsize="10",style="solid"];
  Node11 [label="pip._vendor.progress.counter.\lCounter.update",height=0.2,width=0.4,color="black", fillcolor="white", style="filled",URL="$d6/dbf/classpip_1_1__vendor_1_1progress_1_1counter_1_1_counter.html#a66bd8824561e1565e96015dbddb60366",tooltip=" "];
  Node10 -> Node12 [dir="back",color="midnightblue",fontsize="10",style="solid"];
  Node12 [label="pip._vendor.progress.counter.\lCountdown.update",height=0.2,width=0.4,color="black", fillcolor="white", style="filled",URL="$dd/d0f/classpip_1_1__vendor_1_1progress_1_1counter_1_1_countdown.html#a3488ef039b3b0f97853fdde0560f2749",tooltip=" "];
  Node10 -> Node13 [dir="back",color="midnightblue",fontsize="10",style="solid"];
  Node13 [label="pip._vendor.progress.counter.\lStack.update",height=0.2,width=0.4,color="black", fillcolor="white", style="filled",URL="$db/db4/classpip_1_1__vendor_1_1progress_1_1counter_1_1_stack.html#af271659d85b633bbd2954fba09b3371f",tooltip=" "];
  Node10 -> Node14 [dir="back",color="midnightblue",fontsize="10",style="solid"];
  Node14 [label="pip._vendor.progress.spinner.\lSpinner.update",height=0.2,width=0.4,color="black", fillcolor="white", style="filled",URL="$d0/d7f/classpip_1_1__vendor_1_1progress_1_1spinner_1_1_spinner.html#a5e5421b479c8ef4e38b3e0398eee8595",tooltip=" "];
  Node10 -> Node15 [dir="back",color="midnightblue",fontsize="10",style="solid"];
  Node15 [label="wheel.wheelfile.WheelFile.write\l_files",height=0.2,width=0.4,color="black", fillcolor="white", style="filled",URL="$dd/da0/classwheel_1_1wheelfile_1_1_wheel_file.html#a69ab05d387028873a52916edac00b2a8",tooltip=" "];
  Node9 -> Node16 [dir="back",color="midnightblue",fontsize="10",style="solid"];
  Node16 [label="setuptools.command.egg\l_info.egg_info.write_or\l_delete_file",height=0.2,width=0.4,color="black", fillcolor="white", style="filled",URL="$d4/dd5/classsetuptools_1_1command_1_1egg__info_1_1egg__info.html#af70ce31ed5b38118ad41b3899f56f9b8",tooltip=" "];
}
