digraph "pip._internal.cache.SimpleWheelCache.get_path_for_link_legacy"
{
 // LATEX_PDF_SIZE
  edge [fontname="Helvetica",fontsize="10",labelfontname="Helvetica",labelfontsize="10"];
  node [fontname="Helvetica",fontsize="10",shape=record];
  rankdir="LR";
  Node1 [label="pip._internal.cache.Simple\lWheelCache.get_path_for\l_link_legacy",height=0.2,width=0.4,color="black", fillcolor="grey75", style="filled", fontcolor="black",tooltip=" "];
  Node1 -> Node2 [color="midnightblue",fontsize="10",style="solid"];
  Node2 [label="pip._internal.cache.Cache.\l_get_cache_path_parts_legacy",height=0.2,width=0.4,color="black", fillcolor="white", style="filled",URL="$de/d43/classpip_1_1__internal_1_1cache_1_1_cache.html#aa9c94bf1109a6c85f1cd017876f9be15",tooltip=" "];
}
