digraph "pip._vendor.chardet.sjisprober.SJISProber.language"
{
 // LATEX_PDF_SIZE
  edge [fontname="Helvetica",fontsize="10",labelfontname="Helvetica",labelfontsize="10"];
  node [fontname="Helvetica",fontsize="10",shape=record];
  rankdir="RL";
  Node1 [label="pip._vendor.chardet.sjisprober.\lSJISProber.language",height=0.2,width=0.4,color="black", fillcolor="grey75", style="filled", fontcolor="black",tooltip=" "];
  Node1 -> Node2 [dir="back",color="midnightblue",fontsize="10",style="solid"];
  Node2 [label="setuptools.extension.Extension.\l_convert_pyx_sources_to_lang",height=0.2,width=0.4,color="black", fillcolor="white", style="filled",URL="$d2/da3/classsetuptools_1_1extension_1_1_extension.html#aec80a43b695b8fb397bcf80d89a62737",tooltip=" "];
}
