digraph "pip._vendor.chardet.sjisprober.SJISProber.reset"
{
 // LATEX_PDF_SIZE
  edge [fontname="Helvetica",fontsize="10",labelfontname="Helvetica",labelfontsize="10"];
  node [fontname="Helvetica",fontsize="10",shape=record];
  rankdir="RL";
  Node1 [label="pip._vendor.chardet.sjisprober.\lSJISProber.reset",height=0.2,width=0.4,color="black", fillcolor="grey75", style="filled", fontcolor="black",tooltip=" "];
  Node1 -> Node2 [dir="back",color="midnightblue",fontsize="10",style="solid"];
  Node2 [label="pip._vendor.html5lib.\l_inputstream.HTMLBinaryInput\lStream.changeEncoding",height=0.2,width=0.4,color="black", fillcolor="white", style="filled",URL="$dc/db5/classpip_1_1__vendor_1_1html5lib_1_1__inputstream_1_1_h_t_m_l_binary_input_stream.html#a137e8842958cefcbcc82a32fac1103af",tooltip=" "];
}
