digraph "pip._vendor.distlib.manifest.Manifest._include_pattern"
{
 // LATEX_PDF_SIZE
  edge [fontname="Helvetica",fontsize="10",labelfontname="Helvetica",labelfontsize="10"];
  node [fontname="Helvetica",fontsize="10",shape=record];
  rankdir="LR";
  Node1 [label="pip._vendor.distlib.manifest.\lManifest._include_pattern",height=0.2,width=0.4,color="black", fillcolor="grey75", style="filled", fontcolor="black",tooltip=" "];
  Node1 -> Node2 [color="midnightblue",fontsize="10",style="solid"];
  Node2 [label="pip._vendor.distlib.manifest.\lManifest._translate_pattern",height=0.2,width=0.4,color="black", fillcolor="white", style="filled",URL="$d2/d05/classpip_1_1__vendor_1_1distlib_1_1manifest_1_1_manifest.html#a34bea3a0eafcfb0585a21906a8e26fa7",tooltip=" "];
  Node2 -> Node3 [color="midnightblue",fontsize="10",style="solid"];
  Node3 [label="pip._vendor.distlib.manifest.\lManifest._glob_to_re",height=0.2,width=0.4,color="black", fillcolor="white", style="filled",URL="$d2/d05/classpip_1_1__vendor_1_1distlib_1_1manifest_1_1_manifest.html#a6889a3d2a7b1d15395d7f7983c0da98d",tooltip=" "];
  Node2 -> Node4 [color="midnightblue",fontsize="10",style="solid"];
  Node4 [label="pip._internal.utils.misc.partition",height=0.2,width=0.4,color="black", fillcolor="white", style="filled",URL="$de/dc3/namespacepip_1_1__internal_1_1utils_1_1misc.html#ab1bf8a3147c51c323ea4ccb4fbb2156c",tooltip=" "];
  Node1 -> Node5 [color="midnightblue",fontsize="10",style="solid"];
  Node5 [label="pip._vendor.distlib.manifest.\lManifest.add",height=0.2,width=0.4,color="black", fillcolor="white", style="filled",URL="$d2/d05/classpip_1_1__vendor_1_1distlib_1_1manifest_1_1_manifest.html#adb54bd095e16a9e59e0e674bd4808dad",tooltip=" "];
  Node1 -> Node6 [color="midnightblue",fontsize="10",style="solid"];
  Node6 [label="pip._vendor.distlib.manifest.\lManifest.findall",height=0.2,width=0.4,color="black", fillcolor="white", style="filled",URL="$d2/d05/classpip_1_1__vendor_1_1distlib_1_1manifest_1_1_manifest.html#addcd8fc4c92d2b4d110a3c0d50222763",tooltip=" "];
  Node6 -> Node7 [color="midnightblue",fontsize="10",style="solid"];
  Node7 [label="pip._vendor.distlib.compat.pop",height=0.2,width=0.4,color="black", fillcolor="white", style="filled",URL="$d1/d99/namespacepip_1_1__vendor_1_1distlib_1_1compat.html#af2de87d4eb4e5f0c5107ef23aeeb40fa",tooltip=" "];
  Node7 -> Node8 [color="midnightblue",fontsize="10",style="solid"];
  Node8 [label="wheel.cli.convert.convert",height=0.2,width=0.4,color="black", fillcolor="white", style="filled",URL="$d9/dd7/namespacewheel_1_1cli_1_1convert.html#af3bc802d1311c120a48e97d90de58fde",tooltip=" "];
  Node8 -> Node9 [color="midnightblue",fontsize="10",style="solid"];
  Node9 [label="pip._vendor.distlib.util.iglob",height=0.2,width=0.4,color="black", fillcolor="white", style="filled",URL="$d6/d99/namespacepip_1_1__vendor_1_1distlib_1_1util.html#a01e026ce674216cb9a30feec8d96f7cd",tooltip=" "];
  Node9 -> Node10 [color="midnightblue",fontsize="10",style="solid"];
  Node10 [label="pip._vendor.distlib.util.\l_iglob",height=0.2,width=0.4,color="black", fillcolor="white", style="filled",URL="$d6/d99/namespacepip_1_1__vendor_1_1distlib_1_1util.html#af493b4e69cabea8d54839c3255d12f1d",tooltip=" "];
  Node8 -> Node11 [color="midnightblue",fontsize="10",style="solid"];
  Node11 [label="wheel.cli.require_pkgresources",height=0.2,width=0.4,color="black", fillcolor="white", style="filled",URL="$d4/da6/namespacewheel_1_1cli.html#a0eedbfc56bb01006797f610f2e59d20b",tooltip=" "];
}
