digraph "pip._internal.resolution.resolvelib.resolver.Resolver.resolve"
{
 // LATEX_PDF_SIZE
  edge [fontname="Helvetica",fontsize="10",labelfontname="Helvetica",labelfontsize="10"];
  node [fontname="Helvetica",fontsize="10",shape=record];
  rankdir="LR";
  Node1 [label="pip._internal.resolution.resolvelib.resolver.\lResolver.resolve",height=0.2,width=0.4,color="black", fillcolor="grey75", style="filled", fontcolor="black",tooltip=" "];
  Node1 -> Node2 [color="midnightblue",fontsize="10",style="solid"];
  Node2 [label="pip._vendor.packaging.utils.canonicalize_name",height=0.2,width=0.4,color="black", fillcolor="white", style="filled",URL="$dc/da8/namespacepip_1_1__vendor_1_1packaging_1_1utils.html#af20daae928523ea0ae9d2c4215887232",tooltip=" "];
  Node2 -> Node3 [color="midnightblue",fontsize="10",style="solid"];
  Node3 [label="pip._internal.utils.typing.cast",height=0.2,width=0.4,color="black", fillcolor="white", style="filled",URL="$d9/d56/namespacepip_1_1__internal_1_1utils_1_1typing.html#ab37e3e9039b01929d8ac2bd74d7c37db",tooltip=" "];
  Node1 -> Node4 [color="midnightblue",fontsize="10",style="solid"];
  Node4 [label="pip._internal.req.req\l_install.check_invalid\l_constraint_type",height=0.2,width=0.4,color="black", fillcolor="white", style="filled",URL="$de/de2/namespacepip_1_1__internal_1_1req_1_1req__install.html#a78518349f8b5c9eb5eb8c85cbe07be3b",tooltip=" "];
  Node4 -> Node5 [color="midnightblue",fontsize="10",style="solid"];
  Node5 [label="pip._internal.utils.deprecation.deprecated",height=0.2,width=0.4,color="black", fillcolor="white", style="filled",URL="$da/df1/namespacepip_1_1__internal_1_1utils_1_1deprecation.html#a7f64ef4a2a3e8999461e6d63b6929543",tooltip=" "];
  Node5 -> Node6 [color="midnightblue",fontsize="10",style="solid"];
  Node6 [label="pip._vendor.html5lib.html5parser.parse",height=0.2,width=0.4,color="black", fillcolor="white", style="filled",URL="$d2/d86/namespacepip_1_1__vendor_1_1html5lib_1_1html5parser.html#a2987549a868788409adca199412a27e4",tooltip=" "];
  Node1 -> Node7 [color="midnightblue",fontsize="10",style="solid"];
  Node7 [label="pip._internal.utils.misc.dist\l_is_editable",height=0.2,width=0.4,color="black", fillcolor="white", style="filled",URL="$de/dc3/namespacepip_1_1__internal_1_1utils_1_1misc.html#a9abdfe6fcceccee8a7c651f6c9014a87",tooltip=" "];
}
