digraph "pip._vendor.cachecontrol.caches.redis_cache.RedisCache.set"
{
 // LATEX_PDF_SIZE
  edge [fontname="Helvetica",fontsize="10",labelfontname="Helvetica",labelfontsize="10"];
  node [fontname="Helvetica",fontsize="10",shape=record];
  rankdir="RL";
  Node1 [label="pip._vendor.cachecontrol.caches.redis\l_cache.RedisCache.set",height=0.2,width=0.4,color="black", fillcolor="grey75", style="filled", fontcolor="black",tooltip=" "];
  Node1 -> Node2 [dir="back",color="midnightblue",fontsize="10",style="solid",fontname="Helvetica"];
  Node2 [label="pip._vendor.distlib.metadata.\lLegacyMetadata.__setitem__",height=0.2,width=0.4,color="black", fillcolor="white", style="filled",URL="$d3/dc5/classpip_1_1__vendor_1_1distlib_1_1metadata_1_1_legacy_metadata.html#a247dd6e5ed048e357c5880358e484de9",tooltip=" "];
  Node1 -> Node3 [dir="back",color="midnightblue",fontsize="10",style="solid",fontname="Helvetica"];
  Node3 [label="pip._vendor.requests.cookies.\lRequestsCookieJar.__setitem__",height=0.2,width=0.4,color="black", fillcolor="white", style="filled",URL="$d9/d08/classpip_1_1__vendor_1_1requests_1_1cookies_1_1_requests_cookie_jar.html#aa3ae937fbc242ed0018f8da038f73363",tooltip=" "];
  Node1 -> Node4 [dir="back",color="midnightblue",fontsize="10",style="solid",fontname="Helvetica"];
  Node4 [label="pip._vendor.distlib.metadata.\lLegacyMetadata.read_file",height=0.2,width=0.4,color="black", fillcolor="white", style="filled",URL="$d3/dc5/classpip_1_1__vendor_1_1distlib_1_1metadata_1_1_legacy_metadata.html#a81f0d04e8e507d1deb4bcc912da79cb2",tooltip=" "];
  Node4 -> Node5 [dir="back",color="midnightblue",fontsize="10",style="solid",fontname="Helvetica"];
  Node5 [label="pip._vendor.distlib.metadata.\lLegacyMetadata.read",height=0.2,width=0.4,color="black", fillcolor="white", style="filled",URL="$d3/dc5/classpip_1_1__vendor_1_1distlib_1_1metadata_1_1_legacy_metadata.html#aa96840cee4fb98753e6c51cabd43425d",tooltip=" "];
  Node5 -> Node6 [dir="back",color="midnightblue",fontsize="10",style="solid",fontname="Helvetica"];
  Node6 [label="setuptools.package\l_index.PyPIConfig._\l_init__",height=0.2,width=0.4,color="black", fillcolor="white", style="filled",URL="$d3/d47/classsetuptools_1_1package__index_1_1_py_p_i_config.html#a32593240a32dc851f55b82f1abebbc86",tooltip=" "];
  Node5 -> Node7 [dir="back",color="midnightblue",fontsize="10",style="solid",fontname="Helvetica"];
  Node7 [label="pip._vendor.urllib3.response.\lHTTPResponse.data",height=0.2,width=0.4,color="black", fillcolor="white", style="filled",URL="$dd/d5a/classpip_1_1__vendor_1_1urllib3_1_1response_1_1_h_t_t_p_response.html#a6e7ac6d6d58cacbce67ec13daeedeb7c",tooltip=" "];
  Node7 -> Node8 [dir="back",color="midnightblue",fontsize="10",style="solid",fontname="Helvetica"];
  Node8 [label="stick_percentage.PlotStick\lPersentage.calculate_stick\l_persentage_all",height=0.2,width=0.4,color="black", fillcolor="white", style="filled",URL="$d5/dde/classstick__percentage_1_1_plot_stick_persentage.html#af48bb274179e15b55b3fc1b826e5e5fe",tooltip=" "];
  Node8 -> Node9 [dir="back",color="midnightblue",fontsize="10",style="solid",fontname="Helvetica"];
  Node9 [label="stick_percentage.PlotStick\lPersentage.plot_runs",height=0.2,width=0.4,color="black", fillcolor="white", style="filled",URL="$d5/dde/classstick__percentage_1_1_plot_stick_persentage.html#a4f9b36324dfe277d0206486a13484781",tooltip=" "];
  Node5 -> Node10 [dir="back",color="midnightblue",fontsize="10",style="solid",fontname="Helvetica"];
  Node10 [label="pip._vendor.urllib3.response.\lHTTPResponse.drain_conn",height=0.2,width=0.4,color="black", fillcolor="white", style="filled",URL="$dd/d5a/classpip_1_1__vendor_1_1urllib3_1_1response_1_1_h_t_t_p_response.html#a7f5a270331ea4e54ce293b04be44cce6",tooltip=" "];
  Node5 -> Node11 [dir="back",color="midnightblue",fontsize="10",style="solid",fontname="Helvetica"];
  Node11 [label="pip._vendor.urllib3.response.\lHTTPResponse.readinto",height=0.2,width=0.4,color="black", fillcolor="white", style="filled",URL="$dd/d5a/classpip_1_1__vendor_1_1urllib3_1_1response_1_1_h_t_t_p_response.html#a3b25c326d49b1d81c2b177e01f46b210",tooltip=" "];
  Node5 -> Node12 [dir="back",color="midnightblue",fontsize="10",style="solid",fontname="Helvetica"];
  Node12 [label="pip._vendor.urllib3.response.\lHTTPResponse.stream",height=0.2,width=0.4,color="black", fillcolor="white", style="filled",URL="$dd/d5a/classpip_1_1__vendor_1_1urllib3_1_1response_1_1_h_t_t_p_response.html#aad7ca8755c86a2cfe56f28e64b7f9e77",tooltip=" "];
  Node12 -> Node13 [dir="back",color="midnightblue",fontsize="10",style="solid",fontname="Helvetica"];
  Node13 [label="pip._vendor.urllib3.response.\lHTTPResponse.__iter__",height=0.2,width=0.4,color="black", fillcolor="white", style="filled",URL="$dd/d5a/classpip_1_1__vendor_1_1urllib3_1_1response_1_1_h_t_t_p_response.html#a6c8b3fa3d2feed5623f67b3cf07755dd",tooltip=" "];
  Node1 -> Node14 [dir="back",color="midnightblue",fontsize="10",style="solid",fontname="Helvetica"];
  Node14 [label="pip._vendor.distlib.metadata.\lLegacyMetadata.update",height=0.2,width=0.4,color="black", fillcolor="white", style="filled",URL="$d3/dc5/classpip_1_1__vendor_1_1distlib_1_1metadata_1_1_legacy_metadata.html#aa2c1a87cda9979f35ca5a669f6d7bb21",tooltip=" "];
  Node14 -> Node15 [dir="back",color="midnightblue",fontsize="10",style="solid",fontname="Helvetica"];
  Node15 [label="pip._vendor.distlib.util.\lProgress.increment",height=0.2,width=0.4,color="black", fillcolor="white", style="filled",URL="$db/d8e/classpip_1_1__vendor_1_1distlib_1_1util_1_1_progress.html#a32ab66122aabe4fc821ac7d8e9914242",tooltip=" "];
  Node14 -> Node16 [dir="back",color="midnightblue",fontsize="10",style="solid",fontname="Helvetica"];
  Node16 [label="pip._vendor.progress.Infinite.next",height=0.2,width=0.4,color="black", fillcolor="white", style="filled",URL="$d0/da8/classpip_1_1__vendor_1_1progress_1_1_infinite.html#a4d198b1f87d7e88699771feb9f4d6630",tooltip=" "];
  Node16 -> Node17 [dir="back",color="midnightblue",fontsize="10",style="solid",fontname="Helvetica"];
  Node17 [label="pip._vendor.progress.Progress.goto",height=0.2,width=0.4,color="black", fillcolor="white", style="filled",URL="$d7/dc2/classpip_1_1__vendor_1_1progress_1_1_progress.html#af7e944763f362b2f709502ce97988f8f",tooltip=" "];
  Node16 -> Node18 [dir="back",color="midnightblue",fontsize="10",style="solid",fontname="Helvetica"];
  Node18 [label="pip._internal.cli.progress\l_bars.DownloadProgressMixin.iter",height=0.2,width=0.4,color="black", fillcolor="white", style="filled",URL="$df/d54/classpip_1_1__internal_1_1cli_1_1progress__bars_1_1_download_progress_mixin.html#a37eab0ec657772189925ac4621198a88",tooltip=" "];
  Node16 -> Node19 [dir="back",color="midnightblue",fontsize="10",style="solid",fontname="Helvetica"];
  Node19 [label="pip._vendor.progress.Infinite.iter",height=0.2,width=0.4,color="black", fillcolor="white", style="filled",URL="$d0/da8/classpip_1_1__vendor_1_1progress_1_1_infinite.html#a8041b71a97f20e9c8a65d89f18a0ee9b",tooltip=" "];
  Node16 -> Node20 [dir="back",color="midnightblue",fontsize="10",style="solid",fontname="Helvetica"];
  Node20 [label="pip._vendor.progress.Progress.iter",height=0.2,width=0.4,color="black", fillcolor="white", style="filled",URL="$d7/dc2/classpip_1_1__vendor_1_1progress_1_1_progress.html#af58dae555a18100e56380fb679c15eb7",tooltip=" "];
  Node14 -> Node21 [dir="back",color="midnightblue",fontsize="10",style="solid",fontname="Helvetica"];
  Node21 [label="pip._vendor.distlib.util.\lProgress.start",height=0.2,width=0.4,color="black", fillcolor="white", style="filled",URL="$db/d8e/classpip_1_1__vendor_1_1distlib_1_1util_1_1_progress.html#aa0a8df6cd2b5d2c8ce7f18016fe1ed32",tooltip=" "];
  Node21 -> Node22 [dir="back",color="midnightblue",fontsize="10",style="solid",fontname="Helvetica"];
  Node22 [label="pip._vendor.progress.Infinite.\l__enter__",height=0.2,width=0.4,color="black", fillcolor="white", style="filled",URL="$d0/da8/classpip_1_1__vendor_1_1progress_1_1_infinite.html#ad0ae9c8227745f75fd75c6791de2125f",tooltip=" "];
  Node14 -> Node23 [dir="back",color="midnightblue",fontsize="10",style="solid",fontname="Helvetica"];
  Node23 [label="pip._vendor.progress.Progress.start",height=0.2,width=0.4,color="black", fillcolor="white", style="filled",URL="$d7/dc2/classpip_1_1__vendor_1_1progress_1_1_progress.html#a51d126b2307c5d869e931b807f28d488",tooltip=" "];
  Node14 -> Node24 [dir="back",color="midnightblue",fontsize="10",style="solid",fontname="Helvetica"];
  Node24 [label="pip._vendor.distlib.util.\lProgress.stop",height=0.2,width=0.4,color="black", fillcolor="white", style="filled",URL="$db/d8e/classpip_1_1__vendor_1_1distlib_1_1util_1_1_progress.html#a2758af67e089f3caaf3ff8c713e53c11",tooltip=" "];
}
