digraph "pip._internal.req.req_set.RequirementSet.get_requirement"
{
 // LATEX_PDF_SIZE
  edge [fontname="Helvetica",fontsize="10",labelfontname="Helvetica",labelfontsize="10"];
  node [fontname="Helvetica",fontsize="10",shape=record];
  rankdir="RL";
  Node1 [label="pip._internal.req.req\l_set.RequirementSet.get\l_requirement",height=0.2,width=0.4,color="black", fillcolor="grey75", style="filled", fontcolor="black",tooltip=" "];
  Node1 -> Node2 [dir="back",color="midnightblue",fontsize="10",style="solid"];
  Node2 [label="pip._internal.req.req\l_set.RequirementSet.add\l_requirement",height=0.2,width=0.4,color="black", fillcolor="white", style="filled",URL="$d0/d0c/classpip_1_1__internal_1_1req_1_1req__set_1_1_requirement_set.html#a29553aa79ceaff322accbb16552c156f",tooltip=" "];
}
