digraph "pip._vendor.html5lib.filters.whitespace.collapse_spaces"
{
 // LATEX_PDF_SIZE
  edge [fontname="Helvetica",fontsize="10",labelfontname="Helvetica",labelfontsize="10"];
  node [fontname="Helvetica",fontsize="10",shape=record];
  rankdir="RL";
  Node1 [label="pip._vendor.html5lib.filters.whitespace.collapse\l_spaces",height=0.2,width=0.4,color="black", fillcolor="grey75", style="filled", fontcolor="black",tooltip=" "];
  Node1 -> Node2 [dir="back",color="midnightblue",fontsize="10",style="solid"];
  Node2 [label="pip._vendor.html5lib.filters.whitespace.\lFilter.__iter__",height=0.2,width=0.4,color="black", fillcolor="white", style="filled",URL="$dc/da5/classpip_1_1__vendor_1_1html5lib_1_1filters_1_1whitespace_1_1_filter.html#a80b49946c307c20e4dde79b777036dfb",tooltip=" "];
}
