digraph "pip._vendor.ipaddress._TotalOrderingMixin.__ne__"
{
 // LATEX_PDF_SIZE
  edge [fontname="Helvetica",fontsize="10",labelfontname="Helvetica",labelfontsize="10"];
  node [fontname="Helvetica",fontsize="10",shape=record];
  rankdir="LR";
  Node1 [label="pip._vendor.ipaddress.\l_TotalOrderingMixin.__ne__",height=0.2,width=0.4,color="black", fillcolor="grey75", style="filled", fontcolor="black",tooltip=" "];
  Node1 -> Node2 [color="midnightblue",fontsize="10",style="solid",fontname="Helvetica"];
  Node2 [label="pip._internal.index.collector.\lCacheablePageContent.__eq__",height=0.2,width=0.4,color="black", fillcolor="white", style="filled",URL="$d0/de9/classpip_1_1__internal_1_1index_1_1collector_1_1_cacheable_page_content.html#ac9ffd6aa20277c65ce0380951141de13",tooltip=" "];
  Node1 -> Node3 [color="midnightblue",fontsize="10",style="solid",fontname="Helvetica"];
  Node3 [label="pip._internal.models.format\l_control.FormatControl.__eq__",height=0.2,width=0.4,color="black", fillcolor="white", style="filled",URL="$df/d76/classpip_1_1__internal_1_1models_1_1format__control_1_1_format_control.html#a7504d121b8f154709c31fcbe5cddfcb6",tooltip=" "];
  Node1 -> Node4 [color="midnightblue",fontsize="10",style="solid",fontname="Helvetica"];
  Node4 [label="pip._internal.resolution.resolvelib.candidates.\l_InstallRequirementBackedCandidate.__eq__",height=0.2,width=0.4,color="black", fillcolor="white", style="filled",URL="$dc/d03/classpip_1_1__internal_1_1resolution_1_1resolvelib_1_1candidates_1_1___install_requirement_backed_candidate.html#a7aacd9a0895dfef8f3dcea75b7c0bba8",tooltip=" "];
  Node1 -> Node5 [color="midnightblue",fontsize="10",style="solid",fontname="Helvetica"];
  Node5 [label="pip._internal.resolution.resolvelib.candidates.\lAlreadyInstalledCandidate.__eq__",height=0.2,width=0.4,color="black", fillcolor="white", style="filled",URL="$d3/d4e/classpip_1_1__internal_1_1resolution_1_1resolvelib_1_1candidates_1_1_already_installed_candidate.html#a38ca407601719767cbd701d9c2b987cd",tooltip=" "];
  Node1 -> Node6 [color="midnightblue",fontsize="10",style="solid",fontname="Helvetica"];
  Node6 [label="pip._internal.resolution.resolvelib.candidates.\lExtrasCandidate.__eq__",height=0.2,width=0.4,color="black", fillcolor="white", style="filled",URL="$d8/df7/classpip_1_1__internal_1_1resolution_1_1resolvelib_1_1candidates_1_1_extras_candidate.html#a0de7045fe170b710cc2e6315dc3324d6",tooltip=" "];
  Node1 -> Node7 [color="midnightblue",fontsize="10",style="solid",fontname="Helvetica"];
  Node7 [label="pip._internal.utils.misc.\lHiddenText.__eq__",height=0.2,width=0.4,color="black", fillcolor="white", style="filled",URL="$d1/d26/classpip_1_1__internal_1_1utils_1_1misc_1_1_hidden_text.html#af13cc50e5644a79d0fe9da9e243321b2",tooltip=" "];
  Node1 -> Node8 [color="midnightblue",fontsize="10",style="solid",fontname="Helvetica"];
  Node8 [label="pip._internal.utils.models.\lKeyBasedCompareMixin.__eq__",height=0.2,width=0.4,color="black", fillcolor="white", style="filled",URL="$d3/d62/classpip_1_1__internal_1_1utils_1_1models_1_1_key_based_compare_mixin.html#a004a091586eb35b2840278172a24904f",tooltip=" "];
  Node8 -> Node9 [color="midnightblue",fontsize="10",style="solid",fontname="Helvetica"];
  Node9 [label="pip._internal.utils.models.\lKeyBasedCompareMixin._compare",height=0.2,width=0.4,color="black", fillcolor="white", style="filled",URL="$d3/d62/classpip_1_1__internal_1_1utils_1_1models_1_1_key_based_compare_mixin.html#a1793013f4ae62938e9ad628520e261ec",tooltip=" "];
  Node1 -> Node10 [color="midnightblue",fontsize="10",style="solid",fontname="Helvetica"];
  Node10 [label="pip._vendor.distlib.compat.\lOrderedDict.__eq__",height=0.2,width=0.4,color="black", fillcolor="white", style="filled",URL="$d8/dae/classpip_1_1__vendor_1_1distlib_1_1compat_1_1_ordered_dict.html#ae3489e81a223351378c9a41f93136439",tooltip=" "];
  Node10 -> Node11 [color="midnightblue",fontsize="10",style="solid",fontname="Helvetica"];
  Node11 [label="pip._internal.configuration.\lConfiguration.items",height=0.2,width=0.4,color="black", fillcolor="white", style="filled",URL="$dc/da9/classpip_1_1__internal_1_1configuration_1_1_configuration.html#a43a724f440f49a72db825d19c0faa921",tooltip=" "];
  Node11 -> Node12 [color="midnightblue",fontsize="10",style="solid",fontname="Helvetica"];
  Node12 [label="pip._internal.configuration.\lConfiguration._dictionary",height=0.2,width=0.4,color="black", fillcolor="white", style="filled",URL="$dc/da9/classpip_1_1__internal_1_1configuration_1_1_configuration.html#abaf2d55a077dead78b33bad3bcbbc0c8",tooltip=" "];
  Node10 -> Node13 [color="midnightblue",fontsize="10",style="solid",fontname="Helvetica"];
  Node13 [label="pip._vendor.distlib.compat.\lOrderedDict.items",height=0.2,width=0.4,color="black", fillcolor="white", style="filled",URL="$d8/dae/classpip_1_1__vendor_1_1distlib_1_1compat_1_1_ordered_dict.html#a97f6c8e438a9fd542ea4379858e9586a",tooltip=" "];
  Node1 -> Node14 [color="midnightblue",fontsize="10",style="solid",fontname="Helvetica"];
  Node14 [label="pip._vendor.distlib.database.\lDistribution.__eq__",height=0.2,width=0.4,color="black", fillcolor="white", style="filled",URL="$d8/da9/classpip_1_1__vendor_1_1distlib_1_1database_1_1_distribution.html#adf6c18bb0fe48b0f4b4a5d0a309d5afd",tooltip=" "];
  Node1 -> Node15 [color="midnightblue",fontsize="10",style="solid",fontname="Helvetica"];
  Node15 [label="pip._vendor.distlib.database.\lInstalledDistribution.__eq__",height=0.2,width=0.4,color="black", fillcolor="white", style="filled",URL="$d5/d3f/classpip_1_1__vendor_1_1distlib_1_1database_1_1_installed_distribution.html#a9b5ed2b1d9ce082f207e18b06a41d0ff",tooltip=" "];
  Node1 -> Node16 [color="midnightblue",fontsize="10",style="solid",fontname="Helvetica"];
  Node16 [label="pip._vendor.distlib.database.\lEggInfoDistribution.__eq__",height=0.2,width=0.4,color="black", fillcolor="white", style="filled",URL="$d7/d4f/classpip_1_1__vendor_1_1distlib_1_1database_1_1_egg_info_distribution.html#a1a4e220bb20d7de097cb45e4d22cb1f7",tooltip=" "];
  Node1 -> Node17 [color="midnightblue",fontsize="10",style="solid",fontname="Helvetica"];
  Node17 [label="pip._vendor.distlib.util.\lExportEntry.__eq__",height=0.2,width=0.4,color="black", fillcolor="white", style="filled",URL="$db/d5f/classpip_1_1__vendor_1_1distlib_1_1util_1_1_export_entry.html#ab0ee394c0555d4c70563c55e74b88aa9",tooltip=" "];
  Node1 -> Node18 [color="midnightblue",fontsize="10",style="solid",fontname="Helvetica"];
  Node18 [label="pip._vendor.distlib.version.\lVersion.__eq__",height=0.2,width=0.4,color="black", fillcolor="white", style="filled",URL="$da/d0e/classpip_1_1__vendor_1_1distlib_1_1version_1_1_version.html#aee1eb8a02ce7ef4b9af8a4e84d1c1361",tooltip=" "];
  Node18 -> Node19 [color="midnightblue",fontsize="10",style="solid",fontname="Helvetica"];
  Node19 [label="pip._vendor.distlib.version.\lVersion._check_compatible",height=0.2,width=0.4,color="black", fillcolor="white", style="filled",URL="$da/d0e/classpip_1_1__vendor_1_1distlib_1_1version_1_1_version.html#a9c930431d7f6e57d1e99c3da0c452a6b",tooltip=" "];
  Node1 -> Node20 [color="midnightblue",fontsize="10",style="solid",fontname="Helvetica"];
  Node20 [label="pip._vendor.distlib.version.\lMatcher.__eq__",height=0.2,width=0.4,color="black", fillcolor="white", style="filled",URL="$d3/d6b/classpip_1_1__vendor_1_1distlib_1_1version_1_1_matcher.html#acb2be6aef3dc033be295206a5253110f",tooltip=" "];
  Node20 -> Node19 [color="midnightblue",fontsize="10",style="solid",fontname="Helvetica"];
  Node20 -> Node21 [color="midnightblue",fontsize="10",style="solid",fontname="Helvetica"];
  Node21 [label="pip._vendor.distlib.version.\lMatcher._check_compatible",height=0.2,width=0.4,color="black", fillcolor="white", style="filled",URL="$d3/d6b/classpip_1_1__vendor_1_1distlib_1_1version_1_1_matcher.html#ad62ff6e7e0da1309711c7debd3379106",tooltip=" "];
  Node1 -> Node22 [color="midnightblue",fontsize="10",style="solid",fontname="Helvetica"];
  Node22 [label="pip._vendor.ipaddress.\l_TotalOrderingMixin.__eq__",height=0.2,width=0.4,color="black", fillcolor="white", style="filled",URL="$da/dbd/classpip_1_1__vendor_1_1ipaddress_1_1___total_ordering_mixin.html#ac195f0ff8442fca46cdbd8375784932a",tooltip=" "];
}
