digraph "pip._internal.models.wheel.Wheel"
{
 // LATEX_PDF_SIZE
  edge [fontname="Helvetica",fontsize="10",labelfontname="Helvetica",labelfontsize="10"];
  node [fontname="Helvetica",fontsize="10",shape=record];
  Node1 [label="{pip._internal.models.wheel.\lWheel\n|+ filename\l+ name\l+ version\l+ build_tag\l+ pyversions\l+ abis\l+ plats\l+ file_tags\l+ wheel_file_re\l|+ __init__()\l+ get_formatted_file_tags()\l+ support_index_min()\l+ supported()\l}",height=0.2,width=0.4,color="black", fillcolor="grey75", style="filled", fontcolor="black",tooltip=" "];
  Node2 -> Node1 [dir="back",color="midnightblue",fontsize="10",style="solid",arrowtail="onormal"];
  Node2 [label="{object\n||}",height=0.2,width=0.4,color="grey75", fillcolor="white", style="filled",tooltip=" "];
}
