digraph "pip._vendor.distlib.util.Progress.ETA"
{
 // LATEX_PDF_SIZE
  edge [fontname="Helvetica",fontsize="10",labelfontname="Helvetica",labelfontsize="10"];
  node [fontname="Helvetica",fontsize="10",shape=record];
  rankdir="LR";
  Node1 [label="pip._vendor.distlib.util.\lProgress.ETA",height=0.2,width=0.4,color="black", fillcolor="grey75", style="filled", fontcolor="black",tooltip=" "];
  Node1 -> Node2 [color="midnightblue",fontsize="10",style="solid"];
  Node2 [label="pip._vendor.distlib.util.\lProgress.format_duration",height=0.2,width=0.4,color="black", fillcolor="white", style="filled",URL="$db/d8e/classpip_1_1__vendor_1_1distlib_1_1util_1_1_progress.html#a83d1de00ab6c5497fdceb2025a35e1b4",tooltip=" "];
}
