digraph "pip._vendor.distlib.compat.ChainMap"
{
 // LATEX_PDF_SIZE
  edge [fontname="Helvetica",fontsize="10",labelfontname="Helvetica",labelfontsize="10"];
  node [fontname="Helvetica",fontsize="10",shape=record];
  Node1 [label="{pip._vendor.distlib.compat.\lChainMap\n|+ maps\l- __copy__\l|+ __init__()\l+ __missing__()\l+ __getitem__()\l+ get()\l+ __len__()\l+ __iter__()\l+ __contains__()\l+ __bool__()\l+ __repr__()\l+ fromkeys()\land 8 more...\l}",height=0.2,width=0.4,color="black", fillcolor="grey75", style="filled", fontcolor="black",tooltip=" "];
  Node2 -> Node1 [dir="back",color="midnightblue",fontsize="10",style="solid",arrowtail="onormal"];
  Node2 [label="{MutableMapping\n||}",height=0.2,width=0.4,color="grey75", fillcolor="white", style="filled",tooltip=" "];
}
