digraph "pip._internal.utils.setuptools_build.make_setuptools_bdist_wheel_args"
{
 // LATEX_PDF_SIZE
  edge [fontname="Helvetica",fontsize="10",labelfontname="Helvetica",labelfontsize="10"];
  node [fontname="Helvetica",fontsize="10",shape=record];
  rankdir="LR";
  Node1 [label="pip._internal.utils.setuptools\l_build.make_setuptools_bdist\l_wheel_args",height=0.2,width=0.4,color="black", fillcolor="grey75", style="filled", fontcolor="black",tooltip=" "];
  Node1 -> Node2 [color="midnightblue",fontsize="10",style="solid",fontname="Helvetica"];
  Node2 [label="pip._internal.utils.setuptools\l_build.make_setuptools_shim_args",height=0.2,width=0.4,color="black", fillcolor="white", style="filled",URL="$d4/d20/namespacepip_1_1__internal_1_1utils_1_1setuptools__build.html#a4ef9d09efef3a5fe2b6cad0027a3c036",tooltip=" "];
}
