digraph "pip._internal.utils.setuptools_build.make_setuptools_shim_args"
{
 // LATEX_PDF_SIZE
  edge [fontname="Helvetica",fontsize="10",labelfontname="Helvetica",labelfontsize="10"];
  node [fontname="Helvetica",fontsize="10",shape=record];
  rankdir="RL";
  Node1 [label="pip._internal.utils.setuptools\l_build.make_setuptools_shim_args",height=0.2,width=0.4,color="black", fillcolor="grey75", style="filled", fontcolor="black",tooltip=" "];
  Node1 -> Node2 [dir="back",color="midnightblue",fontsize="10",style="solid",fontname="Helvetica"];
  Node2 [label="pip._internal.utils.setuptools\l_build.make_setuptools_bdist\l_wheel_args",height=0.2,width=0.4,color="black", fillcolor="white", style="filled",URL="$d4/d20/namespacepip_1_1__internal_1_1utils_1_1setuptools__build.html#a86d56d3882515c25a324e49c818149e9",tooltip=" "];
  Node2 -> Node3 [dir="back",color="midnightblue",fontsize="10",style="solid",fontname="Helvetica"];
  Node3 [label="pip._internal.operations.build.wheel\l_legacy.build_wheel_legacy",height=0.2,width=0.4,color="black", fillcolor="white", style="filled",URL="$d2/d7f/namespacepip_1_1__internal_1_1operations_1_1build_1_1wheel__legacy.html#acc8d8ae15c52e63da5315afa62ee379c",tooltip=" "];
  Node3 -> Node4 [dir="back",color="midnightblue",fontsize="10",style="solid",fontname="Helvetica"];
  Node4 [label="pip._internal.wheel\l_builder._build_one\l_inside_env",height=0.2,width=0.4,color="black", fillcolor="white", style="filled",URL="$d4/d97/namespacepip_1_1__internal_1_1wheel__builder.html#a3eb2f88abebca472ebac930b8b08a12e",tooltip=" "];
  Node4 -> Node5 [dir="back",color="midnightblue",fontsize="10",style="solid",fontname="Helvetica"];
  Node5 [label="pip._internal.wheel\l_builder._build_one",height=0.2,width=0.4,color="black", fillcolor="white", style="filled",URL="$d4/d97/namespacepip_1_1__internal_1_1wheel__builder.html#afa10f7ae8aca8f46c73b44cef86c7eba",tooltip=" "];
  Node5 -> Node6 [dir="back",color="midnightblue",fontsize="10",style="solid",fontname="Helvetica"];
  Node6 [label="pip._internal.wheel\l_builder.build",height=0.2,width=0.4,color="black", fillcolor="white", style="filled",URL="$d4/d97/namespacepip_1_1__internal_1_1wheel__builder.html#a2a9acda2a7731c259870b179e283caab",tooltip=" "];
  Node6 -> Node7 [dir="back",color="midnightblue",fontsize="10",style="solid",fontname="Helvetica"];
  Node7 [label="pip._vendor.msgpack.fallback.\lStringIO.getvalue",height=0.2,width=0.4,color="black", fillcolor="white", style="filled",URL="$db/d71/classpip_1_1__vendor_1_1msgpack_1_1fallback_1_1_string_i_o.html#a904a1d9be5e5f9dd28d5d856fe9d5142",tooltip=" "];
  Node6 -> Node8 [dir="back",color="midnightblue",fontsize="10",style="solid",fontname="Helvetica"];
  Node8 [label="pip._internal.commands.install.\lInstallCommand.run",height=0.2,width=0.4,color="black", fillcolor="white", style="filled",URL="$d2/dff/classpip_1_1__internal_1_1commands_1_1install_1_1_install_command.html#aed853149716837d308440b8e2405a75c",tooltip=" "];
  Node6 -> Node9 [dir="back",color="midnightblue",fontsize="10",style="solid",fontname="Helvetica"];
  Node9 [label="pip._internal.commands.wheel.\lWheelCommand.run",height=0.2,width=0.4,color="black", fillcolor="white", style="filled",URL="$d7/d9d/classpip_1_1__internal_1_1commands_1_1wheel_1_1_wheel_command.html#a4cb8665d201b720369f174eae955f875",tooltip=" "];
  Node1 -> Node10 [dir="back",color="midnightblue",fontsize="10",style="solid",fontname="Helvetica"];
  Node10 [label="pip._internal.utils.setuptools\l_build.make_setuptools_clean_args",height=0.2,width=0.4,color="black", fillcolor="white", style="filled",URL="$d4/d20/namespacepip_1_1__internal_1_1utils_1_1setuptools__build.html#a08d7c496bdf77b0515cbe416ea3db1a7",tooltip=" "];
  Node10 -> Node11 [dir="back",color="midnightblue",fontsize="10",style="solid",fontname="Helvetica"];
  Node11 [label="pip._internal.wheel\l_builder._clean_one\l_legacy",height=0.2,width=0.4,color="black", fillcolor="white", style="filled",URL="$d4/d97/namespacepip_1_1__internal_1_1wheel__builder.html#af4fa3d6973e3e63129291d99d31b9fa6",tooltip=" "];
  Node11 -> Node4 [dir="back",color="midnightblue",fontsize="10",style="solid",fontname="Helvetica"];
  Node1 -> Node12 [dir="back",color="midnightblue",fontsize="10",style="solid",fontname="Helvetica"];
  Node12 [label="pip._internal.utils.setuptools\l_build.make_setuptools_develop_args",height=0.2,width=0.4,color="black", fillcolor="white", style="filled",URL="$d4/d20/namespacepip_1_1__internal_1_1utils_1_1setuptools__build.html#adacdcdb79c541588e3fff6d7f9041847",tooltip=" "];
  Node12 -> Node13 [dir="back",color="midnightblue",fontsize="10",style="solid",fontname="Helvetica"];
  Node13 [label="pip._internal.operations.install.editable\l_legacy.install_editable",height=0.2,width=0.4,color="black", fillcolor="white", style="filled",URL="$dd/dcb/namespacepip_1_1__internal_1_1operations_1_1install_1_1editable__legacy.html#aa69d3b30ba26cc7729f81548b7e7b09a",tooltip=" "];
  Node1 -> Node14 [dir="back",color="midnightblue",fontsize="10",style="solid",fontname="Helvetica"];
  Node14 [label="pip._internal.utils.setuptools\l_build.make_setuptools_egg\l_info_args",height=0.2,width=0.4,color="black", fillcolor="white", style="filled",URL="$d4/d20/namespacepip_1_1__internal_1_1utils_1_1setuptools__build.html#ad18fe413ed35eb807c949086fa69f598",tooltip=" "];
  Node14 -> Node15 [dir="back",color="midnightblue",fontsize="10",style="solid",fontname="Helvetica"];
  Node15 [label="pip._internal.operations.build.metadata\l_legacy.generate_metadata",height=0.2,width=0.4,color="black", fillcolor="white", style="filled",URL="$da/d20/namespacepip_1_1__internal_1_1operations_1_1build_1_1metadata__legacy.html#ae2a0fbb44b5be13b73b61bee051cc51c",tooltip=" "];
  Node1 -> Node16 [dir="back",color="midnightblue",fontsize="10",style="solid",fontname="Helvetica"];
  Node16 [label="pip._internal.utils.setuptools\l_build.make_setuptools_install_args",height=0.2,width=0.4,color="black", fillcolor="white", style="filled",URL="$d4/d20/namespacepip_1_1__internal_1_1utils_1_1setuptools__build.html#af0ddc34df16dded589dca98b26f7c3f5",tooltip=" "];
  Node16 -> Node17 [dir="back",color="midnightblue",fontsize="10",style="solid",fontname="Helvetica"];
  Node17 [label="pip._internal.operations.install.legacy.install",height=0.2,width=0.4,color="black", fillcolor="white", style="filled",URL="$de/d0b/namespacepip_1_1__internal_1_1operations_1_1install_1_1legacy.html#ab710071c8c71980601a4d22a49f61f89",tooltip=" "];
}
