digraph "pip._internal.index.collector.parse_links"
{
 // LATEX_PDF_SIZE
  edge [fontname="Helvetica",fontsize="10",labelfontname="Helvetica",labelfontsize="10"];
  node [fontname="Helvetica",fontsize="10",shape=record];
  rankdir="LR";
  Node1 [label="pip._internal.index.collector.parse\l_links",height=0.2,width=0.4,color="black", fillcolor="grey75", style="filled", fontcolor="black",tooltip=" "];
  Node1 -> Node2 [color="midnightblue",fontsize="10",style="solid"];
  Node2 [label="pip._internal.index.collector.\l_create_link_from_element",height=0.2,width=0.4,color="black", fillcolor="white", style="filled",URL="$dc/def/namespacepip_1_1__internal_1_1index_1_1collector.html#a36fba67078971fcacebe48463cd249a7",tooltip=" "];
  Node2 -> Node3 [color="midnightblue",fontsize="10",style="solid"];
  Node3 [label="pip._internal.index.collector.\l_clean_link",height=0.2,width=0.4,color="black", fillcolor="white", style="filled",URL="$dc/def/namespacepip_1_1__internal_1_1index_1_1collector.html#ab97aeef7597f3b62a5e2ffb530c85df0",tooltip=" "];
  Node3 -> Node4 [color="midnightblue",fontsize="10",style="solid"];
  Node4 [label="pip._internal.index.collector.\l_clean_url_path",height=0.2,width=0.4,color="black", fillcolor="white", style="filled",URL="$dc/def/namespacepip_1_1__internal_1_1index_1_1collector.html#af89b517530a7642171899b27e2ae869d",tooltip=" "];
  Node4 -> Node5 [color="midnightblue",fontsize="10",style="solid"];
  Node5 [label="pip._internal.utils.misc.pairwise",height=0.2,width=0.4,color="black", fillcolor="white", style="filled",URL="$de/dc3/namespacepip_1_1__internal_1_1utils_1_1misc.html#adc48e1cb3474fff341e006d66f83afbb",tooltip=" "];
  Node1 -> Node6 [color="midnightblue",fontsize="10",style="solid"];
  Node6 [label="pip._internal.index.collector.\l_determine_base_url",height=0.2,width=0.4,color="black", fillcolor="white", style="filled",URL="$dc/def/namespacepip_1_1__internal_1_1index_1_1collector.html#a29ac5adadb216f7a9a6d4a7a1481b467",tooltip=" "];
}
