digraph "pip._vendor.chardet.charsetgroupprober.CharSetGroupProber"
{
 // LATEX_PDF_SIZE
  edge [fontname="Helvetica",fontsize="10",labelfontname="Helvetica",labelfontsize="10"];
  node [fontname="Helvetica",fontsize="10",shape=record];
  Node1 [label="{pip._vendor.chardet.charsetgroupprober.\lCharSetGroupProber\n|+ probers\l- _active_num\l- _best_guess_prober\l- _state\l|+ __init__()\l+ reset()\l+ charset_name()\l+ language()\l+ feed()\l+ get_confidence()\l}",height=0.2,width=0.4,color="black", fillcolor="grey75", style="filled", fontcolor="black",tooltip=" "];
  Node2 -> Node1 [dir="back",color="midnightblue",fontsize="10",style="solid",arrowtail="onormal"];
  Node2 [label="{pip._vendor.chardet.charsetprober.\lCharSetProber\n|+ lang_filter\l+ logger\l+ SHORTCUT_THRESHOLD\l- _state\l|+ __init__()\l+ reset()\l+ charset_name()\l+ feed()\l+ state()\l+ get_confidence()\l+ filter_high_byte_only()\l+ filter_international\l_words()\l+ filter_with_english\l_letters()\l}",height=0.2,width=0.4,color="black", fillcolor="white", style="filled",URL="$da/d33/classpip_1_1__vendor_1_1chardet_1_1charsetprober_1_1_char_set_prober.html",tooltip=" "];
  Node3 -> Node2 [dir="back",color="midnightblue",fontsize="10",style="solid",arrowtail="onormal"];
  Node3 [label="{object\n||}",height=0.2,width=0.4,color="grey75", fillcolor="white", style="filled",tooltip=" "];
  Node1 -> Node4 [dir="back",color="midnightblue",fontsize="10",style="solid",arrowtail="onormal"];
  Node4 [label="{pip._vendor.chardet.mbcsgroupprober.\lMBCSGroupProber\n|+ probers\l|+ __init__()\l}",height=0.2,width=0.4,color="black", fillcolor="white", style="filled",URL="$d5/d50/classpip_1_1__vendor_1_1chardet_1_1mbcsgroupprober_1_1_m_b_c_s_group_prober.html",tooltip=" "];
  Node1 -> Node5 [dir="back",color="midnightblue",fontsize="10",style="solid",arrowtail="onormal"];
  Node5 [label="{pip._vendor.chardet.sbcsgroupprober.\lSBCSGroupProber\n|+ probers\l|+ __init__()\l}",height=0.2,width=0.4,color="black", fillcolor="white", style="filled",URL="$d6/d8b/classpip_1_1__vendor_1_1chardet_1_1sbcsgroupprober_1_1_s_b_c_s_group_prober.html",tooltip=" "];
}
