digraph "pip._vendor.packaging.specifiers.Specifier._compare_compatible"
{
 // LATEX_PDF_SIZE
  edge [fontname="Helvetica",fontsize="10",labelfontname="Helvetica",labelfontsize="10"];
  node [fontname="Helvetica",fontsize="10",shape=record];
  rankdir="LR";
  Node1 [label="pip._vendor.packaging.specifiers.\lSpecifier._compare_compatible",height=0.2,width=0.4,color="black", fillcolor="grey75", style="filled", fontcolor="black",tooltip=" "];
  Node1 -> Node2 [color="midnightblue",fontsize="10",style="solid",fontname="Helvetica"];
  Node2 [label="pip._vendor.packaging.specifiers.\l_IndividualSpecifier._get_operator",height=0.2,width=0.4,color="black", fillcolor="white", style="filled",URL="$d9/d98/classpip_1_1__vendor_1_1packaging_1_1specifiers_1_1___individual_specifier.html#a8270b7ca54d6c9b6f34aaf3ff842b4de",tooltip=" "];
  Node1 -> Node3 [color="midnightblue",fontsize="10",style="solid",fontname="Helvetica"];
  Node3 [label="pip._vendor.packaging.specifiers.\l_version_split",height=0.2,width=0.4,color="black", fillcolor="white", style="filled",URL="$dd/d9c/namespacepip_1_1__vendor_1_1packaging_1_1specifiers.html#a8693668d9d1f58e8f09e6f70de368ba9",tooltip=" "];
}
