digraph "pip._vendor.distlib.scripts.ScriptMaker.make_multiple"
{
 // LATEX_PDF_SIZE
  edge [fontname="Helvetica",fontsize="10",labelfontname="Helvetica",labelfontsize="10"];
  node [fontname="Helvetica",fontsize="10",shape=record];
  rankdir="LR";
  Node1 [label="pip._vendor.distlib.scripts.\lScriptMaker.make_multiple",height=0.2,width=0.4,color="black", fillcolor="grey75", style="filled", fontcolor="black",tooltip=" "];
  Node1 -> Node2 [color="midnightblue",fontsize="10",style="solid"];
  Node2 [label="pip._internal.operations.install.wheel.\lPipScriptMaker.make",height=0.2,width=0.4,color="black", fillcolor="white", style="filled",URL="$d8/d6a/classpip_1_1__internal_1_1operations_1_1install_1_1wheel_1_1_pip_script_maker.html#afe5796f33a6af1ceb0d92a10d1ef54e0",tooltip=" "];
  Node2 -> Node3 [color="midnightblue",fontsize="10",style="solid"];
  Node3 [label="pip._internal.operations.install.wheel.\l_raise_for_invalid_entrypoint",height=0.2,width=0.4,color="black", fillcolor="white", style="filled",URL="$d5/d70/namespacepip_1_1__internal_1_1operations_1_1install_1_1wheel.html#ac5dbca4658ee07c0144e7d509717208c",tooltip=" "];
  Node3 -> Node4 [color="midnightblue",fontsize="10",style="solid"];
  Node4 [label="pip._vendor.distlib.util.get\l_export_entry",height=0.2,width=0.4,color="black", fillcolor="white", style="filled",URL="$d6/d99/namespacepip_1_1__vendor_1_1distlib_1_1util.html#ab08429a7d1220e90fab7c84f53fd9540",tooltip=" "];
  Node1 -> Node5 [color="midnightblue",fontsize="10",style="solid"];
  Node5 [label="pip._vendor.distlib.scripts.\lScriptMaker.make",height=0.2,width=0.4,color="black", fillcolor="white", style="filled",URL="$de/dcc/classpip_1_1__vendor_1_1distlib_1_1scripts_1_1_script_maker.html#ac7f4e0644f67141ddc2304e838e64f9e",tooltip=" "];
  Node5 -> Node6 [color="midnightblue",fontsize="10",style="solid"];
  Node6 [label="pip._vendor.distlib.scripts.\lScriptMaker._copy_script",height=0.2,width=0.4,color="black", fillcolor="white", style="filled",URL="$de/dcc/classpip_1_1__vendor_1_1distlib_1_1scripts_1_1_script_maker.html#a9de7f3a948a2172a64185b5fbd6798ea",tooltip=" "];
  Node6 -> Node7 [color="midnightblue",fontsize="10",style="solid"];
  Node7 [label="pip._vendor.distlib.scripts.\lScriptMaker._get_shebang",height=0.2,width=0.4,color="black", fillcolor="white", style="filled",URL="$de/dcc/classpip_1_1__vendor_1_1distlib_1_1scripts_1_1_script_maker.html#a9bae5e286587c712ab9b88ccf38356f3",tooltip=" "];
  Node7 -> Node8 [color="midnightblue",fontsize="10",style="solid"];
  Node8 [label="pip._vendor.distlib.scripts.\lScriptMaker._build_shebang",height=0.2,width=0.4,color="black", fillcolor="white", style="filled",URL="$de/dcc/classpip_1_1__vendor_1_1distlib_1_1scripts_1_1_script_maker.html#a58332fd9c1e4e3dea985aeb0c57eb875",tooltip=" "];
  Node7 -> Node9 [color="midnightblue",fontsize="10",style="solid"];
  Node9 [label="pip._vendor.distlib.scripts.\lScriptMaker._fix_jython\l_executable",height=0.2,width=0.4,color="black", fillcolor="white", style="filled",URL="$de/dcc/classpip_1_1__vendor_1_1distlib_1_1scripts_1_1_script_maker.html#a92dd65d089dbf9d7e5cd88be80df9ddd",tooltip=" "];
  Node9 -> Node10 [color="midnightblue",fontsize="10",style="solid"];
  Node10 [label="pip._vendor.distlib.scripts.\lScriptMaker._is_shell",height=0.2,width=0.4,color="black", fillcolor="white", style="filled",URL="$de/dcc/classpip_1_1__vendor_1_1distlib_1_1scripts_1_1_script_maker.html#aa647d9a7276781aac31333fccd2fffa0",tooltip=" "];
  Node7 -> Node11 [color="midnightblue",fontsize="10",style="solid"];
  Node11 [label="pip._vendor.distlib.scripts.\lScriptMaker._get_alternate\l_executable",height=0.2,width=0.4,color="black", fillcolor="white", style="filled",URL="$de/dcc/classpip_1_1__vendor_1_1distlib_1_1scripts_1_1_script_maker.html#a7043fb625beddad79d6ede1741134a4b",tooltip=" "];
  Node7 -> Node12 [color="midnightblue",fontsize="10",style="solid"];
  Node12 [label="pip._vendor.distlib.scripts.enquote\l_executable",height=0.2,width=0.4,color="black", fillcolor="white", style="filled",URL="$d8/d75/namespacepip_1_1__vendor_1_1distlib_1_1scripts.html#ae651fa77f908bd1843f5654ed6493cd6",tooltip=" "];
  Node7 -> Node13 [color="midnightblue",fontsize="10",style="solid"];
  Node13 [label="pip._vendor.distlib.util.get\l_executable",height=0.2,width=0.4,color="black", fillcolor="white", style="filled",URL="$d6/d99/namespacepip_1_1__vendor_1_1distlib_1_1util.html#a4a93df6d421029128b2aa97bbced1dbe",tooltip=" "];
  Node7 -> Node14 [color="midnightblue",fontsize="10",style="solid"];
  Node14 [label="pip._vendor.distlib.util.in_venv",height=0.2,width=0.4,color="black", fillcolor="white", style="filled",URL="$d6/d99/namespacepip_1_1__vendor_1_1distlib_1_1util.html#a5334427aa0e6ab83f4884d1b0051ccfa",tooltip=" "];
  Node6 -> Node15 [color="midnightblue",fontsize="10",style="solid"];
  Node15 [label="pip._vendor.distlib.scripts.\lScriptMaker._write_script",height=0.2,width=0.4,color="black", fillcolor="white", style="filled",URL="$de/dcc/classpip_1_1__vendor_1_1distlib_1_1scripts_1_1_script_maker.html#a48841718abdf51f6a36e0280364058cc",tooltip=" "];
  Node15 -> Node16 [color="midnightblue",fontsize="10",style="solid"];
  Node16 [label="pip._vendor.distlib.scripts.\lScriptMaker._get_launcher",height=0.2,width=0.4,color="black", fillcolor="white", style="filled",URL="$de/dcc/classpip_1_1__vendor_1_1distlib_1_1scripts_1_1_script_maker.html#acaf3a09db240f6284c2be530c08ee239",tooltip=" "];
  Node16 -> Node17 [color="midnightblue",fontsize="10",style="solid"];
  Node17 [label="pip._vendor.distlib.resources.finder",height=0.2,width=0.4,color="black", fillcolor="white", style="filled",URL="$d9/dfe/namespacepip_1_1__vendor_1_1distlib_1_1resources.html#a19cb1b460cca0d3a5c6bea20e4ebc4b3",tooltip=" "];
  Node6 -> Node18 [color="midnightblue",fontsize="10",style="solid"];
  Node18 [label="pip._vendor.distlib.util.convert_path",height=0.2,width=0.4,color="black", fillcolor="white", style="filled",URL="$d6/d99/namespacepip_1_1__vendor_1_1distlib_1_1util.html#a0935a67d848f4420d9c2250f5abfb56b",tooltip=" "];
  Node6 -> Node19 [color="midnightblue",fontsize="10",style="solid"];
  Node19 [label="setuptools._distutils.file\l_util.copy_file",height=0.2,width=0.4,color="black", fillcolor="white", style="filled",URL="$d7/dcc/namespacesetuptools_1_1__distutils_1_1file__util.html#ad2bdd3176e776e490badca34a1056a46",tooltip=" "];
  Node19 -> Node20 [color="midnightblue",fontsize="10",style="solid"];
  Node20 [label="setuptools._distutils.file\l_util._copy_file_contents",height=0.2,width=0.4,color="black", fillcolor="white", style="filled",URL="$d7/dcc/namespacesetuptools_1_1__distutils_1_1file__util.html#a922d631176c6d2703d61d7bebfccd166",tooltip=" "];
  Node19 -> Node21 [color="midnightblue",fontsize="10",style="solid"];
  Node21 [label="setuptools._distutils.dep\l_util.newer",height=0.2,width=0.4,color="black", fillcolor="white", style="filled",URL="$d1/d76/namespacesetuptools_1_1__distutils_1_1dep__util.html#a1a74a87b034b2430cec5fc9b6dfac5ce",tooltip=" "];
  Node6 -> Node22 [color="midnightblue",fontsize="10",style="solid"];
  Node22 [label="pip._vendor.distlib.compat.detect\l_encoding",height=0.2,width=0.4,color="black", fillcolor="white", style="filled",URL="$d1/d99/namespacepip_1_1__vendor_1_1distlib_1_1compat.html#aed2f37d8c934bb151e40db13748be067",tooltip=" "];
  Node22 -> Node23 [color="midnightblue",fontsize="10",style="solid"];
  Node23 [label="pip._vendor.distlib.compat.\l_get_normal_name",height=0.2,width=0.4,color="black", fillcolor="white", style="filled",URL="$d1/d99/namespacepip_1_1__vendor_1_1distlib_1_1compat.html#aa5765915a4acecf8761ece73c9ba6eef",tooltip=" "];
  Node22 -> Node24 [color="midnightblue",fontsize="10",style="solid"];
  Node24 [label="pip._vendor.webencodings.lookup",height=0.2,width=0.4,color="black", fillcolor="white", style="filled",URL="$da/d8d/namespacepip_1_1__vendor_1_1webencodings.html#ae558e10f94082a6e5104e4a19de375eb",tooltip=" "];
  Node24 -> Node25 [color="midnightblue",fontsize="10",style="solid"];
  Node25 [label="pip._vendor.webencodings.ascii\l_lower",height=0.2,width=0.4,color="black", fillcolor="white", style="filled",URL="$da/d8d/namespacepip_1_1__vendor_1_1webencodings.html#afa97e391f2b68992094a339176eff233",tooltip=" "];
  Node25 -> Node26 [color="midnightblue",fontsize="10",style="solid"];
  Node26 [label="pip._vendor.webencodings.decode",height=0.2,width=0.4,color="black", fillcolor="white", style="filled",URL="$da/d8d/namespacepip_1_1__vendor_1_1webencodings.html#a8de11e3f8c23c682f8e367d23462a5d0",tooltip=" "];
  Node26 -> Node27 [color="midnightblue",fontsize="10",style="solid"];
  Node27 [label="pip._vendor.webencodings.\l_detect_bom",height=0.2,width=0.4,color="black", fillcolor="white", style="filled",URL="$da/d8d/namespacepip_1_1__vendor_1_1webencodings.html#a7362d94d546ec6ed1d20b2f966fe36e5",tooltip=" "];
  Node26 -> Node28 [color="midnightblue",fontsize="10",style="solid"];
  Node28 [label="pip._vendor.webencodings.\l_get_encoding",height=0.2,width=0.4,color="black", fillcolor="white", style="filled",URL="$da/d8d/namespacepip_1_1__vendor_1_1webencodings.html#a43156339db9ccc708a50a641fe0d34b4",tooltip=" "];
  Node28 -> Node24 [color="midnightblue",fontsize="10",style="solid"];
  Node6 -> Node29 [color="midnightblue",fontsize="10",style="solid"];
  Node29 [label="pip._vendor.distlib.scripts.\lScriptMaker.dry_run",height=0.2,width=0.4,color="black", fillcolor="white", style="filled",URL="$de/dcc/classpip_1_1__vendor_1_1distlib_1_1scripts_1_1_script_maker.html#ab788624a4b1688e66c95f02b42674a4f",tooltip=" "];
  Node6 -> Node30 [color="midnightblue",fontsize="10",style="solid"];
  Node30 [label="setuptools._distutils.cmd.\lCommand.get_command_name",height=0.2,width=0.4,color="black", fillcolor="white", style="filled",URL="$dd/df5/classsetuptools_1_1__distutils_1_1cmd_1_1_command.html#acb4b402ef96611a7b0fbf717ffbb3807",tooltip=" "];
  Node6 -> Node21 [color="midnightblue",fontsize="10",style="solid"];
  Node5 -> Node31 [color="midnightblue",fontsize="10",style="solid"];
  Node31 [label="pip._vendor.distlib.scripts.\lScriptMaker._make_script",height=0.2,width=0.4,color="black", fillcolor="white", style="filled",URL="$de/dcc/classpip_1_1__vendor_1_1distlib_1_1scripts_1_1_script_maker.html#a01d3210a362f4d2d311f948632c893dc",tooltip=" "];
  Node31 -> Node32 [color="midnightblue",fontsize="10",style="solid"];
  Node32 [label="pip._vendor.distlib.scripts.\lScriptMaker._get_script_text",height=0.2,width=0.4,color="black", fillcolor="white", style="filled",URL="$de/dcc/classpip_1_1__vendor_1_1distlib_1_1scripts_1_1_script_maker.html#ae529ae8cf833b97bc56222b990b4a5eb",tooltip=" "];
  Node31 -> Node7 [color="midnightblue",fontsize="10",style="solid"];
  Node31 -> Node15 [color="midnightblue",fontsize="10",style="solid"];
  Node31 -> Node33 [color="midnightblue",fontsize="10",style="solid"];
  Node33 [label="pip._vendor.idna.core.encode",height=0.2,width=0.4,color="black", fillcolor="white", style="filled",URL="$dc/dbe/namespacepip_1_1__vendor_1_1idna_1_1core.html#ab44c2946ca8d572559f40521032afe1a",tooltip=" "];
  Node33 -> Node34 [color="midnightblue",fontsize="10",style="solid"];
  Node34 [label="pip._vendor.idna.core.alabel",height=0.2,width=0.4,color="black", fillcolor="white", style="filled",URL="$dc/dbe/namespacepip_1_1__vendor_1_1idna_1_1core.html#a59626ddc5d21ec43787eba30bdf1b2bd",tooltip=" "];
  Node34 -> Node35 [color="midnightblue",fontsize="10",style="solid"];
  Node35 [label="pip._vendor.idna.core.\l_punycode",height=0.2,width=0.4,color="black", fillcolor="white", style="filled",URL="$dc/dbe/namespacepip_1_1__vendor_1_1idna_1_1core.html#a860e01f9e85dad091926e676c98eefec",tooltip=" "];
  Node34 -> Node36 [color="midnightblue",fontsize="10",style="solid"];
  Node36 [label="pip._vendor.idna.core.check\l_label",height=0.2,width=0.4,color="black", fillcolor="white", style="filled",URL="$dc/dbe/namespacepip_1_1__vendor_1_1idna_1_1core.html#ae9fc88587359b163ac595d519715c099",tooltip=" "];
  Node36 -> Node37 [color="midnightblue",fontsize="10",style="solid"];
  Node37 [label="pip._vendor.idna.core._unot",height=0.2,width=0.4,color="black", fillcolor="white", style="filled",URL="$dc/dbe/namespacepip_1_1__vendor_1_1idna_1_1core.html#afb6d3618c7b6bb8bab08b96c967eca66",tooltip=" "];
  Node36 -> Node38 [color="midnightblue",fontsize="10",style="solid"];
  Node38 [label="pip._vendor.idna.core.check_bidi",height=0.2,width=0.4,color="black", fillcolor="white", style="filled",URL="$dc/dbe/namespacepip_1_1__vendor_1_1idna_1_1core.html#a32a613317ceb9eb4cd52fdd73b3f1248",tooltip=" "];
  Node36 -> Node39 [color="midnightblue",fontsize="10",style="solid"];
  Node39 [label="pip._vendor.idna.core.check\l_hyphen_ok",height=0.2,width=0.4,color="black", fillcolor="white", style="filled",URL="$dc/dbe/namespacepip_1_1__vendor_1_1idna_1_1core.html#a81c0586c1db1facb045d6ec94210fde0",tooltip=" "];
  Node36 -> Node40 [color="midnightblue",fontsize="10",style="solid"];
  Node40 [label="pip._vendor.idna.core.check\l_initial_combiner",height=0.2,width=0.4,color="black", fillcolor="white", style="filled",URL="$dc/dbe/namespacepip_1_1__vendor_1_1idna_1_1core.html#a585b0e816f47c888b2bee45b8558e8fe",tooltip=" "];
  Node36 -> Node41 [color="midnightblue",fontsize="10",style="solid"];
  Node41 [label="pip._vendor.idna.core.check_nfc",height=0.2,width=0.4,color="black", fillcolor="white", style="filled",URL="$dc/dbe/namespacepip_1_1__vendor_1_1idna_1_1core.html#ae9c33c8013e65ab232c798b879f7b5b7",tooltip=" "];
  Node36 -> Node42 [color="midnightblue",fontsize="10",style="solid"];
  Node42 [label="pip._vendor.idna.intranges.intranges\l_contain",height=0.2,width=0.4,color="black", fillcolor="white", style="filled",URL="$dc/d38/namespacepip_1_1__vendor_1_1idna_1_1intranges.html#abcdc067f2c261e1663789054ba59f597",tooltip=" "];
  Node42 -> Node43 [color="midnightblue",fontsize="10",style="solid"];
  Node43 [label="pip._vendor.idna.intranges.\l_decode_range",height=0.2,width=0.4,color="black", fillcolor="white", style="filled",URL="$dc/d38/namespacepip_1_1__vendor_1_1idna_1_1intranges.html#acc8ad2745e5c2518e2ebc6854c84a996",tooltip=" "];
  Node42 -> Node44 [color="midnightblue",fontsize="10",style="solid"];
  Node44 [label="pip._vendor.idna.intranges.\l_encode_range",height=0.2,width=0.4,color="black", fillcolor="white", style="filled",URL="$dc/d38/namespacepip_1_1__vendor_1_1idna_1_1intranges.html#a451578dfb8f245213932aa16923c371f",tooltip=" "];
  Node36 -> Node45 [color="midnightblue",fontsize="10",style="solid"];
  Node45 [label="pip._vendor.idna.core.valid\l_contextj",height=0.2,width=0.4,color="red", fillcolor="white", style="filled",URL="$dc/dbe/namespacepip_1_1__vendor_1_1idna_1_1core.html#ae0ccbd5b53689c3986cd22100cbc8e99",tooltip=" "];
  Node36 -> Node47 [color="midnightblue",fontsize="10",style="solid"];
  Node47 [label="pip._vendor.idna.core.valid\l_contexto",height=0.2,width=0.4,color="red", fillcolor="white", style="filled",URL="$dc/dbe/namespacepip_1_1__vendor_1_1idna_1_1core.html#a741f7cca90b4a6adc176a40ff242ec10",tooltip=" "];
  Node34 -> Node49 [color="midnightblue",fontsize="10",style="solid"];
  Node49 [label="pip._vendor.idna.core.ulabel",height=0.2,width=0.4,color="black", fillcolor="white", style="filled",URL="$dc/dbe/namespacepip_1_1__vendor_1_1idna_1_1core.html#aa5d8b1ef65c7126d2fbd3b671b105ad2",tooltip=" "];
  Node49 -> Node36 [color="midnightblue",fontsize="10",style="solid"];
  Node34 -> Node50 [color="midnightblue",fontsize="10",style="solid"];
  Node50 [label="pip._vendor.idna.core.valid\l_label_length",height=0.2,width=0.4,color="black", fillcolor="white", style="filled",URL="$dc/dbe/namespacepip_1_1__vendor_1_1idna_1_1core.html#acd48dccb4945430b28b3d5ad28d05545",tooltip=" "];
  Node33 -> Node51 [color="midnightblue",fontsize="10",style="solid"];
  Node51 [label="pip._vendor.idna.core.uts46\l_remap",height=0.2,width=0.4,color="black", fillcolor="white", style="filled",URL="$dc/dbe/namespacepip_1_1__vendor_1_1idna_1_1core.html#a2d90033244fa673825a46b11909a635d",tooltip=" "];
  Node51 -> Node37 [color="midnightblue",fontsize="10",style="solid"];
  Node33 -> Node52 [color="midnightblue",fontsize="10",style="solid"];
  Node52 [label="pip._vendor.idna.core.valid\l_string_length",height=0.2,width=0.4,color="black", fillcolor="white", style="filled",URL="$dc/dbe/namespacepip_1_1__vendor_1_1idna_1_1core.html#a46abadd9be760400a42c0afc32d93e41",tooltip=" "];
  Node5 -> Node4 [color="midnightblue",fontsize="10",style="solid"];
}
