digraph "pip._vendor.distlib.scripts.ScriptMaker._get_shebang"
{
 // LATEX_PDF_SIZE
  edge [fontname="Helvetica",fontsize="10",labelfontname="Helvetica",labelfontsize="10"];
  node [fontname="Helvetica",fontsize="10",shape=record];
  rankdir="RL";
  Node1 [label="pip._vendor.distlib.scripts.\lScriptMaker._get_shebang",height=0.2,width=0.4,color="black", fillcolor="grey75", style="filled", fontcolor="black",tooltip=" "];
  Node1 -> Node2 [dir="back",color="midnightblue",fontsize="10",style="solid"];
  Node2 [label="pip._vendor.distlib.scripts.\lScriptMaker._copy_script",height=0.2,width=0.4,color="black", fillcolor="white", style="filled",URL="$de/dcc/classpip_1_1__vendor_1_1distlib_1_1scripts_1_1_script_maker.html#a9de7f3a948a2172a64185b5fbd6798ea",tooltip=" "];
  Node2 -> Node3 [dir="back",color="midnightblue",fontsize="10",style="solid"];
  Node3 [label="pip._vendor.distlib.scripts.\lScriptMaker.make",height=0.2,width=0.4,color="black", fillcolor="white", style="filled",URL="$de/dcc/classpip_1_1__vendor_1_1distlib_1_1scripts_1_1_script_maker.html#ac7f4e0644f67141ddc2304e838e64f9e",tooltip=" "];
  Node3 -> Node4 [dir="back",color="midnightblue",fontsize="10",style="solid"];
  Node4 [label="pip._vendor.distlib.scripts.\lScriptMaker.make_multiple",height=0.2,width=0.4,color="black", fillcolor="white", style="filled",URL="$de/dcc/classpip_1_1__vendor_1_1distlib_1_1scripts_1_1_script_maker.html#a47608296ced96eea37c55384a23e6f93",tooltip=" "];
  Node1 -> Node5 [dir="back",color="midnightblue",fontsize="10",style="solid"];
  Node5 [label="pip._vendor.distlib.scripts.\lScriptMaker._make_script",height=0.2,width=0.4,color="black", fillcolor="white", style="filled",URL="$de/dcc/classpip_1_1__vendor_1_1distlib_1_1scripts_1_1_script_maker.html#a01d3210a362f4d2d311f948632c893dc",tooltip=" "];
  Node5 -> Node3 [dir="back",color="midnightblue",fontsize="10",style="solid"];
}
