digraph "pip._vendor.distlib.scripts.ScriptMaker._write_script"
{
 // LATEX_PDF_SIZE
  edge [fontname="Helvetica",fontsize="10",labelfontname="Helvetica",labelfontsize="10"];
  node [fontname="Helvetica",fontsize="10",shape=record];
  rankdir="LR";
  Node1 [label="pip._vendor.distlib.scripts.\lScriptMaker._write_script",height=0.2,width=0.4,color="black", fillcolor="grey75", style="filled", fontcolor="black",tooltip=" "];
  Node1 -> Node2 [color="midnightblue",fontsize="10",style="solid"];
  Node2 [label="pip._vendor.distlib.scripts.\lScriptMaker._get_launcher",height=0.2,width=0.4,color="black", fillcolor="white", style="filled",URL="$de/dcc/classpip_1_1__vendor_1_1distlib_1_1scripts_1_1_script_maker.html#acaf3a09db240f6284c2be530c08ee239",tooltip=" "];
  Node2 -> Node3 [color="midnightblue",fontsize="10",style="solid"];
  Node3 [label="pip._vendor.distlib.resources.finder",height=0.2,width=0.4,color="black", fillcolor="white", style="filled",URL="$d9/dfe/namespacepip_1_1__vendor_1_1distlib_1_1resources.html#a19cb1b460cca0d3a5c6bea20e4ebc4b3",tooltip=" "];
}
