digraph "pip._internal.vcs.git.Git.resolve_revision"
{
 // LATEX_PDF_SIZE
  edge [fontname="Helvetica",fontsize="10",labelfontname="Helvetica",labelfontsize="10"];
  node [fontname="Helvetica",fontsize="10",shape=record];
  rankdir="LR";
  Node1 [label="pip._internal.vcs.git.Git.resolve\l_revision",height=0.2,width=0.4,color="black", fillcolor="grey75", style="filled", fontcolor="black",tooltip=" "];
  Node1 -> Node2 [color="midnightblue",fontsize="10",style="solid"];
  Node2 [label="pip._internal.vcs.bazaar.\lBazaar.get_revision",height=0.2,width=0.4,color="black", fillcolor="white", style="filled",URL="$d6/de7/classpip_1_1__internal_1_1vcs_1_1bazaar_1_1_bazaar.html#a4b44437ab0ee8f6233737cf313fee76d",tooltip=" "];
  Node2 -> Node3 [color="midnightblue",fontsize="10",style="solid"];
  Node3 [label="pip._internal.vcs.versioncontrol.\lVersionControl.run_command",height=0.2,width=0.4,color="black", fillcolor="white", style="filled",URL="$d0/db7/classpip_1_1__internal_1_1vcs_1_1versioncontrol_1_1_version_control.html#ad61672608a8af9f7250a5b52805e32da",tooltip=" "];
  Node3 -> Node4 [color="midnightblue",fontsize="10",style="solid"];
  Node4 [label="pip._internal.vcs.versioncontrol.call\l_subprocess",height=0.2,width=0.4,color="black", fillcolor="white", style="filled",URL="$d1/d2c/namespacepip_1_1__internal_1_1vcs_1_1versioncontrol.html#aee5031c77b49541d4363c8a519c8e45e",tooltip=" "];
  Node4 -> Node5 [color="midnightblue",fontsize="10",style="solid"];
  Node5 [label="pip._internal.utils.compat.console\l_to_str",height=0.2,width=0.4,color="black", fillcolor="white", style="filled",URL="$d1/dbe/namespacepip_1_1__internal_1_1utils_1_1compat.html#a10e86c6f45025a62c37b29bfc5801240",tooltip=" "];
  Node5 -> Node6 [color="midnightblue",fontsize="10",style="solid"];
  Node6 [label="pip._internal.utils.compat.str\l_to_display",height=0.2,width=0.4,color="black", fillcolor="white", style="filled",URL="$d1/dbe/namespacepip_1_1__internal_1_1utils_1_1compat.html#a4be57fd4fec2ca293f1967acba856c5b",tooltip=" "];
  Node4 -> Node7 [color="midnightblue",fontsize="10",style="solid"];
  Node7 [label="pip._internal.utils.subprocess.format\l_command_args",height=0.2,width=0.4,color="black", fillcolor="white", style="filled",URL="$de/d4d/namespacepip_1_1__internal_1_1utils_1_1subprocess.html#a555d52c519beee42615b9db004f18d59",tooltip=" "];
  Node4 -> Node8 [color="midnightblue",fontsize="10",style="solid"];
  Node8 [label="pip._internal.utils.subprocess.make\l_subprocess_output_error",height=0.2,width=0.4,color="black", fillcolor="white", style="filled",URL="$de/d4d/namespacepip_1_1__internal_1_1utils_1_1subprocess.html#a69e159aa9db850860bed4f4a64da8598",tooltip=" "];
  Node8 -> Node7 [color="midnightblue",fontsize="10",style="solid"];
  Node8 -> Node9 [color="midnightblue",fontsize="10",style="solid"];
  Node9 [label="pip._internal.utils.misc.path\l_to_display",height=0.2,width=0.4,color="black", fillcolor="white", style="filled",URL="$de/dc3/namespacepip_1_1__internal_1_1utils_1_1misc.html#a719e06573e964bf9b79c9088ae28426b",tooltip=" "];
  Node9 -> Node6 [color="midnightblue",fontsize="10",style="solid"];
  Node8 -> Node6 [color="midnightblue",fontsize="10",style="solid"];
  Node4 -> Node10 [color="midnightblue",fontsize="10",style="solid"];
  Node10 [label="pip._internal.utils.subprocess.reveal\l_command_args",height=0.2,width=0.4,color="black", fillcolor="white", style="filled",URL="$de/d4d/namespacepip_1_1__internal_1_1utils_1_1subprocess.html#a550dccfe24824c5345f989cdd92d8b37",tooltip=" "];
  Node3 -> Node11 [color="midnightblue",fontsize="10",style="solid"];
  Node11 [label="pip._internal.utils.subprocess.make\l_command",height=0.2,width=0.4,color="black", fillcolor="white", style="filled",URL="$de/d4d/namespacepip_1_1__internal_1_1utils_1_1subprocess.html#a943de158c89fb35ee9e6956dc4025cd8",tooltip=" "];
  Node1 -> Node12 [color="midnightblue",fontsize="10",style="solid"];
  Node12 [label="pip._internal.vcs.git.Git.get\l_revision",height=0.2,width=0.4,color="black", fillcolor="white", style="filled",URL="$d8/d4d/classpip_1_1__internal_1_1vcs_1_1git_1_1_git.html#a8d0a21c308892ce38a2f18d15c28927c",tooltip=" "];
  Node12 -> Node3 [color="midnightblue",fontsize="10",style="solid"];
  Node1 -> Node13 [color="midnightblue",fontsize="10",style="solid"];
  Node13 [label="pip._internal.vcs.git.Git.get\l_revision_sha",height=0.2,width=0.4,color="black", fillcolor="white", style="filled",URL="$d8/d4d/classpip_1_1__internal_1_1vcs_1_1git_1_1_git.html#a8b2d6bd99548e4ebd47035d9066c488b",tooltip=" "];
  Node13 -> Node3 [color="midnightblue",fontsize="10",style="solid"];
  Node1 -> Node14 [color="midnightblue",fontsize="10",style="solid"];
  Node14 [label="pip._internal.vcs.git.looks\l_like_hash",height=0.2,width=0.4,color="black", fillcolor="white", style="filled",URL="$dd/d51/namespacepip_1_1__internal_1_1vcs_1_1git.html#a52638865863aa71b7b1c65c46f9fa398",tooltip=" "];
  Node1 -> Node11 [color="midnightblue",fontsize="10",style="solid"];
  Node1 -> Node3 [color="midnightblue",fontsize="10",style="solid"];
}
