digraph "pip._vendor.packaging.version.Version.base_version"
{
 // LATEX_PDF_SIZE
  edge [fontname="Helvetica",fontsize="10",labelfontname="Helvetica",labelfontsize="10"];
  node [fontname="Helvetica",fontsize="10",shape=record];
  rankdir="LR";
  Node1 [label="pip._vendor.packaging.version.\lVersion.base_version",height=0.2,width=0.4,color="black", fillcolor="grey75", style="filled", fontcolor="black",tooltip=" "];
  Node1 -> Node2 [color="midnightblue",fontsize="10",style="solid"];
  Node2 [label="pip._vendor.packaging.version.\lLegacyVersion.epoch",height=0.2,width=0.4,color="black", fillcolor="white", style="filled",URL="$db/d53/classpip_1_1__vendor_1_1packaging_1_1version_1_1_legacy_version.html#aabb7e30e4c378f77ab2548c5cfe140b2",tooltip=" "];
  Node1 -> Node3 [color="midnightblue",fontsize="10",style="solid"];
  Node3 [label="pip._vendor.packaging.version.\lVersion.epoch",height=0.2,width=0.4,color="black", fillcolor="white", style="filled",URL="$d6/d65/classpip_1_1__vendor_1_1packaging_1_1version_1_1_version.html#a7d9942c51d310a4e395788915f253ea2",tooltip=" "];
  Node1 -> Node4 [color="midnightblue",fontsize="10",style="solid"];
  Node4 [label="pip._vendor.packaging.version.\lLegacyVersion.release",height=0.2,width=0.4,color="black", fillcolor="white", style="filled",URL="$db/d53/classpip_1_1__vendor_1_1packaging_1_1version_1_1_legacy_version.html#adc5a60adcb101a0beb4515273da72030",tooltip=" "];
  Node1 -> Node5 [color="midnightblue",fontsize="10",style="solid"];
  Node5 [label="pip._vendor.packaging.version.\lVersion.release",height=0.2,width=0.4,color="black", fillcolor="white", style="filled",URL="$d6/d65/classpip_1_1__vendor_1_1packaging_1_1version_1_1_version.html#a9a7eebbcea14e5ba39b53fe22e970e53",tooltip=" "];
}
