digraph "pip._vendor.chardet.charsetgroupprober.CharSetGroupProber.language"
{
 // LATEX_PDF_SIZE
  edge [fontname="Helvetica",fontsize="10",labelfontname="Helvetica",labelfontsize="10"];
  node [fontname="Helvetica",fontsize="10",shape=record];
  rankdir="LR";
  Node1 [label="pip._vendor.chardet.charsetgroupprober.\lCharSetGroupProber.language",height=0.2,width=0.4,color="black", fillcolor="grey75", style="filled", fontcolor="black",tooltip=" "];
  Node1 -> Node2 [color="midnightblue",fontsize="10",style="solid"];
  Node2 [label="pip._vendor.chardet.chardistribution.\lCharDistributionAnalysis.get\l_confidence",height=0.2,width=0.4,color="black", fillcolor="white", style="filled",URL="$d0/d28/classpip_1_1__vendor_1_1chardet_1_1chardistribution_1_1_char_distribution_analysis.html#a3ec0506365d5d77b42cbcee0532a4f72",tooltip=" "];
  Node1 -> Node3 [color="midnightblue",fontsize="10",style="solid"];
  Node3 [label="pip._vendor.chardet.charsetgroupprober.\lCharSetGroupProber.get_confidence",height=0.2,width=0.4,color="black", fillcolor="white", style="filled",URL="$d5/d8f/classpip_1_1__vendor_1_1chardet_1_1charsetgroupprober_1_1_char_set_group_prober.html#aeac22917bb85a807144868bcc9d46ad0",tooltip=" "];
  Node3 -> Node4 [color="midnightblue",fontsize="10",style="solid"];
  Node4 [label="pip._vendor.chardet.charsetprober.\lCharSetProber.state",height=0.2,width=0.4,color="black", fillcolor="white", style="filled",URL="$da/d33/classpip_1_1__vendor_1_1chardet_1_1charsetprober_1_1_char_set_prober.html#acd55b48549a5da92302fc4ea37d46361",tooltip=" "];
}
