digraph "pip._vendor.pyparsing.Each.streamline"
{
 // LATEX_PDF_SIZE
  edge [fontname="Helvetica",fontsize="10",labelfontname="Helvetica",labelfontsize="10"];
  node [fontname="Helvetica",fontsize="10",shape=record];
  rankdir="RL";
  Node1 [label="pip._vendor.pyparsing.Each.streamline",height=0.2,width=0.4,color="black", fillcolor="grey75", style="filled", fontcolor="black",tooltip=" "];
  Node1 -> Node2 [dir="back",color="midnightblue",fontsize="10",style="solid",fontname="Helvetica"];
  Node2 [label="pkg_resources._vendor.pyparsing.\lParserElement.parseString",height=0.2,width=0.4,color="black", fillcolor="white", style="filled",URL="$de/df0/classpkg__resources_1_1__vendor_1_1pyparsing_1_1_parser_element.html#a10680bb4fd394b631357d464b399e63a",tooltip=" "];
  Node2 -> Node3 [dir="back",color="midnightblue",fontsize="10",style="solid",fontname="Helvetica"];
  Node3 [label="pkg_resources._vendor.pyparsing.\lParserElement.matches",height=0.2,width=0.4,color="black", fillcolor="white", style="filled",URL="$de/df0/classpkg__resources_1_1__vendor_1_1pyparsing_1_1_parser_element.html#ac13ecd02ff2ecec127dcc7e1cc94311c",tooltip=" "];
  Node3 -> Node4 [dir="back",color="midnightblue",fontsize="10",style="solid",fontname="Helvetica"];
  Node4 [label="pkg_resources._vendor.pyparsing.\lParserElement.__eq__",height=0.2,width=0.4,color="black", fillcolor="white", style="filled",URL="$de/df0/classpkg__resources_1_1__vendor_1_1pyparsing_1_1_parser_element.html#a20b56b3e2a3a8da2918a9288e55c3370",tooltip=" "];
  Node3 -> Node5 [dir="back",color="midnightblue",fontsize="10",style="solid",fontname="Helvetica"];
  Node5 [label="setuptools._vendor.pyparsing.\lParserElement.__eq__",height=0.2,width=0.4,color="black", fillcolor="white", style="filled",URL="$d9/d25/classsetuptools_1_1__vendor_1_1pyparsing_1_1_parser_element.html#a5043f8497ee649455795186744db5300",tooltip=" "];
  Node2 -> Node6 [dir="back",color="midnightblue",fontsize="10",style="solid",fontname="Helvetica"];
  Node6 [label="setuptools._vendor.pyparsing.\lParserElement.matches",height=0.2,width=0.4,color="black", fillcolor="white", style="filled",URL="$d9/d25/classsetuptools_1_1__vendor_1_1pyparsing_1_1_parser_element.html#a2afc43378181105cbee5ab5dd4ed776f",tooltip=" "];
  Node6 -> Node5 [dir="back",color="midnightblue",fontsize="10",style="solid",fontname="Helvetica"];
  Node2 -> Node7 [dir="back",color="midnightblue",fontsize="10",style="solid",fontname="Helvetica"];
  Node7 [label="pkg_resources._vendor.pyparsing.\lParserElement.parseFile",height=0.2,width=0.4,color="black", fillcolor="white", style="filled",URL="$de/df0/classpkg__resources_1_1__vendor_1_1pyparsing_1_1_parser_element.html#a58920492aecac3860b5013ea35bdca1d",tooltip=" "];
  Node2 -> Node8 [dir="back",color="midnightblue",fontsize="10",style="solid",fontname="Helvetica"];
  Node8 [label="setuptools._vendor.pyparsing.\lParserElement.parseFile",height=0.2,width=0.4,color="black", fillcolor="white", style="filled",URL="$d9/d25/classsetuptools_1_1__vendor_1_1pyparsing_1_1_parser_element.html#a9d224aee01e69b56fc10f467c860e78c",tooltip=" "];
  Node2 -> Node9 [dir="back",color="midnightblue",fontsize="10",style="solid",fontname="Helvetica"];
  Node9 [label="pkg_resources._vendor.pyparsing.\lParserElement.runTests",height=0.2,width=0.4,color="black", fillcolor="white", style="filled",URL="$de/df0/classpkg__resources_1_1__vendor_1_1pyparsing_1_1_parser_element.html#a9b310e792e7644f09f282e822487f333",tooltip=" "];
  Node2 -> Node10 [dir="back",color="midnightblue",fontsize="10",style="solid",fontname="Helvetica"];
  Node10 [label="setuptools._vendor.pyparsing.\lParserElement.runTests",height=0.2,width=0.4,color="black", fillcolor="white", style="filled",URL="$d9/d25/classsetuptools_1_1__vendor_1_1pyparsing_1_1_parser_element.html#ae01ef499653e57fa7cd9aa2d3fe5cd4c",tooltip=" "];
  Node1 -> Node11 [dir="back",color="midnightblue",fontsize="10",style="solid",fontname="Helvetica"];
  Node11 [label="setuptools._vendor.pyparsing.\lParserElement.parseString",height=0.2,width=0.4,color="black", fillcolor="white", style="filled",URL="$d9/d25/classsetuptools_1_1__vendor_1_1pyparsing_1_1_parser_element.html#aadaa0a9ab4b6dd77f5363812a6d8f314",tooltip=" "];
  Node11 -> Node6 [dir="back",color="midnightblue",fontsize="10",style="solid",fontname="Helvetica"];
  Node11 -> Node8 [dir="back",color="midnightblue",fontsize="10",style="solid",fontname="Helvetica"];
  Node11 -> Node10 [dir="back",color="midnightblue",fontsize="10",style="solid",fontname="Helvetica"];
  Node1 -> Node12 [dir="back",color="midnightblue",fontsize="10",style="solid",fontname="Helvetica"];
  Node12 [label="pkg_resources._vendor.pyparsing.\lParserElement.scanString",height=0.2,width=0.4,color="black", fillcolor="white", style="filled",URL="$de/df0/classpkg__resources_1_1__vendor_1_1pyparsing_1_1_parser_element.html#a7e7fdf9660796750819d13908cf34edb",tooltip=" "];
  Node12 -> Node13 [dir="back",color="midnightblue",fontsize="10",style="solid",fontname="Helvetica"];
  Node13 [label="pkg_resources._vendor.pyparsing.\lParserElement.searchString",height=0.2,width=0.4,color="black", fillcolor="white", style="filled",URL="$de/df0/classpkg__resources_1_1__vendor_1_1pyparsing_1_1_parser_element.html#adaa9a7ce387e187e4505bf68a98bd626",tooltip=" "];
  Node12 -> Node14 [dir="back",color="midnightblue",fontsize="10",style="solid",fontname="Helvetica"];
  Node14 [label="setuptools._vendor.pyparsing.\lParserElement.searchString",height=0.2,width=0.4,color="black", fillcolor="white", style="filled",URL="$d9/d25/classsetuptools_1_1__vendor_1_1pyparsing_1_1_parser_element.html#a18ea0f1af4a045470230de54047b0ba5",tooltip=" "];
  Node12 -> Node15 [dir="back",color="midnightblue",fontsize="10",style="solid",fontname="Helvetica"];
  Node15 [label="pkg_resources._vendor.pyparsing.\lParserElement.split",height=0.2,width=0.4,color="black", fillcolor="white", style="filled",URL="$de/df0/classpkg__resources_1_1__vendor_1_1pyparsing_1_1_parser_element.html#a07496b6487e5aa0d90619fa4655e8393",tooltip=" "];
  Node12 -> Node16 [dir="back",color="midnightblue",fontsize="10",style="solid",fontname="Helvetica"];
  Node16 [label="setuptools._vendor.pyparsing.\lParserElement.split",height=0.2,width=0.4,color="black", fillcolor="white", style="filled",URL="$d9/d25/classsetuptools_1_1__vendor_1_1pyparsing_1_1_parser_element.html#a261b8172db2d9632b1945ecd174bd3eb",tooltip=" "];
  Node12 -> Node17 [dir="back",color="midnightblue",fontsize="10",style="solid",fontname="Helvetica"];
  Node17 [label="pkg_resources._vendor.pyparsing.\lParserElement.transformString",height=0.2,width=0.4,color="black", fillcolor="white", style="filled",URL="$de/df0/classpkg__resources_1_1__vendor_1_1pyparsing_1_1_parser_element.html#af9259df34d2c525d5dc935fe4082d40c",tooltip=" "];
  Node12 -> Node18 [dir="back",color="midnightblue",fontsize="10",style="solid",fontname="Helvetica"];
  Node18 [label="setuptools._vendor.pyparsing.\lParserElement.transformString",height=0.2,width=0.4,color="black", fillcolor="white", style="filled",URL="$d9/d25/classsetuptools_1_1__vendor_1_1pyparsing_1_1_parser_element.html#af25c27f581e141385fae3884f19274e8",tooltip=" "];
  Node1 -> Node19 [dir="back",color="midnightblue",fontsize="10",style="solid",fontname="Helvetica"];
  Node19 [label="setuptools._vendor.pyparsing.\lParserElement.scanString",height=0.2,width=0.4,color="black", fillcolor="white", style="filled",URL="$d9/d25/classsetuptools_1_1__vendor_1_1pyparsing_1_1_parser_element.html#a119bfc59496f168ee6d19cf781d83103",tooltip=" "];
  Node19 -> Node14 [dir="back",color="midnightblue",fontsize="10",style="solid",fontname="Helvetica"];
  Node19 -> Node16 [dir="back",color="midnightblue",fontsize="10",style="solid",fontname="Helvetica"];
  Node19 -> Node18 [dir="back",color="midnightblue",fontsize="10",style="solid",fontname="Helvetica"];
}
