digraph "pip._vendor.pkg_resources.non_empty_lines"
{
 // LATEX_PDF_SIZE
  edge [fontname="Helvetica",fontsize="10",labelfontname="Helvetica",labelfontsize="10"];
  node [fontname="Helvetica",fontsize="10",shape=record];
  rankdir="RL";
  Node1 [label="pip._vendor.pkg_resources.non\l_empty_lines",height=0.2,width=0.4,color="black", fillcolor="grey75", style="filled", fontcolor="black",tooltip=" "];
  Node1 -> Node2 [dir="back",color="midnightblue",fontsize="10",style="solid"];
  Node2 [label="pip._vendor.pkg_resources.resolve\l_egg_link",height=0.2,width=0.4,color="black", fillcolor="white", style="filled",URL="$d7/dcc/namespacepip_1_1__vendor_1_1pkg__resources.html#a6788447ac6b0b1b785fe2c7dbd0dd45b",tooltip=" "];
}
