digraph "pip._vendor.distlib.metadata.LegacyMetadata.is_multi_field"
{
 // LATEX_PDF_SIZE
  edge [fontname="Helvetica",fontsize="10",labelfontname="Helvetica",labelfontsize="10"];
  node [fontname="Helvetica",fontsize="10",shape=record];
  rankdir="LR";
  Node1 [label="pip._vendor.distlib.metadata.\lLegacyMetadata.is_multi_field",height=0.2,width=0.4,color="black", fillcolor="grey75", style="filled", fontcolor="black",tooltip=" "];
  Node1 -> Node2 [color="midnightblue",fontsize="10",style="solid",fontname="Helvetica"];
  Node2 [label="pip._vendor.distlib.metadata.\lLegacyMetadata._convert_name",height=0.2,width=0.4,color="black", fillcolor="white", style="filled",URL="$d3/dc5/classpip_1_1__vendor_1_1distlib_1_1metadata_1_1_legacy_metadata.html#aba85ccc920e493d76cea58d2061a9501",tooltip=" "];
}
