digraph "pip._internal.operations.prepare.RequirementPreparer._ensure_link_req_src_dir"
{
 // LATEX_PDF_SIZE
  edge [fontname="Helvetica",fontsize="10",labelfontname="Helvetica",labelfontsize="10"];
  node [fontname="Helvetica",fontsize="10",shape=record];
  rankdir="RL";
  Node1 [label="pip._internal.operations.prepare.\lRequirementPreparer._ensure\l_link_req_src_dir",height=0.2,width=0.4,color="black", fillcolor="grey75", style="filled", fontcolor="black",tooltip=" "];
  Node1 -> Node2 [dir="back",color="midnightblue",fontsize="10",style="solid",fontname="Helvetica"];
  Node2 [label="pip._internal.operations.prepare.\lRequirementPreparer.prepare\l_linked_requirement",height=0.2,width=0.4,color="black", fillcolor="white", style="filled",URL="$d3/dc5/classpip_1_1__internal_1_1operations_1_1prepare_1_1_requirement_preparer.html#a112bf5c78474500ff9c4c6b4101e4a6b",tooltip=" "];
}
