digraph "pip._vendor.distlib.metadata.LegacyMetadata.write_file"
{
 // LATEX_PDF_SIZE
  edge [fontname="Helvetica",fontsize="10",labelfontname="Helvetica",labelfontsize="10"];
  node [fontname="Helvetica",fontsize="10",shape=record];
  rankdir="LR";
  Node1 [label="pip._vendor.distlib.metadata.\lLegacyMetadata.write_file",height=0.2,width=0.4,color="black", fillcolor="grey75", style="filled", fontcolor="black",tooltip=" "];
  Node1 -> Node2 [color="midnightblue",fontsize="10",style="solid",fontname="Helvetica"];
  Node2 [label="pip._vendor.distlib.metadata.\l_version2fieldlist",height=0.2,width=0.4,color="black", fillcolor="white", style="filled",URL="$de/d5b/namespacepip_1_1__vendor_1_1distlib_1_1metadata.html#afb52491c16408954169ff3abaff4a6de",tooltip=" "];
  Node1 -> Node3 [color="midnightblue",fontsize="10",style="solid",fontname="Helvetica"];
  Node3 [label="pip._vendor.distlib.metadata.\lLegacyMetadata._write_field",height=0.2,width=0.4,color="black", fillcolor="white", style="filled",URL="$d3/dc5/classpip_1_1__vendor_1_1distlib_1_1metadata_1_1_legacy_metadata.html#a95d365ebe9ca0180d5fe75dfc78e444d",tooltip=" "];
  Node1 -> Node4 [color="midnightblue",fontsize="10",style="solid",fontname="Helvetica"];
  Node4 [label="pip._internal.network.cache.\lSafeFileCache.get",height=0.2,width=0.4,color="black", fillcolor="white", style="filled",URL="$d6/db2/classpip_1_1__internal_1_1network_1_1cache_1_1_safe_file_cache.html#a3a3d7f5f8f6daa162f109d311799e58a",tooltip=" "];
  Node4 -> Node5 [color="midnightblue",fontsize="10",style="solid",fontname="Helvetica"];
  Node5 [label="pip._internal.network.cache.\lSafeFileCache._get_cache_path",height=0.2,width=0.4,color="black", fillcolor="white", style="filled",URL="$d6/db2/classpip_1_1__internal_1_1network_1_1cache_1_1_safe_file_cache.html#a5fad24a457033ba45859c326f942cee8",tooltip=" "];
  Node4 -> Node6 [color="midnightblue",fontsize="10",style="solid",fontname="Helvetica"];
  Node6 [label="pip._internal.network.cache.suppressed\l_cache_errors",height=0.2,width=0.4,color="black", fillcolor="white", style="filled",URL="$d6/d3c/namespacepip_1_1__internal_1_1network_1_1cache.html#a9f176df75f4d12bd9d53d7bb66ea610d",tooltip=" "];
  Node1 -> Node7 [color="midnightblue",fontsize="10",style="solid",fontname="Helvetica"];
  Node7 [label="pip._vendor.cachecontrol.cache.\lBaseCache.get",height=0.2,width=0.4,color="black", fillcolor="white", style="filled",URL="$da/d8a/classpip_1_1__vendor_1_1cachecontrol_1_1cache_1_1_base_cache.html#ad5c273adabffacc22029a8461bdcb8e0",tooltip=" "];
  Node1 -> Node8 [color="midnightblue",fontsize="10",style="solid",fontname="Helvetica"];
  Node8 [label="pip._vendor.cachecontrol.cache.\lDictCache.get",height=0.2,width=0.4,color="black", fillcolor="white", style="filled",URL="$da/d77/classpip_1_1__vendor_1_1cachecontrol_1_1cache_1_1_dict_cache.html#af092ece36a8cce3cdb2b6e899405819a",tooltip=" "];
  Node1 -> Node9 [color="midnightblue",fontsize="10",style="solid",fontname="Helvetica"];
  Node9 [label="pip._vendor.cachecontrol.caches.file\l_cache.FileCache.get",height=0.2,width=0.4,color="black", fillcolor="white", style="filled",URL="$d4/d5e/classpip_1_1__vendor_1_1cachecontrol_1_1caches_1_1file__cache_1_1_file_cache.html#abaf8e68f7bf2b7ed1f4f3d19cf8502cc",tooltip=" "];
  Node9 -> Node10 [color="midnightblue",fontsize="10",style="solid",fontname="Helvetica"];
  Node10 [label="pip._vendor.cachecontrol.caches.file\l_cache.FileCache._fn",height=0.2,width=0.4,color="black", fillcolor="white", style="filled",URL="$d4/d5e/classpip_1_1__vendor_1_1cachecontrol_1_1caches_1_1file__cache_1_1_file_cache.html#acc032338fee1e604f8e74c43b836a045",tooltip=" "];
  Node10 -> Node11 [color="midnightblue",fontsize="10",style="solid",fontname="Helvetica"];
  Node11 [label="pip._vendor.cachecontrol.caches.file\l_cache.FileCache.encode",height=0.2,width=0.4,color="black", fillcolor="white", style="filled",URL="$d4/d5e/classpip_1_1__vendor_1_1cachecontrol_1_1caches_1_1file__cache_1_1_file_cache.html#a332cb83da1e988931abc75e2634718de",tooltip=" "];
  Node1 -> Node12 [color="midnightblue",fontsize="10",style="solid",fontname="Helvetica"];
  Node12 [label="pip._vendor.cachecontrol.caches.redis\l_cache.RedisCache.get",height=0.2,width=0.4,color="black", fillcolor="white", style="filled",URL="$dd/d2e/classpip_1_1__vendor_1_1cachecontrol_1_1caches_1_1redis__cache_1_1_redis_cache.html#a1c0ed79e45aa1435f77660d842d00a6f",tooltip=" "];
  Node1 -> Node13 [color="midnightblue",fontsize="10",style="solid",fontname="Helvetica"];
  Node13 [label="pip._vendor.distlib.compat.\lChainMap.get",height=0.2,width=0.4,color="black", fillcolor="white", style="filled",URL="$d2/d2d/classpip_1_1__vendor_1_1distlib_1_1compat_1_1_chain_map.html#a657b681156ad31c3b7391fcfdfd0bc5f",tooltip=" "];
  Node1 -> Node14 [color="midnightblue",fontsize="10",style="solid",fontname="Helvetica"];
  Node14 [label="pip._vendor.distlib.compat.\lConvertingDict.get",height=0.2,width=0.4,color="black", fillcolor="white", style="filled",URL="$db/dd5/classpip_1_1__vendor_1_1distlib_1_1compat_1_1_converting_dict.html#acc9b853aa7f196de678588c6234fa60c",tooltip=" "];
  Node14 -> Node15 [color="midnightblue",fontsize="10",style="solid",fontname="Helvetica"];
  Node15 [label="wheel.cli.convert.convert",height=0.2,width=0.4,color="black", fillcolor="white", style="filled",URL="$d9/dd7/namespacewheel_1_1cli_1_1convert.html#af3bc802d1311c120a48e97d90de58fde",tooltip=" "];
  Node15 -> Node16 [color="midnightblue",fontsize="10",style="solid",fontname="Helvetica"];
  Node16 [label="pip._vendor.distlib.util.iglob",height=0.2,width=0.4,color="black", fillcolor="white", style="filled",URL="$d6/d99/namespacepip_1_1__vendor_1_1distlib_1_1util.html#a01e026ce674216cb9a30feec8d96f7cd",tooltip=" "];
  Node16 -> Node17 [color="midnightblue",fontsize="10",style="solid",fontname="Helvetica"];
  Node17 [label="pip._vendor.distlib.util.\l_iglob",height=0.2,width=0.4,color="black", fillcolor="white", style="filled",URL="$d6/d99/namespacepip_1_1__vendor_1_1distlib_1_1util.html#af493b4e69cabea8d54839c3255d12f1d",tooltip=" "];
  Node15 -> Node18 [color="midnightblue",fontsize="10",style="solid",fontname="Helvetica"];
  Node18 [label="wheel.cli.require_pkgresources",height=0.2,width=0.4,color="black", fillcolor="white", style="filled",URL="$d4/da6/namespacewheel_1_1cli.html#a0eedbfc56bb01006797f610f2e59d20b",tooltip=" "];
  Node1 -> Node19 [color="midnightblue",fontsize="10",style="solid",fontname="Helvetica"];
  Node19 [label="pip._internal.cache.Cache.get",height=0.2,width=0.4,color="black", fillcolor="white", style="filled",URL="$de/d43/classpip_1_1__internal_1_1cache_1_1_cache.html#ad68488daa2dd21db48b7c82b72d35e32",tooltip=" "];
  Node1 -> Node20 [color="midnightblue",fontsize="10",style="solid",fontname="Helvetica"];
  Node20 [label="pip._internal.cache.Simple\lWheelCache.get",height=0.2,width=0.4,color="black", fillcolor="white", style="filled",URL="$d4/dbb/classpip_1_1__internal_1_1cache_1_1_simple_wheel_cache.html#a1e90e1583e0c82aea5e0382d53185f35",tooltip=" "];
  Node20 -> Node21 [color="midnightblue",fontsize="10",style="solid",fontname="Helvetica"];
  Node21 [label="pip._internal.cache.Cache.\l_get_candidates",height=0.2,width=0.4,color="black", fillcolor="white", style="filled",URL="$de/d43/classpip_1_1__internal_1_1cache_1_1_cache.html#a80b06a14fbf9bf63d56f89906af2871e",tooltip=" "];
  Node21 -> Node22 [color="midnightblue",fontsize="10",style="solid",fontname="Helvetica"];
  Node22 [label="pip._internal.cache.Cache.get\l_path_for_link",height=0.2,width=0.4,color="black", fillcolor="white", style="filled",URL="$de/d43/classpip_1_1__internal_1_1cache_1_1_cache.html#a95a2a7b3fd47f18987558738366660fe",tooltip=" "];
  Node21 -> Node23 [color="midnightblue",fontsize="10",style="solid",fontname="Helvetica"];
  Node23 [label="pip._internal.cache.Cache.get\l_path_for_link_legacy",height=0.2,width=0.4,color="black", fillcolor="white", style="filled",URL="$de/d43/classpip_1_1__internal_1_1cache_1_1_cache.html#a6509d1b073ff687b81369d58b52ea155",tooltip=" "];
  Node20 -> Node24 [color="midnightblue",fontsize="10",style="solid",fontname="Helvetica"];
  Node24 [label="pip._vendor.packaging.utils.canonicalize_name",height=0.2,width=0.4,color="black", fillcolor="white", style="filled",URL="$dc/da8/namespacepip_1_1__vendor_1_1packaging_1_1utils.html#af20daae928523ea0ae9d2c4215887232",tooltip=" "];
  Node24 -> Node25 [color="midnightblue",fontsize="10",style="solid",fontname="Helvetica"];
  Node25 [label="pip._internal.utils.typing.cast",height=0.2,width=0.4,color="black", fillcolor="white", style="filled",URL="$d9/d56/namespacepip_1_1__internal_1_1utils_1_1typing.html#ab37e3e9039b01929d8ac2bd74d7c37db",tooltip=" "];
  Node20 -> Node26 [color="midnightblue",fontsize="10",style="solid",fontname="Helvetica"];
  Node26 [label="pip._internal.utils.urls.path\l_to_url",height=0.2,width=0.4,color="black", fillcolor="white", style="filled",URL="$d7/d48/namespacepip_1_1__internal_1_1utils_1_1urls.html#a789117f8d3114e952ead88416e5493d9",tooltip=" "];
  Node1 -> Node27 [color="midnightblue",fontsize="10",style="solid",fontname="Helvetica"];
  Node27 [label="pip._internal.cache.Wheel\lCache.get",height=0.2,width=0.4,color="black", fillcolor="white", style="filled",URL="$dc/d59/classpip_1_1__internal_1_1cache_1_1_wheel_cache.html#a722f8381e4d788924983bcfcfea9a320",tooltip=" "];
  Node27 -> Node28 [color="midnightblue",fontsize="10",style="solid",fontname="Helvetica"];
  Node28 [label="pip._internal.cache.Wheel\lCache.get_cache_entry",height=0.2,width=0.4,color="black", fillcolor="white", style="filled",URL="$dc/d59/classpip_1_1__internal_1_1cache_1_1_wheel_cache.html#a26c59ef2ab9419e7f5fff1fc51382cea",tooltip=" "];
  Node28 -> Node27 [color="midnightblue",fontsize="10",style="solid",fontname="Helvetica"];
  Node1 -> Node29 [color="midnightblue",fontsize="10",style="solid",fontname="Helvetica"];
  Node29 [label="pip._vendor.distlib.metadata.\lLegacyMetadata.get",height=0.2,width=0.4,color="black", fillcolor="white", style="filled",URL="$d3/dc5/classpip_1_1__vendor_1_1distlib_1_1metadata_1_1_legacy_metadata.html#a6afe175ec766743328ea8e4fe464eb31",tooltip=" "];
  Node29 -> Node30 [color="midnightblue",fontsize="10",style="solid",fontname="Helvetica"];
  Node30 [label="pip._vendor.distlib.metadata.\lLegacyMetadata._convert_name",height=0.2,width=0.4,color="black", fillcolor="white", style="filled",URL="$d3/dc5/classpip_1_1__vendor_1_1distlib_1_1metadata_1_1_legacy_metadata.html#aba85ccc920e493d76cea58d2061a9501",tooltip=" "];
  Node29 -> Node31 [color="midnightblue",fontsize="10",style="solid",fontname="Helvetica"];
  Node31 [label="pip._vendor.distlib.metadata.\lLegacyMetadata._default_value",height=0.2,width=0.4,color="black", fillcolor="white", style="filled",URL="$d3/dc5/classpip_1_1__vendor_1_1distlib_1_1metadata_1_1_legacy_metadata.html#a36876ad28e935d0b2674177e12f20af8",tooltip=" "];
  Node1 -> Node32 [color="midnightblue",fontsize="10",style="solid",fontname="Helvetica"];
  Node32 [label="pip._vendor.distlib.metadata.\lLegacyMetadata.set_metadata\l_version",height=0.2,width=0.4,color="black", fillcolor="white", style="filled",URL="$d3/dc5/classpip_1_1__vendor_1_1distlib_1_1metadata_1_1_legacy_metadata.html#a2b8a6958321255c88868aa43ac509a85",tooltip=" "];
  Node32 -> Node33 [color="midnightblue",fontsize="10",style="solid",fontname="Helvetica"];
  Node33 [label="pip._vendor.distlib.metadata.\l_best_version",height=0.2,width=0.4,color="black", fillcolor="white", style="filled",URL="$de/d5b/namespacepip_1_1__vendor_1_1distlib_1_1metadata.html#a2d52159cc25bbf7043038c9cf6eaec4d",tooltip=" "];
}
