digraph "pip._vendor.distlib.metadata.LegacyMetadata.keys"
{
 // LATEX_PDF_SIZE
  edge [fontname="Helvetica",fontsize="10",labelfontname="Helvetica",labelfontsize="10"];
  node [fontname="Helvetica",fontsize="10",shape=record];
  rankdir="LR";
  Node1 [label="pip._vendor.distlib.metadata.\lLegacyMetadata.keys",height=0.2,width=0.4,color="black", fillcolor="grey75", style="filled", fontcolor="black",tooltip=" "];
  Node1 -> Node2 [color="midnightblue",fontsize="10",style="solid",fontname="Helvetica"];
  Node2 [label="pip._vendor.distlib.metadata.\l_version2fieldlist",height=0.2,width=0.4,color="black", fillcolor="white", style="filled",URL="$de/d5b/namespacepip_1_1__vendor_1_1distlib_1_1metadata.html#afb52491c16408954169ff3abaff4a6de",tooltip=" "];
}
