digraph "pip._internal.operations.prepare.RequirementPreparer.prepare_editable_requirement"
{
 // LATEX_PDF_SIZE
  edge [fontname="Helvetica",fontsize="10",labelfontname="Helvetica",labelfontsize="10"];
  node [fontname="Helvetica",fontsize="10",shape=record];
  rankdir="LR";
  Node1 [label="pip._internal.operations.prepare.\lRequirementPreparer.prepare\l_editable_requirement",height=0.2,width=0.4,color="black", fillcolor="grey75", style="filled", fontcolor="black",tooltip=" "];
  Node1 -> Node2 [color="midnightblue",fontsize="10",style="solid",fontname="Helvetica"];
  Node2 [label="pip._internal.operations.prepare.\lRequirementPreparer._download\l_should_save",height=0.2,width=0.4,color="black", fillcolor="white", style="filled",URL="$d3/dc5/classpip_1_1__internal_1_1operations_1_1prepare_1_1_requirement_preparer.html#a3a6852425c629084bff3b64ad84d05e4",tooltip=" "];
  Node1 -> Node3 [color="midnightblue",fontsize="10",style="solid",fontname="Helvetica"];
  Node3 [label="pip._internal.operations.prepare.\l_get_prepared_distribution",height=0.2,width=0.4,color="black", fillcolor="white", style="filled",URL="$d5/d0e/namespacepip_1_1__internal_1_1operations_1_1prepare.html#afa7ce18f3c34a40106412855fdfda238",tooltip=" "];
  Node3 -> Node4 [color="midnightblue",fontsize="10",style="solid",fontname="Helvetica"];
  Node4 [label="pip._internal.distributions.make\l_distribution_for_install_requirement",height=0.2,width=0.4,color="black", fillcolor="white", style="filled",URL="$d1/ddd/namespacepip_1_1__internal_1_1distributions.html#afe20930f7dba1c0b6f8da13c2b87d9f4",tooltip=" "];
  Node1 -> Node5 [color="midnightblue",fontsize="10",style="solid",fontname="Helvetica"];
  Node5 [label="pip._internal.utils.logging.indent_log",height=0.2,width=0.4,color="black", fillcolor="white", style="filled",URL="$d2/d7f/namespacepip_1_1__internal_1_1utils_1_1logging.html#a085a5d65b0702800d0a9d48a0a4615a8",tooltip=" "];
  Node5 -> Node6 [color="midnightblue",fontsize="10",style="solid",fontname="Helvetica"];
  Node6 [label="pip._internal.utils.logging.get\l_indentation",height=0.2,width=0.4,color="black", fillcolor="white", style="filled",URL="$d2/d7f/namespacepip_1_1__internal_1_1utils_1_1logging.html#a44d946c100e5712775abb26dc67d1c51",tooltip=" "];
}
