digraph "pip._vendor.msgpack.fallback.Unpacker.skip"
{
 // LATEX_PDF_SIZE
  edge [fontname="Helvetica",fontsize="10",labelfontname="Helvetica",labelfontsize="10"];
  node [fontname="Helvetica",fontsize="10",shape=record];
  rankdir="LR";
  Node1 [label="pip._vendor.msgpack.fallback.\lUnpacker.skip",height=0.2,width=0.4,color="black", fillcolor="grey75", style="filled", fontcolor="black",tooltip=" "];
  Node1 -> Node2 [color="midnightblue",fontsize="10",style="solid",fontname="Helvetica"];
  Node2 [label="pip._vendor.msgpack.fallback.\lUnpacker._consume",height=0.2,width=0.4,color="black", fillcolor="white", style="filled",URL="$d1/d3d/classpip_1_1__vendor_1_1msgpack_1_1fallback_1_1_unpacker.html#a4c9f5d4b5f4c43a6fa69da073c32798c",tooltip=" "];
  Node1 -> Node3 [color="midnightblue",fontsize="10",style="solid",fontname="Helvetica"];
  Node3 [label="pip._vendor.msgpack.fallback.\lUnpacker._unpack",height=0.2,width=0.4,color="black", fillcolor="white", style="filled",URL="$d1/d3d/classpip_1_1__vendor_1_1msgpack_1_1fallback_1_1_unpacker.html#a7c727a68b00ceb809846a15f7a72cea3",tooltip=" "];
  Node3 -> Node4 [color="midnightblue",fontsize="10",style="solid",fontname="Helvetica"];
  Node4 [label="pip._vendor.msgpack.fallback.\lUnpacker._read_header",height=0.2,width=0.4,color="black", fillcolor="white", style="filled",URL="$d1/d3d/classpip_1_1__vendor_1_1msgpack_1_1fallback_1_1_unpacker.html#a38113b575613a5ee25a43597a4d9f155",tooltip=" "];
  Node4 -> Node5 [color="midnightblue",fontsize="10",style="solid",fontname="Helvetica"];
  Node5 [label="pip._vendor.msgpack.fallback.\lUnpacker._read",height=0.2,width=0.4,color="black", fillcolor="white", style="filled",URL="$d1/d3d/classpip_1_1__vendor_1_1msgpack_1_1fallback_1_1_unpacker.html#a2edecdcb3de804988c4b341d64cc955e",tooltip=" "];
  Node5 -> Node6 [color="midnightblue",fontsize="10",style="solid",fontname="Helvetica"];
  Node6 [label="pip._vendor.msgpack.fallback.\lUnpacker._reserve",height=0.2,width=0.4,color="black", fillcolor="white", style="filled",URL="$d1/d3d/classpip_1_1__vendor_1_1msgpack_1_1fallback_1_1_unpacker.html#a162b3e74021b64fe77e96bb732bd5df5",tooltip=" "];
  Node4 -> Node7 [color="midnightblue",fontsize="10",style="solid",fontname="Helvetica"];
  Node7 [label="pip._vendor.distlib.\l_backport.tarfile._Stream._read",height=0.2,width=0.4,color="black", fillcolor="white", style="filled",URL="$de/d60/classpip_1_1__vendor_1_1distlib_1_1__backport_1_1tarfile_1_1___stream.html#a0b140f9832b39d763232aed76337513c",tooltip=" "];
  Node7 -> Node8 [color="midnightblue",fontsize="10",style="solid",fontname="Helvetica"];
  Node8 [label="pip._vendor.distlib.\l_backport.tarfile._Stream.__read",height=0.2,width=0.4,color="black", fillcolor="white", style="filled",URL="$de/d60/classpip_1_1__vendor_1_1distlib_1_1__backport_1_1tarfile_1_1___stream.html#aea86d19efaaadaa04b8af3a0bd3b9031",tooltip=" "];
  Node8 -> Node9 [color="midnightblue",fontsize="10",style="solid",fontname="Helvetica"];
  Node9 [label="pip._vendor.distlib.\l_backport.tarfile._Stream.read",height=0.2,width=0.4,color="black", fillcolor="white", style="filled",URL="$de/d60/classpip_1_1__vendor_1_1distlib_1_1__backport_1_1tarfile_1_1___stream.html#abaf3986e16734dc5f6c18e69abd21ee1",tooltip=" "];
  Node9 -> Node7 [color="midnightblue",fontsize="10",style="solid",fontname="Helvetica"];
  Node4 -> Node6 [color="midnightblue",fontsize="10",style="solid",fontname="Helvetica"];
  Node3 -> Node3 [color="midnightblue",fontsize="10",style="solid",fontname="Helvetica"];
}
