digraph "pip._internal.utils.misc.get_pip_version"
{
 // LATEX_PDF_SIZE
  edge [fontname="Helvetica",fontsize="10",labelfontname="Helvetica",labelfontsize="10"];
  node [fontname="Helvetica",fontsize="10",shape=record];
  rankdir="RL";
  Node1 [label="pip._internal.utils.misc.get\l_pip_version",height=0.2,width=0.4,color="black", fillcolor="grey75", style="filled", fontcolor="black",tooltip=" "];
  Node1 -> Node2 [dir="back",color="midnightblue",fontsize="10",style="solid"];
  Node2 [label="pip._internal.cli.main\l_parser.create_main_parser",height=0.2,width=0.4,color="black", fillcolor="white", style="filled",URL="$da/d9a/namespacepip_1_1__internal_1_1cli_1_1main__parser.html#a013c5ce9f6e201f260c6fe1d61c66315",tooltip=" "];
  Node2 -> Node3 [dir="back",color="midnightblue",fontsize="10",style="solid"];
  Node3 [label="pip._internal.cli.autocompletion.autocomplete",height=0.2,width=0.4,color="black", fillcolor="white", style="filled",URL="$d7/d4e/namespacepip_1_1__internal_1_1cli_1_1autocompletion.html#ab676b40a63ace810224c1cce7586acf0",tooltip=" "];
  Node3 -> Node4 [dir="back",color="midnightblue",fontsize="10",style="solid"];
  Node4 [label="pip._internal.cli.main.main",height=0.2,width=0.4,color="black", fillcolor="white", style="filled",URL="$dc/d1a/namespacepip_1_1__internal_1_1cli_1_1main.html#afbf568e998386c2235df2b146ad9a739",tooltip=" "];
  Node2 -> Node5 [dir="back",color="midnightblue",fontsize="10",style="solid"];
  Node5 [label="pip._internal.cli.main\l_parser.parse_command",height=0.2,width=0.4,color="black", fillcolor="white", style="filled",URL="$da/d9a/namespacepip_1_1__internal_1_1cli_1_1main__parser.html#a54ded34de739fd20c3fdc67715ef32c8",tooltip=" "];
  Node5 -> Node4 [dir="back",color="midnightblue",fontsize="10",style="solid"];
  Node1 -> Node6 [dir="back",color="midnightblue",fontsize="10",style="solid"];
  Node6 [label="pip._internal.commands.debug.\lDebugCommand.run",height=0.2,width=0.4,color="black", fillcolor="white", style="filled",URL="$db/d7b/classpip_1_1__internal_1_1commands_1_1debug_1_1_debug_command.html#a68464110a60097e9ba489abbee105751",tooltip=" "];
  Node1 -> Node7 [dir="back",color="midnightblue",fontsize="10",style="solid"];
  Node7 [label="pip._internal.commands.install.\lInstallCommand.run",height=0.2,width=0.4,color="black", fillcolor="white", style="filled",URL="$d2/dff/classpip_1_1__internal_1_1commands_1_1install_1_1_install_command.html#aed853149716837d308440b8e2405a75c",tooltip=" "];
}
