digraph "pip._internal.utils.misc.get_installed_version"
{
 // LATEX_PDF_SIZE
  edge [fontname="Helvetica",fontsize="10",labelfontname="Helvetica",labelfontsize="10"];
  node [fontname="Helvetica",fontsize="10",shape=record];
  rankdir="RL";
  Node1 [label="pip._internal.utils.misc.get\l_installed_version",height=0.2,width=0.4,color="black", fillcolor="grey75", style="filled", fontcolor="black",tooltip=" "];
  Node1 -> Node2 [dir="back",color="midnightblue",fontsize="10",style="solid"];
  Node2 [label="pip._internal.req.req\l_install.InstallRequirement.installed\l_version",height=0.2,width=0.4,color="black", fillcolor="white", style="filled",URL="$d2/daa/classpip_1_1__internal_1_1req_1_1req__install_1_1_install_requirement.html#ac8736abd085b32092d6008e88207973f",tooltip=" "];
  Node1 -> Node3 [dir="back",color="midnightblue",fontsize="10",style="solid"];
  Node3 [label="pip._internal.self\l_outdated_check.pip\l_self_version_check",height=0.2,width=0.4,color="black", fillcolor="white", style="filled",URL="$dc/d85/namespacepip_1_1__internal_1_1self__outdated__check.html#afc5bffdf02b45d7ab26ab16c3345b7ac",tooltip=" "];
  Node3 -> Node4 [dir="back",color="midnightblue",fontsize="10",style="solid"];
  Node4 [label="pip._internal.cli.req\l_command.IndexGroupCommand.handle\l_pip_version_check",height=0.2,width=0.4,color="black", fillcolor="white", style="filled",URL="$db/d79/classpip_1_1__internal_1_1cli_1_1req__command_1_1_index_group_command.html#a2a976a9bcad8cc922da61de2785d3314",tooltip=" "];
  Node1 -> Node5 [dir="back",color="midnightblue",fontsize="10",style="solid"];
  Node5 [label="pip._internal.commands.install.\lInstallCommand.run",height=0.2,width=0.4,color="black", fillcolor="white", style="filled",URL="$d2/dff/classpip_1_1__internal_1_1commands_1_1install_1_1_install_command.html#aed853149716837d308440b8e2405a75c",tooltip=" "];
}
