digraph "pip._internal.utils.misc.get_distribution"
{
 // LATEX_PDF_SIZE
  edge [fontname="Helvetica",fontsize="10",labelfontname="Helvetica",labelfontsize="10"];
  node [fontname="Helvetica",fontsize="10",shape=record];
  rankdir="RL";
  Node1 [label="pip._internal.utils.misc.get\l_distribution",height=0.2,width=0.4,color="black", fillcolor="grey75", style="filled", fontcolor="black",tooltip=" "];
  Node1 -> Node2 [dir="back",color="midnightblue",fontsize="10",style="solid"];
  Node2 [label="pip._vendor.distlib.locators.\lDistPathLocator._get_project",height=0.2,width=0.4,color="black", fillcolor="white", style="filled",URL="$d7/d34/classpip_1_1__vendor_1_1distlib_1_1locators_1_1_dist_path_locator.html#abcf03f9197543dc381e7bd126789ea0c",tooltip=" "];
  Node1 -> Node3 [dir="back",color="midnightblue",fontsize="10",style="solid"];
  Node3 [label="setuptools.command.easy\l_install.easy_install.\l_render_version",height=0.2,width=0.4,color="black", fillcolor="white", style="filled",URL="$da/d83/classsetuptools_1_1command_1_1easy__install_1_1easy__install.html#ac3d05582735be414f6d8063256c46441",tooltip=" "];
  Node3 -> Node4 [dir="back",color="midnightblue",fontsize="10",style="solid"];
  Node4 [label="setuptools.command.easy\l_install.easy_install.finalize\l_options",height=0.2,width=0.4,color="black", fillcolor="white", style="filled",URL="$da/d83/classsetuptools_1_1command_1_1easy__install_1_1easy__install.html#a12cbd7f893894bedc60abf12b6cf8ab6",tooltip=" "];
  Node1 -> Node5 [dir="back",color="midnightblue",fontsize="10",style="solid"];
  Node5 [label="pip._internal.req.req\l_install.InstallRequirement.check\l_if_exists",height=0.2,width=0.4,color="black", fillcolor="white", style="filled",URL="$d2/daa/classpip_1_1__internal_1_1req_1_1req__install_1_1_install_requirement.html#a91e74d2f6492c3a460c6f3f78a1018fd",tooltip=" "];
  Node1 -> Node6 [dir="back",color="midnightblue",fontsize="10",style="solid"];
  Node6 [label="pip._internal.commands.search.print\l_results",height=0.2,width=0.4,color="black", fillcolor="white", style="filled",URL="$de/d2c/namespacepip_1_1__internal_1_1commands_1_1search.html#a87022e63ef0aebf90e837d77bd42f5ae",tooltip=" "];
  Node6 -> Node7 [dir="back",color="midnightblue",fontsize="10",style="solid"];
  Node7 [label="pip._internal.commands.search.\lSearchCommand.run",height=0.2,width=0.4,color="black", fillcolor="white", style="filled",URL="$db/d61/classpip_1_1__internal_1_1commands_1_1search_1_1_search_command.html#af3bd62eca99b1aa041c8a85696093ea2",tooltip=" "];
  Node1 -> Node8 [dir="back",color="midnightblue",fontsize="10",style="solid"];
  Node8 [label="pip._internal.req.req\l_install.InstallRequirement.uninstall",height=0.2,width=0.4,color="black", fillcolor="white", style="filled",URL="$d2/daa/classpip_1_1__internal_1_1req_1_1req__install_1_1_install_requirement.html#a996026533a1502c360ccecaee73912a5",tooltip=" "];
  Node1 -> Node9 [dir="back",color="midnightblue",fontsize="10",style="solid"];
  Node9 [label="pip._internal.self\l_outdated_check.was\l_installed_by_pip",height=0.2,width=0.4,color="black", fillcolor="white", style="filled",URL="$dc/d85/namespacepip_1_1__internal_1_1self__outdated__check.html#ad0acb8c33b098e33468091effd105c54",tooltip=" "];
  Node9 -> Node10 [dir="back",color="midnightblue",fontsize="10",style="solid"];
  Node10 [label="pip._internal.self\l_outdated_check.pip\l_self_version_check",height=0.2,width=0.4,color="black", fillcolor="white", style="filled",URL="$dc/d85/namespacepip_1_1__internal_1_1self__outdated__check.html#afc5bffdf02b45d7ab26ab16c3345b7ac",tooltip=" "];
  Node10 -> Node11 [dir="back",color="midnightblue",fontsize="10",style="solid"];
  Node11 [label="pip._internal.cli.req\l_command.IndexGroupCommand.handle\l_pip_version_check",height=0.2,width=0.4,color="black", fillcolor="white", style="filled",URL="$db/d79/classpip_1_1__internal_1_1cli_1_1req__command_1_1_index_group_command.html#a2a976a9bcad8cc922da61de2785d3314",tooltip=" "];
}
