digraph "pip._internal.utils.misc.path_to_display"
{
 // LATEX_PDF_SIZE
  edge [fontname="Helvetica",fontsize="10",labelfontname="Helvetica",labelfontsize="10"];
  node [fontname="Helvetica",fontsize="10",shape=record];
  rankdir="LR";
  Node1 [label="pip._internal.utils.misc.path\l_to_display",height=0.2,width=0.4,color="black", fillcolor="grey75", style="filled", fontcolor="black",tooltip=" "];
  Node1 -> Node2 [color="midnightblue",fontsize="10",style="solid"];
  Node2 [label="pip._internal.utils.compat.str\l_to_display",height=0.2,width=0.4,color="black", fillcolor="white", style="filled",URL="$d1/dbe/namespacepip_1_1__internal_1_1utils_1_1compat.html#a4be57fd4fec2ca293f1967acba856c5b",tooltip=" "];
}
