digraph "pip._vendor.html5lib._trie.py.Trie.has_keys_with_prefix"
{
 // LATEX_PDF_SIZE
  edge [fontname="Helvetica",fontsize="10",labelfontname="Helvetica",labelfontsize="10"];
  node [fontname="Helvetica",fontsize="10",shape=record];
  rankdir="LR";
  Node1 [label="pip._vendor.html5lib.\l_trie.py.Trie.has_keys\l_with_prefix",height=0.2,width=0.4,color="black", fillcolor="grey75", style="filled", fontcolor="black",tooltip=" "];
  Node1 -> Node2 [color="midnightblue",fontsize="10",style="solid"];
  Node2 [label="pip._vendor.html5lib.\l_trie._base.Trie.has\l_keys_with_prefix",height=0.2,width=0.4,color="black", fillcolor="white", style="filled",URL="$da/d41/classpip_1_1__vendor_1_1html5lib_1_1__trie_1_1__base_1_1_trie.html#ae9c2359ca607b05a8b969f07ca7df667",tooltip=" "];
  Node2 -> Node3 [color="midnightblue",fontsize="10",style="solid"];
  Node3 [label="pip._vendor.distlib.compat.\lOrderedDict.keys",height=0.2,width=0.4,color="black", fillcolor="white", style="filled",URL="$d8/dae/classpip_1_1__vendor_1_1distlib_1_1compat_1_1_ordered_dict.html#a702b14e54ebe69ab4ddcf4ce0acccca7",tooltip=" "];
  Node2 -> Node4 [color="midnightblue",fontsize="10",style="solid"];
  Node4 [label="pip._vendor.distlib.metadata.\lLegacyMetadata.keys",height=0.2,width=0.4,color="black", fillcolor="white", style="filled",URL="$d3/dc5/classpip_1_1__vendor_1_1distlib_1_1metadata_1_1_legacy_metadata.html#ab0e7a14456749f1859007eaa600fd938",tooltip=" "];
  Node4 -> Node5 [color="midnightblue",fontsize="10",style="solid"];
  Node5 [label="pip._vendor.distlib.metadata.\l_version2fieldlist",height=0.2,width=0.4,color="black", fillcolor="white", style="filled",URL="$de/d5b/namespacepip_1_1__vendor_1_1distlib_1_1metadata.html#afb52491c16408954169ff3abaff4a6de",tooltip=" "];
  Node2 -> Node6 [color="midnightblue",fontsize="10",style="solid"];
  Node6 [label="pip._vendor.html5lib.\l_trie._base.Trie.keys",height=0.2,width=0.4,color="black", fillcolor="white", style="filled",URL="$da/d41/classpip_1_1__vendor_1_1html5lib_1_1__trie_1_1__base_1_1_trie.html#a025179c708e9d68d03538b6b1eb57210",tooltip=" "];
}
