digraph "pip._vendor.pyparsing.lineno"
{
 // LATEX_PDF_SIZE
  edge [fontname="Helvetica",fontsize="10",labelfontname="Helvetica",labelfontsize="10"];
  node [fontname="Helvetica",fontsize="10",shape=record];
  rankdir="RL";
  Node1 [label="pip._vendor.pyparsing.lineno",height=0.2,width=0.4,color="black", fillcolor="grey75", style="filled", fontcolor="black",tooltip=" "];
  Node1 -> Node2 [dir="back",color="midnightblue",fontsize="10",style="solid",fontname="Helvetica"];
  Node2 [label="pip._vendor.pyparsing.Parse\lBaseException.__getattr__",height=0.2,width=0.4,color="black", fillcolor="white", style="filled",URL="$d5/d29/classpip_1_1__vendor_1_1pyparsing_1_1_parse_base_exception.html#a78d0e628c61a0ff59765321bbf209186",tooltip=" "];
  Node1 -> Node3 [dir="back",color="midnightblue",fontsize="10",style="solid",fontname="Helvetica"];
  Node3 [label="pip._vendor.pyparsing.\l_defaultStartDebugAction",height=0.2,width=0.4,color="black", fillcolor="white", style="filled",URL="$da/db0/namespacepip_1_1__vendor_1_1pyparsing.html#a8c3808c90ca81444635ba123674cddc5",tooltip=" "];
}
