digraph "pip._vendor.pkg_resources.EntryPoint.parse_group"
{
 // LATEX_PDF_SIZE
  edge [fontname="Helvetica",fontsize="10",labelfontname="Helvetica",labelfontsize="10"];
  node [fontname="Helvetica",fontsize="10",shape=record];
  rankdir="LR";
  Node1 [label="pip._vendor.pkg_resources.\lEntryPoint.parse_group",height=0.2,width=0.4,color="black", fillcolor="grey75", style="filled", fontcolor="black",tooltip=" "];
  Node1 -> Node2 [color="midnightblue",fontsize="10",style="solid",fontname="Helvetica"];
  Node2 [label="pip._vendor.pkg_resources.\lEntryPoint.parse",height=0.2,width=0.4,color="black", fillcolor="white", style="filled",URL="$dc/d51/classpip_1_1__vendor_1_1pkg__resources_1_1_entry_point.html#a4531e99bede9d6301429f729211ff862",tooltip=" "];
  Node2 -> Node3 [color="midnightblue",fontsize="10",style="solid",fontname="Helvetica"];
  Node3 [label="pip._vendor.pkg_resources.\lEntryPoint._parse_extras",height=0.2,width=0.4,color="black", fillcolor="white", style="filled",URL="$dc/d51/classpip_1_1__vendor_1_1pkg__resources_1_1_entry_point.html#a6c08b8172c8c00adbfa8148341ca3efc",tooltip=" "];
  Node1 -> Node4 [color="midnightblue",fontsize="10",style="solid",fontname="Helvetica"];
  Node4 [label="pip._vendor.html5lib.\l_inputstream.ContentAttrParser.parse",height=0.2,width=0.4,color="black", fillcolor="white", style="filled",URL="$d7/d1b/classpip_1_1__vendor_1_1html5lib_1_1__inputstream_1_1_content_attr_parser.html#ab15ee7a7a410c0c39c5bba41fea5671c",tooltip=" "];
  Node1 -> Node5 [color="midnightblue",fontsize="10",style="solid",fontname="Helvetica"];
  Node5 [label="pip._internal.req.req\l_file.RequirementsFileParser.parse",height=0.2,width=0.4,color="black", fillcolor="white", style="filled",URL="$df/d5c/classpip_1_1__internal_1_1req_1_1req__file_1_1_requirements_file_parser.html#a07f8b5803396c6470e82e665b8a81200",tooltip=" "];
  Node5 -> Node6 [color="midnightblue",fontsize="10",style="solid",fontname="Helvetica"];
  Node6 [label="pip._internal.req.req\l_file.RequirementsFileParser.\l_parse_and_recurse",height=0.2,width=0.4,color="black", fillcolor="white", style="filled",URL="$df/d5c/classpip_1_1__internal_1_1req_1_1req__file_1_1_requirements_file_parser.html#a6bdd401b9e93198a42bacd6dc14e4442",tooltip=" "];
  Node6 -> Node6 [color="midnightblue",fontsize="10",style="solid",fontname="Helvetica"];
  Node6 -> Node7 [color="midnightblue",fontsize="10",style="solid",fontname="Helvetica"];
  Node7 [label="pip._internal.req.req\l_file.RequirementsFileParser.\l_parse_file",height=0.2,width=0.4,color="black", fillcolor="white", style="filled",URL="$df/d5c/classpip_1_1__internal_1_1req_1_1req__file_1_1_requirements_file_parser.html#ab8364f88a1e3509d99e47a1772ca8ac0",tooltip=" "];
  Node7 -> Node8 [color="midnightblue",fontsize="10",style="solid",fontname="Helvetica"];
  Node8 [label="pip._internal.req.req\l_file.get_file_content",height=0.2,width=0.4,color="black", fillcolor="white", style="filled",URL="$d9/d27/namespacepip_1_1__internal_1_1req_1_1req__file.html#a20371d1fb95ad99ab432e2ca6189d4e6",tooltip=" "];
  Node8 -> Node9 [color="midnightblue",fontsize="10",style="solid",fontname="Helvetica"];
  Node9 [label="pip._internal.utils.encoding.auto\l_decode",height=0.2,width=0.4,color="black", fillcolor="white", style="filled",URL="$d0/dfd/namespacepip_1_1__internal_1_1utils_1_1encoding.html#a3cc63c6acdc349f0a9e85bae60bc0092",tooltip=" "];
  Node9 -> Node10 [color="midnightblue",fontsize="10",style="solid",fontname="Helvetica"];
  Node10 [label="pip._vendor.idna.core.decode",height=0.2,width=0.4,color="black", fillcolor="white", style="filled",URL="$dc/dbe/namespacepip_1_1__vendor_1_1idna_1_1core.html#ab8a24800679a07c3161db86a9b0a73e6",tooltip=" "];
  Node10 -> Node11 [color="midnightblue",fontsize="10",style="solid",fontname="Helvetica"];
  Node11 [label="pip._vendor.idna.core.ulabel",height=0.2,width=0.4,color="black", fillcolor="white", style="filled",URL="$dc/dbe/namespacepip_1_1__vendor_1_1idna_1_1core.html#aa5d8b1ef65c7126d2fbd3b671b105ad2",tooltip=" "];
  Node11 -> Node12 [color="midnightblue",fontsize="10",style="solid",fontname="Helvetica"];
  Node12 [label="pip._vendor.idna.core.check\l_label",height=0.2,width=0.4,color="black", fillcolor="white", style="filled",URL="$dc/dbe/namespacepip_1_1__vendor_1_1idna_1_1core.html#ae9fc88587359b163ac595d519715c099",tooltip=" "];
  Node12 -> Node13 [color="midnightblue",fontsize="10",style="solid",fontname="Helvetica"];
  Node13 [label="pip._vendor.idna.core._unot",height=0.2,width=0.4,color="black", fillcolor="white", style="filled",URL="$dc/dbe/namespacepip_1_1__vendor_1_1idna_1_1core.html#afb6d3618c7b6bb8bab08b96c967eca66",tooltip=" "];
  Node12 -> Node14 [color="midnightblue",fontsize="10",style="solid",fontname="Helvetica"];
  Node14 [label="pip._vendor.idna.core.check_bidi",height=0.2,width=0.4,color="black", fillcolor="white", style="filled",URL="$dc/dbe/namespacepip_1_1__vendor_1_1idna_1_1core.html#a32a613317ceb9eb4cd52fdd73b3f1248",tooltip=" "];
  Node12 -> Node15 [color="midnightblue",fontsize="10",style="solid",fontname="Helvetica"];
  Node15 [label="pip._vendor.idna.core.check\l_hyphen_ok",height=0.2,width=0.4,color="black", fillcolor="white", style="filled",URL="$dc/dbe/namespacepip_1_1__vendor_1_1idna_1_1core.html#a81c0586c1db1facb045d6ec94210fde0",tooltip=" "];
  Node12 -> Node16 [color="midnightblue",fontsize="10",style="solid",fontname="Helvetica"];
  Node16 [label="pip._vendor.idna.core.check\l_initial_combiner",height=0.2,width=0.4,color="black", fillcolor="white", style="filled",URL="$dc/dbe/namespacepip_1_1__vendor_1_1idna_1_1core.html#a585b0e816f47c888b2bee45b8558e8fe",tooltip=" "];
  Node12 -> Node17 [color="midnightblue",fontsize="10",style="solid",fontname="Helvetica"];
  Node17 [label="pip._vendor.idna.core.check_nfc",height=0.2,width=0.4,color="black", fillcolor="white", style="filled",URL="$dc/dbe/namespacepip_1_1__vendor_1_1idna_1_1core.html#ae9c33c8013e65ab232c798b879f7b5b7",tooltip=" "];
  Node12 -> Node18 [color="midnightblue",fontsize="10",style="solid",fontname="Helvetica"];
  Node18 [label="pip._vendor.idna.intranges.intranges\l_contain",height=0.2,width=0.4,color="black", fillcolor="white", style="filled",URL="$dc/d38/namespacepip_1_1__vendor_1_1idna_1_1intranges.html#abcdc067f2c261e1663789054ba59f597",tooltip=" "];
  Node18 -> Node19 [color="midnightblue",fontsize="10",style="solid",fontname="Helvetica"];
  Node19 [label="pip._vendor.idna.intranges.\l_decode_range",height=0.2,width=0.4,color="black", fillcolor="white", style="filled",URL="$dc/d38/namespacepip_1_1__vendor_1_1idna_1_1intranges.html#acc8ad2745e5c2518e2ebc6854c84a996",tooltip=" "];
  Node18 -> Node20 [color="midnightblue",fontsize="10",style="solid",fontname="Helvetica"];
  Node20 [label="pip._vendor.idna.intranges.\l_encode_range",height=0.2,width=0.4,color="black", fillcolor="white", style="filled",URL="$dc/d38/namespacepip_1_1__vendor_1_1idna_1_1intranges.html#a451578dfb8f245213932aa16923c371f",tooltip=" "];
  Node12 -> Node21 [color="midnightblue",fontsize="10",style="solid",fontname="Helvetica"];
  Node21 [label="pip._vendor.idna.core.valid\l_contextj",height=0.2,width=0.4,color="black", fillcolor="white", style="filled",URL="$dc/dbe/namespacepip_1_1__vendor_1_1idna_1_1core.html#ae0ccbd5b53689c3986cd22100cbc8e99",tooltip=" "];
  Node21 -> Node22 [color="midnightblue",fontsize="10",style="solid",fontname="Helvetica"];
  Node22 [label="pip._vendor.idna.core.\l_combining_class",height=0.2,width=0.4,color="black", fillcolor="white", style="filled",URL="$dc/dbe/namespacepip_1_1__vendor_1_1idna_1_1core.html#a8f210532c53ebf345e30ec1d6c50c829",tooltip=" "];
  Node12 -> Node23 [color="midnightblue",fontsize="10",style="solid",fontname="Helvetica"];
  Node23 [label="pip._vendor.idna.core.valid\l_contexto",height=0.2,width=0.4,color="black", fillcolor="white", style="filled",URL="$dc/dbe/namespacepip_1_1__vendor_1_1idna_1_1core.html#a741f7cca90b4a6adc176a40ff242ec10",tooltip=" "];
  Node23 -> Node24 [color="midnightblue",fontsize="10",style="solid",fontname="Helvetica"];
  Node24 [label="pip._vendor.idna.core.\l_is_script",height=0.2,width=0.4,color="black", fillcolor="white", style="filled",URL="$dc/dbe/namespacepip_1_1__vendor_1_1idna_1_1core.html#aa2cf04d1f0c7c30e0b75cbc70e10655b",tooltip=" "];
  Node24 -> Node18 [color="midnightblue",fontsize="10",style="solid",fontname="Helvetica"];
  Node10 -> Node25 [color="midnightblue",fontsize="10",style="solid",fontname="Helvetica"];
  Node25 [label="pip._vendor.idna.core.uts46\l_remap",height=0.2,width=0.4,color="black", fillcolor="white", style="filled",URL="$dc/dbe/namespacepip_1_1__vendor_1_1idna_1_1core.html#a2d90033244fa673825a46b11909a635d",tooltip=" "];
  Node25 -> Node13 [color="midnightblue",fontsize="10",style="solid",fontname="Helvetica"];
  Node8 -> Node26 [color="midnightblue",fontsize="10",style="solid",fontname="Helvetica"];
  Node26 [label="pip._internal.utils.urls.get\l_url_scheme",height=0.2,width=0.4,color="black", fillcolor="white", style="filled",URL="$d7/d48/namespacepip_1_1__internal_1_1utils_1_1urls.html#ad87043afb534368959c3a324598b96f5",tooltip=" "];
  Node8 -> Node27 [color="midnightblue",fontsize="10",style="solid",fontname="Helvetica"];
  Node27 [label="pip._internal.network.utils.raise\l_for_status",height=0.2,width=0.4,color="black", fillcolor="white", style="filled",URL="$da/d80/namespacepip_1_1__internal_1_1network_1_1utils.html#ab4e5008dd0f06544ccb7b47d13af7e3e",tooltip=" "];
  Node7 -> Node28 [color="midnightblue",fontsize="10",style="solid",fontname="Helvetica"];
  Node28 [label="pip._internal.req.req\l_file.preprocess",height=0.2,width=0.4,color="black", fillcolor="white", style="filled",URL="$d9/d27/namespacepip_1_1__internal_1_1req_1_1req__file.html#a57d42ed2cf0522e59b921ccd16536c9b",tooltip=" "];
  Node28 -> Node29 [color="midnightblue",fontsize="10",style="solid",fontname="Helvetica"];
  Node29 [label="pip._internal.req.req\l_file.expand_env_variables",height=0.2,width=0.4,color="black", fillcolor="white", style="filled",URL="$d9/d27/namespacepip_1_1__internal_1_1req_1_1req__file.html#a9dde537d4516cef95cabf43bb559c851",tooltip=" "];
  Node28 -> Node30 [color="midnightblue",fontsize="10",style="solid",fontname="Helvetica"];
  Node30 [label="pip._internal.req.req\l_file.ignore_comments",height=0.2,width=0.4,color="black", fillcolor="white", style="filled",URL="$d9/d27/namespacepip_1_1__internal_1_1req_1_1req__file.html#a015754515e5b13a4b933c8e91b59a41e",tooltip=" "];
  Node28 -> Node31 [color="midnightblue",fontsize="10",style="solid",fontname="Helvetica"];
  Node31 [label="pip._internal.req.req\l_file.join_lines",height=0.2,width=0.4,color="black", fillcolor="white", style="filled",URL="$d9/d27/namespacepip_1_1__internal_1_1req_1_1req__file.html#ae12ba685b8f32a3b4ac48c2f2d54f843",tooltip=" "];
  Node1 -> Node32 [color="midnightblue",fontsize="10",style="solid",fontname="Helvetica"];
  Node32 [label="pip._vendor.distlib.version.\lVersion.parse",height=0.2,width=0.4,color="black", fillcolor="white", style="filled",URL="$da/d0e/classpip_1_1__vendor_1_1distlib_1_1version_1_1_version.html#a150d6fd36991a7754d84626a6819aa27",tooltip=" "];
  Node1 -> Node33 [color="midnightblue",fontsize="10",style="solid",fontname="Helvetica"];
  Node33 [label="pip._vendor.distlib.version.\lNormalizedVersion.parse",height=0.2,width=0.4,color="black", fillcolor="white", style="filled",URL="$dc/d90/classpip_1_1__vendor_1_1distlib_1_1version_1_1_normalized_version.html#aeff53986cc2938f948503d069bcd96f3",tooltip=" "];
  Node1 -> Node34 [color="midnightblue",fontsize="10",style="solid",fontname="Helvetica"];
  Node34 [label="pip._vendor.distlib.version.\lLegacyVersion.parse",height=0.2,width=0.4,color="black", fillcolor="white", style="filled",URL="$d2/d22/classpip_1_1__vendor_1_1distlib_1_1version_1_1_legacy_version.html#afc97c36278a87b7d86aa2445090848eb",tooltip=" "];
  Node34 -> Node35 [color="midnightblue",fontsize="10",style="solid",fontname="Helvetica"];
  Node35 [label="pip._vendor.distlib.version.\l_legacy_key",height=0.2,width=0.4,color="black", fillcolor="white", style="filled",URL="$d2/d38/namespacepip_1_1__vendor_1_1distlib_1_1version.html#ac6f432ff659d01fefabd629df43cc580",tooltip=" "];
  Node1 -> Node36 [color="midnightblue",fontsize="10",style="solid",fontname="Helvetica"];
  Node36 [label="pip._vendor.distlib.version.\lSemanticVersion.parse",height=0.2,width=0.4,color="black", fillcolor="white", style="filled",URL="$d9/deb/classpip_1_1__vendor_1_1distlib_1_1version_1_1_semantic_version.html#abded997222e2fbd9641bbe0d333d3b92",tooltip=" "];
  Node36 -> Node37 [color="midnightblue",fontsize="10",style="solid",fontname="Helvetica"];
  Node37 [label="pip._vendor.distlib.version.\l_semantic_key",height=0.2,width=0.4,color="black", fillcolor="white", style="filled",URL="$d2/d38/namespacepip_1_1__vendor_1_1distlib_1_1version.html#a2130cbfc351c04729a309ed87d6ae567",tooltip=" "];
  Node37 -> Node38 [color="midnightblue",fontsize="10",style="solid",fontname="Helvetica"];
  Node38 [label="pip._vendor.distlib.version.is\l_semver",height=0.2,width=0.4,color="black", fillcolor="white", style="filled",URL="$d2/d38/namespacepip_1_1__vendor_1_1distlib_1_1version.html#aae02bee910114ff6025b123ae81d238a",tooltip=" "];
  Node1 -> Node39 [color="midnightblue",fontsize="10",style="solid",fontname="Helvetica"];
  Node39 [label="pip._vendor.html5lib.html5parser.\lHTMLParser.parse",height=0.2,width=0.4,color="black", fillcolor="white", style="filled",URL="$dd/dcc/classpip_1_1__vendor_1_1html5lib_1_1html5parser_1_1_h_t_m_l_parser.html#a3f275d7ecbb574d59fe6bbbe48718428",tooltip=" "];
  Node39 -> Node40 [color="midnightblue",fontsize="10",style="solid",fontname="Helvetica"];
  Node40 [label="pip._vendor.html5lib.html5parser.\lHTMLParser._parse",height=0.2,width=0.4,color="black", fillcolor="white", style="filled",URL="$dd/dcc/classpip_1_1__vendor_1_1html5lib_1_1html5parser_1_1_h_t_m_l_parser.html#a315af403cb7101a41bcc6e96446b467f",tooltip=" "];
  Node1 -> Node41 [color="midnightblue",fontsize="10",style="solid",fontname="Helvetica"];
  Node41 [label="pip._vendor.pkg_resources.yield\l_lines",height=0.2,width=0.4,color="black", fillcolor="white", style="filled",URL="$d7/dcc/namespacepip_1_1__vendor_1_1pkg__resources.html#a9154cf7836eab6cbeb1238fdc578e0fd",tooltip=" "];
}
