digraph "pip._vendor.idna.intranges._decode_range"
{
 // LATEX_PDF_SIZE
  edge [fontname="Helvetica",fontsize="10",labelfontname="Helvetica",labelfontsize="10"];
  node [fontname="Helvetica",fontsize="10",shape=record];
  rankdir="RL";
  Node1 [label="pip._vendor.idna.intranges.\l_decode_range",height=0.2,width=0.4,color="black", fillcolor="grey75", style="filled", fontcolor="black",tooltip=" "];
  Node1 -> Node2 [dir="back",color="midnightblue",fontsize="10",style="solid",fontname="Helvetica"];
  Node2 [label="pip._vendor.idna.intranges.intranges\l_contain",height=0.2,width=0.4,color="black", fillcolor="white", style="filled",URL="$dc/d38/namespacepip_1_1__vendor_1_1idna_1_1intranges.html#abcdc067f2c261e1663789054ba59f597",tooltip=" "];
  Node2 -> Node3 [dir="back",color="midnightblue",fontsize="10",style="solid",fontname="Helvetica"];
  Node3 [label="pip._vendor.idna.core.\l_is_script",height=0.2,width=0.4,color="black", fillcolor="white", style="filled",URL="$dc/dbe/namespacepip_1_1__vendor_1_1idna_1_1core.html#aa2cf04d1f0c7c30e0b75cbc70e10655b",tooltip=" "];
  Node3 -> Node4 [dir="back",color="midnightblue",fontsize="10",style="solid",fontname="Helvetica"];
  Node4 [label="pip._vendor.idna.core.valid\l_contexto",height=0.2,width=0.4,color="black", fillcolor="white", style="filled",URL="$dc/dbe/namespacepip_1_1__vendor_1_1idna_1_1core.html#a741f7cca90b4a6adc176a40ff242ec10",tooltip=" "];
  Node4 -> Node5 [dir="back",color="midnightblue",fontsize="10",style="solid",fontname="Helvetica"];
  Node5 [label="pip._vendor.idna.core.check\l_label",height=0.2,width=0.4,color="black", fillcolor="white", style="filled",URL="$dc/dbe/namespacepip_1_1__vendor_1_1idna_1_1core.html#ae9fc88587359b163ac595d519715c099",tooltip=" "];
  Node5 -> Node6 [dir="back",color="midnightblue",fontsize="10",style="solid",fontname="Helvetica"];
  Node6 [label="pip._vendor.idna.core.alabel",height=0.2,width=0.4,color="black", fillcolor="white", style="filled",URL="$dc/dbe/namespacepip_1_1__vendor_1_1idna_1_1core.html#a59626ddc5d21ec43787eba30bdf1b2bd",tooltip=" "];
  Node6 -> Node7 [dir="back",color="midnightblue",fontsize="10",style="solid",fontname="Helvetica"];
  Node7 [label="pip._vendor.idna.codec.Incremental\lEncoder._buffer_encode",height=0.2,width=0.4,color="black", fillcolor="white", style="filled",URL="$d4/dea/classpip_1_1__vendor_1_1idna_1_1codec_1_1_incremental_encoder.html#a39b28ff4be3490d81186ab22fef756c5",tooltip=" "];
  Node6 -> Node8 [dir="back",color="midnightblue",fontsize="10",style="solid",fontname="Helvetica"];
  Node8 [label="pip._vendor.idna.core.encode",height=0.2,width=0.4,color="black", fillcolor="white", style="filled",URL="$dc/dbe/namespacepip_1_1__vendor_1_1idna_1_1core.html#ab44c2946ca8d572559f40521032afe1a",tooltip=" "];
  Node8 -> Node9 [dir="back",color="midnightblue",fontsize="10",style="solid",fontname="Helvetica"];
  Node9 [label="pip._vendor.pep517.wrappers.\lPep517HookCaller._call_hook",height=0.2,width=0.4,color="red", fillcolor="white", style="filled",URL="$d4/dfc/classpip_1_1__vendor_1_1pep517_1_1wrappers_1_1_pep517_hook_caller.html#ae120a939084031cd8fa476af29b1f7c9",tooltip=" "];
  Node8 -> Node15 [dir="back",color="midnightblue",fontsize="10",style="solid",fontname="Helvetica"];
  Node15 [label="pip._vendor.distlib.\l_backport.tarfile.TarInfo.\l_create_header",height=0.2,width=0.4,color="red", fillcolor="white", style="filled",URL="$df/d3f/classpip_1_1__vendor_1_1distlib_1_1__backport_1_1tarfile_1_1_tar_info.html#a153c329eb1fc8e6d980b1366cc1d95f9",tooltip=" "];
  Node15 -> Node21 [dir="back",color="midnightblue",fontsize="10",style="solid",fontname="Helvetica"];
  Node21 [label="pip._vendor.distlib.\l_backport.tarfile.TarInfo.create\l_pax_header",height=0.2,width=0.4,color="red", fillcolor="white", style="filled",URL="$df/d3f/classpip_1_1__vendor_1_1distlib_1_1__backport_1_1tarfile_1_1_tar_info.html#af075da28e3c077420ef7519acf212e68",tooltip=" "];
  Node8 -> Node23 [dir="back",color="midnightblue",fontsize="10",style="solid",fontname="Helvetica"];
  Node23 [label="pip._vendor.urllib3.util.url.\l_encode_invalid_chars",height=0.2,width=0.4,color="red", fillcolor="white", style="filled",URL="$d1/da8/namespacepip_1_1__vendor_1_1urllib3_1_1util_1_1url.html#a2b73af65dd35486453311eb68d7d415c",tooltip=" "];
  Node8 -> Node68 [dir="back",color="midnightblue",fontsize="10",style="solid",fontname="Helvetica"];
  Node68 [label="pip._internal.operations.install.wheel.\lZipBackedFile._getinfo",height=0.2,width=0.4,color="red", fillcolor="white", style="filled",URL="$d2/d61/classpip_1_1__internal_1_1operations_1_1install_1_1wheel_1_1_zip_backed_file.html#a3d2d89f9d0ca776e363672700fae6d81",tooltip=" "];
  Node8 -> Node71 [dir="back",color="midnightblue",fontsize="10",style="solid",fontname="Helvetica"];
  Node71 [label="pip._vendor.urllib3.util.url.\l_idna_encode",height=0.2,width=0.4,color="red", fillcolor="white", style="filled",URL="$d1/da8/namespacepip_1_1__vendor_1_1urllib3_1_1util_1_1url.html#a1864a509ff94f6920663c60c0ee1b97b",tooltip=" "];
  Node8 -> Node72 [dir="back",color="midnightblue",fontsize="10",style="solid",fontname="Helvetica"];
  Node72 [label="pip._vendor.distlib.\l_backport.tarfile._Stream.\l_init_write_gz",height=0.2,width=0.4,color="black", fillcolor="white", style="filled",URL="$de/d60/classpip_1_1__vendor_1_1distlib_1_1__backport_1_1tarfile_1_1___stream.html#afaa784f111b19a16ac52a5661381c8f5",tooltip=" "];
  Node8 -> Node73 [dir="back",color="midnightblue",fontsize="10",style="solid",fontname="Helvetica"];
  Node73 [label="pip._internal.operations.install.wheel.\l_install_wheel",height=0.2,width=0.4,color="red", fillcolor="white", style="filled",URL="$d5/d70/namespacepip_1_1__internal_1_1operations_1_1install_1_1wheel.html#a0ad021df60af9054ff77b91d0074745d",tooltip=" "];
  Node8 -> Node78 [dir="back",color="midnightblue",fontsize="10",style="solid",fontname="Helvetica"];
  Node78 [label="pip._vendor.distlib.scripts.\lScriptMaker._make_script",height=0.2,width=0.4,color="red", fillcolor="white", style="filled",URL="$de/dcc/classpip_1_1__vendor_1_1distlib_1_1scripts_1_1_script_maker.html#a01d3210a362f4d2d311f948632c893dc",tooltip=" "];
  Node8 -> Node81 [dir="back",color="midnightblue",fontsize="10",style="solid",fontname="Helvetica"];
  Node81 [label="setuptools.command.sdist.sdist.\l_manifest_is_not_generated",height=0.2,width=0.4,color="black", fillcolor="white", style="filled",URL="$de/d02/classsetuptools_1_1command_1_1sdist_1_1sdist.html#a2e6075144687f05c93a8533c0c70f42f",tooltip=" "];
  Node8 -> Node82 [dir="back",color="midnightblue",fontsize="10",style="solid",fontname="Helvetica"];
  Node82 [label="pip._internal.cli.progress\l_bars._select_progress_class",height=0.2,width=0.4,color="black", fillcolor="white", style="filled",URL="$d9/ddc/namespacepip_1_1__internal_1_1cli_1_1progress__bars.html#abc9cb9591f888d8909418b519c1f5de8",tooltip=" "];
  Node8 -> Node83 [dir="back",color="midnightblue",fontsize="10",style="solid",fontname="Helvetica"];
  Node83 [label="pip._vendor.urllib3.contrib.\l_securetransport.low_level.\l_temporary_keychain",height=0.2,width=0.4,color="red", fillcolor="white", style="filled",URL="$d4/d95/namespacepip_1_1__vendor_1_1urllib3_1_1contrib_1_1__securetransport_1_1low__level.html#a3d5c8bc425796e383ee9ba98b37442c8",tooltip=" "];
  Node8 -> Node85 [dir="back",color="midnightblue",fontsize="10",style="solid",fontname="Helvetica"];
  Node85 [label="pip._vendor.pyparsing._ustr",height=0.2,width=0.4,color="black", fillcolor="white", style="filled",URL="$da/db0/namespacepip_1_1__vendor_1_1pyparsing.html#ae7b7e48cf13bff11d087010a7b365c8d",tooltip=" "];
  Node8 -> Node86 [dir="back",color="midnightblue",fontsize="10",style="solid",fontname="Helvetica"];
  Node86 [label="pkg_resources._vendor.pyparsing._ustr",height=0.2,width=0.4,color="black", fillcolor="white", style="filled",URL="$d9/de4/namespacepkg__resources_1_1__vendor_1_1pyparsing.html#a9cd81ab0660e40ef004085ef2cb77b0e",tooltip=" "];
  Node8 -> Node87 [dir="back",color="midnightblue",fontsize="10",style="solid",fontname="Helvetica"];
  Node87 [label="setuptools._vendor.pyparsing._ustr",height=0.2,width=0.4,color="black", fillcolor="white", style="filled",URL="$dc/d79/namespacesetuptools_1_1__vendor_1_1pyparsing.html#ac9b5bf47d7d04be8575e8a00f18fd5fb",tooltip=" "];
  Node8 -> Node88 [dir="back",color="midnightblue",fontsize="10",style="solid",fontname="Helvetica"];
  Node88 [label="pip._vendor.requests.auth.\lHTTPDigestAuth.build_digest_header",height=0.2,width=0.4,color="red", fillcolor="white", style="filled",URL="$d2/de6/classpip_1_1__vendor_1_1requests_1_1auth_1_1_h_t_t_p_digest_auth.html#abde421db9e46c01b7f2d5b78b6cc3c07",tooltip=" "];
  Node8 -> Node91 [dir="back",color="midnightblue",fontsize="10",style="solid",fontname="Helvetica"];
  Node91 [label="setuptools._distutils.command.bdist\l_wininst.bdist_wininst.create_exe",height=0.2,width=0.4,color="red", fillcolor="white", style="filled",URL="$d5/df2/classsetuptools_1_1__distutils_1_1command_1_1bdist__wininst_1_1bdist__wininst.html#a9e7d67f7545b8676180d34b97ef3f5d1",tooltip=" "];
  Node8 -> Node21 [dir="back",color="midnightblue",fontsize="10",style="solid",fontname="Helvetica"];
  Node8 -> Node93 [dir="back",color="midnightblue",fontsize="10",style="solid",fontname="Helvetica"];
  Node93 [label="wheel.metadata.dedent\l_description",height=0.2,width=0.4,color="red", fillcolor="white", style="filled",URL="$d8/dd7/namespacewheel_1_1metadata.html#a695b0aeec77feb2b546d795d2ea755f0",tooltip=" "];
  Node8 -> Node96 [dir="back",color="midnightblue",fontsize="10",style="solid",fontname="Helvetica"];
  Node96 [label="pip._vendor.distlib.index.\lPackageIndex.encode_request",height=0.2,width=0.4,color="red", fillcolor="white", style="filled",URL="$d3/df2/classpip_1_1__vendor_1_1distlib_1_1index_1_1_package_index.html#afa787474bf34ee59d4a4e599b0099f11",tooltip=" "];
  Node8 -> Node102 [dir="back",color="midnightblue",fontsize="10",style="solid",fontname="Helvetica"];
  Node102 [label="pip._vendor.distlib.\l_backport.tarfile.itn",height=0.2,width=0.4,color="black", fillcolor="white", style="filled",URL="$d4/df2/namespacepip_1_1__vendor_1_1distlib_1_1__backport_1_1tarfile.html#a14cae059997c819c3a23142671591ecd",tooltip=" "];
  Node102 -> Node15 [dir="back",color="midnightblue",fontsize="10",style="solid",fontname="Helvetica"];
  Node8 -> Node103 [dir="back",color="midnightblue",fontsize="10",style="solid",fontname="Helvetica"];
  Node103 [label="wheel.cli.pack.pack",height=0.2,width=0.4,color="black", fillcolor="white", style="filled",URL="$d2/d92/namespacewheel_1_1cli_1_1pack.html#a8f241539b5bf7e1e664fc39cf64925dd",tooltip=" "];
  Node8 -> Node104 [dir="back",color="midnightblue",fontsize="10",style="solid",fontname="Helvetica"];
  Node104 [label="wheel.metadata.pkginfo\l_unicode",height=0.2,width=0.4,color="black", fillcolor="white", style="filled",URL="$d8/dd7/namespacewheel_1_1metadata.html#ab406e279f8fbc5b9da29dc5c15dc952e",tooltip=" "];
  Node104 -> Node93 [dir="back",color="midnightblue",fontsize="10",style="solid",fontname="Helvetica"];
  Node8 -> Node105 [dir="back",color="midnightblue",fontsize="10",style="solid",fontname="Helvetica"];
  Node105 [label="setuptools._distutils.command.register.register.post\l_to_server",height=0.2,width=0.4,color="red", fillcolor="white", style="filled",URL="$de/de8/classsetuptools_1_1__distutils_1_1command_1_1register_1_1register.html#a9f0256a80ddfc1feaa46c722821f94d4",tooltip=" "];
  Node8 -> Node109 [dir="back",color="midnightblue",fontsize="10",style="solid",fontname="Helvetica"];
  Node109 [label="pip._vendor.six.python\l_2_unicode_compatible",height=0.2,width=0.4,color="black", fillcolor="white", style="filled",URL="$df/d13/namespacepip_1_1__vendor_1_1six.html#a73067039b6330b5c45e695487a314c41",tooltip=" "];
  Node8 -> Node110 [dir="back",color="midnightblue",fontsize="10",style="solid",fontname="Helvetica"];
  Node110 [label="pip._vendor.urllib3.packages.six.python\l_2_unicode_compatible",height=0.2,width=0.4,color="black", fillcolor="white", style="filled",URL="$d6/dbd/namespacepip_1_1__vendor_1_1urllib3_1_1packages_1_1six.html#a11fb759c3fab324ecec7cebdfe91b896",tooltip=" "];
  Node8 -> Node111 [dir="back",color="midnightblue",fontsize="10",style="solid",fontname="Helvetica"];
  Node111 [label="pip._internal.req.req\l_uninstall.UninstallPthEntries.remove",height=0.2,width=0.4,color="red", fillcolor="white", style="filled",URL="$d2/d2a/classpip_1_1__internal_1_1req_1_1req__uninstall_1_1_uninstall_pth_entries.html#ac489927e566e08ffdc3e777f4cdd015d",tooltip=" "];
  Node8 -> Node40 [dir="back",color="midnightblue",fontsize="10",style="solid",fontname="Helvetica"];
  Node40 [label="pip._vendor.requests.adapters.\lHTTPAdapter.send",height=0.2,width=0.4,color="red", fillcolor="white", style="filled",URL="$da/dd8/classpip_1_1__vendor_1_1requests_1_1adapters_1_1_h_t_t_p_adapter.html#a6b8cb9b4129cbc1c9aa685dc69f869a4",tooltip=" "];
  Node8 -> Node123 [dir="back",color="midnightblue",fontsize="10",style="solid",fontname="Helvetica"];
  Node123 [label="pip._vendor.idna.compat.\lToASCII",height=0.2,width=0.4,color="black", fillcolor="white", style="filled",URL="$dc/db3/namespacepip_1_1__vendor_1_1idna_1_1compat.html#add4f36a7d584c6fd782e7ea5e450ed59",tooltip=" "];
  Node8 -> Node124 [dir="back",color="midnightblue",fontsize="10",style="solid",fontname="Helvetica"];
  Node124 [label="setuptools._distutils.command.upload.upload.upload_file",height=0.2,width=0.4,color="red", fillcolor="white", style="filled",URL="$d3/dd0/classsetuptools_1_1__distutils_1_1command_1_1upload_1_1upload.html#a91db9f86792f17b4e69542a506156290",tooltip=" "];
  Node5 -> Node125 [dir="back",color="midnightblue",fontsize="10",style="solid",fontname="Helvetica"];
  Node125 [label="pip._vendor.idna.core.ulabel",height=0.2,width=0.4,color="black", fillcolor="white", style="filled",URL="$dc/dbe/namespacepip_1_1__vendor_1_1idna_1_1core.html#aa5d8b1ef65c7126d2fbd3b671b105ad2",tooltip=" "];
  Node125 -> Node126 [dir="back",color="midnightblue",fontsize="10",style="solid",fontname="Helvetica"];
  Node126 [label="pip._vendor.idna.codec.Incremental\lDecoder._buffer_decode",height=0.2,width=0.4,color="black", fillcolor="white", style="filled",URL="$dd/dfc/classpip_1_1__vendor_1_1idna_1_1codec_1_1_incremental_decoder.html#ae2a64cd0e989763fcb2826479880fb39",tooltip=" "];
  Node125 -> Node6 [dir="back",color="midnightblue",fontsize="10",style="solid",fontname="Helvetica"];
  Node125 -> Node127 [dir="back",color="midnightblue",fontsize="10",style="solid",fontname="Helvetica"];
  Node127 [label="pip._vendor.idna.core.decode",height=0.2,width=0.4,color="red", fillcolor="white", style="filled",URL="$dc/dbe/namespacepip_1_1__vendor_1_1idna_1_1core.html#ab8a24800679a07c3161db86a9b0a73e6",tooltip=" "];
  Node127 -> Node128 [dir="back",color="midnightblue",fontsize="10",style="solid",fontname="Helvetica"];
  Node128 [label="pip._vendor.cachecontrol.serialize.\l_b64_decode_str",height=0.2,width=0.4,color="black", fillcolor="white", style="filled",URL="$da/db5/namespacepip_1_1__vendor_1_1cachecontrol_1_1serialize.html#ad56026f006adef13d7a479fae1921679",tooltip=" "];
  Node128 -> Node129 [dir="back",color="midnightblue",fontsize="10",style="solid",fontname="Helvetica"];
  Node129 [label="pip._vendor.cachecontrol.serialize.\lSerializer._loads_v2",height=0.2,width=0.4,color="black", fillcolor="white", style="filled",URL="$db/d2a/classpip_1_1__vendor_1_1cachecontrol_1_1serialize_1_1_serializer.html#aefdeafbefb9d97d0c2b6f4c77d41160a",tooltip=" "];
  Node127 -> Node130 [dir="back",color="midnightblue",fontsize="10",style="solid",fontname="Helvetica"];
  Node130 [label="setuptools.wheel.Wheel.\l_convert_metadata",height=0.2,width=0.4,color="red", fillcolor="white", style="filled",URL="$d8/de5/classsetuptools_1_1wheel_1_1_wheel.html#a0145a59387157485100a08c7e3602987",tooltip=" "];
  Node127 -> Node133 [dir="back",color="midnightblue",fontsize="10",style="solid",fontname="Helvetica"];
  Node133 [label="setuptools._distutils.cygwinccompiler.\l_find_exe_version",height=0.2,width=0.4,color="red", fillcolor="white", style="filled",URL="$db/de5/namespacesetuptools_1_1__distutils_1_1cygwinccompiler.html#a84caa055f93b63876555b0786e9a2d9a",tooltip=" "];
  Node127 -> Node174 [dir="back",color="midnightblue",fontsize="10",style="solid",fontname="Helvetica"];
  Node174 [label="pip._vendor.requests.models.\lPreparedRequest._get_idna\l_encoded_host",height=0.2,width=0.4,color="red", fillcolor="white", style="filled",URL="$d2/d5c/classpip_1_1__vendor_1_1requests_1_1models_1_1_prepared_request.html#a42c62da25610bf75d1d61a3db47b5bb1",tooltip=" "];
  Node127 -> Node136 [dir="back",color="midnightblue",fontsize="10",style="solid",fontname="Helvetica"];
  Node136 [label="pip._vendor.distlib.database.\lEggInfoDistribution._get\l_metadata",height=0.2,width=0.4,color="red", fillcolor="white", style="filled",URL="$d7/d4f/classpip_1_1__vendor_1_1distlib_1_1database_1_1_egg_info_distribution.html#ae8dd9d5435eea9e26a2ed5242e9fafd0",tooltip=" "];
  Node127 -> Node175 [dir="back",color="midnightblue",fontsize="10",style="solid",fontname="Helvetica"];
  Node175 [label="pip._vendor.distlib.locators.\lPyPIJSONLocator._get_project",height=0.2,width=0.4,color="black", fillcolor="white", style="filled",URL="$d1/d11/classpip_1_1__vendor_1_1distlib_1_1locators_1_1_py_p_i_j_s_o_n_locator.html#a0ffc07ea54dfa0da58d3a99df9bf0eca",tooltip=" "];
  Node127 -> Node176 [dir="back",color="midnightblue",fontsize="10",style="solid",fontname="Helvetica"];
  Node176 [label="setuptools._distutils.\l_msvccompiler._get_vc_env",height=0.2,width=0.4,color="red", fillcolor="white", style="filled",URL="$d6/d38/namespacesetuptools_1_1__distutils_1_1__msvccompiler.html#af76c7dbfe09faaf590667a1d21d71dba",tooltip=" "];
  Node127 -> Node129 [dir="back",color="midnightblue",fontsize="10",style="solid",fontname="Helvetica"];
  Node127 -> Node191 [dir="back",color="midnightblue",fontsize="10",style="solid",fontname="Helvetica"];
  Node191 [label="setuptools._distutils.log.\lLog._log",height=0.2,width=0.4,color="red", fillcolor="white", style="filled",URL="$d8/d63/classsetuptools_1_1__distutils_1_1log_1_1_log.html#a133132a39400a9d05d4da9b30dacbd94",tooltip=" "];
  Node127 -> Node262 [dir="back",color="midnightblue",fontsize="10",style="solid",fontname="Helvetica"];
  Node262 [label="pip._vendor.distlib.\l_backport.tarfile.TarInfo.\l_proc_pax",height=0.2,width=0.4,color="red", fillcolor="white", style="filled",URL="$df/d3f/classpip_1_1__vendor_1_1distlib_1_1__backport_1_1tarfile_1_1_tar_info.html#ad9327fbf4f60649f3b09053afbf704cb",tooltip=" "];
  Node127 -> Node83 [dir="back",color="midnightblue",fontsize="10",style="solid",fontname="Helvetica"];
  Node127 -> Node93 [dir="back",color="midnightblue",fontsize="10",style="solid",fontname="Helvetica"];
  Node127 -> Node104 [dir="back",color="midnightblue",fontsize="10",style="solid",fontname="Helvetica"];
  Node127 -> Node124 [dir="back",color="midnightblue",fontsize="10",style="solid",fontname="Helvetica"];
  Node2 -> Node5 [dir="back",color="midnightblue",fontsize="10",style="solid",fontname="Helvetica"];
}
