digraph "pip._vendor.pkg_resources.WorkingSet"
{
 // LATEX_PDF_SIZE
  edge [fontname="Helvetica",fontsize="10",labelfontname="Helvetica",labelfontsize="10"];
  node [fontname="Helvetica",fontsize="10",shape=record];
  Node1 [label="{pip._vendor.pkg_resources.\lWorkingSet\n|+ entries\l+ entry_keys\l+ by_key\l+ callbacks\l|+ __init__()\l+ add_entry()\l+ __contains__()\l+ find()\l+ iter_entry_points()\l+ run_script()\l+ __iter__()\l+ add()\l+ resolve()\l+ find_plugins()\l+ require()\l+ subscribe()\l+ __getstate__()\l+ __setstate__()\l- _build_master()\l- _build_from_requirements()\l- _added_new()\l}",height=0.2,width=0.4,color="black", fillcolor="grey75", style="filled", fontcolor="black",tooltip=" "];
}
