digraph "pip._vendor.ipaddress._BaseV6._compress_hextets"
{
 // LATEX_PDF_SIZE
  edge [fontname="Helvetica",fontsize="10",labelfontname="Helvetica",labelfontsize="10"];
  node [fontname="Helvetica",fontsize="10",shape=record];
  rankdir="RL";
  Node1 [label="pip._vendor.ipaddress.\l_BaseV6._compress_hextets",height=0.2,width=0.4,color="black", fillcolor="grey75", style="filled", fontcolor="black",tooltip=" "];
  Node1 -> Node2 [dir="back",color="midnightblue",fontsize="10",style="solid",fontname="Helvetica"];
  Node2 [label="pip._vendor.ipaddress.\l_BaseV6._string_from_ip_int",height=0.2,width=0.4,color="black", fillcolor="white", style="filled",URL="$de/d9f/classpip_1_1__vendor_1_1ipaddress_1_1___base_v6.html#ab07974a6de1d48355333914e466ab8de",tooltip=" "];
  Node2 -> Node3 [dir="back",color="midnightblue",fontsize="10",style="solid",fontname="Helvetica"];
  Node3 [label="pip._vendor.ipaddress.\l_BaseAddress.__str__",height=0.2,width=0.4,color="black", fillcolor="white", style="filled",URL="$d7/df4/classpip_1_1__vendor_1_1ipaddress_1_1___base_address.html#a985953c599af64d615bf3fa9b4ff60e3",tooltip=" "];
  Node2 -> Node4 [dir="back",color="midnightblue",fontsize="10",style="solid",fontname="Helvetica"];
  Node4 [label="pip._vendor.ipaddress.IPv6\lInterface.__str__",height=0.2,width=0.4,color="black", fillcolor="white", style="filled",URL="$db/df0/classpip_1_1__vendor_1_1ipaddress_1_1_i_pv6_interface.html#aa0432d91370e2226c560c40809b9b64e",tooltip=" "];
  Node2 -> Node5 [dir="back",color="midnightblue",fontsize="10",style="solid",fontname="Helvetica"];
  Node5 [label="pip._vendor.ipaddress.IPv6\lInterface.with_hostmask",height=0.2,width=0.4,color="black", fillcolor="white", style="filled",URL="$db/df0/classpip_1_1__vendor_1_1ipaddress_1_1_i_pv6_interface.html#ab64b1b00e7a783cd0ba2fd823a9b078f",tooltip=" "];
  Node2 -> Node6 [dir="back",color="midnightblue",fontsize="10",style="solid",fontname="Helvetica"];
  Node6 [label="pip._vendor.ipaddress.IPv6\lInterface.with_netmask",height=0.2,width=0.4,color="black", fillcolor="white", style="filled",URL="$db/df0/classpip_1_1__vendor_1_1ipaddress_1_1_i_pv6_interface.html#ac01a5f9d4b99ff409726458cffc9652f",tooltip=" "];
  Node2 -> Node7 [dir="back",color="midnightblue",fontsize="10",style="solid",fontname="Helvetica"];
  Node7 [label="pip._vendor.ipaddress.IPv6\lInterface.with_prefixlen",height=0.2,width=0.4,color="black", fillcolor="white", style="filled",URL="$db/df0/classpip_1_1__vendor_1_1ipaddress_1_1_i_pv6_interface.html#af680b415fb6a695a4ed2d7092243d764",tooltip=" "];
}
