digraph "pip._vendor.ipaddress._BaseV6._ip_int_from_string"
{
 // LATEX_PDF_SIZE
  edge [fontname="Helvetica",fontsize="10",labelfontname="Helvetica",labelfontsize="10"];
  node [fontname="Helvetica",fontsize="10",shape=record];
  rankdir="LR";
  Node1 [label="pip._vendor.ipaddress.\l_BaseV6._ip_int_from_string",height=0.2,width=0.4,color="black", fillcolor="grey75", style="filled", fontcolor="black",tooltip=" "];
  Node1 -> Node2 [color="midnightblue",fontsize="10",style="solid",fontname="Helvetica"];
  Node2 [label="pip._vendor.ipaddress.\l_compat_range",height=0.2,width=0.4,color="black", fillcolor="white", style="filled",URL="$dd/d25/namespacepip_1_1__vendor_1_1ipaddress.html#a0e4128376104e639a4a541040058a3a6",tooltip=" "];
  Node1 -> Node3 [color="midnightblue",fontsize="10",style="solid",fontname="Helvetica"];
  Node3 [label="pip._vendor.ipaddress.\l_BaseV6._parse_hextet",height=0.2,width=0.4,color="black", fillcolor="white", style="filled",URL="$de/d9f/classpip_1_1__vendor_1_1ipaddress_1_1___base_v6.html#a2a144e90e68588e8446b5af1b0ad0060",tooltip=" "];
}
