digraph "pip._vendor.distlib.scripts.ScriptMaker"
{
 // LATEX_PDF_SIZE
  edge [fontname="Helvetica",fontsize="10",labelfontname="Helvetica",labelfontsize="10"];
  node [fontname="Helvetica",fontsize="10",shape=record];
  Node1 [label="{pip._vendor.distlib.scripts.\lScriptMaker\n|+ source_dir\l+ target_dir\l+ add_launchers\l+ force\l+ clobber\l+ set_mode\l+ variants\l+ version_info\l+ script_template\l+ executable\l+ manifest\l- _fileop\l- _is_nt\l|+ __init__()\l+ get_manifest()\l+ dry_run()\l+ dry_run()\l+ make()\l+ make_multiple()\l- _get_alternate_executable()\l- _is_shell()\l- _fix_jython_executable()\l- _build_shebang()\l- _get_shebang()\l- _get_script_text()\l- _write_script()\l- _make_script()\l- _copy_script()\l- _get_launcher()\l}",height=0.2,width=0.4,color="black", fillcolor="grey75", style="filled", fontcolor="black",tooltip=" "];
  Node2 -> Node1 [dir="back",color="midnightblue",fontsize="10",style="solid",arrowtail="onormal"];
  Node2 [label="{object\n||}",height=0.2,width=0.4,color="grey75", fillcolor="white", style="filled",tooltip=" "];
  Node1 -> Node3 [dir="back",color="midnightblue",fontsize="10",style="solid",arrowtail="onormal"];
  Node3 [label="{pip._internal.operations.install.wheel.\lPipScriptMaker\n||+ make()\l}",height=0.2,width=0.4,color="black", fillcolor="white", style="filled",URL="$d8/d6a/classpip_1_1__internal_1_1operations_1_1install_1_1wheel_1_1_pip_script_maker.html",tooltip=" "];
}
