digraph "pip._vendor.html5lib._inputstream.BufferedStream.read"
{
 // LATEX_PDF_SIZE
  edge [fontname="Helvetica",fontsize="10",labelfontname="Helvetica",labelfontsize="10"];
  node [fontname="Helvetica",fontsize="10",shape=record];
  rankdir="LR";
  Node1 [label="pip._vendor.html5lib.\l_inputstream.BufferedStream.read",height=0.2,width=0.4,color="black", fillcolor="grey75", style="filled", fontcolor="black",tooltip=" "];
  Node1 -> Node2 [color="midnightblue",fontsize="10",style="solid",fontname="Helvetica"];
  Node2 [label="pip._vendor.html5lib.\l_inputstream.BufferedStream.\l_readFromBuffer",height=0.2,width=0.4,color="black", fillcolor="white", style="filled",URL="$df/da3/classpip_1_1__vendor_1_1html5lib_1_1__inputstream_1_1_buffered_stream.html#a2efee1afe5cad097605507542358b53c",tooltip=" "];
  Node2 -> Node3 [color="midnightblue",fontsize="10",style="solid",fontname="Helvetica"];
  Node3 [label="pip._vendor.html5lib.\l_inputstream.BufferedStream.\l_readStream",height=0.2,width=0.4,color="black", fillcolor="white", style="filled",URL="$df/da3/classpip_1_1__vendor_1_1html5lib_1_1__inputstream_1_1_buffered_stream.html#a4df1fb76df45483c51d60b83c0296a23",tooltip=" "];
  Node3 -> Node1 [color="midnightblue",fontsize="10",style="solid",fontname="Helvetica"];
  Node1 -> Node3 [color="midnightblue",fontsize="10",style="solid",fontname="Helvetica"];
}
