digraph "pip._vendor.pkg_resources.Requirement.parse"
{
 // LATEX_PDF_SIZE
  edge [fontname="Helvetica",fontsize="10",labelfontname="Helvetica",labelfontsize="10"];
  node [fontname="Helvetica",fontsize="10",shape=record];
  rankdir="LR";
  Node1 [label="pip._vendor.pkg_resources.\lRequirement.parse",height=0.2,width=0.4,color="black", fillcolor="grey75", style="filled", fontcolor="black",tooltip=" "];
  Node1 -> Node2 [color="midnightblue",fontsize="10",style="solid",fontname="Helvetica"];
  Node2 [label="pip._vendor.pkg_resources.parse\l_requirements",height=0.2,width=0.4,color="black", fillcolor="white", style="filled",URL="$d7/dcc/namespacepip_1_1__vendor_1_1pkg__resources.html#acfa8d95bd782ff75e70ae61c11441bc8",tooltip=" "];
  Node2 -> Node3 [color="midnightblue",fontsize="10",style="solid",fontname="Helvetica"];
  Node3 [label="pip._vendor.pkg_resources.yield\l_lines",height=0.2,width=0.4,color="black", fillcolor="white", style="filled",URL="$d7/dcc/namespacepip_1_1__vendor_1_1pkg__resources.html#a9154cf7836eab6cbeb1238fdc578e0fd",tooltip=" "];
}
