digraph "pip._internal.operations.install.wheel._install_wheel"
{
 // LATEX_PDF_SIZE
  edge [fontname="Helvetica",fontsize="10",labelfontname="Helvetica",labelfontsize="10"];
  node [fontname="Helvetica",fontsize="10",shape=record];
  rankdir="LR";
  Node1 [label="pip._internal.operations.install.wheel.\l_install_wheel",height=0.2,width=0.4,color="black", fillcolor="grey75", style="filled", fontcolor="black",tooltip=" "];
  Node1 -> Node2 [color="midnightblue",fontsize="10",style="solid",fontname="Helvetica"];
  Node2 [label="pip._internal.operations.install.wheel.\l_fs_to_record_path",height=0.2,width=0.4,color="black", fillcolor="white", style="filled",URL="$d5/d70/namespacepip_1_1__internal_1_1operations_1_1install_1_1wheel.html#a63628881ffb221b2c5cb36cb54a6df69",tooltip=" "];
  Node2 -> Node3 [color="midnightblue",fontsize="10",style="solid",fontname="Helvetica"];
  Node3 [label="pip._internal.utils.typing.cast",height=0.2,width=0.4,color="black", fillcolor="white", style="filled",URL="$d9/d56/namespacepip_1_1__internal_1_1utils_1_1typing.html#ab37e3e9039b01929d8ac2bd74d7c37db",tooltip=" "];
  Node1 -> Node4 [color="midnightblue",fontsize="10",style="solid",fontname="Helvetica"];
  Node4 [label="pip._internal.operations.install.wheel.\l_normalized_outrows",height=0.2,width=0.4,color="black", fillcolor="white", style="filled",URL="$d5/d70/namespacepip_1_1__internal_1_1operations_1_1install_1_1wheel.html#a878db5d785dfcee1e7b8d0f25ff22952",tooltip=" "];
  Node4 -> Node5 [color="midnightblue",fontsize="10",style="solid",fontname="Helvetica"];
  Node5 [label="pip._vendor.html5lib.treewalkers.etree\l_lxml.ensure_str",height=0.2,width=0.4,color="black", fillcolor="white", style="filled",URL="$db/dd7/namespacepip_1_1__vendor_1_1html5lib_1_1treewalkers_1_1etree__lxml.html#a028cec52b33e2067b38382eb23c523b9",tooltip=" "];
  Node1 -> Node6 [color="midnightblue",fontsize="10",style="solid",fontname="Helvetica"];
  Node6 [label="pip._internal.utils.filesystem.adjacent\l_tmp_file",height=0.2,width=0.4,color="black", fillcolor="white", style="filled",URL="$d5/d03/namespacepip_1_1__internal_1_1utils_1_1filesystem.html#af6a30fa4ef160d77dda9567be561615b",tooltip=" "];
  Node6 -> Node3 [color="midnightblue",fontsize="10",style="solid",fontname="Helvetica"];
  Node1 -> Node7 [color="midnightblue",fontsize="10",style="solid",fontname="Helvetica"];
  Node7 [label="pip._internal.utils.misc.captured\l_stdout",height=0.2,width=0.4,color="black", fillcolor="white", style="filled",URL="$de/dc3/namespacepip_1_1__internal_1_1utils_1_1misc.html#ac1d3d1a40555a46ed9f931208d3cbdc9",tooltip=" "];
  Node7 -> Node8 [color="midnightblue",fontsize="10",style="solid",fontname="Helvetica"];
  Node8 [label="pip._internal.utils.misc.captured\l_output",height=0.2,width=0.4,color="black", fillcolor="white", style="filled",URL="$de/dc3/namespacepip_1_1__internal_1_1utils_1_1misc.html#a3411ad22fe24ddaccc0342d1f68eb0db",tooltip=" "];
  Node1 -> Node3 [color="midnightblue",fontsize="10",style="solid",fontname="Helvetica"];
  Node1 -> Node9 [color="midnightblue",fontsize="10",style="solid",fontname="Helvetica"];
  Node9 [label="pip._internal.operations.install.wheel.csv\l_io_kwargs",height=0.2,width=0.4,color="black", fillcolor="white", style="filled",URL="$d5/d70/namespacepip_1_1__internal_1_1operations_1_1install_1_1wheel.html#a9fdfc84b0b3d56d65ab108349305aece",tooltip=" "];
  Node1 -> Node10 [color="midnightblue",fontsize="10",style="solid",fontname="Helvetica"];
  Node10 [label="pip._internal.utils.unpacking.current\l_umask",height=0.2,width=0.4,color="black", fillcolor="white", style="filled",URL="$d8/d22/namespacepip_1_1__internal_1_1utils_1_1unpacking.html#a6dd9757f268ca7738e456b81fea6b8d0",tooltip=" "];
  Node1 -> Node11 [color="midnightblue",fontsize="10",style="solid",fontname="Helvetica"];
  Node11 [label="pip._vendor.idna.core.encode",height=0.2,width=0.4,color="black", fillcolor="white", style="filled",URL="$dc/dbe/namespacepip_1_1__vendor_1_1idna_1_1core.html#ab44c2946ca8d572559f40521032afe1a",tooltip=" "];
  Node11 -> Node12 [color="midnightblue",fontsize="10",style="solid",fontname="Helvetica"];
  Node12 [label="pip._vendor.idna.core.alabel",height=0.2,width=0.4,color="black", fillcolor="white", style="filled",URL="$dc/dbe/namespacepip_1_1__vendor_1_1idna_1_1core.html#a59626ddc5d21ec43787eba30bdf1b2bd",tooltip=" "];
  Node12 -> Node13 [color="midnightblue",fontsize="10",style="solid",fontname="Helvetica"];
  Node13 [label="pip._vendor.idna.core.\l_punycode",height=0.2,width=0.4,color="black", fillcolor="white", style="filled",URL="$dc/dbe/namespacepip_1_1__vendor_1_1idna_1_1core.html#a860e01f9e85dad091926e676c98eefec",tooltip=" "];
  Node12 -> Node14 [color="midnightblue",fontsize="10",style="solid",fontname="Helvetica"];
  Node14 [label="pip._vendor.idna.core.check\l_label",height=0.2,width=0.4,color="black", fillcolor="white", style="filled",URL="$dc/dbe/namespacepip_1_1__vendor_1_1idna_1_1core.html#ae9fc88587359b163ac595d519715c099",tooltip=" "];
  Node14 -> Node15 [color="midnightblue",fontsize="10",style="solid",fontname="Helvetica"];
  Node15 [label="pip._vendor.idna.core._unot",height=0.2,width=0.4,color="black", fillcolor="white", style="filled",URL="$dc/dbe/namespacepip_1_1__vendor_1_1idna_1_1core.html#afb6d3618c7b6bb8bab08b96c967eca66",tooltip=" "];
  Node14 -> Node16 [color="midnightblue",fontsize="10",style="solid",fontname="Helvetica"];
  Node16 [label="pip._vendor.idna.core.check_bidi",height=0.2,width=0.4,color="black", fillcolor="white", style="filled",URL="$dc/dbe/namespacepip_1_1__vendor_1_1idna_1_1core.html#a32a613317ceb9eb4cd52fdd73b3f1248",tooltip=" "];
  Node14 -> Node17 [color="midnightblue",fontsize="10",style="solid",fontname="Helvetica"];
  Node17 [label="pip._vendor.idna.core.check\l_hyphen_ok",height=0.2,width=0.4,color="black", fillcolor="white", style="filled",URL="$dc/dbe/namespacepip_1_1__vendor_1_1idna_1_1core.html#a81c0586c1db1facb045d6ec94210fde0",tooltip=" "];
  Node14 -> Node18 [color="midnightblue",fontsize="10",style="solid",fontname="Helvetica"];
  Node18 [label="pip._vendor.idna.core.check\l_initial_combiner",height=0.2,width=0.4,color="black", fillcolor="white", style="filled",URL="$dc/dbe/namespacepip_1_1__vendor_1_1idna_1_1core.html#a585b0e816f47c888b2bee45b8558e8fe",tooltip=" "];
  Node14 -> Node19 [color="midnightblue",fontsize="10",style="solid",fontname="Helvetica"];
  Node19 [label="pip._vendor.idna.core.check_nfc",height=0.2,width=0.4,color="black", fillcolor="white", style="filled",URL="$dc/dbe/namespacepip_1_1__vendor_1_1idna_1_1core.html#ae9c33c8013e65ab232c798b879f7b5b7",tooltip=" "];
  Node14 -> Node20 [color="midnightblue",fontsize="10",style="solid",fontname="Helvetica"];
  Node20 [label="pip._vendor.idna.intranges.intranges\l_contain",height=0.2,width=0.4,color="red", fillcolor="white", style="filled",URL="$dc/d38/namespacepip_1_1__vendor_1_1idna_1_1intranges.html#abcdc067f2c261e1663789054ba59f597",tooltip=" "];
  Node14 -> Node23 [color="midnightblue",fontsize="10",style="solid",fontname="Helvetica"];
  Node23 [label="pip._vendor.idna.core.valid\l_contextj",height=0.2,width=0.4,color="red", fillcolor="white", style="filled",URL="$dc/dbe/namespacepip_1_1__vendor_1_1idna_1_1core.html#ae0ccbd5b53689c3986cd22100cbc8e99",tooltip=" "];
  Node14 -> Node25 [color="midnightblue",fontsize="10",style="solid",fontname="Helvetica"];
  Node25 [label="pip._vendor.idna.core.valid\l_contexto",height=0.2,width=0.4,color="red", fillcolor="white", style="filled",URL="$dc/dbe/namespacepip_1_1__vendor_1_1idna_1_1core.html#a741f7cca90b4a6adc176a40ff242ec10",tooltip=" "];
  Node12 -> Node27 [color="midnightblue",fontsize="10",style="solid",fontname="Helvetica"];
  Node27 [label="pip._vendor.idna.core.ulabel",height=0.2,width=0.4,color="black", fillcolor="white", style="filled",URL="$dc/dbe/namespacepip_1_1__vendor_1_1idna_1_1core.html#aa5d8b1ef65c7126d2fbd3b671b105ad2",tooltip=" "];
  Node27 -> Node14 [color="midnightblue",fontsize="10",style="solid",fontname="Helvetica"];
  Node12 -> Node28 [color="midnightblue",fontsize="10",style="solid",fontname="Helvetica"];
  Node28 [label="pip._vendor.idna.core.valid\l_label_length",height=0.2,width=0.4,color="black", fillcolor="white", style="filled",URL="$dc/dbe/namespacepip_1_1__vendor_1_1idna_1_1core.html#acd48dccb4945430b28b3d5ad28d05545",tooltip=" "];
  Node11 -> Node29 [color="midnightblue",fontsize="10",style="solid",fontname="Helvetica"];
  Node29 [label="pip._vendor.idna.core.uts46\l_remap",height=0.2,width=0.4,color="black", fillcolor="white", style="filled",URL="$dc/dbe/namespacepip_1_1__vendor_1_1idna_1_1core.html#a2d90033244fa673825a46b11909a635d",tooltip=" "];
  Node29 -> Node15 [color="midnightblue",fontsize="10",style="solid",fontname="Helvetica"];
  Node11 -> Node30 [color="midnightblue",fontsize="10",style="solid",fontname="Helvetica"];
  Node30 [label="pip._vendor.idna.core.valid\l_string_length",height=0.2,width=0.4,color="black", fillcolor="white", style="filled",URL="$dc/dbe/namespacepip_1_1__vendor_1_1idna_1_1core.html#a46abadd9be760400a42c0afc32d93e41",tooltip=" "];
  Node1 -> Node5 [color="midnightblue",fontsize="10",style="solid",fontname="Helvetica"];
  Node1 -> Node31 [color="midnightblue",fontsize="10",style="solid",fontname="Helvetica"];
  Node31 [label="pip._vendor.six.ensure_text",height=0.2,width=0.4,color="black", fillcolor="white", style="filled",URL="$df/d13/namespacepip_1_1__vendor_1_1six.html#a876d78ba61942e076dbc2c335c180f1c",tooltip=" "];
  Node1 -> Node32 [color="midnightblue",fontsize="10",style="solid",fontname="Helvetica"];
  Node32 [label="pip._internal.operations.install.wheel.get\l_console_script_specs",height=0.2,width=0.4,color="black", fillcolor="white", style="filled",URL="$d5/d70/namespacepip_1_1__internal_1_1operations_1_1install_1_1wheel.html#a05db2d34068442e6e937bf4ea73a049a",tooltip=" "];
  Node32 -> Node33 [color="midnightblue",fontsize="10",style="solid",fontname="Helvetica"];
  Node33 [label="pip._internal.locations.get\l_major_minor_version",height=0.2,width=0.4,color="black", fillcolor="white", style="filled",URL="$de/d72/namespacepip_1_1__internal_1_1locations.html#a9ea9af63bf94402c511cccc9648693d5",tooltip=" "];
  Node1 -> Node34 [color="midnightblue",fontsize="10",style="solid",fontname="Helvetica"];
  Node34 [label="pip._internal.operations.install.wheel.get\l_csv_rows_for_installed",height=0.2,width=0.4,color="black", fillcolor="white", style="filled",URL="$d5/d70/namespacepip_1_1__internal_1_1operations_1_1install_1_1wheel.html#a3ce373268f0c58e6200a83f5cf011178",tooltip=" "];
  Node34 -> Node2 [color="midnightblue",fontsize="10",style="solid",fontname="Helvetica"];
  Node34 -> Node35 [color="midnightblue",fontsize="10",style="solid",fontname="Helvetica"];
  Node35 [label="pip._internal.operations.install.wheel.\l_parse_record_path",height=0.2,width=0.4,color="black", fillcolor="white", style="filled",URL="$d5/d70/namespacepip_1_1__internal_1_1operations_1_1install_1_1wheel.html#a1f8760bd6277f41bd9ac87431daba98e",tooltip=" "];
  Node35 -> Node3 [color="midnightblue",fontsize="10",style="solid",fontname="Helvetica"];
  Node35 -> Node31 [color="midnightblue",fontsize="10",style="solid",fontname="Helvetica"];
  Node34 -> Node36 [color="midnightblue",fontsize="10",style="solid",fontname="Helvetica"];
  Node36 [label="pip._internal.operations.install.wheel.\l_record_to_fs_path",height=0.2,width=0.4,color="black", fillcolor="white", style="filled",URL="$d5/d70/namespacepip_1_1__internal_1_1operations_1_1install_1_1wheel.html#abdbcda6ef0907bd3931cd2782fbac110",tooltip=" "];
  Node34 -> Node37 [color="midnightblue",fontsize="10",style="solid",fontname="Helvetica"];
  Node37 [label="pip._vendor.six.itervalues",height=0.2,width=0.4,color="black", fillcolor="white", style="filled",URL="$df/d13/namespacepip_1_1__vendor_1_1six.html#afb33566ef73cdb9b1e7af5078365a14b",tooltip=" "];
  Node34 -> Node38 [color="midnightblue",fontsize="10",style="solid",fontname="Helvetica"];
  Node38 [label="pip._internal.operations.install.wheel.rehash",height=0.2,width=0.4,color="black", fillcolor="white", style="filled",URL="$d5/d70/namespacepip_1_1__internal_1_1operations_1_1install_1_1wheel.html#a44f28544cec7abc21fd7359d33710de7",tooltip=" "];
  Node38 -> Node39 [color="midnightblue",fontsize="10",style="solid",fontname="Helvetica"];
  Node39 [label="pip._vendor.idna.core.decode",height=0.2,width=0.4,color="black", fillcolor="white", style="filled",URL="$dc/dbe/namespacepip_1_1__vendor_1_1idna_1_1core.html#ab8a24800679a07c3161db86a9b0a73e6",tooltip=" "];
  Node39 -> Node27 [color="midnightblue",fontsize="10",style="solid",fontname="Helvetica"];
  Node39 -> Node29 [color="midnightblue",fontsize="10",style="solid",fontname="Helvetica"];
  Node38 -> Node40 [color="midnightblue",fontsize="10",style="solid",fontname="Helvetica"];
  Node40 [label="pip._internal.utils.misc.hash_file",height=0.2,width=0.4,color="red", fillcolor="white", style="filled",URL="$de/dc3/namespacepip_1_1__internal_1_1utils_1_1misc.html#add5007422603dcbaf73096153ecb3744",tooltip=" "];
  Node38 -> Node42 [color="midnightblue",fontsize="10",style="solid",fontname="Helvetica"];
  Node42 [label="wheel.util.urlsafe\l_b64encode",height=0.2,width=0.4,color="black", fillcolor="white", style="filled",URL="$de/d97/namespacewheel_1_1util.html#aaabe3fbd49c6945f3985ca386831b715",tooltip=" "];
  Node1 -> Node43 [color="midnightblue",fontsize="10",style="solid",fontname="Helvetica"];
  Node43 [label="pip._internal.operations.install.wheel.get\l_entrypoints",height=0.2,width=0.4,color="black", fillcolor="white", style="filled",URL="$d5/d70/namespacepip_1_1__internal_1_1operations_1_1install_1_1wheel.html#a68d4d80630a25ced5d1ebbe998ead2e4",tooltip=" "];
  Node1 -> Node44 [color="midnightblue",fontsize="10",style="solid",fontname="Helvetica"];
  Node44 [label="pip._internal.utils.unpacking.is\l_within_directory",height=0.2,width=0.4,color="black", fillcolor="white", style="filled",URL="$d8/d22/namespacepip_1_1__internal_1_1utils_1_1unpacking.html#a7fa6fd1203599fea3464f86d65866d71",tooltip=" "];
  Node1 -> Node45 [color="midnightblue",fontsize="10",style="solid",fontname="Helvetica"];
  Node45 [label="pip._internal.operations.install.wheel.message\l_about_scripts_not_on_PATH",height=0.2,width=0.4,color="black", fillcolor="white", style="filled",URL="$d5/d70/namespacepip_1_1__internal_1_1operations_1_1install_1_1wheel.html#a95576e0abb83220198635fee076c272a",tooltip=" "];
  Node1 -> Node46 [color="midnightblue",fontsize="10",style="solid",fontname="Helvetica"];
  Node46 [label="pip._internal.utils.wheel.parse\l_wheel",height=0.2,width=0.4,color="black", fillcolor="white", style="filled",URL="$d5/d40/namespacepip_1_1__internal_1_1utils_1_1wheel.html#a5694f73c60d36a304f5b667b0c543f4b",tooltip=" "];
  Node46 -> Node47 [color="midnightblue",fontsize="10",style="solid",fontname="Helvetica"];
  Node47 [label="pip._internal.utils.wheel.check\l_compatibility",height=0.2,width=0.4,color="black", fillcolor="white", style="filled",URL="$d5/d40/namespacepip_1_1__internal_1_1utils_1_1wheel.html#a2457b15ce9df17fc6fce59acf362bde7",tooltip=" "];
  Node46 -> Node48 [color="midnightblue",fontsize="10",style="solid",fontname="Helvetica"];
  Node48 [label="pip._internal.utils.wheel.wheel\l_dist_info_dir",height=0.2,width=0.4,color="black", fillcolor="white", style="filled",URL="$d5/d40/namespacepip_1_1__internal_1_1utils_1_1wheel.html#a6236368c0d4b0921172e561d40294582",tooltip=" "];
  Node48 -> Node49 [color="midnightblue",fontsize="10",style="solid",fontname="Helvetica"];
  Node49 [label="pip._vendor.packaging.utils.canonicalize_name",height=0.2,width=0.4,color="black", fillcolor="white", style="filled",URL="$dc/da8/namespacepip_1_1__vendor_1_1packaging_1_1utils.html#af20daae928523ea0ae9d2c4215887232",tooltip=" "];
  Node49 -> Node3 [color="midnightblue",fontsize="10",style="solid",fontname="Helvetica"];
  Node48 -> Node5 [color="midnightblue",fontsize="10",style="solid",fontname="Helvetica"];
  Node46 -> Node50 [color="midnightblue",fontsize="10",style="solid",fontname="Helvetica"];
  Node50 [label="pip._internal.utils.wheel.wheel\l_metadata",height=0.2,width=0.4,color="black", fillcolor="white", style="filled",URL="$d5/d40/namespacepip_1_1__internal_1_1utils_1_1wheel.html#a37434d5e8d89e95220dba4bffd2fc26e",tooltip=" "];
  Node50 -> Node5 [color="midnightblue",fontsize="10",style="solid",fontname="Helvetica"];
  Node50 -> Node51 [color="midnightblue",fontsize="10",style="solid",fontname="Helvetica"];
  Node51 [label="pip._internal.utils.wheel.read\l_wheel_metadata_file",height=0.2,width=0.4,color="black", fillcolor="white", style="filled",URL="$d5/d40/namespacepip_1_1__internal_1_1utils_1_1wheel.html#ad8755183e1435a2e60d8877a3c29f0c5",tooltip=" "];
  Node46 -> Node52 [color="midnightblue",fontsize="10",style="solid",fontname="Helvetica"];
  Node52 [label="pip._internal.utils.wheel.wheel\l_version",height=0.2,width=0.4,color="black", fillcolor="white", style="filled",URL="$d5/d40/namespacepip_1_1__internal_1_1utils_1_1wheel.html#a02571c19fd5d5c97d95501b8c9fb7efd",tooltip=" "];
  Node1 -> Node53 [color="midnightblue",fontsize="10",style="solid",fontname="Helvetica"];
  Node53 [label="pip._internal.utils.misc.partition",height=0.2,width=0.4,color="black", fillcolor="white", style="filled",URL="$de/dc3/namespacepip_1_1__internal_1_1utils_1_1misc.html#ab1bf8a3147c51c323ea4ccb4fbb2156c",tooltip=" "];
  Node1 -> Node54 [color="midnightblue",fontsize="10",style="solid",fontname="Helvetica"];
  Node54 [label="pip._internal.utils.wheel.pkg\l_resources_distribution_for_wheel",height=0.2,width=0.4,color="black", fillcolor="white", style="filled",URL="$d5/d40/namespacepip_1_1__internal_1_1utils_1_1wheel.html#af34bfda22bc345e6ba61a4f98354ae46",tooltip=" "];
  Node54 -> Node5 [color="midnightblue",fontsize="10",style="solid",fontname="Helvetica"];
  Node54 -> Node46 [color="midnightblue",fontsize="10",style="solid",fontname="Helvetica"];
  Node54 -> Node51 [color="midnightblue",fontsize="10",style="solid",fontname="Helvetica"];
  Node1 -> Node55 [color="midnightblue",fontsize="10",style="solid",fontname="Helvetica"];
  Node55 [label="pip._internal.operations.install.wheel.wheel\l_root_is_purelib",height=0.2,width=0.4,color="black", fillcolor="white", style="filled",URL="$d5/d70/namespacepip_1_1__internal_1_1operations_1_1install_1_1wheel.html#a6039518537c5934929587be3c98ad2c8",tooltip=" "];
}
