digraph "pip._internal.main"
{
 // LATEX_PDF_SIZE
  edge [fontname="Helvetica",fontsize="10",labelfontname="Helvetica",labelfontsize="10"];
  node [fontname="Helvetica",fontsize="10",shape=record];
  rankdir="LR";
  Node1 [label="pip._internal.main",height=0.2,width=0.4,color="black", fillcolor="grey75", style="filled", fontcolor="black",tooltip=" "];
  Node1 -> Node2 [color="midnightblue",fontsize="10",style="solid"];
  Node2 [label="pip._internal.utils.entrypoints.\l_wrapper",height=0.2,width=0.4,color="black", fillcolor="white", style="filled",URL="$d3/d46/namespacepip_1_1__internal_1_1utils_1_1entrypoints.html#adce1f7e53af81f31070c5523529075c9",tooltip=" "];
  Node2 -> Node1 [color="midnightblue",fontsize="10",style="solid"];
}
