digraph "pip._vendor.colorama.ansi.code_to_chars"
{
 // LATEX_PDF_SIZE
  edge [fontname="Helvetica",fontsize="10",labelfontname="Helvetica",labelfontsize="10"];
  node [fontname="Helvetica",fontsize="10",shape=record];
  rankdir="RL";
  Node1 [label="pip._vendor.colorama.ansi.code\l_to_chars",height=0.2,width=0.4,color="black", fillcolor="grey75", style="filled", fontcolor="black",tooltip=" "];
  Node1 -> Node2 [dir="back",color="midnightblue",fontsize="10",style="solid",fontname="Helvetica"];
  Node2 [label="pip._vendor.colorama.ansi.\lAnsiCodes.__init__",height=0.2,width=0.4,color="black", fillcolor="white", style="filled",URL="$da/d84/classpip_1_1__vendor_1_1colorama_1_1ansi_1_1_ansi_codes.html#a320fa4a146d8be484cb1c5e6c19ffffa",tooltip=" "];
  Node2 -> Node3 [dir="back",color="midnightblue",fontsize="10",style="solid",fontname="Helvetica"];
  Node3 [label="setuptools._vendor.ordered\l_set.OrderedSet.__setstate__",height=0.2,width=0.4,color="black", fillcolor="white", style="filled",URL="$d0/d40/classsetuptools_1_1__vendor_1_1ordered__set_1_1_ordered_set.html#a852740634ccd2e3158b599082cf086de",tooltip=" "];
}
