digraph "pip._internal.cli.parser.ConfigOptionParser._update_defaults"
{
 // LATEX_PDF_SIZE
  edge [fontname="Helvetica",fontsize="10",labelfontname="Helvetica",labelfontsize="10"];
  node [fontname="Helvetica",fontsize="10",shape=record];
  rankdir="RL";
  Node1 [label="pip._internal.cli.parser.\lConfigOptionParser._update\l_defaults",height=0.2,width=0.4,color="black", fillcolor="grey75", style="filled", fontcolor="black",tooltip=" "];
  Node1 -> Node2 [dir="back",color="midnightblue",fontsize="10",style="solid"];
  Node2 [label="pip._internal.cli.parser.\lConfigOptionParser.get\l_default_values",height=0.2,width=0.4,color="black", fillcolor="white", style="filled",URL="$d5/da5/classpip_1_1__internal_1_1cli_1_1parser_1_1_config_option_parser.html#a21c21f557924b6bc7d42ac53dd681214",tooltip=" "];
}
