digraph "pip._vendor.ipaddress.IPv6Network.is_site_local"
{
 // LATEX_PDF_SIZE
  edge [fontname="Helvetica",fontsize="10",labelfontname="Helvetica",labelfontsize="10"];
  node [fontname="Helvetica",fontsize="10",shape=record];
  rankdir="LR";
  Node1 [label="pip._vendor.ipaddress.IPv6\lNetwork.is_site_local",height=0.2,width=0.4,color="black", fillcolor="grey75", style="filled", fontcolor="black",tooltip=" "];
  Node1 -> Node2 [color="midnightblue",fontsize="10",style="solid",fontname="Helvetica"];
  Node2 [label="pip._vendor.ipaddress.\l_BaseNetwork.broadcast\l_address",height=0.2,width=0.4,color="black", fillcolor="white", style="filled",URL="$d0/d9c/classpip_1_1__vendor_1_1ipaddress_1_1___base_network.html#a85ddcbbddd528d6eeb167a1cb437f885",tooltip=" "];
  Node2 -> Node3 [color="midnightblue",fontsize="10",style="solid",fontname="Helvetica"];
  Node3 [label="pip._vendor.ipaddress.\l_BaseNetwork._address_class",height=0.2,width=0.4,color="black", fillcolor="white", style="filled",URL="$d0/d9c/classpip_1_1__vendor_1_1ipaddress_1_1___base_network.html#a563c88a25169c2ecff9a06240fb9f84e",tooltip=" "];
  Node2 -> Node4 [color="midnightblue",fontsize="10",style="solid",fontname="Helvetica"];
  Node4 [label="pip._vendor.requests.api.get",height=0.2,width=0.4,color="black", fillcolor="white", style="filled",URL="$de/db5/namespacepip_1_1__vendor_1_1requests_1_1api.html#af14e54be255a4489da5fa7e07a48cc63",tooltip=" "];
  Node4 -> Node5 [color="midnightblue",fontsize="10",style="solid",fontname="Helvetica"];
  Node5 [label="pip._vendor.requests.api.request",height=0.2,width=0.4,color="black", fillcolor="white", style="filled",URL="$de/db5/namespacepip_1_1__vendor_1_1requests_1_1api.html#a9fdead74de86ac05699e5f4d40aa8d1d",tooltip=" "];
  Node2 -> Node6 [color="midnightblue",fontsize="10",style="solid",fontname="Helvetica"];
  Node6 [label="pip._vendor.ipaddress.\l_BaseNetwork.hostmask",height=0.2,width=0.4,color="black", fillcolor="white", style="filled",URL="$d0/d9c/classpip_1_1__vendor_1_1ipaddress_1_1___base_network.html#a787ef4e88edc85f58c61dd8c9e865316",tooltip=" "];
  Node6 -> Node3 [color="midnightblue",fontsize="10",style="solid",fontname="Helvetica"];
  Node6 -> Node4 [color="midnightblue",fontsize="10",style="solid",fontname="Helvetica"];
}
