digraph "pip._internal.req.req_set.RequirementSet.add_requirement"
{
 // LATEX_PDF_SIZE
  edge [fontname="Helvetica",fontsize="10",labelfontname="Helvetica",labelfontsize="10"];
  node [fontname="Helvetica",fontsize="10",shape=record];
  rankdir="LR";
  Node1 [label="pip._internal.req.req\l_set.RequirementSet.add\l_requirement",height=0.2,width=0.4,color="black", fillcolor="grey75", style="filled", fontcolor="black",tooltip=" "];
  Node1 -> Node2 [color="midnightblue",fontsize="10",style="solid",fontname="Helvetica"];
  Node2 [label="pip._internal.req.req\l_set.RequirementSet.add\l_named_requirement",height=0.2,width=0.4,color="black", fillcolor="white", style="filled",URL="$d0/d0c/classpip_1_1__internal_1_1req_1_1req__set_1_1_requirement_set.html#a274e253bbcd32a8cb3daa5add8fc180d",tooltip=" "];
  Node2 -> Node3 [color="midnightblue",fontsize="10",style="solid",fontname="Helvetica"];
  Node3 [label="pip._vendor.packaging.utils.canonicalize_name",height=0.2,width=0.4,color="black", fillcolor="white", style="filled",URL="$dc/da8/namespacepip_1_1__vendor_1_1packaging_1_1utils.html#af20daae928523ea0ae9d2c4215887232",tooltip=" "];
  Node3 -> Node4 [color="midnightblue",fontsize="10",style="solid",fontname="Helvetica"];
  Node4 [label="pip._internal.utils.typing.cast",height=0.2,width=0.4,color="black", fillcolor="white", style="filled",URL="$d9/d56/namespacepip_1_1__internal_1_1utils_1_1typing.html#ab37e3e9039b01929d8ac2bd74d7c37db",tooltip=" "];
  Node1 -> Node5 [color="midnightblue",fontsize="10",style="solid",fontname="Helvetica"];
  Node5 [label="pip._internal.req.req\l_set.RequirementSet.add\l_unnamed_requirement",height=0.2,width=0.4,color="black", fillcolor="white", style="filled",URL="$d0/d0c/classpip_1_1__internal_1_1req_1_1req__set_1_1_requirement_set.html#a91bac70a2cf3c091d4abd61c1c4a9ea3",tooltip=" "];
  Node1 -> Node6 [color="midnightblue",fontsize="10",style="solid",fontname="Helvetica"];
  Node6 [label="pip._internal.req.req\l_set.RequirementSet.get\l_requirement",height=0.2,width=0.4,color="black", fillcolor="white", style="filled",URL="$d0/d0c/classpip_1_1__internal_1_1req_1_1req__set_1_1_requirement_set.html#ad5d10fdf941e2f4a8a623d1e05c1e13a",tooltip=" "];
  Node6 -> Node3 [color="midnightblue",fontsize="10",style="solid",fontname="Helvetica"];
}
