digraph "pip._internal.index.package_finder.PackageFinder.find_all_candidates"
{
 // LATEX_PDF_SIZE
  edge [fontname="Helvetica",fontsize="10",labelfontname="Helvetica",labelfontsize="10"];
  node [fontname="Helvetica",fontsize="10",shape=record];
  rankdir="RL";
  Node1 [label="pip._internal.index.package\l_finder.PackageFinder.find\l_all_candidates",height=0.2,width=0.4,color="black", fillcolor="grey75", style="filled", fontcolor="black",tooltip=" "];
  Node1 -> Node2 [dir="back",color="midnightblue",fontsize="10",style="solid"];
  Node2 [label="pip._internal.index.package\l_finder.PackageFinder.find\l_best_candidate",height=0.2,width=0.4,color="black", fillcolor="white", style="filled",URL="$da/d3f/classpip_1_1__internal_1_1index_1_1package__finder_1_1_package_finder.html#a023e0d9f893f733ecbb6896cb6070b9f",tooltip=" "];
  Node2 -> Node3 [dir="back",color="midnightblue",fontsize="10",style="solid"];
  Node3 [label="pip._internal.index.package\l_finder.PackageFinder.find\l_requirement",height=0.2,width=0.4,color="black", fillcolor="white", style="filled",URL="$da/d3f/classpip_1_1__internal_1_1index_1_1package__finder_1_1_package_finder.html#ab5049a7f28cad6ead53b40d2fb7094c4",tooltip=" "];
}
