digraph "pip._internal.index.package_finder.PackageFinder.index_urls"
{
 // LATEX_PDF_SIZE
  edge [fontname="Helvetica",fontsize="10",labelfontname="Helvetica",labelfontsize="10"];
  node [fontname="Helvetica",fontsize="10",shape=record];
  rankdir="LR";
  Node1 [label="pip._internal.index.package\l_finder.PackageFinder.index_urls",height=0.2,width=0.4,color="black", fillcolor="grey75", style="filled", fontcolor="black",tooltip=" "];
  Node1 -> Node2 [color="midnightblue",fontsize="10",style="solid"];
  Node2 [label="pip._internal.index.package\l_finder.PackageFinder.search_scope",height=0.2,width=0.4,color="black", fillcolor="white", style="filled",URL="$da/d3f/classpip_1_1__internal_1_1index_1_1package__finder_1_1_package_finder.html#a69659b6f159a453bb4bb672c379d875f",tooltip=" "];
}
