digraph "pip._vendor.distlib.database.EggInfoDistribution.list_installed_files"
{
 // LATEX_PDF_SIZE
  edge [fontname="Helvetica",fontsize="10",labelfontname="Helvetica",labelfontsize="10"];
  node [fontname="Helvetica",fontsize="10",shape=record];
  rankdir="RL";
  Node1 [label="pip._vendor.distlib.database.\lEggInfoDistribution.list\l_installed_files",height=0.2,width=0.4,color="black", fillcolor="grey75", style="filled", fontcolor="black",tooltip=" "];
  Node1 -> Node2 [dir="back",color="midnightblue",fontsize="10",style="solid"];
  Node2 [label="pip._vendor.distlib.database.\lEggInfoDistribution.check\l_installed_files",height=0.2,width=0.4,color="black", fillcolor="white", style="filled",URL="$d7/d4f/classpip_1_1__vendor_1_1distlib_1_1database_1_1_egg_info_distribution.html#a4eb9053abcb6ae611e7f31c17387aea7",tooltip=" "];
}
