digraph "pip._vendor.distlib.metadata.LegacyMetadata.set_metadata_version"
{
 // LATEX_PDF_SIZE
  edge [fontname="Helvetica",fontsize="10",labelfontname="Helvetica",labelfontsize="10"];
  node [fontname="Helvetica",fontsize="10",shape=record];
  rankdir="LR";
  Node1 [label="pip._vendor.distlib.metadata.\lLegacyMetadata.set_metadata\l_version",height=0.2,width=0.4,color="black", fillcolor="grey75", style="filled", fontcolor="black",tooltip=" "];
  Node1 -> Node2 [color="midnightblue",fontsize="10",style="solid"];
  Node2 [label="pip._vendor.distlib.metadata.\l_best_version",height=0.2,width=0.4,color="black", fillcolor="white", style="filled",URL="$de/d5b/namespacepip_1_1__vendor_1_1distlib_1_1metadata.html#a2d52159cc25bbf7043038c9cf6eaec4d",tooltip=" "];
}
