digraph "pip._vendor.distlib.metadata.LegacyMetadata.update"
{
 // LATEX_PDF_SIZE
  edge [fontname="Helvetica",fontsize="10",labelfontname="Helvetica",labelfontsize="10"];
  node [fontname="Helvetica",fontsize="10",shape=record];
  rankdir="RL";
  Node1 [label="pip._vendor.distlib.metadata.\lLegacyMetadata.update",height=0.2,width=0.4,color="black", fillcolor="grey75", style="filled", fontcolor="black",tooltip=" "];
  Node1 -> Node2 [dir="back",color="midnightblue",fontsize="10",style="solid"];
  Node2 [label="pip._vendor.distlib.util.\lProgress.increment",height=0.2,width=0.4,color="black", fillcolor="white", style="filled",URL="$db/d8e/classpip_1_1__vendor_1_1distlib_1_1util_1_1_progress.html#a32ab66122aabe4fc821ac7d8e9914242",tooltip=" "];
  Node1 -> Node3 [dir="back",color="midnightblue",fontsize="10",style="solid"];
  Node3 [label="pip._vendor.progress.Infinite.next",height=0.2,width=0.4,color="black", fillcolor="white", style="filled",URL="$d0/da8/classpip_1_1__vendor_1_1progress_1_1_infinite.html#a4d198b1f87d7e88699771feb9f4d6630",tooltip=" "];
  Node3 -> Node4 [dir="back",color="midnightblue",fontsize="10",style="solid"];
  Node4 [label="pip._vendor.progress.Progress.goto",height=0.2,width=0.4,color="black", fillcolor="white", style="filled",URL="$d7/dc2/classpip_1_1__vendor_1_1progress_1_1_progress.html#af7e944763f362b2f709502ce97988f8f",tooltip=" "];
  Node3 -> Node5 [dir="back",color="midnightblue",fontsize="10",style="solid"];
  Node5 [label="pip._internal.cli.progress\l_bars.DownloadProgressMixin.iter",height=0.2,width=0.4,color="black", fillcolor="white", style="filled",URL="$df/d54/classpip_1_1__internal_1_1cli_1_1progress__bars_1_1_download_progress_mixin.html#a37eab0ec657772189925ac4621198a88",tooltip=" "];
  Node3 -> Node6 [dir="back",color="midnightblue",fontsize="10",style="solid"];
  Node6 [label="pip._vendor.progress.Infinite.iter",height=0.2,width=0.4,color="black", fillcolor="white", style="filled",URL="$d0/da8/classpip_1_1__vendor_1_1progress_1_1_infinite.html#a8041b71a97f20e9c8a65d89f18a0ee9b",tooltip=" "];
  Node3 -> Node7 [dir="back",color="midnightblue",fontsize="10",style="solid"];
  Node7 [label="pip._vendor.progress.Progress.iter",height=0.2,width=0.4,color="black", fillcolor="white", style="filled",URL="$d7/dc2/classpip_1_1__vendor_1_1progress_1_1_progress.html#af58dae555a18100e56380fb679c15eb7",tooltip=" "];
  Node1 -> Node8 [dir="back",color="midnightblue",fontsize="10",style="solid"];
  Node8 [label="pip._vendor.distlib.util.\lProgress.start",height=0.2,width=0.4,color="black", fillcolor="white", style="filled",URL="$db/d8e/classpip_1_1__vendor_1_1distlib_1_1util_1_1_progress.html#aa0a8df6cd2b5d2c8ce7f18016fe1ed32",tooltip=" "];
  Node8 -> Node9 [dir="back",color="midnightblue",fontsize="10",style="solid"];
  Node9 [label="pip._vendor.progress.Infinite.\l__enter__",height=0.2,width=0.4,color="black", fillcolor="white", style="filled",URL="$d0/da8/classpip_1_1__vendor_1_1progress_1_1_infinite.html#ad0ae9c8227745f75fd75c6791de2125f",tooltip=" "];
  Node1 -> Node10 [dir="back",color="midnightblue",fontsize="10",style="solid"];
  Node10 [label="pip._vendor.progress.Progress.start",height=0.2,width=0.4,color="black", fillcolor="white", style="filled",URL="$d7/dc2/classpip_1_1__vendor_1_1progress_1_1_progress.html#a51d126b2307c5d869e931b807f28d488",tooltip=" "];
  Node1 -> Node11 [dir="back",color="midnightblue",fontsize="10",style="solid"];
  Node11 [label="pip._vendor.distlib.util.\lProgress.stop",height=0.2,width=0.4,color="black", fillcolor="white", style="filled",URL="$db/d8e/classpip_1_1__vendor_1_1distlib_1_1util_1_1_progress.html#a2758af67e089f3caaf3ff8c713e53c11",tooltip=" "];
}
