digraph "pip._vendor.distlib.metadata.LegacyMetadata.update"
{
 // LATEX_PDF_SIZE
  edge [fontname="Helvetica",fontsize="10",labelfontname="Helvetica",labelfontsize="10"];
  node [fontname="Helvetica",fontsize="10",shape=record];
  rankdir="LR";
  Node1 [label="pip._vendor.distlib.metadata.\lLegacyMetadata.update",height=0.2,width=0.4,color="black", fillcolor="grey75", style="filled", fontcolor="black",tooltip=" "];
  Node1 -> Node2 [color="midnightblue",fontsize="10",style="solid"];
  Node2 [label="pip._vendor.distlib.metadata.\lLegacyMetadata._convert_name",height=0.2,width=0.4,color="black", fillcolor="white", style="filled",URL="$d3/dc5/classpip_1_1__vendor_1_1distlib_1_1metadata_1_1_legacy_metadata.html#aba85ccc920e493d76cea58d2061a9501",tooltip=" "];
  Node1 -> Node3 [color="midnightblue",fontsize="10",style="solid"];
  Node3 [label="pip._internal.network.cache.\lSafeFileCache.set",height=0.2,width=0.4,color="black", fillcolor="white", style="filled",URL="$d6/db2/classpip_1_1__internal_1_1network_1_1cache_1_1_safe_file_cache.html#a34ad2a642c27b2833057d791ddc4ec0f",tooltip=" "];
  Node3 -> Node4 [color="midnightblue",fontsize="10",style="solid"];
  Node4 [label="pip._internal.network.cache.\lSafeFileCache._get_cache_path",height=0.2,width=0.4,color="black", fillcolor="white", style="filled",URL="$d6/db2/classpip_1_1__internal_1_1network_1_1cache_1_1_safe_file_cache.html#a5fad24a457033ba45859c326f942cee8",tooltip=" "];
  Node3 -> Node5 [color="midnightblue",fontsize="10",style="solid"];
  Node5 [label="pip._internal.utils.filesystem.adjacent\l_tmp_file",height=0.2,width=0.4,color="black", fillcolor="white", style="filled",URL="$d5/d03/namespacepip_1_1__internal_1_1utils_1_1filesystem.html#af6a30fa4ef160d77dda9567be561615b",tooltip=" "];
  Node5 -> Node6 [color="midnightblue",fontsize="10",style="solid"];
  Node6 [label="pip._internal.utils.typing.cast",height=0.2,width=0.4,color="black", fillcolor="white", style="filled",URL="$d9/d56/namespacepip_1_1__internal_1_1utils_1_1typing.html#ab37e3e9039b01929d8ac2bd74d7c37db",tooltip=" "];
  Node3 -> Node7 [color="midnightblue",fontsize="10",style="solid"];
  Node7 [label="pip._internal.utils.misc.ensure_dir",height=0.2,width=0.4,color="black", fillcolor="white", style="filled",URL="$de/dc3/namespacepip_1_1__internal_1_1utils_1_1misc.html#afaf6195b8068b1a08c9b6bb51384b7d0",tooltip=" "];
  Node3 -> Node8 [color="midnightblue",fontsize="10",style="solid"];
  Node8 [label="pip._internal.network.cache.suppressed\l_cache_errors",height=0.2,width=0.4,color="black", fillcolor="white", style="filled",URL="$d6/d3c/namespacepip_1_1__internal_1_1network_1_1cache.html#a9f176df75f4d12bd9d53d7bb66ea610d",tooltip=" "];
  Node1 -> Node9 [color="midnightblue",fontsize="10",style="solid"];
  Node9 [label="pip._vendor.cachecontrol.cache.\lBaseCache.set",height=0.2,width=0.4,color="black", fillcolor="white", style="filled",URL="$da/d8a/classpip_1_1__vendor_1_1cachecontrol_1_1cache_1_1_base_cache.html#aa36247ddf4e818de3a025bcc3170145c",tooltip=" "];
  Node1 -> Node10 [color="midnightblue",fontsize="10",style="solid"];
  Node10 [label="pip._vendor.cachecontrol.cache.\lDictCache.set",height=0.2,width=0.4,color="black", fillcolor="white", style="filled",URL="$da/d77/classpip_1_1__vendor_1_1cachecontrol_1_1cache_1_1_dict_cache.html#a9b5614f237eb177116da66a9c12bf63d",tooltip=" "];
  Node1 -> Node11 [color="midnightblue",fontsize="10",style="solid"];
  Node11 [label="pip._vendor.cachecontrol.caches.file\l_cache.FileCache.set",height=0.2,width=0.4,color="black", fillcolor="white", style="filled",URL="$d4/d5e/classpip_1_1__vendor_1_1cachecontrol_1_1caches_1_1file__cache_1_1_file_cache.html#a7cd74c84895c0914d0561d7ad47a9288",tooltip=" "];
  Node11 -> Node12 [color="midnightblue",fontsize="10",style="solid"];
  Node12 [label="pip._vendor.cachecontrol.caches.file\l_cache.FileCache._fn",height=0.2,width=0.4,color="black", fillcolor="white", style="filled",URL="$d4/d5e/classpip_1_1__vendor_1_1cachecontrol_1_1caches_1_1file__cache_1_1_file_cache.html#acc032338fee1e604f8e74c43b836a045",tooltip=" "];
  Node12 -> Node13 [color="midnightblue",fontsize="10",style="solid"];
  Node13 [label="pip._vendor.cachecontrol.caches.file\l_cache.FileCache.encode",height=0.2,width=0.4,color="black", fillcolor="white", style="filled",URL="$d4/d5e/classpip_1_1__vendor_1_1cachecontrol_1_1caches_1_1file__cache_1_1_file_cache.html#a332cb83da1e988931abc75e2634718de",tooltip=" "];
  Node11 -> Node14 [color="midnightblue",fontsize="10",style="solid"];
  Node14 [label="pip._vendor.cachecontrol.caches.file\l_cache._secure_open_write",height=0.2,width=0.4,color="black", fillcolor="white", style="filled",URL="$d9/d6d/namespacepip_1_1__vendor_1_1cachecontrol_1_1caches_1_1file__cache.html#ab860c281550303840d78f88aa8bc66f8",tooltip=" "];
  Node1 -> Node15 [color="midnightblue",fontsize="10",style="solid"];
  Node15 [label="pip._vendor.cachecontrol.caches.redis\l_cache.RedisCache.set",height=0.2,width=0.4,color="black", fillcolor="white", style="filled",URL="$dd/d2e/classpip_1_1__vendor_1_1cachecontrol_1_1caches_1_1redis__cache_1_1_redis_cache.html#a3f3a9ca3c48de65c314cabb497e403de",tooltip=" "];
  Node1 -> Node16 [color="midnightblue",fontsize="10",style="solid"];
  Node16 [label="pip._vendor.distlib.metadata.\lLegacyMetadata.set",height=0.2,width=0.4,color="black", fillcolor="white", style="filled",URL="$d3/dc5/classpip_1_1__vendor_1_1distlib_1_1metadata_1_1_legacy_metadata.html#a2c135b8e7ca6361e1ebb6506e0fc5070",tooltip=" "];
  Node16 -> Node2 [color="midnightblue",fontsize="10",style="solid"];
  Node16 -> Node17 [color="midnightblue",fontsize="10",style="solid"];
  Node17 [label="pip._vendor.distlib.metadata.\lLegacyMetadata._remove_line_prefix",height=0.2,width=0.4,color="black", fillcolor="white", style="filled",URL="$d3/dc5/classpip_1_1__vendor_1_1distlib_1_1metadata_1_1_legacy_metadata.html#ad2256295cc8040fbec624eb2579b1a60",tooltip=" "];
  Node16 -> Node18 [color="midnightblue",fontsize="10",style="solid"];
  Node18 [label="pip._internal.locations.get\l_scheme",height=0.2,width=0.4,color="black", fillcolor="white", style="filled",URL="$de/d72/namespacepip_1_1__internal_1_1locations.html#a033d0dec4e7c8e60e1c7fc80e5e9e5c7",tooltip=" "];
  Node18 -> Node19 [color="midnightblue",fontsize="10",style="solid"];
  Node19 [label="pip._internal.locations.distutils\l_scheme",height=0.2,width=0.4,color="black", fillcolor="white", style="filled",URL="$de/d72/namespacepip_1_1__internal_1_1locations.html#a493ff7bf913296f3847c31eb484c440b",tooltip=" "];
  Node19 -> Node6 [color="midnightblue",fontsize="10",style="solid"];
  Node19 -> Node20 [color="midnightblue",fontsize="10",style="solid"];
  Node20 [label="pip._internal.locations.get\l_major_minor_version",height=0.2,width=0.4,color="black", fillcolor="white", style="filled",URL="$de/d72/namespacepip_1_1__internal_1_1locations.html#a9ea9af63bf94402c511cccc9648693d5",tooltip=" "];
  Node19 -> Node21 [color="midnightblue",fontsize="10",style="solid"];
  Node21 [label="pip._internal.utils.virtualenv.running\l_under_virtualenv",height=0.2,width=0.4,color="black", fillcolor="white", style="filled",URL="$db/dd1/namespacepip_1_1__internal_1_1utils_1_1virtualenv.html#ace91d91e112c91f1e6cc083f9ffdd73e",tooltip=" "];
  Node21 -> Node22 [color="midnightblue",fontsize="10",style="solid"];
  Node22 [label="pip._internal.utils.virtualenv.\l_running_under_regular_virtualenv",height=0.2,width=0.4,color="black", fillcolor="white", style="filled",URL="$db/dd1/namespacepip_1_1__internal_1_1utils_1_1virtualenv.html#a5b5ff4ff9340970a4ec55f0ef92bfccb",tooltip=" "];
  Node21 -> Node23 [color="midnightblue",fontsize="10",style="solid"];
  Node23 [label="pip._internal.utils.virtualenv.\l_running_under_venv",height=0.2,width=0.4,color="black", fillcolor="white", style="filled",URL="$db/dd1/namespacepip_1_1__internal_1_1utils_1_1virtualenv.html#a26466ba811523fe65d83fb1a6609cc71",tooltip=" "];
}
