digraph "pip._vendor.packaging.specifiers.SpecifierSet.prereleases"
{
 // LATEX_PDF_SIZE
  edge [fontname="Helvetica",fontsize="10",labelfontname="Helvetica",labelfontsize="10"];
  node [fontname="Helvetica",fontsize="10",shape=record];
  rankdir="LR";
  Node1 [label="pip._vendor.packaging.specifiers.\lSpecifierSet.prereleases",height=0.2,width=0.4,color="black", fillcolor="grey75", style="filled", fontcolor="black",tooltip=" "];
  Node1 -> Node2 [color="midnightblue",fontsize="10",style="solid",fontname="Helvetica"];
  Node2 [label="pip._vendor.packaging.specifiers.\lSpecifierSet.prereleases",height=0.2,width=0.4,color="black", fillcolor="white", style="filled",URL="$d5/d11/classpip_1_1__vendor_1_1packaging_1_1specifiers_1_1_specifier_set.html#a64a8311d1efa785d3c03baf9b8f055a6",tooltip=" "];
}
