digraph "pip._vendor.packaging.specifiers.SpecifierSet.__contains__"
{
 // LATEX_PDF_SIZE
  edge [fontname="Helvetica",fontsize="10",labelfontname="Helvetica",labelfontsize="10"];
  node [fontname="Helvetica",fontsize="10",shape=record];
  rankdir="LR";
  Node1 [label="pip._vendor.packaging.specifiers.\lSpecifierSet.__contains__",height=0.2,width=0.4,color="black", fillcolor="grey75", style="filled", fontcolor="black",tooltip=" "];
  Node1 -> Node2 [color="midnightblue",fontsize="10",style="solid",fontname="Helvetica"];
  Node2 [label="pip._vendor.packaging.specifiers.\lBaseSpecifier.contains",height=0.2,width=0.4,color="black", fillcolor="white", style="filled",URL="$df/d1d/classpip_1_1__vendor_1_1packaging_1_1specifiers_1_1_base_specifier.html#ab28c7761dc0c75d14908c262d6da9c6e",tooltip=" "];
}
