digraph "pip._internal.req.req_uninstall.uninstallation_paths"
{
 // LATEX_PDF_SIZE
  edge [fontname="Helvetica",fontsize="10",labelfontname="Helvetica",labelfontsize="10"];
  node [fontname="Helvetica",fontsize="10",shape=record];
  rankdir="RL";
  Node1 [label="pip._internal.req.req\l_uninstall.uninstallation_paths",height=0.2,width=0.4,color="black", fillcolor="grey75", style="filled", fontcolor="black",tooltip=" "];
  Node1 -> Node2 [dir="back",color="midnightblue",fontsize="10",style="solid",fontname="Helvetica"];
  Node2 [label="pip._internal.req.req\l_uninstall.UninstallPathSet.from_dist",height=0.2,width=0.4,color="black", fillcolor="white", style="filled",URL="$d9/d6e/classpip_1_1__internal_1_1req_1_1req__uninstall_1_1_uninstall_path_set.html#afbdb919bc42ea8071352e36ddd4fa259",tooltip=" "];
}
