digraph "pip._vendor.colorama.winterm.WinTerm.set_attrs"
{
 // LATEX_PDF_SIZE
  edge [fontname="Helvetica",fontsize="10",labelfontname="Helvetica",labelfontsize="10"];
  node [fontname="Helvetica",fontsize="10",shape=record];
  rankdir="RL";
  Node1 [label="pip._vendor.colorama.winterm.\lWinTerm.set_attrs",height=0.2,width=0.4,color="black", fillcolor="grey75", style="filled", fontcolor="black",tooltip=" "];
  Node1 -> Node2 [dir="back",color="midnightblue",fontsize="10",style="solid"];
  Node2 [label="pip._vendor.colorama.winterm.\lWinTerm.reset_all",height=0.2,width=0.4,color="black", fillcolor="white", style="filled",URL="$dc/da2/classpip_1_1__vendor_1_1colorama_1_1winterm_1_1_win_term.html#af53ae83a27b56b68e836232f04b3b662",tooltip=" "];
}
