digraph "pip._vendor.colorama.winterm.WinTerm.fore"
{
 // LATEX_PDF_SIZE
  edge [fontname="Helvetica",fontsize="10",labelfontname="Helvetica",labelfontsize="10"];
  node [fontname="Helvetica",fontsize="10",shape=record];
  rankdir="LR";
  Node1 [label="pip._vendor.colorama.winterm.\lWinTerm.fore",height=0.2,width=0.4,color="black", fillcolor="grey75", style="filled", fontcolor="black",tooltip=" "];
  Node1 -> Node2 [color="midnightblue",fontsize="10",style="solid"];
  Node2 [label="pip._vendor.colorama.winterm.\lWinTerm.set_console",height=0.2,width=0.4,color="black", fillcolor="white", style="filled",URL="$dc/da2/classpip_1_1__vendor_1_1colorama_1_1winterm_1_1_win_term.html#aff86d68f751bbf947258b6c527a6271f",tooltip=" "];
  Node2 -> Node3 [color="midnightblue",fontsize="10",style="solid"];
  Node3 [label="pip._vendor.colorama.winterm.\lWinTerm.get_attrs",height=0.2,width=0.4,color="black", fillcolor="white", style="filled",URL="$dc/da2/classpip_1_1__vendor_1_1colorama_1_1winterm_1_1_win_term.html#a582393beba4696c10b871c4993421291",tooltip=" "];
}
