digraph "pip._internal.commands.install.get_lib_location_guesses"
{
 // LATEX_PDF_SIZE
  edge [fontname="Helvetica",fontsize="10",labelfontname="Helvetica",labelfontsize="10"];
  node [fontname="Helvetica",fontsize="10",shape=record];
  rankdir="RL";
  Node1 [label="pip._internal.commands.install.get\l_lib_location_guesses",height=0.2,width=0.4,color="black", fillcolor="grey75", style="filled", fontcolor="black",tooltip=" "];
  Node1 -> Node2 [dir="back",color="midnightblue",fontsize="10",style="solid"];
  Node2 [label="pip._internal.commands.install.\lInstallCommand.run",height=0.2,width=0.4,color="black", fillcolor="white", style="filled",URL="$d2/dff/classpip_1_1__internal_1_1commands_1_1install_1_1_install_command.html#aed853149716837d308440b8e2405a75c",tooltip=" "];
  Node1 -> Node3 [dir="back",color="midnightblue",fontsize="10",style="solid"];
  Node3 [label="pip._internal.commands.install.site\l_packages_writable",height=0.2,width=0.4,color="black", fillcolor="white", style="filled",URL="$de/d2d/namespacepip_1_1__internal_1_1commands_1_1install.html#a87f089b2093e9491988ded8dc6856094",tooltip=" "];
  Node3 -> Node4 [dir="back",color="midnightblue",fontsize="10",style="solid"];
  Node4 [label="pip._internal.commands.install.decide\l_user_install",height=0.2,width=0.4,color="black", fillcolor="white", style="filled",URL="$de/d2d/namespacepip_1_1__internal_1_1commands_1_1install.html#a5faf0a1e96c7f3eea286a49dab70bd26",tooltip=" "];
  Node4 -> Node2 [dir="back",color="midnightblue",fontsize="10",style="solid"];
}
