digraph "pip._internal.commands.install.site_packages_writable"
{
 // LATEX_PDF_SIZE
  edge [fontname="Helvetica",fontsize="10",labelfontname="Helvetica",labelfontsize="10"];
  node [fontname="Helvetica",fontsize="10",shape=record];
  rankdir="LR";
  Node1 [label="pip._internal.commands.install.site\l_packages_writable",height=0.2,width=0.4,color="black", fillcolor="grey75", style="filled", fontcolor="black",tooltip=" "];
  Node1 -> Node2 [color="midnightblue",fontsize="10",style="solid"];
  Node2 [label="pip._internal.commands.install.get\l_lib_location_guesses",height=0.2,width=0.4,color="black", fillcolor="white", style="filled",URL="$de/d2d/namespacepip_1_1__internal_1_1commands_1_1install.html#a485d254b39d0f88334abbe338a6e2564",tooltip=" "];
  Node2 -> Node3 [color="midnightblue",fontsize="10",style="solid"];
  Node3 [label="pip._internal.locations.distutils\l_scheme",height=0.2,width=0.4,color="black", fillcolor="white", style="filled",URL="$de/d72/namespacepip_1_1__internal_1_1locations.html#a493ff7bf913296f3847c31eb484c440b",tooltip=" "];
  Node3 -> Node4 [color="midnightblue",fontsize="10",style="solid"];
  Node4 [label="pip._internal.utils.typing.cast",height=0.2,width=0.4,color="black", fillcolor="white", style="filled",URL="$d9/d56/namespacepip_1_1__internal_1_1utils_1_1typing.html#ab37e3e9039b01929d8ac2bd74d7c37db",tooltip=" "];
  Node3 -> Node5 [color="midnightblue",fontsize="10",style="solid"];
  Node5 [label="pip._internal.locations.get\l_major_minor_version",height=0.2,width=0.4,color="black", fillcolor="white", style="filled",URL="$de/d72/namespacepip_1_1__internal_1_1locations.html#a9ea9af63bf94402c511cccc9648693d5",tooltip=" "];
  Node3 -> Node6 [color="midnightblue",fontsize="10",style="solid"];
  Node6 [label="pip._internal.utils.virtualenv.running\l_under_virtualenv",height=0.2,width=0.4,color="black", fillcolor="white", style="filled",URL="$db/dd1/namespacepip_1_1__internal_1_1utils_1_1virtualenv.html#ace91d91e112c91f1e6cc083f9ffdd73e",tooltip=" "];
  Node6 -> Node7 [color="midnightblue",fontsize="10",style="solid"];
  Node7 [label="pip._internal.utils.virtualenv.\l_running_under_regular_virtualenv",height=0.2,width=0.4,color="black", fillcolor="white", style="filled",URL="$db/dd1/namespacepip_1_1__internal_1_1utils_1_1virtualenv.html#a5b5ff4ff9340970a4ec55f0ef92bfccb",tooltip=" "];
  Node6 -> Node8 [color="midnightblue",fontsize="10",style="solid"];
  Node8 [label="pip._internal.utils.virtualenv.\l_running_under_venv",height=0.2,width=0.4,color="black", fillcolor="white", style="filled",URL="$db/dd1/namespacepip_1_1__internal_1_1utils_1_1virtualenv.html#a26466ba811523fe65d83fb1a6609cc71",tooltip=" "];
  Node1 -> Node9 [color="midnightblue",fontsize="10",style="solid"];
  Node9 [label="pip._internal.utils.filesystem.test\l_writable_dir",height=0.2,width=0.4,color="black", fillcolor="white", style="filled",URL="$d5/d03/namespacepip_1_1__internal_1_1utils_1_1filesystem.html#ab4b48e29720e8a72eeffe9fbbe7a8ea3",tooltip=" "];
  Node9 -> Node10 [color="midnightblue",fontsize="10",style="solid"];
  Node10 [label="pip._internal.utils.filesystem.\l_test_writable_dir_win",height=0.2,width=0.4,color="black", fillcolor="white", style="filled",URL="$d5/d03/namespacepip_1_1__internal_1_1utils_1_1filesystem.html#afbc44a3b1313d145580a66373cc53604",tooltip=" "];
}
