digraph "pip._vendor.distlib.metadata.Metadata.provides"
{
 // LATEX_PDF_SIZE
  edge [fontname="Helvetica",fontsize="10",labelfontname="Helvetica",labelfontsize="10"];
  node [fontname="Helvetica",fontsize="10",shape=record];
  rankdir="LR";
  Node1 [label="pip._vendor.distlib.metadata.\lMetadata.provides",height=0.2,width=0.4,color="black", fillcolor="grey75", style="filled", fontcolor="black",tooltip=" "];
  Node1 -> Node2 [color="midnightblue",fontsize="10",style="solid"];
  Node2 [label="pip._vendor.distlib.metadata.\lMetadata.provides",height=0.2,width=0.4,color="black", fillcolor="white", style="filled",URL="$d3/df6/classpip_1_1__vendor_1_1distlib_1_1metadata_1_1_metadata.html#a700307186309aa299c50bbe7515cb58d",tooltip=" "];
  Node2 -> Node3 [color="midnightblue",fontsize="10",style="solid"];
  Node3 [label="pip._internal.network.lazy\l_wheel.LazyZipOverHTTP.name",height=0.2,width=0.4,color="black", fillcolor="white", style="filled",URL="$df/d67/classpip_1_1__internal_1_1network_1_1lazy__wheel_1_1_lazy_zip_over_h_t_t_p.html#a31eea23b50360a3d64d5330d6314d390",tooltip=" "];
  Node2 -> Node4 [color="midnightblue",fontsize="10",style="solid"];
  Node4 [label="pip._internal.req.req\l_install.InstallRequirement.name",height=0.2,width=0.4,color="black", fillcolor="white", style="filled",URL="$d2/daa/classpip_1_1__internal_1_1req_1_1req__install_1_1_install_requirement.html#ae25bc5c04323ecc6d32fb29cfdb473cd",tooltip=" "];
  Node4 -> Node5 [color="midnightblue",fontsize="10",style="solid"];
  Node5 [label="pkg_resources.safe_name",height=0.2,width=0.4,color="black", fillcolor="white", style="filled",URL="$d0/de1/namespacepkg__resources.html#a9635d106e0984b74bbcd80646e7a7384",tooltip=" "];
  Node2 -> Node6 [color="midnightblue",fontsize="10",style="solid"];
  Node6 [label="pip._internal.resolution.resolvelib.base.\lRequirement.name",height=0.2,width=0.4,color="black", fillcolor="white", style="filled",URL="$d7/d6d/classpip_1_1__internal_1_1resolution_1_1resolvelib_1_1base_1_1_requirement.html#a21e4edd1c8aa5ce147a3399bf3c8d7b0",tooltip=" "];
  Node2 -> Node7 [color="midnightblue",fontsize="10",style="solid"];
  Node7 [label="pip._internal.resolution.resolvelib.base.\lCandidate.name",height=0.2,width=0.4,color="black", fillcolor="white", style="filled",URL="$db/d18/classpip_1_1__internal_1_1resolution_1_1resolvelib_1_1base_1_1_candidate.html#a8b39f3d3af882944335121c05d86da76",tooltip=" "];
  Node2 -> Node8 [color="midnightblue",fontsize="10",style="solid"];
  Node8 [label="pip._internal.resolution.resolvelib.candidates.\l_InstallRequirementBackedCandidate.name",height=0.2,width=0.4,color="black", fillcolor="white", style="filled",URL="$dc/d03/classpip_1_1__internal_1_1resolution_1_1resolvelib_1_1candidates_1_1___install_requirement_backed_candidate.html#a9fe3d0379250da42bc610a688f43ca84",tooltip=" "];
  Node8 -> Node9 [color="midnightblue",fontsize="10",style="solid"];
  Node9 [label="pip._vendor.packaging.utils.canonicalize_name",height=0.2,width=0.4,color="black", fillcolor="white", style="filled",URL="$dc/da8/namespacepip_1_1__vendor_1_1packaging_1_1utils.html#af20daae928523ea0ae9d2c4215887232",tooltip=" "];
  Node9 -> Node10 [color="midnightblue",fontsize="10",style="solid"];
  Node10 [label="pip._internal.utils.typing.cast",height=0.2,width=0.4,color="black", fillcolor="white", style="filled",URL="$d9/d56/namespacepip_1_1__internal_1_1utils_1_1typing.html#ab37e3e9039b01929d8ac2bd74d7c37db",tooltip=" "];
  Node8 -> Node11 [color="midnightblue",fontsize="10",style="solid"];
  Node11 [label="pip._internal.resolution.resolvelib.candidates.\l_InstallRequirementBackedCandidate.dist",height=0.2,width=0.4,color="black", fillcolor="white", style="filled",URL="$dc/d03/classpip_1_1__internal_1_1resolution_1_1resolvelib_1_1candidates_1_1___install_requirement_backed_candidate.html#aa6d5af80d994f28e44534ad4a73dbb23",tooltip=" "];
  Node11 -> Node12 [color="midnightblue",fontsize="10",style="solid"];
  Node12 [label="pip._internal.resolution.resolvelib.candidates.\l_InstallRequirementBackedCandidate.\l_fetch_metadata",height=0.2,width=0.4,color="red", fillcolor="white", style="filled",URL="$dc/d03/classpip_1_1__internal_1_1resolution_1_1resolvelib_1_1candidates_1_1___install_requirement_backed_candidate.html#a1e35381549cf5ffbb5c0ec7cb0c3104a",tooltip=" "];
  Node2 -> Node19 [color="midnightblue",fontsize="10",style="solid"];
  Node19 [label="pip._internal.resolution.resolvelib.candidates.\lExtrasCandidate.name",height=0.2,width=0.4,color="black", fillcolor="white", style="filled",URL="$d8/df7/classpip_1_1__internal_1_1resolution_1_1resolvelib_1_1candidates_1_1_extras_candidate.html#ab104c8ed5e2140f11c0fb3710df3d894",tooltip=" "];
  Node19 -> Node20 [color="midnightblue",fontsize="10",style="solid"];
  Node20 [label="pip._internal.resolution.resolvelib.base.format_name",height=0.2,width=0.4,color="black", fillcolor="white", style="filled",URL="$d3/d4e/namespacepip_1_1__internal_1_1resolution_1_1resolvelib_1_1base.html#a03d5f77c5d1f6d77e233b12048de5090",tooltip=" "];
  Node20 -> Node9 [color="midnightblue",fontsize="10",style="solid"];
  Node2 -> Node21 [color="midnightblue",fontsize="10",style="solid"];
  Node21 [label="pip._internal.resolution.resolvelib.candidates.\lRequiresPythonCandidate.name",height=0.2,width=0.4,color="black", fillcolor="white", style="filled",URL="$db/d0a/classpip_1_1__internal_1_1resolution_1_1resolvelib_1_1candidates_1_1_requires_python_candidate.html#a87ea7115222bbaecd819bb1489001390",tooltip=" "];
  Node2 -> Node22 [color="midnightblue",fontsize="10",style="solid"];
  Node22 [label="pip._internal.resolution.resolvelib.requirements.\lExplicitRequirement.name",height=0.2,width=0.4,color="black", fillcolor="white", style="filled",URL="$d3/d28/classpip_1_1__internal_1_1resolution_1_1resolvelib_1_1requirements_1_1_explicit_requirement.html#a7250c5e2ac7d7b9c99a42010a3dd1672",tooltip=" "];
  Node2 -> Node23 [color="midnightblue",fontsize="10",style="solid"];
  Node23 [label="pip._internal.resolution.resolvelib.requirements.\lSpecifierRequirement.name",height=0.2,width=0.4,color="black", fillcolor="white", style="filled",URL="$d5/dce/classpip_1_1__internal_1_1resolution_1_1resolvelib_1_1requirements_1_1_specifier_requirement.html#aaaa3c28411b40380615948c7514a571f",tooltip=" "];
  Node23 -> Node9 [color="midnightblue",fontsize="10",style="solid"];
  Node23 -> Node20 [color="midnightblue",fontsize="10",style="solid"];
  Node2 -> Node24 [color="midnightblue",fontsize="10",style="solid"];
  Node24 [label="pip._internal.resolution.resolvelib.requirements.\lRequiresPythonRequirement.name",height=0.2,width=0.4,color="black", fillcolor="white", style="filled",URL="$d1/de6/classpip_1_1__internal_1_1resolution_1_1resolvelib_1_1requirements_1_1_requires_python_requirement.html#ae36a1400c3104266be475185164c30e2",tooltip=" "];
  Node2 -> Node25 [color="midnightblue",fontsize="10",style="solid"];
  Node25 [label="pip._vendor.distro.Linux\lDistribution.name",height=0.2,width=0.4,color="black", fillcolor="white", style="filled",URL="$db/dc1/classpip_1_1__vendor_1_1distro_1_1_linux_distribution.html#a7bbcbb9f1bf561b231f594b5bb251dbc",tooltip=" "];
  Node25 -> Node26 [color="midnightblue",fontsize="10",style="solid"];
  Node26 [label="pip._vendor.distro.Linux\lDistribution.distro_release_attr",height=0.2,width=0.4,color="black", fillcolor="white", style="filled",URL="$db/dc1/classpip_1_1__vendor_1_1distro_1_1_linux_distribution.html#a783e432baf3c43e5c59d94715abe882d",tooltip=" "];
  Node26 -> Node27 [color="midnightblue",fontsize="10",style="solid"];
  Node27 [label="pip._vendor.distro.Linux\lDistribution._distro_release_info",height=0.2,width=0.4,color="red", fillcolor="white", style="filled",URL="$db/dc1/classpip_1_1__vendor_1_1distro_1_1_linux_distribution.html#a0455782d9bf0abff28527e1cc22af86e",tooltip=" "];
  Node26 -> Node30 [color="midnightblue",fontsize="10",style="solid"];
  Node30 [label="pip._vendor.requests.api.get",height=0.2,width=0.4,color="red", fillcolor="white", style="filled",URL="$de/db5/namespacepip_1_1__vendor_1_1requests_1_1api.html#af14e54be255a4489da5fa7e07a48cc63",tooltip=" "];
  Node25 -> Node32 [color="midnightblue",fontsize="10",style="solid"];
  Node32 [label="pip._vendor.distro.Linux\lDistribution.lsb_release_attr",height=0.2,width=0.4,color="black", fillcolor="white", style="filled",URL="$db/dc1/classpip_1_1__vendor_1_1distro_1_1_linux_distribution.html#a2fb20b28b68f25e4868e8d4b517bb710",tooltip=" "];
  Node32 -> Node33 [color="midnightblue",fontsize="10",style="solid"];
  Node33 [label="pip._vendor.distro.Linux\lDistribution._lsb_release_info",height=0.2,width=0.4,color="red", fillcolor="white", style="filled",URL="$db/dc1/classpip_1_1__vendor_1_1distro_1_1_linux_distribution.html#a0cbc9117e4ae04e173d26260d517dea1",tooltip=" "];
  Node32 -> Node30 [color="midnightblue",fontsize="10",style="solid"];
  Node25 -> Node36 [color="midnightblue",fontsize="10",style="solid"];
  Node36 [label="pip._vendor.distro.Linux\lDistribution.os_release_attr",height=0.2,width=0.4,color="black", fillcolor="white", style="filled",URL="$db/dc1/classpip_1_1__vendor_1_1distro_1_1_linux_distribution.html#a2c980e7f2faf33563d32e0a0b1309cfa",tooltip=" "];
  Node36 -> Node37 [color="midnightblue",fontsize="10",style="solid"];
  Node37 [label="pip._vendor.distro.Linux\lDistribution._os_release_info",height=0.2,width=0.4,color="red", fillcolor="white", style="filled",URL="$db/dc1/classpip_1_1__vendor_1_1distro_1_1_linux_distribution.html#a9e99d08a1ee6d485377d8a6f72c5fca9",tooltip=" "];
  Node36 -> Node30 [color="midnightblue",fontsize="10",style="solid"];
  Node25 -> Node39 [color="midnightblue",fontsize="10",style="solid"];
  Node39 [label="pip._vendor.distro.Linux\lDistribution.uname_attr",height=0.2,width=0.4,color="red", fillcolor="white", style="filled",URL="$db/dc1/classpip_1_1__vendor_1_1distro_1_1_linux_distribution.html#a82939a6850962797338a64083a30a2ec",tooltip=" "];
  Node39 -> Node30 [color="midnightblue",fontsize="10",style="solid"];
  Node25 -> Node42 [color="midnightblue",fontsize="10",style="solid"];
  Node42 [label="pip._internal.resolution.resolvelib.base.\lCandidate.version",height=0.2,width=0.4,color="black", fillcolor="white", style="filled",URL="$db/d18/classpip_1_1__internal_1_1resolution_1_1resolvelib_1_1base_1_1_candidate.html#a3438563e0acd16869e50ac3b3f0e754c",tooltip=" "];
  Node25 -> Node43 [color="midnightblue",fontsize="10",style="solid"];
  Node43 [label="pip._internal.resolution.resolvelib.candidates.\l_InstallRequirementBackedCandidate.version",height=0.2,width=0.4,color="black", fillcolor="white", style="filled",URL="$dc/d03/classpip_1_1__internal_1_1resolution_1_1resolvelib_1_1candidates_1_1___install_requirement_backed_candidate.html#a84e4b295977cbe12099db867a3c182dd",tooltip=" "];
  Node43 -> Node11 [color="midnightblue",fontsize="10",style="solid"];
  Node25 -> Node44 [color="midnightblue",fontsize="10",style="solid"];
  Node44 [label="pip._internal.resolution.resolvelib.candidates.\lExtrasCandidate.version",height=0.2,width=0.4,color="black", fillcolor="white", style="filled",URL="$d8/df7/classpip_1_1__internal_1_1resolution_1_1resolvelib_1_1candidates_1_1_extras_candidate.html#a022f947eaaa0ed18ed6dc2d295117d01",tooltip=" "];
  Node25 -> Node45 [color="midnightblue",fontsize="10",style="solid"];
  Node45 [label="pip._internal.resolution.resolvelib.candidates.\lRequiresPythonCandidate.version",height=0.2,width=0.4,color="black", fillcolor="white", style="filled",URL="$db/d0a/classpip_1_1__internal_1_1resolution_1_1resolvelib_1_1candidates_1_1_requires_python_candidate.html#af16bb188496e6e10928c39b856dc7da1",tooltip=" "];
  Node25 -> Node46 [color="midnightblue",fontsize="10",style="solid"];
  Node46 [label="pip._vendor.distro.Linux\lDistribution.version",height=0.2,width=0.4,color="black", fillcolor="white", style="filled",URL="$db/dc1/classpip_1_1__vendor_1_1distro_1_1_linux_distribution.html#a0c37e11aca02766e25025a395c09dd8b",tooltip=" "];
  Node46 -> Node29 [color="midnightblue",fontsize="10",style="solid"];
  Node29 [label="pip._vendor.distro.Linux\lDistribution._parse_distro\l_release_content",height=0.2,width=0.4,color="black", fillcolor="white", style="filled",URL="$db/dc1/classpip_1_1__vendor_1_1distro_1_1_linux_distribution.html#aa74c8b8f216e13c0f0d81f2b952ed689",tooltip=" "];
  Node46 -> Node47 [color="midnightblue",fontsize="10",style="solid"];
  Node47 [label="pip._vendor.distro.Linux\lDistribution.codename",height=0.2,width=0.4,color="black", fillcolor="white", style="filled",URL="$db/dc1/classpip_1_1__vendor_1_1distro_1_1_linux_distribution.html#a8b01fa5c9b2883dab710ca528927a6d2",tooltip=" "];
  Node47 -> Node37 [color="midnightblue",fontsize="10",style="solid"];
  Node47 -> Node26 [color="midnightblue",fontsize="10",style="solid"];
  Node47 -> Node32 [color="midnightblue",fontsize="10",style="solid"];
  Node46 -> Node26 [color="midnightblue",fontsize="10",style="solid"];
  Node46 -> Node30 [color="midnightblue",fontsize="10",style="solid"];
  Node46 -> Node32 [color="midnightblue",fontsize="10",style="solid"];
  Node46 -> Node36 [color="midnightblue",fontsize="10",style="solid"];
  Node46 -> Node39 [color="midnightblue",fontsize="10",style="solid"];
  Node2 -> Node48 [color="midnightblue",fontsize="10",style="solid"];
  Node48 [label="setuptools.command.egg\l_info.InfoCommon.name",height=0.2,width=0.4,color="black", fillcolor="white", style="filled",URL="$d5/dfc/classsetuptools_1_1command_1_1egg__info_1_1_info_common.html#a13f1532df6e92fbd8ae68eb480808db2",tooltip=" "];
  Node2 -> Node42 [color="midnightblue",fontsize="10",style="solid"];
  Node2 -> Node43 [color="midnightblue",fontsize="10",style="solid"];
  Node2 -> Node44 [color="midnightblue",fontsize="10",style="solid"];
  Node2 -> Node45 [color="midnightblue",fontsize="10",style="solid"];
  Node2 -> Node49 [color="midnightblue",fontsize="10",style="solid"];
  Node49 [label="pip._vendor.ipaddress.\l_IPAddressBase.version",height=0.2,width=0.4,color="black", fillcolor="white", style="filled",URL="$d5/df6/classpip_1_1__vendor_1_1ipaddress_1_1___i_p_address_base.html#a7fd526613a418ef1714a19d3fdf42a7f",tooltip=" "];
  Node2 -> Node50 [color="midnightblue",fontsize="10",style="solid"];
  Node50 [label="pip._vendor.ipaddress.\l_BaseV4.version",height=0.2,width=0.4,color="black", fillcolor="white", style="filled",URL="$db/d56/classpip_1_1__vendor_1_1ipaddress_1_1___base_v4.html#aa5e069619ac5a0f7dfff65e492259a59",tooltip=" "];
  Node2 -> Node51 [color="midnightblue",fontsize="10",style="solid"];
  Node51 [label="pip._vendor.ipaddress.\l_BaseV6.version",height=0.2,width=0.4,color="black", fillcolor="white", style="filled",URL="$de/d9f/classpip_1_1__vendor_1_1ipaddress_1_1___base_v6.html#a016fff0b8a6095d6f3596a31e286d8c0",tooltip=" "];
  Node2 -> Node52 [color="midnightblue",fontsize="10",style="solid"];
  Node52 [label="pip._vendor.packaging.specifiers.\l_IndividualSpecifier.version",height=0.2,width=0.4,color="black", fillcolor="white", style="filled",URL="$d9/d98/classpip_1_1__vendor_1_1packaging_1_1specifiers_1_1___individual_specifier.html#a846a9d6b835dd92b19fb330eb1867b66",tooltip=" "];
  Node2 -> Node53 [color="midnightblue",fontsize="10",style="solid"];
  Node53 [label="pip._vendor.pkg_resources.\lDistribution.version",height=0.2,width=0.4,color="black", fillcolor="white", style="filled",URL="$d0/ddb/classpip_1_1__vendor_1_1pkg__resources_1_1_distribution.html#acd94a7f669ee4fc277245673ea39e748",tooltip=" "];
  Node53 -> Node54 [color="midnightblue",fontsize="10",style="solid"];
  Node54 [label="pip._vendor.pkg_resources.\lDistribution._get_metadata\l_path_for_display",height=0.2,width=0.4,color="black", fillcolor="white", style="filled",URL="$d0/ddb/classpip_1_1__vendor_1_1pkg__resources_1_1_distribution.html#aba4fc46b0e5cc93f732e1a91cca7cb21",tooltip=" "];
  Node53 -> Node55 [color="midnightblue",fontsize="10",style="solid"];
  Node55 [label="pip._vendor.pkg_resources.\lDistribution._get_version",height=0.2,width=0.4,color="red", fillcolor="white", style="filled",URL="$d0/ddb/classpip_1_1__vendor_1_1pkg__resources_1_1_distribution.html#acdafee5cecb6b52e9e73bfc4e3624322",tooltip=" "];
  Node2 -> Node139 [color="midnightblue",fontsize="10",style="solid"];
  Node139 [label="pip._vendor.urllib3.contrib.pyopenssl.\lWrappedSocket.version",height=0.2,width=0.4,color="black", fillcolor="white", style="filled",URL="$d3/d95/classpip_1_1__vendor_1_1urllib3_1_1contrib_1_1pyopenssl_1_1_wrapped_socket.html#a5feafd2bff784708293e180679101471",tooltip=" "];
  Node2 -> Node140 [color="midnightblue",fontsize="10",style="solid"];
  Node140 [label="pip._vendor.urllib3.contrib.securetransport.\lWrappedSocket.version",height=0.2,width=0.4,color="black", fillcolor="white", style="filled",URL="$da/dfd/classpip_1_1__vendor_1_1urllib3_1_1contrib_1_1securetransport_1_1_wrapped_socket.html#af0d3f6b340221cc6e658dab4137b8391",tooltip=" "];
  Node140 -> Node141 [color="midnightblue",fontsize="10",style="solid"];
  Node141 [label="pip._vendor.urllib3.contrib.\l_securetransport.low_level.\l_assert_no_error",height=0.2,width=0.4,color="red", fillcolor="white", style="filled",URL="$d4/d95/namespacepip_1_1__vendor_1_1urllib3_1_1contrib_1_1__securetransport_1_1low__level.html#a502abdd06a7eeff12891eb628ccfad39",tooltip=" "];
  Node2 -> Node143 [color="midnightblue",fontsize="10",style="solid"];
  Node143 [label="pkg_resources.Distribution.version",height=0.2,width=0.4,color="black", fillcolor="white", style="filled",URL="$d8/d25/classpkg__resources_1_1_distribution.html#a454a1c3eae52dee89980a24d7c67f036",tooltip=" "];
  Node143 -> Node54 [color="midnightblue",fontsize="10",style="solid"];
  Node143 -> Node144 [color="midnightblue",fontsize="10",style="solid"];
  Node144 [label="pkg_resources.Distribution.\l_get_metadata_path_for_display",height=0.2,width=0.4,color="black", fillcolor="white", style="filled",URL="$d8/d25/classpkg__resources_1_1_distribution.html#ae95dc33d81faec9fbe8badd55faa0bc9",tooltip=" "];
  Node143 -> Node55 [color="midnightblue",fontsize="10",style="solid"];
  Node143 -> Node145 [color="midnightblue",fontsize="10",style="solid"];
  Node145 [label="pkg_resources.Distribution.\l_get_version",height=0.2,width=0.4,color="red", fillcolor="white", style="filled",URL="$d8/d25/classpkg__resources_1_1_distribution.html#af5dae4847c9577a7d705d347cee0050c",tooltip=" "];
  Node2 -> Node46 [color="midnightblue",fontsize="10",style="solid"];
  Node2 -> Node149 [color="midnightblue",fontsize="10",style="solid"];
  Node149 [label="pkg_resources._vendor.packaging.specifiers.\l_IndividualSpecifier.version",height=0.2,width=0.4,color="black", fillcolor="white", style="filled",URL="$d7/d3d/classpkg__resources_1_1__vendor_1_1packaging_1_1specifiers_1_1___individual_specifier.html#a98ff7bb31634856e5dda863aacbcb98b",tooltip=" "];
  Node2 -> Node150 [color="midnightblue",fontsize="10",style="solid"];
  Node150 [label="setuptools._vendor.packaging.specifiers.\l_IndividualSpecifier.version",height=0.2,width=0.4,color="black", fillcolor="white", style="filled",URL="$d2/dfa/classsetuptools_1_1__vendor_1_1packaging_1_1specifiers_1_1___individual_specifier.html#adbeb1ca50221bae20afba44631b69ea1",tooltip=" "];
}
