digraph "pip._vendor.distlib.metadata.Metadata.dependencies"
{
 // LATEX_PDF_SIZE
  edge [fontname="Helvetica",fontsize="10",labelfontname="Helvetica",labelfontsize="10"];
  node [fontname="Helvetica",fontsize="10",shape=record];
  rankdir="LR";
  Node1 [label="pip._vendor.distlib.metadata.\lMetadata.dependencies",height=0.2,width=0.4,color="black", fillcolor="grey75", style="filled", fontcolor="black",tooltip=" "];
  Node1 -> Node2 [color="midnightblue",fontsize="10",style="solid"];
  Node2 [label="pip._vendor.distlib.metadata.\lMetadata.dependencies",height=0.2,width=0.4,color="black", fillcolor="white", style="filled",URL="$d3/df6/classpip_1_1__vendor_1_1distlib_1_1metadata_1_1_metadata.html#adc47179e053c09b069ed6603156885da",tooltip=" "];
  Node2 -> Node3 [color="midnightblue",fontsize="10",style="solid"];
  Node3 [label="pip._vendor.distlib.util.extract\l_by_key",height=0.2,width=0.4,color="black", fillcolor="white", style="filled",URL="$d6/d99/namespacepip_1_1__vendor_1_1distlib_1_1util.html#aa65967e0833118a2cee1f74742b74cea",tooltip=" "];
}
