digraph "pip._internal.network.download._prepare_download"
{
 // LATEX_PDF_SIZE
  edge [fontname="Helvetica",fontsize="10",labelfontname="Helvetica",labelfontsize="10"];
  node [fontname="Helvetica",fontsize="10",shape=record];
  rankdir="LR";
  Node1 [label="pip._internal.network.download.\l_prepare_download",height=0.2,width=0.4,color="black", fillcolor="grey75", style="filled", fontcolor="black",tooltip=" "];
  Node1 -> Node2 [color="midnightblue",fontsize="10",style="solid",fontname="Helvetica"];
  Node2 [label="pip._internal.network.download.\l_get_http_response_size",height=0.2,width=0.4,color="black", fillcolor="white", style="filled",URL="$d1/d20/namespacepip_1_1__internal_1_1network_1_1download.html#a65f45b08c80a491f89a2903359c2a0b4",tooltip=" "];
  Node1 -> Node3 [color="midnightblue",fontsize="10",style="solid",fontname="Helvetica"];
  Node3 [label="pip._internal.cli.progress\l_bars.DownloadProgressProvider",height=0.2,width=0.4,color="black", fillcolor="white", style="filled",URL="$d9/ddc/namespacepip_1_1__internal_1_1cli_1_1progress__bars.html#aee9848843fbe2f2dbcfc5557c6a24ca5",tooltip=" "];
  Node1 -> Node4 [color="midnightblue",fontsize="10",style="solid",fontname="Helvetica"];
  Node4 [label="pip._internal.utils.misc.format_size",height=0.2,width=0.4,color="black", fillcolor="white", style="filled",URL="$de/dc3/namespacepip_1_1__internal_1_1utils_1_1misc.html#a5539276cb0470f38614f3ca2c19be2e0",tooltip=" "];
  Node1 -> Node5 [color="midnightblue",fontsize="10",style="solid",fontname="Helvetica"];
  Node5 [label="pip._internal.network.cache.is\l_from_cache",height=0.2,width=0.4,color="black", fillcolor="white", style="filled",URL="$d6/d3c/namespacepip_1_1__internal_1_1network_1_1cache.html#af22e8a763fde4ebb78addbedf84be120",tooltip=" "];
  Node1 -> Node6 [color="midnightblue",fontsize="10",style="solid",fontname="Helvetica"];
  Node6 [label="pip._internal.utils.misc.redact\l_auth_from_url",height=0.2,width=0.4,color="black", fillcolor="white", style="filled",URL="$de/dc3/namespacepip_1_1__internal_1_1utils_1_1misc.html#a751f3cb047166ae80782e0d1d7c6c7c7",tooltip=" "];
  Node6 -> Node7 [color="midnightblue",fontsize="10",style="solid",fontname="Helvetica"];
  Node7 [label="pip._internal.utils.misc.\l_transform_url",height=0.2,width=0.4,color="black", fillcolor="white", style="filled",URL="$de/dc3/namespacepip_1_1__internal_1_1utils_1_1misc.html#a575f6e83d31c674204096baf6fdeb4ec",tooltip=" "];
  Node1 -> Node8 [color="midnightblue",fontsize="10",style="solid",fontname="Helvetica"];
  Node8 [label="pip._internal.network.utils.response\l_chunks",height=0.2,width=0.4,color="black", fillcolor="white", style="filled",URL="$da/d80/namespacepip_1_1__internal_1_1network_1_1utils.html#aff35bf7f6ff818f4266eba99001f0f50",tooltip=" "];
}
