digraph "pip._vendor.msgpack.fallback._get_data_from_buffer"
{
 // LATEX_PDF_SIZE
  edge [fontname="Helvetica",fontsize="10",labelfontname="Helvetica",labelfontsize="10"];
  node [fontname="Helvetica",fontsize="10",shape=record];
  rankdir="RL";
  Node1 [label="pip._vendor.msgpack.fallback.\l_get_data_from_buffer",height=0.2,width=0.4,color="black", fillcolor="grey75", style="filled", fontcolor="black",tooltip=" "];
  Node1 -> Node2 [dir="back",color="midnightblue",fontsize="10",style="solid",fontname="Helvetica"];
  Node2 [label="pip._vendor.msgpack.fallback.\lUnpacker.feed",height=0.2,width=0.4,color="black", fillcolor="white", style="filled",URL="$d1/d3d/classpip_1_1__vendor_1_1msgpack_1_1fallback_1_1_unpacker.html#a7a28f68c1e94d76a2412b8b2f54d986a",tooltip=" "];
}
