digraph "pip._vendor.msgpack.fallback.Packer._pack_bin_header"
{
 // LATEX_PDF_SIZE
  edge [fontname="Helvetica",fontsize="10",labelfontname="Helvetica",labelfontsize="10"];
  node [fontname="Helvetica",fontsize="10",shape=record];
  rankdir="LR";
  Node1 [label="pip._vendor.msgpack.fallback.\lPacker._pack_bin_header",height=0.2,width=0.4,color="black", fillcolor="grey75", style="filled", fontcolor="black",tooltip=" "];
  Node1 -> Node2 [color="midnightblue",fontsize="10",style="solid",fontname="Helvetica"];
  Node2 [label="pip._vendor.msgpack.fallback.\lPacker._pack_raw_header",height=0.2,width=0.4,color="black", fillcolor="white", style="filled",URL="$d8/da6/classpip_1_1__vendor_1_1msgpack_1_1fallback_1_1_packer.html#a7e1986516b9e43b702c09cb1d382917a",tooltip=" "];
}
