digraph "pip._internal.req.constructors._get_url_from_path"
{
 // LATEX_PDF_SIZE
  edge [fontname="Helvetica",fontsize="10",labelfontname="Helvetica",labelfontsize="10"];
  node [fontname="Helvetica",fontsize="10",shape=record];
  rankdir="LR";
  Node1 [label="pip._internal.req.constructors.\l_get_url_from_path",height=0.2,width=0.4,color="black", fillcolor="grey75", style="filled", fontcolor="black",tooltip=" "];
  Node1 -> Node2 [color="midnightblue",fontsize="10",style="solid",fontname="Helvetica"];
  Node2 [label="pip._internal.req.constructors.\l_looks_like_path",height=0.2,width=0.4,color="black", fillcolor="white", style="filled",URL="$df/dd2/namespacepip_1_1__internal_1_1req_1_1constructors.html#a95ce5b118c03d61ee7f4482ce9db3415",tooltip=" "];
  Node1 -> Node3 [color="midnightblue",fontsize="10",style="solid",fontname="Helvetica"];
  Node3 [label="pip._internal.req.constructors.is\l_archive_file",height=0.2,width=0.4,color="black", fillcolor="white", style="filled",URL="$df/dd2/namespacepip_1_1__internal_1_1req_1_1constructors.html#ab664d504bab236974a158a88984fe657",tooltip=" "];
  Node3 -> Node4 [color="midnightblue",fontsize="10",style="solid",fontname="Helvetica"];
  Node4 [label="pip._internal.utils.misc.splitext",height=0.2,width=0.4,color="black", fillcolor="white", style="filled",URL="$de/dc3/namespacepip_1_1__internal_1_1utils_1_1misc.html#a6060934981bde6e18b7e138df65640ec",tooltip=" "];
  Node1 -> Node5 [color="midnightblue",fontsize="10",style="solid",fontname="Helvetica"];
  Node5 [label="pip._internal.utils.misc.is\l_installable_dir",height=0.2,width=0.4,color="black", fillcolor="white", style="filled",URL="$de/dc3/namespacepip_1_1__internal_1_1utils_1_1misc.html#aa0a3f4f5231d8f6fe06e209c36e4710f",tooltip=" "];
  Node1 -> Node6 [color="midnightblue",fontsize="10",style="solid",fontname="Helvetica"];
  Node6 [label="pip._internal.utils.urls.path\l_to_url",height=0.2,width=0.4,color="black", fillcolor="white", style="filled",URL="$d7/d48/namespacepip_1_1__internal_1_1utils_1_1urls.html#a789117f8d3114e952ead88416e5493d9",tooltip=" "];
}
