digraph "pip._internal.utils.virtualenv._get_pyvenv_cfg_lines"
{
 // LATEX_PDF_SIZE
  edge [fontname="Helvetica",fontsize="10",labelfontname="Helvetica",labelfontsize="10"];
  node [fontname="Helvetica",fontsize="10",shape=record];
  rankdir="RL";
  Node1 [label="pip._internal.utils.virtualenv.\l_get_pyvenv_cfg_lines",height=0.2,width=0.4,color="black", fillcolor="grey75", style="filled", fontcolor="black",tooltip=" "];
  Node1 -> Node2 [dir="back",color="midnightblue",fontsize="10",style="solid",fontname="Helvetica"];
  Node2 [label="pip._internal.utils.virtualenv.\l_no_global_under_venv",height=0.2,width=0.4,color="black", fillcolor="white", style="filled",URL="$db/dd1/namespacepip_1_1__internal_1_1utils_1_1virtualenv.html#a01ddcaca2e07a3809f2f15270b3cc6a5",tooltip=" "];
  Node2 -> Node3 [dir="back",color="midnightblue",fontsize="10",style="solid",fontname="Helvetica"];
  Node3 [label="pip._internal.utils.virtualenv.virtualenv\l_no_global",height=0.2,width=0.4,color="black", fillcolor="white", style="filled",URL="$db/dd1/namespacepip_1_1__internal_1_1utils_1_1virtualenv.html#a997fd41c824f9d20f4e4083b65fc7759",tooltip=" "];
  Node3 -> Node4 [dir="back",color="midnightblue",fontsize="10",style="solid",fontname="Helvetica"];
  Node4 [label="pip._internal.commands.install.decide\l_user_install",height=0.2,width=0.4,color="black", fillcolor="white", style="filled",URL="$de/d2d/namespacepip_1_1__internal_1_1commands_1_1install.html#a5faf0a1e96c7f3eea286a49dab70bd26",tooltip=" "];
  Node4 -> Node5 [dir="back",color="midnightblue",fontsize="10",style="solid",fontname="Helvetica"];
  Node5 [label="pip._internal.commands.install.\lInstallCommand.run",height=0.2,width=0.4,color="black", fillcolor="white", style="filled",URL="$d2/dff/classpip_1_1__internal_1_1commands_1_1install_1_1_install_command.html#aed853149716837d308440b8e2405a75c",tooltip=" "];
  Node3 -> Node6 [dir="back",color="midnightblue",fontsize="10",style="solid",fontname="Helvetica"];
  Node6 [label="pip._internal.utils.misc.egg\l_link_path",height=0.2,width=0.4,color="black", fillcolor="white", style="filled",URL="$de/dc3/namespacepip_1_1__internal_1_1utils_1_1misc.html#a2b5eaeaef126093e750409c6cd7e06b5",tooltip=" "];
  Node6 -> Node7 [dir="back",color="midnightblue",fontsize="10",style="solid",fontname="Helvetica"];
  Node7 [label="pip._internal.utils.misc.dist\l_location",height=0.2,width=0.4,color="black", fillcolor="white", style="filled",URL="$de/dc3/namespacepip_1_1__internal_1_1utils_1_1misc.html#ae24716bcf1aee5c7c2a48f12ec75e647",tooltip=" "];
  Node7 -> Node8 [dir="back",color="midnightblue",fontsize="10",style="solid",fontname="Helvetica"];
  Node8 [label="pip._internal.utils.misc.dist\l_in_site_packages",height=0.2,width=0.4,color="black", fillcolor="white", style="filled",URL="$de/dc3/namespacepip_1_1__internal_1_1utils_1_1misc.html#a694d1df026fbd09121e544757995f124",tooltip=" "];
  Node8 -> Node9 [dir="back",color="midnightblue",fontsize="10",style="solid",fontname="Helvetica"];
  Node9 [label="pip._internal.req.req\l_install.InstallRequirement.check\l_if_exists",height=0.2,width=0.4,color="black", fillcolor="white", style="filled",URL="$d2/daa/classpip_1_1__internal_1_1req_1_1req__install_1_1_install_requirement.html#a91e74d2f6492c3a460c6f3f78a1018fd",tooltip=" "];
  Node8 -> Node10 [dir="back",color="midnightblue",fontsize="10",style="solid",fontname="Helvetica"];
  Node10 [label="pip._internal.resolution.resolvelib.factory.\lFactory.get_dist_to_uninstall",height=0.2,width=0.4,color="black", fillcolor="white", style="filled",URL="$dc/d3c/classpip_1_1__internal_1_1resolution_1_1resolvelib_1_1factory_1_1_factory.html#a04d4ea3682e6ee177284224d6181e11a",tooltip=" "];
  Node7 -> Node11 [dir="back",color="midnightblue",fontsize="10",style="solid",fontname="Helvetica"];
  Node11 [label="pip._internal.utils.misc.dist\l_in_usersite",height=0.2,width=0.4,color="black", fillcolor="white", style="filled",URL="$de/dc3/namespacepip_1_1__internal_1_1utils_1_1misc.html#ab48a27a21c982133f0bd2c10c7f6c45b",tooltip=" "];
  Node11 -> Node12 [dir="back",color="midnightblue",fontsize="10",style="solid",fontname="Helvetica"];
  Node12 [label="pip._internal.req.req\l_uninstall._script_names",height=0.2,width=0.4,color="black", fillcolor="white", style="filled",URL="$d4/d3c/namespacepip_1_1__internal_1_1req_1_1req__uninstall.html#a2f64735d5d37f896747a71f589a8af51",tooltip=" "];
  Node12 -> Node13 [dir="back",color="midnightblue",fontsize="10",style="solid",fontname="Helvetica"];
  Node13 [label="pip._internal.req.req\l_uninstall.UninstallPathSet.from_dist",height=0.2,width=0.4,color="black", fillcolor="white", style="filled",URL="$d9/d6e/classpip_1_1__internal_1_1req_1_1req__uninstall_1_1_uninstall_path_set.html#afbdb919bc42ea8071352e36ddd4fa259",tooltip=" "];
  Node11 -> Node14 [dir="back",color="midnightblue",fontsize="10",style="solid",fontname="Helvetica"];
  Node14 [label="pip._internal.resolution.legacy.resolver.\lResolver._set_req_to_reinstall",height=0.2,width=0.4,color="black", fillcolor="white", style="filled",URL="$db/d5b/classpip_1_1__internal_1_1resolution_1_1legacy_1_1resolver_1_1_resolver.html#a436fae90bda3beaa8932ed262670757d",tooltip=" "];
  Node14 -> Node15 [dir="back",color="midnightblue",fontsize="10",style="solid",fontname="Helvetica"];
  Node15 [label="pip._internal.resolution.legacy.resolver.\lResolver._check_skip_installed",height=0.2,width=0.4,color="black", fillcolor="white", style="filled",URL="$db/d5b/classpip_1_1__internal_1_1resolution_1_1legacy_1_1resolver_1_1_resolver.html#a1c0aaefecb320aaec6bef4238e912319",tooltip=" "];
  Node15 -> Node16 [dir="back",color="midnightblue",fontsize="10",style="solid",fontname="Helvetica"];
  Node16 [label="pip._internal.resolution.legacy.resolver.\lResolver._get_abstract_dist_for",height=0.2,width=0.4,color="black", fillcolor="white", style="filled",URL="$db/d5b/classpip_1_1__internal_1_1resolution_1_1legacy_1_1resolver_1_1_resolver.html#a39041281732807e110466b3db232eb24",tooltip=" "];
  Node16 -> Node17 [dir="back",color="midnightblue",fontsize="10",style="solid",fontname="Helvetica"];
  Node17 [label="pip._internal.resolution.legacy.resolver.\lResolver._resolve_one",height=0.2,width=0.4,color="black", fillcolor="white", style="filled",URL="$db/d5b/classpip_1_1__internal_1_1resolution_1_1legacy_1_1resolver_1_1_resolver.html#a5058b440022bccc6a3b12041b562a323",tooltip=" "];
  Node17 -> Node18 [dir="back",color="midnightblue",fontsize="10",style="solid",fontname="Helvetica"];
  Node18 [label="pip._internal.resolution.legacy.resolver.\lResolver.resolve",height=0.2,width=0.4,color="black", fillcolor="white", style="filled",URL="$db/d5b/classpip_1_1__internal_1_1resolution_1_1legacy_1_1resolver_1_1_resolver.html#a1321882f40c26aa4b44a693b4be74ae2",tooltip=" "];
  Node18 -> Node19 [dir="back",color="midnightblue",fontsize="10",style="solid",fontname="Helvetica"];
  Node19 [label="pip._vendor.distlib.compat.\lBaseConfigurator.configure_custom",height=0.2,width=0.4,color="black", fillcolor="white", style="filled",URL="$dc/d1f/classpip_1_1__vendor_1_1distlib_1_1compat_1_1_base_configurator.html#a413001393d55f20868bf168573a1ff1d",tooltip=" "];
  Node19 -> Node20 [dir="back",color="midnightblue",fontsize="10",style="solid",fontname="Helvetica"];
  Node20 [label="pip._vendor.distlib.util.\lConfigurator.__getitem__",height=0.2,width=0.4,color="black", fillcolor="white", style="filled",URL="$db/d94/classpip_1_1__vendor_1_1distlib_1_1util_1_1_configurator.html#a3ff695c0521e0edb863bb8e6737adc75",tooltip=" "];
  Node19 -> Node21 [dir="back",color="midnightblue",fontsize="10",style="solid",fontname="Helvetica"];
  Node21 [label="pip._vendor.distlib.util.\lConfigurator.configure_custom",height=0.2,width=0.4,color="black", fillcolor="white", style="filled",URL="$db/d94/classpip_1_1__vendor_1_1distlib_1_1util_1_1_configurator.html#a0d009327a85c6a6843254c1f00907b99",tooltip=" "];
  Node18 -> Node21 [dir="back",color="midnightblue",fontsize="10",style="solid",fontname="Helvetica"];
  Node18 -> Node22 [dir="back",color="midnightblue",fontsize="10",style="solid",fontname="Helvetica"];
  Node22 [label="pip._vendor.distlib.compat.\lBaseConfigurator.ext_convert",height=0.2,width=0.4,color="black", fillcolor="white", style="filled",URL="$dc/d1f/classpip_1_1__vendor_1_1distlib_1_1compat_1_1_base_configurator.html#a99583d9b1713e0e7ed6f5e6024f6146c",tooltip=" "];
  Node18 -> Node23 [dir="back",color="midnightblue",fontsize="10",style="solid",fontname="Helvetica"];
  Node23 [label="pip._vendor.pkg_resources.\lEntryPoint.load",height=0.2,width=0.4,color="black", fillcolor="white", style="filled",URL="$dc/d51/classpip_1_1__vendor_1_1pkg__resources_1_1_entry_point.html#a1dc35c835e4f04102cf03311a85282cf",tooltip=" "];
  Node18 -> Node24 [dir="back",color="midnightblue",fontsize="10",style="solid",fontname="Helvetica"];
  Node24 [label="pkg_resources.EntryPoint.load",height=0.2,width=0.4,color="black", fillcolor="white", style="filled",URL="$de/dfa/classpkg__resources_1_1_entry_point.html#aca40d6504feabd38a326c0d6f51ecb6a",tooltip=" "];
  Node18 -> Node25 [dir="back",color="midnightblue",fontsize="10",style="solid",fontname="Helvetica"];
  Node25 [label="pip._vendor.pkg_resources.\lWorkingSet.require",height=0.2,width=0.4,color="black", fillcolor="white", style="filled",URL="$da/d4f/classpip_1_1__vendor_1_1pkg__resources_1_1_working_set.html#a3e06498f30579d47e25fffe036206a80",tooltip=" "];
  Node25 -> Node23 [dir="back",color="midnightblue",fontsize="10",style="solid",fontname="Helvetica"];
  Node25 -> Node24 [dir="back",color="midnightblue",fontsize="10",style="solid",fontname="Helvetica"];
  Node25 -> Node26 [dir="back",color="midnightblue",fontsize="10",style="solid",fontname="Helvetica"];
  Node26 [label="pip._vendor.pkg_resources.\lWorkingSet.run_script",height=0.2,width=0.4,color="black", fillcolor="white", style="filled",URL="$da/d4f/classpip_1_1__vendor_1_1pkg__resources_1_1_working_set.html#a64f8503c4eb0c05db9faf1bc62c1a21f",tooltip=" "];
  Node25 -> Node27 [dir="back",color="midnightblue",fontsize="10",style="solid",fontname="Helvetica"];
  Node27 [label="pkg_resources.WorkingSet.run\l_script",height=0.2,width=0.4,color="black", fillcolor="white", style="filled",URL="$d5/d96/classpkg__resources_1_1_working_set.html#ab2b93a4b8818042f319d7f9d7d2884bf",tooltip=" "];
  Node18 -> Node28 [dir="back",color="midnightblue",fontsize="10",style="solid",fontname="Helvetica"];
  Node28 [label="pkg_resources.WorkingSet.require",height=0.2,width=0.4,color="black", fillcolor="white", style="filled",URL="$d5/d96/classpkg__resources_1_1_working_set.html#a335262cb577b8fa37a8fa92cff024cf9",tooltip=" "];
  Node28 -> Node24 [dir="back",color="midnightblue",fontsize="10",style="solid",fontname="Helvetica"];
  Node28 -> Node27 [dir="back",color="midnightblue",fontsize="10",style="solid",fontname="Helvetica"];
  Node14 -> Node16 [dir="back",color="midnightblue",fontsize="10",style="solid",fontname="Helvetica"];
  Node11 -> Node9 [dir="back",color="midnightblue",fontsize="10",style="solid",fontname="Helvetica"];
  Node11 -> Node13 [dir="back",color="midnightblue",fontsize="10",style="solid",fontname="Helvetica"];
  Node11 -> Node10 [dir="back",color="midnightblue",fontsize="10",style="solid",fontname="Helvetica"];
  Node7 -> Node29 [dir="back",color="midnightblue",fontsize="10",style="solid",fontname="Helvetica"];
  Node29 [label="pip._internal.utils.misc.dist\l_is_local",height=0.2,width=0.4,color="black", fillcolor="white", style="filled",URL="$de/dc3/namespacepip_1_1__internal_1_1utils_1_1misc.html#a7c49e7eabc2e91684e232ab5a889dbef",tooltip=" "];
  Node29 -> Node13 [dir="back",color="midnightblue",fontsize="10",style="solid",fontname="Helvetica"];
  Node6 -> Node13 [dir="back",color="midnightblue",fontsize="10",style="solid",fontname="Helvetica"];
}
