digraph "pip._vendor.packaging.markers.Op"
{
 // LATEX_PDF_SIZE
  edge [fontname="Helvetica",fontsize="10",labelfontname="Helvetica",labelfontsize="10"];
  node [fontname="Helvetica",fontsize="10",shape=record];
  Node1 [label="{pip._vendor.packaging.markers.Op\n||+ serialize()\l}",height=0.2,width=0.4,color="black", fillcolor="grey75", style="filled", fontcolor="black",tooltip=" "];
  Node2 -> Node1 [dir="back",color="midnightblue",fontsize="10",style="solid",arrowtail="onormal",fontname="Helvetica"];
  Node2 [label="{pip._vendor.packaging.markers.Node\n|+ value\l|+ __init__()\l+ __str__()\l+ __repr__()\l+ serialize()\l}",height=0.2,width=0.4,color="black", fillcolor="white", style="filled",URL="$d8/d41/classpip_1_1__vendor_1_1packaging_1_1markers_1_1_node.html",tooltip=" "];
  Node3 -> Node2 [dir="back",color="midnightblue",fontsize="10",style="solid",arrowtail="onormal",fontname="Helvetica"];
  Node3 [label="{object\n||}",height=0.2,width=0.4,color="grey75", fillcolor="white", style="filled",tooltip=" "];
}
