digraph "_distutils_hack.do_override"
{
 // LATEX_PDF_SIZE
  edge [fontname="Helvetica",fontsize="10",labelfontname="Helvetica",labelfontsize="10"];
  node [fontname="Helvetica",fontsize="10",shape=record];
  rankdir="LR";
  Node1 [label="_distutils_hack.do\l_override",height=0.2,width=0.4,color="black", fillcolor="grey75", style="filled", fontcolor="black",tooltip=" "];
  Node1 -> Node2 [color="midnightblue",fontsize="10",style="solid",fontname="Helvetica"];
  Node2 [label="_distutils_hack.enabled",height=0.2,width=0.4,color="black", fillcolor="white", style="filled",URL="$da/d6a/namespace__distutils__hack.html#ab663f05918d0530087fdd91ff583aa39",tooltip=" "];
  Node1 -> Node3 [color="midnightblue",fontsize="10",style="solid",fontname="Helvetica"];
  Node3 [label="_distutils_hack.ensure\l_local_distutils",height=0.2,width=0.4,color="black", fillcolor="white", style="filled",URL="$da/d6a/namespace__distutils__hack.html#a65ef964befed1f319c1b0c7244caf027",tooltip=" "];
  Node3 -> Node4 [color="midnightblue",fontsize="10",style="solid",fontname="Helvetica"];
  Node4 [label="_distutils_hack.clear\l_distutils",height=0.2,width=0.4,color="black", fillcolor="white", style="filled",URL="$da/d6a/namespace__distutils__hack.html#ac28df4321677f0863bfbb1e2b73c7002",tooltip=" "];
  Node1 -> Node5 [color="midnightblue",fontsize="10",style="solid",fontname="Helvetica"];
  Node5 [label="_distutils_hack.warn\l_distutils_present",height=0.2,width=0.4,color="black", fillcolor="white", style="filled",URL="$da/d6a/namespace__distutils__hack.html#a5da1217b890631529734c429b90eaadd",tooltip=" "];
}
