digraph "pip._vendor.html5lib._inputstream.EncodingParser"
{
 // LATEX_PDF_SIZE
  edge [fontname="Helvetica",fontsize="10",labelfontname="Helvetica",labelfontsize="10"];
  node [fontname="Helvetica",fontsize="10",shape=record];
  Node1 [label="{pip._vendor.html5lib.\l_inputstream.EncodingParser\n|+ data\l+ encoding\l|+ __init__()\l+ getEncoding()\l+ handleComment()\l+ handleMeta()\l+ handlePossibleStartTag()\l+ handlePossibleEndTag()\l+ handlePossibleTag()\l+ handleOther()\l+ getAttribute()\l}",height=0.2,width=0.4,color="black", fillcolor="grey75", style="filled", fontcolor="black",tooltip=" "];
  Node2 -> Node1 [dir="back",color="midnightblue",fontsize="10",style="solid",arrowtail="onormal",fontname="Helvetica"];
  Node2 [label="{object\n||}",height=0.2,width=0.4,color="grey75", fillcolor="white", style="filled",tooltip=" "];
}
