digraph "pip._vendor.distlib.version.is_semver"
{
 // LATEX_PDF_SIZE
  edge [fontname="Helvetica",fontsize="10",labelfontname="Helvetica",labelfontsize="10"];
  node [fontname="Helvetica",fontsize="10",shape=record];
  rankdir="RL";
  Node1 [label="pip._vendor.distlib.version.is\l_semver",height=0.2,width=0.4,color="black", fillcolor="grey75", style="filled", fontcolor="black",tooltip=" "];
  Node1 -> Node2 [dir="back",color="midnightblue",fontsize="10",style="solid",fontname="Helvetica"];
  Node2 [label="pip._vendor.distlib.version.\l_semantic_key",height=0.2,width=0.4,color="black", fillcolor="white", style="filled",URL="$d2/d38/namespacepip_1_1__vendor_1_1distlib_1_1version.html#a2130cbfc351c04729a309ed87d6ae567",tooltip=" "];
  Node2 -> Node3 [dir="back",color="midnightblue",fontsize="10",style="solid",fontname="Helvetica"];
  Node3 [label="pip._vendor.distlib.version.\lSemanticVersion.parse",height=0.2,width=0.4,color="black", fillcolor="white", style="filled",URL="$d9/deb/classpip_1_1__vendor_1_1distlib_1_1version_1_1_semantic_version.html#abded997222e2fbd9641bbe0d333d3b92",tooltip=" "];
  Node3 -> Node4 [dir="back",color="midnightblue",fontsize="10",style="solid",fontname="Helvetica"];
  Node4 [label="setuptools._distutils.version.\lVersion.__init__",height=0.2,width=0.4,color="black", fillcolor="white", style="filled",URL="$dd/de9/classsetuptools_1_1__distutils_1_1version_1_1_version.html#a3ee288ca127d8a189fee3cdc99ed0968",tooltip=" "];
  Node4 -> Node5 [dir="back",color="midnightblue",fontsize="10",style="solid",fontname="Helvetica"];
  Node5 [label="setuptools._vendor.ordered\l_set.OrderedSet.__setstate__",height=0.2,width=0.4,color="black", fillcolor="white", style="filled",URL="$d0/d40/classsetuptools_1_1__vendor_1_1ordered__set_1_1_ordered_set.html#a852740634ccd2e3158b599082cf086de",tooltip=" "];
  Node3 -> Node6 [dir="back",color="midnightblue",fontsize="10",style="solid",fontname="Helvetica"];
  Node6 [label="setuptools._distutils.version.\lLooseVersion.__init__",height=0.2,width=0.4,color="black", fillcolor="white", style="filled",URL="$d6/d60/classsetuptools_1_1__distutils_1_1version_1_1_loose_version.html#a07dc312ca7cc0b5fcbdc615ad76a5eea",tooltip=" "];
  Node6 -> Node5 [dir="back",color="midnightblue",fontsize="10",style="solid",fontname="Helvetica"];
  Node3 -> Node7 [dir="back",color="midnightblue",fontsize="10",style="solid",fontname="Helvetica"];
  Node7 [label="pip._vendor.pkg_resources.\lEntryPoint.parse_group",height=0.2,width=0.4,color="black", fillcolor="white", style="filled",URL="$dc/d51/classpip_1_1__vendor_1_1pkg__resources_1_1_entry_point.html#a7a073b57c2523016366e96901108b1e3",tooltip=" "];
  Node7 -> Node8 [dir="back",color="midnightblue",fontsize="10",style="solid",fontname="Helvetica"];
  Node8 [label="pip._vendor.pkg_resources.\lEntryPoint.parse_map",height=0.2,width=0.4,color="black", fillcolor="white", style="filled",URL="$dc/d51/classpip_1_1__vendor_1_1pkg__resources_1_1_entry_point.html#a49afd2196172292b203587c86ced6b78",tooltip=" "];
  Node7 -> Node9 [dir="back",color="midnightblue",fontsize="10",style="solid",fontname="Helvetica"];
  Node9 [label="pkg_resources.EntryPoint.parse_map",height=0.2,width=0.4,color="black", fillcolor="white", style="filled",URL="$de/dfa/classpkg__resources_1_1_entry_point.html#a925bbccfaed5f41e1f676adb88199afa",tooltip=" "];
  Node9 -> Node10 [dir="back",color="midnightblue",fontsize="10",style="solid",fontname="Helvetica"];
  Node10 [label="setuptools.dist.check\l_entry_points",height=0.2,width=0.4,color="black", fillcolor="white", style="filled",URL="$d0/dbd/namespacesetuptools_1_1dist.html#a392bacff0b7eefe57d55ac19706234c1",tooltip=" "];
  Node3 -> Node11 [dir="back",color="midnightblue",fontsize="10",style="solid",fontname="Helvetica"];
  Node11 [label="pkg_resources.EntryPoint.parse\l_group",height=0.2,width=0.4,color="black", fillcolor="white", style="filled",URL="$de/dfa/classpkg__resources_1_1_entry_point.html#aa6103add7859c9b6e0338b6866fe44ba",tooltip=" "];
  Node11 -> Node9 [dir="back",color="midnightblue",fontsize="10",style="solid",fontname="Helvetica"];
  Node1 -> Node12 [dir="back",color="midnightblue",fontsize="10",style="solid",fontname="Helvetica"];
  Node12 [label="pip._vendor.distlib.version.\l_suggest_semantic_version",height=0.2,width=0.4,color="black", fillcolor="white", style="filled",URL="$d2/d38/namespacepip_1_1__vendor_1_1distlib_1_1version.html#aae568f72fa7eee56358b13059dc59996",tooltip=" "];
}
