digraph "pip._internal.commands.wheel.WheelCommand"
{
 // LATEX_PDF_SIZE
  edge [fontname="Helvetica",fontsize="10",labelfontname="Helvetica",labelfontsize="10"];
  node [fontname="Helvetica",fontsize="10",shape=record];
  Node1 [label="{pip._internal.commands.wheel.\lWheelCommand\n|+ usage\l|+ add_options()\l+ run()\l}",height=0.2,width=0.4,color="black", fillcolor="grey75", style="filled", fontcolor="black",tooltip=" "];
  Node2 -> Node1 [dir="back",color="midnightblue",fontsize="10",style="solid",arrowtail="onormal",fontname="Helvetica"];
  Node2 [label="{pip._internal.cli.req\l_command.RequirementCommand\n||+ __init__()\l+ get_requirements()\l+ make_requirement_preparer()\l+ make_resolver()\l+ trace_basic_info()\l- _build_package_finder()\l}",height=0.2,width=0.4,color="black", fillcolor="white", style="filled",URL="$d4/db3/classpip_1_1__internal_1_1cli_1_1req__command_1_1_requirement_command.html",tooltip=" "];
  Node3 -> Node2 [dir="back",color="midnightblue",fontsize="10",style="solid",arrowtail="onormal",fontname="Helvetica"];
  Node3 [label="{pip._internal.cli.req\l_command.IndexGroupCommand\n||+ handle_pip_version\l_check()\l}",height=0.2,width=0.4,color="black", fillcolor="white", style="filled",URL="$db/d79/classpip_1_1__internal_1_1cli_1_1req__command_1_1_index_group_command.html",tooltip=" "];
  Node4 -> Node3 [dir="back",color="midnightblue",fontsize="10",style="solid",arrowtail="onormal",fontname="Helvetica"];
  Node4 [label="{pip._internal.cli.base\l_command.Command\n|+ name\l+ summary\l+ parser\l+ tempdir_registry\l+ cmd_opts\l+ verbosity\l+ usage\l+ ignore_require_venv\l|+ __init__()\l+ add_options()\l+ handle_pip_version\l_check()\l+ run()\l+ parse_args()\l+ main()\l- _main()\l}",height=0.2,width=0.4,color="black", fillcolor="white", style="filled",URL="$d2/da8/classpip_1_1__internal_1_1cli_1_1base__command_1_1_command.html",tooltip=" "];
  Node5 -> Node4 [dir="back",color="midnightblue",fontsize="10",style="solid",arrowtail="onormal",fontname="Helvetica"];
  Node5 [label="{pip._internal.cli.command\l_context.CommandContextMixIn\n|- _in_main_context\l- _main_context\l|+ __init__()\l+ main_context()\l+ enter_context()\l}",height=0.2,width=0.4,color="black", fillcolor="white", style="filled",URL="$d4/d41/classpip_1_1__internal_1_1cli_1_1command__context_1_1_command_context_mix_in.html",tooltip=" "];
  Node6 -> Node5 [dir="back",color="midnightblue",fontsize="10",style="solid",arrowtail="onormal",fontname="Helvetica"];
  Node6 [label="{object\n||}",height=0.2,width=0.4,color="grey75", fillcolor="white", style="filled",tooltip=" "];
  Node7 -> Node3 [dir="back",color="midnightblue",fontsize="10",style="solid",arrowtail="onormal",fontname="Helvetica"];
  Node7 [label="{pip._internal.cli.req\l_command.SessionCommandMixin\n|- _session\l|+ __init__()\l+ get_default_session()\l- _get_index_urls()\l- _build_session()\l}",height=0.2,width=0.4,color="black", fillcolor="white", style="filled",URL="$da/d76/classpip_1_1__internal_1_1cli_1_1req__command_1_1_session_command_mixin.html",tooltip=" "];
  Node5 -> Node7 [dir="back",color="midnightblue",fontsize="10",style="solid",arrowtail="onormal",fontname="Helvetica"];
}
