digraph "pip._vendor.ipaddress._BaseNetwork.__str__"
{
 // LATEX_PDF_SIZE
  edge [fontname="Helvetica",fontsize="10",labelfontname="Helvetica",labelfontsize="10"];
  node [fontname="Helvetica",fontsize="10",shape=record];
  rankdir="LR";
  Node1 [label="pip._vendor.ipaddress.\l_BaseNetwork.__str__",height=0.2,width=0.4,color="black", fillcolor="grey75", style="filled", fontcolor="black",tooltip=" "];
  Node1 -> Node2 [color="midnightblue",fontsize="10",style="solid"];
  Node2 [label="pip._vendor.ipaddress.\l_BaseNetwork.prefixlen",height=0.2,width=0.4,color="black", fillcolor="white", style="filled",URL="$d0/d9c/classpip_1_1__vendor_1_1ipaddress_1_1___base_network.html#ade518073c6d1a579499b015565671926",tooltip=" "];
}
