digraph "pip._vendor.ipaddress._BaseNetwork.__eq__"
{
 // LATEX_PDF_SIZE
  edge [fontname="Helvetica",fontsize="10",labelfontname="Helvetica",labelfontsize="10"];
  node [fontname="Helvetica",fontsize="10",shape=record];
  rankdir="RL";
  Node1 [label="pip._vendor.ipaddress.\l_BaseNetwork.__eq__",height=0.2,width=0.4,color="black", fillcolor="grey75", style="filled", fontcolor="black",tooltip=" "];
  Node1 -> Node2 [dir="back",color="midnightblue",fontsize="10",style="solid"];
  Node2 [label="pip._vendor.msgpack.ext.\lTimestamp.__ne__",height=0.2,width=0.4,color="black", fillcolor="white", style="filled",URL="$d6/dd9/classpip_1_1__vendor_1_1msgpack_1_1ext_1_1_timestamp.html#a85bbfb0158c314f6747659d9d79fbc5f",tooltip=" "];
  Node1 -> Node3 [dir="back",color="midnightblue",fontsize="10",style="solid"];
  Node3 [label="pip._vendor.urllib3.\l_collections.HTTPHeaderDict.__ne__",height=0.2,width=0.4,color="black", fillcolor="white", style="filled",URL="$d8/dc7/classpip_1_1__vendor_1_1urllib3_1_1__collections_1_1_h_t_t_p_header_dict.html#a3f4d576e6b092d091cedfd92fe4becb2",tooltip=" "];
}
