digraph "pip._internal.req.constructors.parse_req_from_editable"
{
 // LATEX_PDF_SIZE
  edge [fontname="Helvetica",fontsize="10",labelfontname="Helvetica",labelfontsize="10"];
  node [fontname="Helvetica",fontsize="10",shape=record];
  rankdir="RL";
  Node1 [label="pip._internal.req.constructors.parse\l_req_from_editable",height=0.2,width=0.4,color="black", fillcolor="grey75", style="filled", fontcolor="black",tooltip=" "];
  Node1 -> Node2 [dir="back",color="midnightblue",fontsize="10",style="solid"];
  Node2 [label="pip._internal.req.constructors.install\l_req_from_editable",height=0.2,width=0.4,color="black", fillcolor="white", style="filled",URL="$df/dd2/namespacepip_1_1__internal_1_1req_1_1constructors.html#a6ef0babd0219317e92de885ca7e37489",tooltip=" "];
  Node2 -> Node3 [dir="back",color="midnightblue",fontsize="10",style="solid"];
  Node3 [label="pip._internal.operations.freeze.freeze",height=0.2,width=0.4,color="black", fillcolor="white", style="filled",URL="$dc/df1/namespacepip_1_1__internal_1_1operations_1_1freeze.html#a6d7300aae94617a96245a81a64ab9398",tooltip=" "];
  Node3 -> Node4 [dir="back",color="midnightblue",fontsize="10",style="solid"];
  Node4 [label="pip._internal.commands.freeze.\lFreezeCommand.run",height=0.2,width=0.4,color="black", fillcolor="white", style="filled",URL="$df/d4e/classpip_1_1__internal_1_1commands_1_1freeze_1_1_freeze_command.html#a30bb1986d12b08faefb3010f9bfd74e2",tooltip=" "];
  Node2 -> Node5 [dir="back",color="midnightblue",fontsize="10",style="solid"];
  Node5 [label="pip._internal.cli.req\l_command.RequirementCommand.get\l_requirements",height=0.2,width=0.4,color="black", fillcolor="white", style="filled",URL="$d4/db3/classpip_1_1__internal_1_1cli_1_1req__command_1_1_requirement_command.html#abec6b583dd1834f5bdc35eab1c5e8ca0",tooltip=" "];
  Node5 -> Node6 [dir="back",color="midnightblue",fontsize="10",style="solid"];
  Node6 [label="pip._vendor.distlib.metadata.\lMetadata.get_requirements",height=0.2,width=0.4,color="black", fillcolor="white", style="filled",URL="$d3/df6/classpip_1_1__vendor_1_1distlib_1_1metadata_1_1_metadata.html#a372528ac411fd419ac0f6ff4306e7290",tooltip=" "];
  Node6 -> Node6 [dir="back",color="midnightblue",fontsize="10",style="solid"];
  Node5 -> Node7 [dir="back",color="midnightblue",fontsize="10",style="solid"];
  Node7 [label="pip._internal.commands.download.\lDownloadCommand.run",height=0.2,width=0.4,color="black", fillcolor="white", style="filled",URL="$d9/d03/classpip_1_1__internal_1_1commands_1_1download_1_1_download_command.html#a4992cef595bc4f38a1635e91a7557a54",tooltip=" "];
  Node5 -> Node8 [dir="back",color="midnightblue",fontsize="10",style="solid"];
  Node8 [label="pip._internal.commands.install.\lInstallCommand.run",height=0.2,width=0.4,color="black", fillcolor="white", style="filled",URL="$d2/dff/classpip_1_1__internal_1_1commands_1_1install_1_1_install_command.html#aed853149716837d308440b8e2405a75c",tooltip=" "];
  Node5 -> Node9 [dir="back",color="midnightblue",fontsize="10",style="solid"];
  Node9 [label="pip._internal.commands.wheel.\lWheelCommand.run",height=0.2,width=0.4,color="black", fillcolor="white", style="filled",URL="$d7/d9d/classpip_1_1__internal_1_1commands_1_1wheel_1_1_wheel_command.html#a4cb8665d201b720369f174eae955f875",tooltip=" "];
  Node2 -> Node10 [dir="back",color="midnightblue",fontsize="10",style="solid"];
  Node10 [label="pip._internal.req.constructors.install\l_req_from_parsed_requirement",height=0.2,width=0.4,color="black", fillcolor="white", style="filled",URL="$df/dd2/namespacepip_1_1__internal_1_1req_1_1constructors.html#a093d3da992203ec555c1f58cb9d83fe5",tooltip=" "];
  Node10 -> Node5 [dir="back",color="midnightblue",fontsize="10",style="solid"];
  Node10 -> Node11 [dir="back",color="midnightblue",fontsize="10",style="solid"];
  Node11 [label="pip._internal.commands.uninstall.\lUninstallCommand.run",height=0.2,width=0.4,color="black", fillcolor="white", style="filled",URL="$d6/d33/classpip_1_1__internal_1_1commands_1_1uninstall_1_1_uninstall_command.html#a2471671e1b8bf4fb7f7015c925f7e1e0",tooltip=" "];
  Node2 -> Node12 [dir="back",color="midnightblue",fontsize="10",style="solid"];
  Node12 [label="pip._internal.resolution.resolvelib.candidates.make\l_install_req_from_editable",height=0.2,width=0.4,color="black", fillcolor="white", style="filled",URL="$d6/d5c/namespacepip_1_1__internal_1_1resolution_1_1resolvelib_1_1candidates.html#a2020126eeb6db480fc623215311e134d",tooltip=" "];
  Node12 -> Node13 [dir="back",color="midnightblue",fontsize="10",style="solid"];
  Node13 [label="pip._internal.resolution.resolvelib.candidates.\lEditableCandidate.__init__",height=0.2,width=0.4,color="black", fillcolor="white", style="filled",URL="$dd/d77/classpip_1_1__internal_1_1resolution_1_1resolvelib_1_1candidates_1_1_editable_candidate.html#a670b4ea98790c602ddfb7059b84789e2",tooltip=" "];
  Node13 -> Node14 [dir="back",color="midnightblue",fontsize="10",style="solid"];
  Node14 [label="setuptools._vendor.ordered\l_set.OrderedSet.__setstate__",height=0.2,width=0.4,color="black", fillcolor="white", style="filled",URL="$d0/d40/classsetuptools_1_1__vendor_1_1ordered__set_1_1_ordered_set.html#a852740634ccd2e3158b599082cf086de",tooltip=" "];
}
