digraph "pip._vendor.cachecontrol.controller.CacheController"
{
 // LATEX_PDF_SIZE
  edge [fontname="Helvetica",fontsize="10",labelfontname="Helvetica",labelfontsize="10"];
  node [fontname="Helvetica",fontsize="10",shape=record];
  Node1 [label="{pip._vendor.cachecontrol.controller.\lCacheController\n|+ cache\l+ cache_etags\l+ serializer\l+ cacheable_status_codes\l|+ __init__()\l+ cache_url()\l+ parse_cache_control()\l+ cached_request()\l+ conditional_headers()\l+ cache_response()\l+ update_cached_response()\l- _urlnorm()\l}",height=0.2,width=0.4,color="black", fillcolor="grey75", style="filled", fontcolor="black",tooltip=" "];
  Node2 -> Node1 [dir="back",color="midnightblue",fontsize="10",style="solid",arrowtail="onormal",fontname="Helvetica"];
  Node2 [label="{object\n||}",height=0.2,width=0.4,color="grey75", fillcolor="white", style="filled",tooltip=" "];
}
