digraph "pip._internal.utils.pkg_resources.DictMetadata.get_metadata_lines"
{
 // LATEX_PDF_SIZE
  edge [fontname="Helvetica",fontsize="10",labelfontname="Helvetica",labelfontsize="10"];
  node [fontname="Helvetica",fontsize="10",shape=record];
  rankdir="LR";
  Node1 [label="pip._internal.utils.pkg\l_resources.DictMetadata.get\l_metadata_lines",height=0.2,width=0.4,color="black", fillcolor="grey75", style="filled", fontcolor="black",tooltip=" "];
  Node1 -> Node2 [color="midnightblue",fontsize="10",style="solid"];
  Node2 [label="pip._internal.utils.pkg\l_resources.DictMetadata.get\l_metadata",height=0.2,width=0.4,color="black", fillcolor="white", style="filled",URL="$dd/d69/classpip_1_1__internal_1_1utils_1_1pkg__resources_1_1_dict_metadata.html#a786bc2457039886cd8a89039493526c3",tooltip=" "];
  Node2 -> Node3 [color="midnightblue",fontsize="10",style="solid"];
  Node3 [label="pip._vendor.html5lib.treewalkers.etree\l_lxml.ensure_str",height=0.2,width=0.4,color="black", fillcolor="white", style="filled",URL="$db/dd7/namespacepip_1_1__vendor_1_1html5lib_1_1treewalkers_1_1etree__lxml.html#a028cec52b33e2067b38382eb23c523b9",tooltip=" "];
  Node1 -> Node4 [color="midnightblue",fontsize="10",style="solid"];
  Node4 [label="pip._vendor.pkg_resources.yield\l_lines",height=0.2,width=0.4,color="black", fillcolor="white", style="filled",URL="$d7/dcc/namespacepip_1_1__vendor_1_1pkg__resources.html#a9154cf7836eab6cbeb1238fdc578e0fd",tooltip=" "];
}
