digraph "pip._vendor.progress.counter.Countdown.update"
{
 // LATEX_PDF_SIZE
  edge [fontname="Helvetica",fontsize="10",labelfontname="Helvetica",labelfontsize="10"];
  node [fontname="Helvetica",fontsize="10",shape=record];
  rankdir="LR";
  Node1 [label="pip._vendor.progress.counter.\lCountdown.update",height=0.2,width=0.4,color="black", fillcolor="grey75", style="filled", fontcolor="black",tooltip=" "];
  Node1 -> Node2 [color="midnightblue",fontsize="10",style="solid",fontname="Helvetica"];
  Node2 [label="pip._vendor.progress.Progress.remaining",height=0.2,width=0.4,color="black", fillcolor="white", style="filled",URL="$d7/dc2/classpip_1_1__vendor_1_1progress_1_1_progress.html#afce9264c30f2d0bba357c483f27db20b",tooltip=" "];
  Node1 -> Node3 [color="midnightblue",fontsize="10",style="solid",fontname="Helvetica"];
  Node3 [label="pip._vendor.distlib.\l_backport.tarfile._BZ2Proxy.write",height=0.2,width=0.4,color="black", fillcolor="white", style="filled",URL="$dc/df3/classpip_1_1__vendor_1_1distlib_1_1__backport_1_1tarfile_1_1___b_z2_proxy.html#af21109baa240198f6952580677e513ea",tooltip=" "];
  Node1 -> Node4 [color="midnightblue",fontsize="10",style="solid",fontname="Helvetica"];
  Node4 [label="wheel.wheelfile.WheelFile.write",height=0.2,width=0.4,color="black", fillcolor="white", style="filled",URL="$dd/da0/classwheel_1_1wheelfile_1_1_wheel_file.html#a61b513322e41d8594c516af51402eb04",tooltip=" "];
  Node4 -> Node5 [color="midnightblue",fontsize="10",style="solid",fontname="Helvetica"];
  Node5 [label="wheel.wheelfile.get\l_zipinfo_datetime",height=0.2,width=0.4,color="black", fillcolor="white", style="filled",URL="$dc/d18/namespacewheel_1_1wheelfile.html#ad5b9816180e7a9da211cffd94bf468ce",tooltip=" "];
  Node4 -> Node6 [color="midnightblue",fontsize="10",style="solid",fontname="Helvetica"];
  Node6 [label="wheel.wheelfile.WheelFile.open",height=0.2,width=0.4,color="black", fillcolor="white", style="filled",URL="$dd/da0/classwheel_1_1wheelfile_1_1_wheel_file.html#a8c405b21a26e338308200dec1df4fbc6",tooltip=" "];
  Node6 -> Node7 [color="midnightblue",fontsize="10",style="solid",fontname="Helvetica"];
  Node7 [label="wheel.util.as_unicode",height=0.2,width=0.4,color="black", fillcolor="white", style="filled",URL="$de/d97/namespacewheel_1_1util.html#a2e10809961179cc9a8bd54fda0da1fe3",tooltip=" "];
  Node6 -> Node8 [color="midnightblue",fontsize="10",style="solid",fontname="Helvetica"];
  Node8 [label="wheel.util.native",height=0.2,width=0.4,color="black", fillcolor="white", style="filled",URL="$de/d97/namespacewheel_1_1util.html#a3beb4a7a5151092fc1ddcd51db419a63",tooltip=" "];
  Node4 -> Node9 [color="midnightblue",fontsize="10",style="solid",fontname="Helvetica"];
  Node9 [label="wheel.wheelfile.WheelFile.writestr",height=0.2,width=0.4,color="black", fillcolor="white", style="filled",URL="$dd/da0/classwheel_1_1wheelfile_1_1_wheel_file.html#a0e039e2eb3bd0758f8b8abf2e8c41a7c",tooltip=" "];
  Node9 -> Node8 [color="midnightblue",fontsize="10",style="solid",fontname="Helvetica"];
  Node9 -> Node10 [color="midnightblue",fontsize="10",style="solid",fontname="Helvetica"];
  Node10 [label="wheel.util.urlsafe\l_b64encode",height=0.2,width=0.4,color="black", fillcolor="white", style="filled",URL="$de/d97/namespacewheel_1_1util.html#aaabe3fbd49c6945f3985ca386831b715",tooltip=" "];
  Node1 -> Node11 [color="midnightblue",fontsize="10",style="solid",fontname="Helvetica"];
  Node11 [label="pip._vendor.distlib.metadata.\lLegacyMetadata.write",height=0.2,width=0.4,color="black", fillcolor="white", style="filled",URL="$d3/dc5/classpip_1_1__vendor_1_1distlib_1_1metadata_1_1_legacy_metadata.html#a6b21f09baf95f38b5c15ed3cfb6d28a2",tooltip=" "];
  Node11 -> Node12 [color="midnightblue",fontsize="10",style="solid",fontname="Helvetica"];
  Node12 [label="pip._vendor.distlib.metadata.\lLegacyMetadata.write_file",height=0.2,width=0.4,color="black", fillcolor="white", style="filled",URL="$d3/dc5/classpip_1_1__vendor_1_1distlib_1_1metadata_1_1_legacy_metadata.html#aa033975ed8087aaf281be90f828a4faa",tooltip=" "];
  Node12 -> Node13 [color="midnightblue",fontsize="10",style="solid",fontname="Helvetica"];
  Node13 [label="pip._vendor.distlib.metadata.\l_version2fieldlist",height=0.2,width=0.4,color="black", fillcolor="white", style="filled",URL="$de/d5b/namespacepip_1_1__vendor_1_1distlib_1_1metadata.html#afb52491c16408954169ff3abaff4a6de",tooltip=" "];
  Node12 -> Node14 [color="midnightblue",fontsize="10",style="solid",fontname="Helvetica"];
  Node14 [label="pip._vendor.distlib.metadata.\lLegacyMetadata._write_field",height=0.2,width=0.4,color="black", fillcolor="white", style="filled",URL="$d3/dc5/classpip_1_1__vendor_1_1distlib_1_1metadata_1_1_legacy_metadata.html#a95d365ebe9ca0180d5fe75dfc78e444d",tooltip=" "];
  Node12 -> Node15 [color="midnightblue",fontsize="10",style="solid",fontname="Helvetica"];
  Node15 [label="pip._internal.network.cache.\lSafeFileCache.get",height=0.2,width=0.4,color="red", fillcolor="white", style="filled",URL="$d6/db2/classpip_1_1__internal_1_1network_1_1cache_1_1_safe_file_cache.html#a3a3d7f5f8f6daa162f109d311799e58a",tooltip=" "];
  Node12 -> Node18 [color="midnightblue",fontsize="10",style="solid",fontname="Helvetica"];
  Node18 [label="pip._vendor.cachecontrol.cache.\lBaseCache.get",height=0.2,width=0.4,color="black", fillcolor="white", style="filled",URL="$da/d8a/classpip_1_1__vendor_1_1cachecontrol_1_1cache_1_1_base_cache.html#ad5c273adabffacc22029a8461bdcb8e0",tooltip=" "];
  Node12 -> Node19 [color="midnightblue",fontsize="10",style="solid",fontname="Helvetica"];
  Node19 [label="pip._vendor.cachecontrol.cache.\lDictCache.get",height=0.2,width=0.4,color="black", fillcolor="white", style="filled",URL="$da/d77/classpip_1_1__vendor_1_1cachecontrol_1_1cache_1_1_dict_cache.html#af092ece36a8cce3cdb2b6e899405819a",tooltip=" "];
  Node12 -> Node20 [color="midnightblue",fontsize="10",style="solid",fontname="Helvetica"];
  Node20 [label="pip._vendor.cachecontrol.caches.file\l_cache.FileCache.get",height=0.2,width=0.4,color="red", fillcolor="white", style="filled",URL="$d4/d5e/classpip_1_1__vendor_1_1cachecontrol_1_1caches_1_1file__cache_1_1_file_cache.html#abaf8e68f7bf2b7ed1f4f3d19cf8502cc",tooltip=" "];
  Node12 -> Node23 [color="midnightblue",fontsize="10",style="solid",fontname="Helvetica"];
  Node23 [label="pip._vendor.cachecontrol.caches.redis\l_cache.RedisCache.get",height=0.2,width=0.4,color="black", fillcolor="white", style="filled",URL="$dd/d2e/classpip_1_1__vendor_1_1cachecontrol_1_1caches_1_1redis__cache_1_1_redis_cache.html#a1c0ed79e45aa1435f77660d842d00a6f",tooltip=" "];
  Node12 -> Node24 [color="midnightblue",fontsize="10",style="solid",fontname="Helvetica"];
  Node24 [label="pip._vendor.distlib.compat.\lChainMap.get",height=0.2,width=0.4,color="black", fillcolor="white", style="filled",URL="$d2/d2d/classpip_1_1__vendor_1_1distlib_1_1compat_1_1_chain_map.html#a657b681156ad31c3b7391fcfdfd0bc5f",tooltip=" "];
  Node12 -> Node25 [color="midnightblue",fontsize="10",style="solid",fontname="Helvetica"];
  Node25 [label="pip._vendor.distlib.compat.\lConvertingDict.get",height=0.2,width=0.4,color="red", fillcolor="white", style="filled",URL="$db/dd5/classpip_1_1__vendor_1_1distlib_1_1compat_1_1_converting_dict.html#acc9b853aa7f196de678588c6234fa60c",tooltip=" "];
  Node12 -> Node30 [color="midnightblue",fontsize="10",style="solid",fontname="Helvetica"];
  Node30 [label="pip._internal.cache.Cache.get",height=0.2,width=0.4,color="black", fillcolor="white", style="filled",URL="$de/d43/classpip_1_1__internal_1_1cache_1_1_cache.html#ad68488daa2dd21db48b7c82b72d35e32",tooltip=" "];
  Node12 -> Node31 [color="midnightblue",fontsize="10",style="solid",fontname="Helvetica"];
  Node31 [label="pip._internal.cache.Simple\lWheelCache.get",height=0.2,width=0.4,color="red", fillcolor="white", style="filled",URL="$d4/dbb/classpip_1_1__internal_1_1cache_1_1_simple_wheel_cache.html#a1e90e1583e0c82aea5e0382d53185f35",tooltip=" "];
  Node12 -> Node38 [color="midnightblue",fontsize="10",style="solid",fontname="Helvetica"];
  Node38 [label="pip._internal.cache.Wheel\lCache.get",height=0.2,width=0.4,color="red", fillcolor="white", style="filled",URL="$dc/d59/classpip_1_1__internal_1_1cache_1_1_wheel_cache.html#a722f8381e4d788924983bcfcfea9a320",tooltip=" "];
  Node12 -> Node40 [color="midnightblue",fontsize="10",style="solid",fontname="Helvetica"];
  Node40 [label="pip._vendor.distlib.metadata.\lLegacyMetadata.get",height=0.2,width=0.4,color="red", fillcolor="white", style="filled",URL="$d3/dc5/classpip_1_1__vendor_1_1distlib_1_1metadata_1_1_legacy_metadata.html#a6afe175ec766743328ea8e4fe464eb31",tooltip=" "];
  Node12 -> Node43 [color="midnightblue",fontsize="10",style="solid",fontname="Helvetica"];
  Node43 [label="pip._vendor.distlib.metadata.\lLegacyMetadata.set_metadata\l_version",height=0.2,width=0.4,color="red", fillcolor="white", style="filled",URL="$d3/dc5/classpip_1_1__vendor_1_1distlib_1_1metadata_1_1_legacy_metadata.html#a2b8a6958321255c88868aa43ac509a85",tooltip=" "];
  Node1 -> Node45 [color="midnightblue",fontsize="10",style="solid",fontname="Helvetica"];
  Node45 [label="pip._vendor.distlib.metadata.\lMetadata.write",height=0.2,width=0.4,color="black", fillcolor="white", style="filled",URL="$d3/df6/classpip_1_1__vendor_1_1distlib_1_1metadata_1_1_metadata.html#a1765c04d32c8b3e84ad87b6083694569",tooltip=" "];
  Node45 -> Node46 [color="midnightblue",fontsize="10",style="solid",fontname="Helvetica"];
  Node46 [label="pip._vendor.distlib.metadata.\lMetadata._from_legacy",height=0.2,width=0.4,color="black", fillcolor="white", style="filled",URL="$d3/df6/classpip_1_1__vendor_1_1distlib_1_1metadata_1_1_metadata.html#a78ae3c1cd2c31e4376d991cba08ba678",tooltip=" "];
  Node46 -> Node47 [color="midnightblue",fontsize="10",style="solid",fontname="Helvetica"];
  Node47 [label="pip._vendor.distlib.database.\lDistribution.provides",height=0.2,width=0.4,color="black", fillcolor="white", style="filled",URL="$d8/da9/classpip_1_1__vendor_1_1distlib_1_1database_1_1_distribution.html#ad0360a56aa60642fe4faaad96b04d31c",tooltip=" "];
  Node46 -> Node48 [color="midnightblue",fontsize="10",style="solid",fontname="Helvetica"];
  Node48 [label="pip._vendor.distlib.metadata.\lMetadata.provides",height=0.2,width=0.4,color="red", fillcolor="white", style="filled",URL="$d3/df6/classpip_1_1__vendor_1_1distlib_1_1metadata_1_1_metadata.html#a700307186309aa299c50bbe7515cb58d",tooltip=" "];
  Node46 -> Node189 [color="midnightblue",fontsize="10",style="solid",fontname="Helvetica"];
  Node189 [label="pip._vendor.distlib.metadata.\lMetadata.todict",height=0.2,width=0.4,color="red", fillcolor="white", style="filled",URL="$d3/df6/classpip_1_1__vendor_1_1distlib_1_1metadata_1_1_metadata.html#a4885b3e47d3f6ba4dfd5ea7d3af29244",tooltip=" "];
  Node45 -> Node191 [color="midnightblue",fontsize="10",style="solid",fontname="Helvetica"];
  Node191 [label="pip._vendor.distlib.metadata.\lMetadata._to_legacy",height=0.2,width=0.4,color="black", fillcolor="white", style="filled",URL="$d3/df6/classpip_1_1__vendor_1_1distlib_1_1metadata_1_1_metadata.html#a45341805030496914b8798e9215c000d",tooltip=" "];
  Node191 -> Node192 [color="midnightblue",fontsize="10",style="solid",fontname="Helvetica"];
  Node192 [label="pip._vendor.distlib.database.\lDistribution.build_requires",height=0.2,width=0.4,color="red", fillcolor="white", style="filled",URL="$d8/da9/classpip_1_1__vendor_1_1distlib_1_1database_1_1_distribution.html#ac6964b7e3dd21322072ad0623cf08be6",tooltip=" "];
  Node191 -> Node194 [color="midnightblue",fontsize="10",style="solid",fontname="Helvetica"];
  Node194 [label="pip._vendor.distlib.database.\lDistribution.dev_requires",height=0.2,width=0.4,color="red", fillcolor="white", style="filled",URL="$d8/da9/classpip_1_1__vendor_1_1distlib_1_1database_1_1_distribution.html#a2efd10275a91dc09554bd6fdaf544be4",tooltip=" "];
  Node191 -> Node195 [color="midnightblue",fontsize="10",style="solid",fontname="Helvetica"];
  Node195 [label="pip._vendor.pkg_resources.\lDistribution.extras",height=0.2,width=0.4,color="red", fillcolor="white", style="filled",URL="$d0/ddb/classpip_1_1__vendor_1_1pkg__resources_1_1_distribution.html#a12c47b7c03dfb6dab9166ca5cb53b464",tooltip=" "];
  Node191 -> Node197 [color="midnightblue",fontsize="10",style="solid",fontname="Helvetica"];
  Node197 [label="pkg_resources.Distribution.extras",height=0.2,width=0.4,color="red", fillcolor="white", style="filled",URL="$d8/d25/classpkg__resources_1_1_distribution.html#ae382387ed776b026046d59a56291b805",tooltip=" "];
  Node191 -> Node200 [color="midnightblue",fontsize="10",style="solid",fontname="Helvetica"];
  Node200 [label="pip._vendor.distlib.database.\lDistribution.meta_requires",height=0.2,width=0.4,color="red", fillcolor="white", style="filled",URL="$d8/da9/classpip_1_1__vendor_1_1distlib_1_1database_1_1_distribution.html#ad77fb27870e5e35e2550960b13586ed4",tooltip=" "];
  Node191 -> Node201 [color="midnightblue",fontsize="10",style="solid",fontname="Helvetica"];
  Node201 [label="pip._vendor.distlib.database.\lDistribution.run_requires",height=0.2,width=0.4,color="red", fillcolor="white", style="filled",URL="$d8/da9/classpip_1_1__vendor_1_1distlib_1_1database_1_1_distribution.html#a2daa3e8de219e45ee9bcaa1aed084930",tooltip=" "];
  Node45 -> Node202 [color="midnightblue",fontsize="10",style="solid",fontname="Helvetica"];
  Node202 [label="pip._internal.models.direct\l_url.DirectUrl.validate",height=0.2,width=0.4,color="red", fillcolor="white", style="filled",URL="$dd/d89/classpip_1_1__internal_1_1models_1_1direct__url_1_1_direct_url.html#aa6e9318eea1a6d693b2906e0a73797a4",tooltip=" "];
  Node45 -> Node211 [color="midnightblue",fontsize="10",style="solid",fontname="Helvetica"];
  Node211 [label="pip._vendor.distlib.metadata.\lMetadata.validate",height=0.2,width=0.4,color="red", fillcolor="white", style="filled",URL="$d3/df6/classpip_1_1__vendor_1_1distlib_1_1metadata_1_1_metadata.html#a19d6c7da3d1e3f4155a59dc4b6fd3ffa",tooltip=" "];
  Node1 -> Node217 [color="midnightblue",fontsize="10",style="solid",fontname="Helvetica"];
  Node217 [label="pip._vendor.distlib.\l_backport.tarfile._LowLevel\lFile.write",height=0.2,width=0.4,color="black", fillcolor="white", style="filled",URL="$d8/d82/classpip_1_1__vendor_1_1distlib_1_1__backport_1_1tarfile_1_1___low_level_file.html#a1814570a609484b5b9b26e82fa261be2",tooltip=" "];
  Node1 -> Node218 [color="midnightblue",fontsize="10",style="solid",fontname="Helvetica"];
  Node218 [label="pip._vendor.distlib.\l_backport.tarfile._Stream.write",height=0.2,width=0.4,color="black", fillcolor="white", style="filled",URL="$de/d60/classpip_1_1__vendor_1_1distlib_1_1__backport_1_1tarfile_1_1___stream.html#a3ebea1d0fcb9691f64a02aa2ad1edd88",tooltip=" "];
  Node218 -> Node219 [color="midnightblue",fontsize="10",style="solid",fontname="Helvetica"];
  Node219 [label="pip._vendor.distlib.\l_backport.tarfile._Stream.\l__write",height=0.2,width=0.4,color="black", fillcolor="white", style="filled",URL="$de/d60/classpip_1_1__vendor_1_1distlib_1_1__backport_1_1tarfile_1_1___stream.html#adde7235bd1540171c36835647e7bd241",tooltip=" "];
  Node219 -> Node218 [color="midnightblue",fontsize="10",style="solid",fontname="Helvetica"];
  Node1 -> Node220 [color="midnightblue",fontsize="10",style="solid",fontname="Helvetica"];
  Node220 [label="pip._vendor.msgpack.fallback.\lStringIO.write",height=0.2,width=0.4,color="black", fillcolor="white", style="filled",URL="$db/d71/classpip_1_1__vendor_1_1msgpack_1_1fallback_1_1_string_i_o.html#a564ce63dde305c954fc10902761c6f56",tooltip=" "];
  Node1 -> Node221 [color="midnightblue",fontsize="10",style="solid",fontname="Helvetica"];
  Node221 [label="pip._vendor.progress.Infinite.write",height=0.2,width=0.4,color="black", fillcolor="white", style="filled",URL="$d0/da8/classpip_1_1__vendor_1_1progress_1_1_infinite.html#ab0a18532939fe485bab1c79397284b01",tooltip=" "];
  Node221 -> Node222 [color="midnightblue",fontsize="10",style="solid",fontname="Helvetica"];
  Node222 [label="pip._vendor.progress.Infinite.is_tty",height=0.2,width=0.4,color="black", fillcolor="white", style="filled",URL="$d0/da8/classpip_1_1__vendor_1_1progress_1_1_infinite.html#acb2f63aeaa69421962c9272843da1974",tooltip=" "];
  Node1 -> Node223 [color="midnightblue",fontsize="10",style="solid",fontname="Helvetica"];
  Node223 [label="pip._vendor.colorama.ansitowin32.\lStreamWrapper.write",height=0.2,width=0.4,color="black", fillcolor="white", style="filled",URL="$d1/d37/classpip_1_1__vendor_1_1colorama_1_1ansitowin32_1_1_stream_wrapper.html#a0e7f0a273c12591e09743620d9510abf",tooltip=" "];
  Node1 -> Node224 [color="midnightblue",fontsize="10",style="solid",fontname="Helvetica"];
  Node224 [label="pip._vendor.colorama.ansitowin32.\lAnsiToWin32.write",height=0.2,width=0.4,color="black", fillcolor="white", style="filled",URL="$df/de6/classpip_1_1__vendor_1_1colorama_1_1ansitowin32_1_1_ansi_to_win32.html#aa62e555eeb1742f0060b85b18cf85dd9",tooltip=" "];
  Node224 -> Node225 [color="midnightblue",fontsize="10",style="solid",fontname="Helvetica"];
  Node225 [label="pip._vendor.colorama.ansitowin32.\lAnsiToWin32.reset_all",height=0.2,width=0.4,color="red", fillcolor="white", style="filled",URL="$df/de6/classpip_1_1__vendor_1_1colorama_1_1ansitowin32_1_1_ansi_to_win32.html#afc06570c8300238d5feedbd4e60597ae",tooltip=" "];
  Node225 -> Node224 [color="midnightblue",fontsize="10",style="solid",fontname="Helvetica"];
  Node224 -> Node227 [color="midnightblue",fontsize="10",style="solid",fontname="Helvetica"];
  Node227 [label="pip._vendor.colorama.ansitowin32.\lAnsiToWin32.write_and_convert",height=0.2,width=0.4,color="red", fillcolor="white", style="filled",URL="$df/de6/classpip_1_1__vendor_1_1colorama_1_1ansitowin32_1_1_ansi_to_win32.html#ad722f312c277b0b7dd5af9ce411d2b8c",tooltip=" "];
}
