digraph "pip._internal.req.req_install.InstallRequirement.install"
{
 // LATEX_PDF_SIZE
  edge [fontname="Helvetica",fontsize="10",labelfontname="Helvetica",labelfontsize="10"];
  node [fontname="Helvetica",fontsize="10",shape=record];
  rankdir="RL";
  Node1 [label="pip._internal.req.req\l_install.InstallRequirement.install",height=0.2,width=0.4,color="black", fillcolor="grey75", style="filled", fontcolor="black",tooltip=" "];
  Node1 -> Node2 [dir="back",color="midnightblue",fontsize="10",style="solid",fontname="Helvetica"];
  Node2 [label="setuptools._distutils.command.install\l_lib.install_lib.run",height=0.2,width=0.4,color="black", fillcolor="white", style="filled",URL="$de/d3b/classsetuptools_1_1__distutils_1_1command_1_1install__lib_1_1install__lib.html#a1c0172f47a7203a3044af96bf632f80e",tooltip=" "];
  Node1 -> Node3 [dir="back",color="midnightblue",fontsize="10",style="solid",fontname="Helvetica"];
  Node3 [label="setuptools.command.install\l_lib.install_lib.run",height=0.2,width=0.4,color="black", fillcolor="white", style="filled",URL="$db/d8e/classsetuptools_1_1command_1_1install__lib_1_1install__lib.html#a72adda63714aa1fdf24bdf6e6a5ca9f3",tooltip=" "];
}
