digraph "pip._internal.req.req_install.InstallRequirement.update_editable"
{
 // LATEX_PDF_SIZE
  edge [fontname="Helvetica",fontsize="10",labelfontname="Helvetica",labelfontsize="10"];
  node [fontname="Helvetica",fontsize="10",shape=record];
  rankdir="LR";
  Node1 [label="pip._internal.req.req\l_install.InstallRequirement.update\l_editable",height=0.2,width=0.4,color="black", fillcolor="grey75", style="filled", fontcolor="black",tooltip=" "];
  Node1 -> Node2 [color="midnightblue",fontsize="10",style="solid",fontname="Helvetica"];
  Node2 [label="pip._internal.utils.deprecation.deprecated",height=0.2,width=0.4,color="black", fillcolor="white", style="filled",URL="$da/df1/namespacepip_1_1__internal_1_1utils_1_1deprecation.html#a7f64ef4a2a3e8999461e6d63b6929543",tooltip=" "];
  Node2 -> Node3 [color="midnightblue",fontsize="10",style="solid",fontname="Helvetica"];
  Node3 [label="pip._vendor.html5lib.html5parser.parse",height=0.2,width=0.4,color="black", fillcolor="white", style="filled",URL="$d2/d86/namespacepip_1_1__vendor_1_1html5lib_1_1html5parser.html#a2987549a868788409adca199412a27e4",tooltip=" "];
  Node1 -> Node4 [color="midnightblue",fontsize="10",style="solid",fontname="Helvetica"];
  Node4 [label="pip._internal.utils.misc.hide_url",height=0.2,width=0.4,color="black", fillcolor="white", style="filled",URL="$de/dc3/namespacepip_1_1__internal_1_1utils_1_1misc.html#ad0bfbf7407ab5668a56454a74546b8ee",tooltip=" "];
  Node4 -> Node5 [color="midnightblue",fontsize="10",style="solid",fontname="Helvetica"];
  Node5 [label="pip._internal.utils.misc.redact\l_auth_from_url",height=0.2,width=0.4,color="black", fillcolor="white", style="filled",URL="$de/dc3/namespacepip_1_1__internal_1_1utils_1_1misc.html#a751f3cb047166ae80782e0d1d7c6c7c7",tooltip=" "];
  Node5 -> Node6 [color="midnightblue",fontsize="10",style="solid",fontname="Helvetica"];
  Node6 [label="pip._internal.utils.misc.\l_transform_url",height=0.2,width=0.4,color="black", fillcolor="white", style="filled",URL="$de/dc3/namespacepip_1_1__internal_1_1utils_1_1misc.html#a575f6e83d31c674204096baf6fdeb4ec",tooltip=" "];
}
