digraph "pip._internal.req.req_install.InstallRequirement.metadata"
{
 // LATEX_PDF_SIZE
  edge [fontname="Helvetica",fontsize="10",labelfontname="Helvetica",labelfontsize="10"];
  node [fontname="Helvetica",fontsize="10",shape=record];
  rankdir="RL";
  Node1 [label="pip._internal.req.req\l_install.InstallRequirement.metadata",height=0.2,width=0.4,color="black", fillcolor="grey75", style="filled", fontcolor="black",tooltip=" "];
  Node1 -> Node2 [dir="back",color="midnightblue",fontsize="10",style="solid",fontname="Helvetica"];
  Node2 [label="setuptools.dist.Distribution.\l_finalize_requires",height=0.2,width=0.4,color="black", fillcolor="white", style="filled",URL="$d0/d9f/classsetuptools_1_1dist_1_1_distribution.html#ac9a3734b77064ea1d1dc4836e3e1111a",tooltip=" "];
  Node2 -> Node3 [dir="back",color="midnightblue",fontsize="10",style="solid",fontname="Helvetica"];
  Node3 [label="setuptools.dist.Distribution.parse\l_config_files",height=0.2,width=0.4,color="black", fillcolor="white", style="filled",URL="$d0/d9f/classsetuptools_1_1dist_1_1_distribution.html#a41d3a53939167a813c13fde672ce3970",tooltip=" "];
  Node1 -> Node4 [dir="back",color="midnightblue",fontsize="10",style="solid",fontname="Helvetica"];
  Node4 [label="pip._internal.req.req\l_install.InstallRequirement.\l_set_requirement",height=0.2,width=0.4,color="black", fillcolor="white", style="filled",URL="$d2/daa/classpip_1_1__internal_1_1req_1_1req__install_1_1_install_requirement.html#a4abd7ec20ac8fa094954a6351ce527da",tooltip=" "];
  Node4 -> Node5 [dir="back",color="midnightblue",fontsize="10",style="solid",fontname="Helvetica"];
  Node5 [label="pip._internal.req.req\l_install.InstallRequirement.prepare\l_metadata",height=0.2,width=0.4,color="black", fillcolor="white", style="filled",URL="$d2/daa/classpip_1_1__internal_1_1req_1_1req__install_1_1_install_requirement.html#a048131d02e7f12b151a9cf8fb3b38df6",tooltip=" "];
  Node1 -> Node6 [dir="back",color="midnightblue",fontsize="10",style="solid",fontname="Helvetica"];
  Node6 [label="pip._internal.req.req\l_install.InstallRequirement.archive",height=0.2,width=0.4,color="black", fillcolor="white", style="filled",URL="$d2/daa/classpip_1_1__internal_1_1req_1_1req__install_1_1_install_requirement.html#acdaf515225bff3861585d3a309181194",tooltip=" "];
  Node1 -> Node7 [dir="back",color="midnightblue",fontsize="10",style="solid",fontname="Helvetica"];
  Node7 [label="pip._internal.req.req\l_install.InstallRequirement.assert\l_source_matches_version",height=0.2,width=0.4,color="black", fillcolor="white", style="filled",URL="$d2/daa/classpip_1_1__internal_1_1req_1_1req__install_1_1_install_requirement.html#a79286ee096e3f8defb8b576de52b577c",tooltip=" "];
  Node7 -> Node5 [dir="back",color="midnightblue",fontsize="10",style="solid",fontname="Helvetica"];
  Node1 -> Node8 [dir="back",color="midnightblue",fontsize="10",style="solid",fontname="Helvetica"];
  Node8 [label="pip._internal.req.req\l_install.InstallRequirement.warn\l_on_mismatching_name",height=0.2,width=0.4,color="black", fillcolor="white", style="filled",URL="$d2/daa/classpip_1_1__internal_1_1req_1_1req__install_1_1_install_requirement.html#a7fe1722f275fdf45313968ca29e8051d",tooltip=" "];
  Node8 -> Node5 [dir="back",color="midnightblue",fontsize="10",style="solid",fontname="Helvetica"];
}
