digraph "pip._vendor.distlib.database.Distribution"
{
 // LATEX_PDF_SIZE
  edge [fontname="Helvetica",fontsize="10",labelfontname="Helvetica",labelfontsize="10"];
  node [fontname="Helvetica",fontsize="10",shape=record];
  Node1 [label="{pip._vendor.distlib.database.\lDistribution\n|+ metadata\l+ name\l+ key\l+ version\l+ locator\l+ digest\l+ extras\l+ context\l+ download_urls\l+ digests\l+ source_url\l+ build_time_dependency\l+ requested\l+ download_url\l|+ __init__()\l+ source_url()\l+ name_and_version()\l+ provides()\l+ run_requires()\l+ meta_requires()\l+ build_requires()\l+ test_requires()\l+ dev_requires()\l+ matches_requirement()\l+ __repr__()\l+ __eq__()\l+ __hash__()\l- _get_requirements()\l}",height=0.2,width=0.4,color="black", fillcolor="grey75", style="filled", fontcolor="black",tooltip=" "];
  Node2 -> Node1 [dir="back",color="midnightblue",fontsize="10",style="solid",arrowtail="onormal",fontname="Helvetica"];
  Node2 [label="{object\n||}",height=0.2,width=0.4,color="grey75", fillcolor="white", style="filled",tooltip=" "];
}
