digraph "pip._vendor.distlib.util.ExportEntry.__eq__"
{
 // LATEX_PDF_SIZE
  edge [fontname="Helvetica",fontsize="10",labelfontname="Helvetica",labelfontsize="10"];
  node [fontname="Helvetica",fontsize="10",shape=record];
  rankdir="RL";
  Node1 [label="pip._vendor.distlib.util.\lExportEntry.__eq__",height=0.2,width=0.4,color="black", fillcolor="grey75", style="filled", fontcolor="black",tooltip=" "];
  Node1 -> Node2 [dir="back",color="midnightblue",fontsize="10",style="solid"];
  Node2 [label="pip._vendor.distlib.version.\lVersion.__ge__",height=0.2,width=0.4,color="black", fillcolor="white", style="filled",URL="$da/d0e/classpip_1_1__vendor_1_1distlib_1_1version_1_1_version.html#a3b9dd76b307e2bfd1ced1dc0ea4fede7",tooltip=" "];
  Node1 -> Node3 [dir="back",color="midnightblue",fontsize="10",style="solid"];
  Node3 [label="pip._vendor.distlib.version.\lVersion.__gt__",height=0.2,width=0.4,color="black", fillcolor="white", style="filled",URL="$da/d0e/classpip_1_1__vendor_1_1distlib_1_1version_1_1_version.html#a98a7c7052778f3ed12f0321e740579a2",tooltip=" "];
  Node3 -> Node2 [dir="back",color="midnightblue",fontsize="10",style="solid"];
  Node1 -> Node4 [dir="back",color="midnightblue",fontsize="10",style="solid"];
  Node4 [label="pip._vendor.ipaddress.\l_TotalOrderingMixin.__gt__",height=0.2,width=0.4,color="black", fillcolor="white", style="filled",URL="$da/dbd/classpip_1_1__vendor_1_1ipaddress_1_1___total_ordering_mixin.html#ad04fa4f97feaabc13d69e16d1270dacb",tooltip=" "];
  Node1 -> Node5 [dir="back",color="midnightblue",fontsize="10",style="solid"];
  Node5 [label="pip._vendor.distlib.version.\lVersion.__le__",height=0.2,width=0.4,color="black", fillcolor="white", style="filled",URL="$da/d0e/classpip_1_1__vendor_1_1distlib_1_1version_1_1_version.html#aa0225a6f551bfccb3c669645895dfdb8",tooltip=" "];
  Node1 -> Node6 [dir="back",color="midnightblue",fontsize="10",style="solid"];
  Node6 [label="pip._vendor.ipaddress.\l_TotalOrderingMixin.__le__",height=0.2,width=0.4,color="black", fillcolor="white", style="filled",URL="$da/dbd/classpip_1_1__vendor_1_1ipaddress_1_1___total_ordering_mixin.html#a30664700c17bc47e84a6151fb4ae248d",tooltip=" "];
  Node1 -> Node7 [dir="back",color="midnightblue",fontsize="10",style="solid"];
  Node7 [label="pip._vendor.distlib.version.\lVersion.__ne__",height=0.2,width=0.4,color="black", fillcolor="white", style="filled",URL="$da/d0e/classpip_1_1__vendor_1_1distlib_1_1version_1_1_version.html#a1611bd1a9e639a33b671db6066c035c6",tooltip=" "];
  Node1 -> Node8 [dir="back",color="midnightblue",fontsize="10",style="solid"];
  Node8 [label="pip._vendor.distlib.version.\lMatcher.__ne__",height=0.2,width=0.4,color="black", fillcolor="white", style="filled",URL="$d3/d6b/classpip_1_1__vendor_1_1distlib_1_1version_1_1_matcher.html#a150a7ef82cfd81b9f1f83426a067bef5",tooltip=" "];
  Node1 -> Node9 [dir="back",color="midnightblue",fontsize="10",style="solid"];
  Node9 [label="pip._vendor.ipaddress.\l_TotalOrderingMixin.__ne__",height=0.2,width=0.4,color="black", fillcolor="white", style="filled",URL="$da/dbd/classpip_1_1__vendor_1_1ipaddress_1_1___total_ordering_mixin.html#a8b5457abdd8687d665f60a9a6d66c3cd",tooltip=" "];
  Node1 -> Node10 [dir="back",color="midnightblue",fontsize="10",style="solid"];
  Node10 [label="pip._vendor.msgpack.ext.\lTimestamp.__ne__",height=0.2,width=0.4,color="black", fillcolor="white", style="filled",URL="$d6/dd9/classpip_1_1__vendor_1_1msgpack_1_1ext_1_1_timestamp.html#a85bbfb0158c314f6747659d9d79fbc5f",tooltip=" "];
  Node1 -> Node11 [dir="back",color="midnightblue",fontsize="10",style="solid"];
  Node11 [label="pip._vendor.urllib3.\l_collections.HTTPHeaderDict.__ne__",height=0.2,width=0.4,color="black", fillcolor="white", style="filled",URL="$d8/dc7/classpip_1_1__vendor_1_1urllib3_1_1__collections_1_1_h_t_t_p_header_dict.html#a3f4d576e6b092d091cedfd92fe4becb2",tooltip=" "];
}
