digraph "pip._vendor.html5lib.treewalkers.genshi.TreeWalker.__iter__"
{
 // LATEX_PDF_SIZE
  edge [fontname="Helvetica",fontsize="10",labelfontname="Helvetica",labelfontsize="10"];
  node [fontname="Helvetica",fontsize="10",shape=record];
  rankdir="LR";
  Node1 [label="pip._vendor.html5lib.treewalkers.genshi.\lTreeWalker.__iter__",height=0.2,width=0.4,color="black", fillcolor="grey75", style="filled", fontcolor="black",tooltip=" "];
  Node1 -> Node2 [color="midnightblue",fontsize="10",style="solid",fontname="Helvetica"];
  Node2 [label="pip._vendor.html5lib.treewalkers.genshi.\lTreeWalker.tokens",height=0.2,width=0.4,color="black", fillcolor="white", style="filled",URL="$db/d04/classpip_1_1__vendor_1_1html5lib_1_1treewalkers_1_1genshi_1_1_tree_walker.html#aaa7cd4013932d988edef6e126ab998a3",tooltip=" "];
  Node2 -> Node3 [color="midnightblue",fontsize="10",style="solid",fontname="Helvetica"];
  Node3 [label="pip._vendor.html5lib.treewalkers.base.\lTreeWalker.comment",height=0.2,width=0.4,color="black", fillcolor="white", style="filled",URL="$d5/de6/classpip_1_1__vendor_1_1html5lib_1_1treewalkers_1_1base_1_1_tree_walker.html#a15701795d9b411c1949b2cad210298cc",tooltip=" "];
  Node2 -> Node4 [color="midnightblue",fontsize="10",style="solid",fontname="Helvetica"];
  Node4 [label="pip._vendor.html5lib.treewalkers.base.\lTreeWalker.doctype",height=0.2,width=0.4,color="black", fillcolor="white", style="filled",URL="$d5/de6/classpip_1_1__vendor_1_1html5lib_1_1treewalkers_1_1base_1_1_tree_walker.html#abc5d1c504158c353d9461a125569bd31",tooltip=" "];
  Node2 -> Node5 [color="midnightblue",fontsize="10",style="solid",fontname="Helvetica"];
  Node5 [label="pip._vendor.html5lib.treewalkers.base.\lTreeWalker.emptyTag",height=0.2,width=0.4,color="black", fillcolor="white", style="filled",URL="$d5/de6/classpip_1_1__vendor_1_1html5lib_1_1treewalkers_1_1base_1_1_tree_walker.html#adb45eb58b7c9dc77a1d059a8f75b8ccf",tooltip=" "];
  Node5 -> Node6 [color="midnightblue",fontsize="10",style="solid",fontname="Helvetica"];
  Node6 [label="pip._internal.cli.parser.\lConfigOptionParser.error",height=0.2,width=0.4,color="black", fillcolor="white", style="filled",URL="$d5/da5/classpip_1_1__internal_1_1cli_1_1parser_1_1_config_option_parser.html#a117b2b9285713ae8dada4e122adcfd83",tooltip=" "];
  Node5 -> Node7 [color="midnightblue",fontsize="10",style="solid",fontname="Helvetica"];
  Node7 [label="pip._vendor.html5lib.treewalkers.base.\lTreeWalker.error",height=0.2,width=0.4,color="black", fillcolor="white", style="filled",URL="$d5/de6/classpip_1_1__vendor_1_1html5lib_1_1treewalkers_1_1base_1_1_tree_walker.html#aed90492e5fc3449c9530531238aad993",tooltip=" "];
  Node2 -> Node8 [color="midnightblue",fontsize="10",style="solid",fontname="Helvetica"];
  Node8 [label="pip._vendor.html5lib.treewalkers.base.\lTreeWalker.endTag",height=0.2,width=0.4,color="black", fillcolor="white", style="filled",URL="$d5/de6/classpip_1_1__vendor_1_1html5lib_1_1treewalkers_1_1base_1_1_tree_walker.html#a604859d9a761510d7611c9196a45afe6",tooltip=" "];
  Node2 -> Node9 [color="midnightblue",fontsize="10",style="solid",fontname="Helvetica"];
  Node9 [label="pip._vendor.html5lib.treewalkers.base.\lTreeWalker.startTag",height=0.2,width=0.4,color="black", fillcolor="white", style="filled",URL="$d5/de6/classpip_1_1__vendor_1_1html5lib_1_1treewalkers_1_1base_1_1_tree_walker.html#a856cb47dbeacd8f1ed7a3daed61491d8",tooltip=" "];
  Node2 -> Node10 [color="midnightblue",fontsize="10",style="solid",fontname="Helvetica"];
  Node10 [label="pip._vendor.html5lib.treewalkers.base.\lTreeWalker.text",height=0.2,width=0.4,color="black", fillcolor="white", style="filled",URL="$d5/de6/classpip_1_1__vendor_1_1html5lib_1_1treewalkers_1_1base_1_1_tree_walker.html#a0a33de7f434938befd593353fb6cf030",tooltip=" "];
  Node2 -> Node11 [color="midnightblue",fontsize="10",style="solid",fontname="Helvetica"];
  Node11 [label="pip._vendor.html5lib.treewalkers.base.\lTreeWalker.unknown",height=0.2,width=0.4,color="black", fillcolor="white", style="filled",URL="$d5/de6/classpip_1_1__vendor_1_1html5lib_1_1treewalkers_1_1base_1_1_tree_walker.html#a460c48a4ce52afe6ed79fbf334307249",tooltip=" "];
  Node11 -> Node6 [color="midnightblue",fontsize="10",style="solid",fontname="Helvetica"];
  Node11 -> Node7 [color="midnightblue",fontsize="10",style="solid",fontname="Helvetica"];
}
