digraph "pip._vendor.pkg_resources.NullProvider._has"
{
 // LATEX_PDF_SIZE
  edge [fontname="Helvetica",fontsize="10",labelfontname="Helvetica",labelfontsize="10"];
  node [fontname="Helvetica",fontsize="10",shape=record];
  rankdir="RL";
  Node1 [label="pip._vendor.pkg_resources.\lNullProvider._has",height=0.2,width=0.4,color="black", fillcolor="grey75", style="filled", fontcolor="black",tooltip=" "];
  Node1 -> Node2 [dir="back",color="midnightblue",fontsize="10",style="solid"];
  Node2 [label="pip._vendor.pkg_resources.\lNullProvider.has_metadata",height=0.2,width=0.4,color="black", fillcolor="white", style="filled",URL="$dd/dc4/classpip_1_1__vendor_1_1pkg__resources_1_1_null_provider.html#afe892cd52c54d3947c58f2fb8dc8c911",tooltip=" "];
  Node2 -> Node3 [dir="back",color="midnightblue",fontsize="10",style="solid"];
  Node3 [label="pip._vendor.pkg_resources.\lZipProvider._get_eager\l_resources",height=0.2,width=0.4,color="black", fillcolor="white", style="filled",URL="$de/dc9/classpip_1_1__vendor_1_1pkg__resources_1_1_zip_provider.html#a3f35e6ed55f988f4f18e19a11a29b874",tooltip=" "];
  Node3 -> Node4 [dir="back",color="midnightblue",fontsize="10",style="solid"];
  Node4 [label="pip._vendor.pkg_resources.\lZipProvider.get_resource\l_filename",height=0.2,width=0.4,color="black", fillcolor="white", style="filled",URL="$de/dc9/classpip_1_1__vendor_1_1pkg__resources_1_1_zip_provider.html#a86f81d4504722cafa68dad0f29058450",tooltip=" "];
  Node3 -> Node5 [dir="back",color="midnightblue",fontsize="10",style="solid"];
  Node5 [label="pkg_resources.ZipProvider.get\l_resource_filename",height=0.2,width=0.4,color="black", fillcolor="white", style="filled",URL="$d3/d1e/classpkg__resources_1_1_zip_provider.html#afa80d21e26b8d79d8be636f3bfe5d94b",tooltip=" "];
  Node2 -> Node6 [dir="back",color="midnightblue",fontsize="10",style="solid"];
  Node6 [label="pkg_resources.ZipProvider.\l_get_eager_resources",height=0.2,width=0.4,color="black", fillcolor="white", style="filled",URL="$d3/d1e/classpkg__resources_1_1_zip_provider.html#ab59d9f67973ec7fee401d1ed38239b91",tooltip=" "];
  Node6 -> Node5 [dir="back",color="midnightblue",fontsize="10",style="solid"];
  Node2 -> Node7 [dir="back",color="midnightblue",fontsize="10",style="solid"];
  Node7 [label="pip._vendor.pkg_resources.\lDistribution._get_metadata",height=0.2,width=0.4,color="black", fillcolor="white", style="filled",URL="$d0/ddb/classpip_1_1__vendor_1_1pkg__resources_1_1_distribution.html#afb412e48215aa26610c2b5e8a2f7dedf",tooltip=" "];
  Node7 -> Node8 [dir="back",color="midnightblue",fontsize="10",style="solid"];
  Node8 [label="pip._vendor.pkg_resources.\lDistribution._build_dep_map",height=0.2,width=0.4,color="black", fillcolor="white", style="filled",URL="$d0/ddb/classpip_1_1__vendor_1_1pkg__resources_1_1_distribution.html#a2fd7e221db7d589996df637039aaec54",tooltip=" "];
  Node7 -> Node9 [dir="back",color="midnightblue",fontsize="10",style="solid"];
  Node9 [label="pkg_resources.Distribution.\l_build_dep_map",height=0.2,width=0.4,color="black", fillcolor="white", style="filled",URL="$d8/d25/classpkg__resources_1_1_distribution.html#a75b8ac998893d064a95a0a7da2d87cc7",tooltip=" "];
  Node7 -> Node10 [dir="back",color="midnightblue",fontsize="10",style="solid"];
  Node10 [label="pip._vendor.pkg_resources.\lDistribution._get_version",height=0.2,width=0.4,color="black", fillcolor="white", style="filled",URL="$d0/ddb/classpip_1_1__vendor_1_1pkg__resources_1_1_distribution.html#acdafee5cecb6b52e9e73bfc4e3624322",tooltip=" "];
  Node10 -> Node11 [dir="back",color="midnightblue",fontsize="10",style="solid"];
  Node11 [label="pip._vendor.pkg_resources.\lEggInfoDistribution._reload\l_version",height=0.2,width=0.4,color="black", fillcolor="white", style="filled",URL="$da/d9a/classpip_1_1__vendor_1_1pkg__resources_1_1_egg_info_distribution.html#aefecc9932672660de5c662beb8c98cbc",tooltip=" "];
  Node10 -> Node12 [dir="back",color="midnightblue",fontsize="10",style="solid"];
  Node12 [label="pkg_resources.EggInfoDistribution.\l_reload_version",height=0.2,width=0.4,color="black", fillcolor="white", style="filled",URL="$d4/dc5/classpkg__resources_1_1_egg_info_distribution.html#aef8f091a74e0ddd247286ed3ef2e43aa",tooltip=" "];
  Node10 -> Node13 [dir="back",color="midnightblue",fontsize="10",style="solid"];
  Node13 [label="pip._vendor.pkg_resources.\lDistribution.version",height=0.2,width=0.4,color="black", fillcolor="white", style="filled",URL="$d0/ddb/classpip_1_1__vendor_1_1pkg__resources_1_1_distribution.html#acd94a7f669ee4fc277245673ea39e748",tooltip=" "];
  Node13 -> Node14 [dir="back",color="midnightblue",fontsize="10",style="solid"];
  Node14 [label="pip._vendor.distlib.metadata.\lLegacyMetadata.__repr__",height=0.2,width=0.4,color="black", fillcolor="white", style="filled",URL="$d3/dc5/classpip_1_1__vendor_1_1distlib_1_1metadata_1_1_legacy_metadata.html#a368ff1d11ec3a0476833acdf59541d16",tooltip=" "];
  Node13 -> Node15 [dir="back",color="midnightblue",fontsize="10",style="solid"];
  Node15 [label="pip._vendor.distlib.metadata.\lMetadata.__repr__",height=0.2,width=0.4,color="black", fillcolor="white", style="filled",URL="$d3/df6/classpip_1_1__vendor_1_1distlib_1_1metadata_1_1_metadata.html#a08105ca0987f9e74cb1341a463d6cbe5",tooltip=" "];
  Node13 -> Node16 [dir="back",color="midnightblue",fontsize="10",style="solid"];
  Node16 [label="setuptools.wheel.Wheel.\l_install_as_egg",height=0.2,width=0.4,color="black", fillcolor="white", style="filled",URL="$d8/de5/classsetuptools_1_1wheel_1_1_wheel.html#af38ad98deb2dd9550fdb649d6394af38",tooltip=" "];
  Node16 -> Node17 [dir="back",color="midnightblue",fontsize="10",style="solid"];
  Node17 [label="setuptools.wheel.Wheel.install\l_as_egg",height=0.2,width=0.4,color="black", fillcolor="white", style="filled",URL="$d8/de5/classsetuptools_1_1wheel_1_1_wheel.html#a4d5d8dcde757279d6509a1f9137e595d",tooltip=" "];
  Node13 -> Node18 [dir="back",color="midnightblue",fontsize="10",style="solid"];
  Node18 [label="pip._vendor.pkg_resources.\lDistribution._warn_legacy\l_version",height=0.2,width=0.4,color="black", fillcolor="white", style="filled",URL="$d0/ddb/classpip_1_1__vendor_1_1pkg__resources_1_1_distribution.html#a1b072988ec5f6b3637bcb0d0be0a2772",tooltip=" "];
  Node13 -> Node19 [dir="back",color="midnightblue",fontsize="10",style="solid"];
  Node19 [label="pkg_resources.Distribution.\l_warn_legacy_version",height=0.2,width=0.4,color="black", fillcolor="white", style="filled",URL="$d8/d25/classpkg__resources_1_1_distribution.html#a65484374785d4460c6b92f015fe19a3c",tooltip=" "];
  Node13 -> Node20 [dir="back",color="midnightblue",fontsize="10",style="solid"];
  Node20 [label="pkg_resources._vendor.packaging.specifiers.\l_IndividualSpecifier.contains",height=0.2,width=0.4,color="black", fillcolor="white", style="filled",URL="$d7/d3d/classpkg__resources_1_1__vendor_1_1packaging_1_1specifiers_1_1___individual_specifier.html#afc614431c7e139a948866248f6f01bb4",tooltip=" "];
  Node20 -> Node21 [dir="back",color="midnightblue",fontsize="10",style="solid"];
  Node21 [label="setuptools._vendor.packaging.specifiers.\l_IndividualSpecifier.__contains__",height=0.2,width=0.4,color="black", fillcolor="white", style="filled",URL="$d2/dfa/classsetuptools_1_1__vendor_1_1packaging_1_1specifiers_1_1___individual_specifier.html#ac8c5634a825694d276f2cf5c4b3cb9bd",tooltip=" "];
  Node20 -> Node22 [dir="back",color="midnightblue",fontsize="10",style="solid"];
  Node22 [label="setuptools._vendor.packaging.specifiers.\lSpecifierSet.__contains__",height=0.2,width=0.4,color="black", fillcolor="white", style="filled",URL="$d6/d78/classsetuptools_1_1__vendor_1_1packaging_1_1specifiers_1_1_specifier_set.html#a883c1e784aebcb300e68cd5e08c7ea8a",tooltip=" "];
  Node20 -> Node23 [dir="back",color="midnightblue",fontsize="10",style="solid"];
  Node23 [label="setuptools._vendor.packaging.specifiers.\l_IndividualSpecifier.filter",height=0.2,width=0.4,color="black", fillcolor="white", style="filled",URL="$d2/dfa/classsetuptools_1_1__vendor_1_1packaging_1_1specifiers_1_1___individual_specifier.html#af07e3f018647cb7a004791b6436993e1",tooltip=" "];
  Node13 -> Node24 [dir="back",color="midnightblue",fontsize="10",style="solid"];
  Node24 [label="setuptools._vendor.packaging.specifiers.\l_IndividualSpecifier.contains",height=0.2,width=0.4,color="black", fillcolor="white", style="filled",URL="$d2/dfa/classsetuptools_1_1__vendor_1_1packaging_1_1specifiers_1_1___individual_specifier.html#add310771a2fd25ae2670e7ed15c81160",tooltip=" "];
  Node13 -> Node25 [dir="back",color="midnightblue",fontsize="10",style="solid"];
  Node25 [label="pip._vendor.pkg_resources.\lDistribution.egg_name",height=0.2,width=0.4,color="black", fillcolor="white", style="filled",URL="$d0/ddb/classpip_1_1__vendor_1_1pkg__resources_1_1_distribution.html#aa61d5600e0896e46b1708c4dcb9393f5",tooltip=" "];
  Node13 -> Node26 [dir="back",color="midnightblue",fontsize="10",style="solid"];
  Node26 [label="pkg_resources.Distribution.egg_name",height=0.2,width=0.4,color="black", fillcolor="white", style="filled",URL="$d8/d25/classpkg__resources_1_1_distribution.html#a229d424f62d10b7e83bba3b3efe6dbbb",tooltip=" "];
  Node13 -> Node27 [dir="back",color="midnightblue",fontsize="10",style="solid"];
  Node27 [label="setuptools.wheel.Wheel.egg_name",height=0.2,width=0.4,color="black", fillcolor="white", style="filled",URL="$d8/de5/classsetuptools_1_1wheel_1_1_wheel.html#a8003a0c439abab30a420897c391dfbe1",tooltip=" "];
  Node13 -> Node28 [dir="back",color="midnightblue",fontsize="10",style="solid"];
  Node28 [label="pip._vendor.pkg_resources.\lDistribution.has_version",height=0.2,width=0.4,color="black", fillcolor="white", style="filled",URL="$d0/ddb/classpip_1_1__vendor_1_1pkg__resources_1_1_distribution.html#acc58f778b2bb60f7b306e4d1bdef759e",tooltip=" "];
  Node13 -> Node29 [dir="back",color="midnightblue",fontsize="10",style="solid"];
  Node29 [label="pkg_resources.Distribution.has\l_version",height=0.2,width=0.4,color="black", fillcolor="white", style="filled",URL="$d8/d25/classpkg__resources_1_1_distribution.html#aa8b8ad9f54c86275b77b1966881df122",tooltip=" "];
  Node13 -> Node30 [dir="back",color="midnightblue",fontsize="10",style="solid"];
  Node30 [label="pip._vendor.distlib.metadata.\lMetadata.name_and_version",height=0.2,width=0.4,color="black", fillcolor="white", style="filled",URL="$d3/df6/classpip_1_1__vendor_1_1distlib_1_1metadata_1_1_metadata.html#a958dc84c5959001c3c94c99c262c8268",tooltip=" "];
  Node13 -> Node31 [dir="back",color="midnightblue",fontsize="10",style="solid"];
  Node31 [label="pip._vendor.distlib.metadata.\lMetadata.provides",height=0.2,width=0.4,color="black", fillcolor="white", style="filled",URL="$d3/df6/classpip_1_1__vendor_1_1distlib_1_1metadata_1_1_metadata.html#a700307186309aa299c50bbe7515cb58d",tooltip=" "];
  Node31 -> Node32 [dir="back",color="midnightblue",fontsize="10",style="solid"];
  Node32 [label="pip._vendor.distlib.metadata.\lMetadata._from_legacy",height=0.2,width=0.4,color="black", fillcolor="white", style="filled",URL="$d3/df6/classpip_1_1__vendor_1_1distlib_1_1metadata_1_1_metadata.html#a78ae3c1cd2c31e4376d991cba08ba678",tooltip=" "];
  Node32 -> Node33 [dir="back",color="midnightblue",fontsize="10",style="solid"];
  Node33 [label="pip._vendor.distlib.metadata.\lMetadata.dictionary",height=0.2,width=0.4,color="black", fillcolor="white", style="filled",URL="$d3/df6/classpip_1_1__vendor_1_1distlib_1_1metadata_1_1_metadata.html#a3b22b5416933750ac4e0de8f43ff6e2b",tooltip=" "];
  Node32 -> Node34 [dir="back",color="midnightblue",fontsize="10",style="solid"];
  Node34 [label="pip._vendor.distlib.metadata.\lMetadata.write",height=0.2,width=0.4,color="black", fillcolor="white", style="filled",URL="$d3/df6/classpip_1_1__vendor_1_1distlib_1_1metadata_1_1_metadata.html#a1765c04d32c8b3e84ad87b6083694569",tooltip=" "];
  Node34 -> Node35 [dir="back",color="midnightblue",fontsize="10",style="solid"];
  Node35 [label="pip._vendor.progress.counter.\lCounter.update",height=0.2,width=0.4,color="black", fillcolor="white", style="filled",URL="$d6/dbf/classpip_1_1__vendor_1_1progress_1_1counter_1_1_counter.html#a66bd8824561e1565e96015dbddb60366",tooltip=" "];
  Node34 -> Node36 [dir="back",color="midnightblue",fontsize="10",style="solid"];
  Node36 [label="pip._vendor.progress.counter.\lCountdown.update",height=0.2,width=0.4,color="black", fillcolor="white", style="filled",URL="$dd/d0f/classpip_1_1__vendor_1_1progress_1_1counter_1_1_countdown.html#a3488ef039b3b0f97853fdde0560f2749",tooltip=" "];
  Node34 -> Node37 [dir="back",color="midnightblue",fontsize="10",style="solid"];
  Node37 [label="pip._vendor.progress.counter.\lStack.update",height=0.2,width=0.4,color="black", fillcolor="white", style="filled",URL="$db/db4/classpip_1_1__vendor_1_1progress_1_1counter_1_1_stack.html#af271659d85b633bbd2954fba09b3371f",tooltip=" "];
  Node34 -> Node38 [dir="back",color="midnightblue",fontsize="10",style="solid"];
  Node38 [label="pip._vendor.progress.spinner.\lSpinner.update",height=0.2,width=0.4,color="black", fillcolor="white", style="filled",URL="$d0/d7f/classpip_1_1__vendor_1_1progress_1_1spinner_1_1_spinner.html#a5e5421b479c8ef4e38b3e0398eee8595",tooltip=" "];
  Node34 -> Node39 [dir="back",color="midnightblue",fontsize="10",style="solid"];
  Node39 [label="wheel.wheelfile.WheelFile.write\l_files",height=0.2,width=0.4,color="black", fillcolor="white", style="filled",URL="$dd/da0/classwheel_1_1wheelfile_1_1_wheel_file.html#a69ab05d387028873a52916edac00b2a8",tooltip=" "];
  Node31 -> Node40 [dir="back",color="midnightblue",fontsize="10",style="solid"];
  Node40 [label="pip._vendor.distlib.metadata.\lMetadata.provides",height=0.2,width=0.4,color="black", fillcolor="white", style="filled",URL="$d3/df6/classpip_1_1__vendor_1_1distlib_1_1metadata_1_1_metadata.html#a058ff05fbfaee325e2adc105f9ff6748",tooltip=" "];
  Node10 -> Node41 [dir="back",color="midnightblue",fontsize="10",style="solid"];
  Node41 [label="pkg_resources.Distribution.version",height=0.2,width=0.4,color="black", fillcolor="white", style="filled",URL="$d8/d25/classpkg__resources_1_1_distribution.html#a454a1c3eae52dee89980a24d7c67f036",tooltip=" "];
  Node41 -> Node14 [dir="back",color="midnightblue",fontsize="10",style="solid"];
  Node41 -> Node15 [dir="back",color="midnightblue",fontsize="10",style="solid"];
  Node41 -> Node16 [dir="back",color="midnightblue",fontsize="10",style="solid"];
  Node41 -> Node19 [dir="back",color="midnightblue",fontsize="10",style="solid"];
  Node41 -> Node20 [dir="back",color="midnightblue",fontsize="10",style="solid"];
  Node41 -> Node24 [dir="back",color="midnightblue",fontsize="10",style="solid"];
  Node41 -> Node26 [dir="back",color="midnightblue",fontsize="10",style="solid"];
  Node41 -> Node27 [dir="back",color="midnightblue",fontsize="10",style="solid"];
  Node41 -> Node29 [dir="back",color="midnightblue",fontsize="10",style="solid"];
  Node41 -> Node30 [dir="back",color="midnightblue",fontsize="10",style="solid"];
  Node41 -> Node31 [dir="back",color="midnightblue",fontsize="10",style="solid"];
  Node7 -> Node42 [dir="back",color="midnightblue",fontsize="10",style="solid"];
  Node42 [label="pkg_resources.Distribution.\l_get_version",height=0.2,width=0.4,color="black", fillcolor="white", style="filled",URL="$d8/d25/classpkg__resources_1_1_distribution.html#af5dae4847c9577a7d705d347cee0050c",tooltip=" "];
  Node42 -> Node12 [dir="back",color="midnightblue",fontsize="10",style="solid"];
  Node42 -> Node41 [dir="back",color="midnightblue",fontsize="10",style="solid"];
  Node7 -> Node43 [dir="back",color="midnightblue",fontsize="10",style="solid"];
  Node43 [label="pip._vendor.pkg_resources.\lDistribution.activate",height=0.2,width=0.4,color="black", fillcolor="white", style="filled",URL="$d0/ddb/classpip_1_1__vendor_1_1pkg__resources_1_1_distribution.html#a01dcb36642b9cabcedd14c3f50a59657",tooltip=" "];
  Node7 -> Node44 [dir="back",color="midnightblue",fontsize="10",style="solid"];
  Node44 [label="pkg_resources.Distribution.activate",height=0.2,width=0.4,color="black", fillcolor="white", style="filled",URL="$d8/d25/classpkg__resources_1_1_distribution.html#a4c4474f066527ee18c2dc15af67911df",tooltip=" "];
  Node2 -> Node45 [dir="back",color="midnightblue",fontsize="10",style="solid"];
  Node45 [label="pkg_resources.Distribution.\l_get_metadata",height=0.2,width=0.4,color="black", fillcolor="white", style="filled",URL="$d8/d25/classpkg__resources_1_1_distribution.html#aef94e0673364008155aef7b4d2475601",tooltip=" "];
  Node45 -> Node9 [dir="back",color="midnightblue",fontsize="10",style="solid"];
  Node45 -> Node42 [dir="back",color="midnightblue",fontsize="10",style="solid"];
  Node45 -> Node44 [dir="back",color="midnightblue",fontsize="10",style="solid"];
  Node2 -> Node46 [dir="back",color="midnightblue",fontsize="10",style="solid"];
  Node46 [label="pip._vendor.pkg_resources.\lNullProvider.run_script",height=0.2,width=0.4,color="black", fillcolor="white", style="filled",URL="$dd/dc4/classpip_1_1__vendor_1_1pkg__resources_1_1_null_provider.html#ad3cba73f9f405f1e3e3567ad9295aae2",tooltip=" "];
  Node2 -> Node47 [dir="back",color="midnightblue",fontsize="10",style="solid"];
  Node47 [label="pkg_resources.NullProvider.run\l_script",height=0.2,width=0.4,color="black", fillcolor="white", style="filled",URL="$d3/da0/classpkg__resources_1_1_null_provider.html#a03ae8028263462bb68477eb92f1610a2",tooltip=" "];
  Node1 -> Node48 [dir="back",color="midnightblue",fontsize="10",style="solid"];
  Node48 [label="pkg_resources.NullProvider.has\l_metadata",height=0.2,width=0.4,color="black", fillcolor="white", style="filled",URL="$d3/da0/classpkg__resources_1_1_null_provider.html#a670947a5ce4a05cbae651365c5294bbc",tooltip=" "];
  Node48 -> Node6 [dir="back",color="midnightblue",fontsize="10",style="solid"];
  Node48 -> Node7 [dir="back",color="midnightblue",fontsize="10",style="solid"];
  Node48 -> Node45 [dir="back",color="midnightblue",fontsize="10",style="solid"];
  Node48 -> Node47 [dir="back",color="midnightblue",fontsize="10",style="solid"];
  Node1 -> Node49 [dir="back",color="midnightblue",fontsize="10",style="solid"];
  Node49 [label="pip._vendor.pkg_resources.\lNullProvider.has_resource",height=0.2,width=0.4,color="black", fillcolor="white", style="filled",URL="$dd/dc4/classpip_1_1__vendor_1_1pkg__resources_1_1_null_provider.html#add676aaa47b1904e31b7adb48b2c49ba",tooltip=" "];
  Node1 -> Node50 [dir="back",color="midnightblue",fontsize="10",style="solid"];
  Node50 [label="pkg_resources.NullProvider.has\l_resource",height=0.2,width=0.4,color="black", fillcolor="white", style="filled",URL="$d3/da0/classpkg__resources_1_1_null_provider.html#a34bb6a57b35a7b35dcadf2558333e152",tooltip=" "];
}
