digraph "pip._vendor.pkg_resources.NullProvider.get_resource_string"
{
 // LATEX_PDF_SIZE
  edge [fontname="Helvetica",fontsize="10",labelfontname="Helvetica",labelfontsize="10"];
  node [fontname="Helvetica",fontsize="10",shape=record];
  rankdir="RL";
  Node1 [label="pip._vendor.pkg_resources.\lNullProvider.get_resource_string",height=0.2,width=0.4,color="black", fillcolor="grey75", style="filled", fontcolor="black",tooltip=" "];
  Node1 -> Node2 [dir="back",color="midnightblue",fontsize="10",style="solid"];
  Node2 [label="pip._vendor.pkg_resources.\lNullProvider.get_resource_stream",height=0.2,width=0.4,color="black", fillcolor="white", style="filled",URL="$dd/dc4/classpip_1_1__vendor_1_1pkg__resources_1_1_null_provider.html#ae7f0a7311594c8cdc3c2b2c4f2f73296",tooltip=" "];
  Node1 -> Node3 [dir="back",color="midnightblue",fontsize="10",style="solid"];
  Node3 [label="pkg_resources.NullProvider.get\l_resource_stream",height=0.2,width=0.4,color="black", fillcolor="white", style="filled",URL="$d3/da0/classpkg__resources_1_1_null_provider.html#ab8e610dad60b34272be032178b8c1e47",tooltip=" "];
}
