digraph "pip._internal.utils.wheel.wheel_metadata"
{
 // LATEX_PDF_SIZE
  edge [fontname="Helvetica",fontsize="10",labelfontname="Helvetica",labelfontsize="10"];
  node [fontname="Helvetica",fontsize="10",shape=record];
  rankdir="LR";
  Node1 [label="pip._internal.utils.wheel.wheel\l_metadata",height=0.2,width=0.4,color="black", fillcolor="grey75", style="filled", fontcolor="black",tooltip=" "];
  Node1 -> Node2 [color="midnightblue",fontsize="10",style="solid"];
  Node2 [label="pip._vendor.html5lib.treewalkers.etree\l_lxml.ensure_str",height=0.2,width=0.4,color="black", fillcolor="white", style="filled",URL="$db/dd7/namespacepip_1_1__vendor_1_1html5lib_1_1treewalkers_1_1etree__lxml.html#a028cec52b33e2067b38382eb23c523b9",tooltip=" "];
  Node1 -> Node3 [color="midnightblue",fontsize="10",style="solid"];
  Node3 [label="pip._internal.utils.wheel.read\l_wheel_metadata_file",height=0.2,width=0.4,color="black", fillcolor="white", style="filled",URL="$d5/d40/namespacepip_1_1__internal_1_1utils_1_1wheel.html#ad8755183e1435a2e60d8877a3c29f0c5",tooltip=" "];
}
