digraph "pip._vendor.pkg_resources.IResourceProvider"
{
 // LATEX_PDF_SIZE
  edge [fontname="Helvetica",fontsize="10",labelfontname="Helvetica",labelfontsize="10"];
  node [fontname="Helvetica",fontsize="10",shape=record];
  Node1 [label="{pip._vendor.pkg_resources.\lIResourceProvider\n||+ get_resource_filename()\l+ get_resource_stream()\l+ get_resource_string()\l+ has_resource()\l+ resource_isdir()\l+ resource_listdir()\l}",height=0.2,width=0.4,color="black", fillcolor="grey75", style="filled", fontcolor="black",tooltip=" "];
  Node2 -> Node1 [dir="back",color="midnightblue",fontsize="10",style="solid",arrowtail="onormal",fontname="Helvetica"];
  Node2 [label="{pip._vendor.pkg_resources.\lIMetadataProvider\n||+ has_metadata()\l+ get_metadata()\l+ get_metadata_lines()\l+ metadata_isdir()\l+ metadata_listdir()\l+ run_script()\l}",height=0.2,width=0.4,color="black", fillcolor="white", style="filled",URL="$dd/db4/classpip_1_1__vendor_1_1pkg__resources_1_1_i_metadata_provider.html",tooltip=" "];
}
