digraph "pip._vendor.distlib.util.SubprocessMixin.reader"
{
 // LATEX_PDF_SIZE
  edge [fontname="Helvetica",fontsize="10",labelfontname="Helvetica",labelfontsize="10"];
  node [fontname="Helvetica",fontsize="10",shape=record];
  rankdir="RL";
  Node1 [label="pip._vendor.distlib.util.\lSubprocessMixin.reader",height=0.2,width=0.4,color="black", fillcolor="grey75", style="filled", fontcolor="black",tooltip=" "];
  Node1 -> Node2 [dir="back",color="midnightblue",fontsize="10",style="solid",fontname="Helvetica"];
  Node2 [label="pip._vendor.distlib.util.\lSubprocessMixin.run_command",height=0.2,width=0.4,color="black", fillcolor="white", style="filled",URL="$d4/de7/classpip_1_1__vendor_1_1distlib_1_1util_1_1_subprocess_mixin.html#a5125055ff3816365b9687e83a361cb2b",tooltip=" "];
  Node2 -> Node3 [dir="back",color="midnightblue",fontsize="10",style="solid",fontname="Helvetica"];
  Node3 [label="setuptools._distutils.command.install\l_lib.install_lib.build",height=0.2,width=0.4,color="black", fillcolor="white", style="filled",URL="$de/d3b/classsetuptools_1_1__distutils_1_1command_1_1install__lib_1_1install__lib.html#a8be54c86c5c89436d295b32d917407fc",tooltip=" "];
  Node3 -> Node4 [dir="back",color="midnightblue",fontsize="10",style="solid",fontname="Helvetica"];
  Node4 [label="setuptools._distutils.command.install\l_lib.install_lib.run",height=0.2,width=0.4,color="black", fillcolor="white", style="filled",URL="$de/d3b/classsetuptools_1_1__distutils_1_1command_1_1install__lib_1_1install__lib.html#a1c0172f47a7203a3044af96bf632f80e",tooltip=" "];
  Node3 -> Node5 [dir="back",color="midnightblue",fontsize="10",style="solid",fontname="Helvetica"];
  Node5 [label="setuptools.command.install\l_lib.install_lib.run",height=0.2,width=0.4,color="black", fillcolor="white", style="filled",URL="$db/d8e/classsetuptools_1_1command_1_1install__lib_1_1install__lib.html#a72adda63714aa1fdf24bdf6e6a5ca9f3",tooltip=" "];
  Node2 -> Node6 [dir="back",color="midnightblue",fontsize="10",style="solid",fontname="Helvetica"];
  Node6 [label="setuptools.command.bdist\l_egg.bdist_egg.call_command",height=0.2,width=0.4,color="black", fillcolor="white", style="filled",URL="$da/daa/classsetuptools_1_1command_1_1bdist__egg_1_1bdist__egg.html#a2271a29121d1ca3f5b5ff75da1888fc3",tooltip=" "];
  Node6 -> Node7 [dir="back",color="midnightblue",fontsize="10",style="solid",fontname="Helvetica"];
  Node7 [label="setuptools.command.bdist\l_egg.bdist_egg.do_install_data",height=0.2,width=0.4,color="black", fillcolor="white", style="filled",URL="$da/daa/classsetuptools_1_1command_1_1bdist__egg_1_1bdist__egg.html#a7e5c3429cd7af6d1666efa7d302a99a9",tooltip=" "];
  Node6 -> Node8 [dir="back",color="midnightblue",fontsize="10",style="solid",fontname="Helvetica"];
  Node8 [label="setuptools.command.bdist\l_egg.bdist_egg.run",height=0.2,width=0.4,color="black", fillcolor="white", style="filled",URL="$da/daa/classsetuptools_1_1command_1_1bdist__egg_1_1bdist__egg.html#aba0d75c484a4998875ab89bf5b351703",tooltip=" "];
  Node2 -> Node9 [dir="back",color="midnightblue",fontsize="10",style="solid",fontname="Helvetica"];
  Node9 [label="setuptools.command.install.install.do\l_egg_install",height=0.2,width=0.4,color="black", fillcolor="white", style="filled",URL="$d9/d45/classsetuptools_1_1command_1_1install_1_1install.html#a96fdffd6145de3296ee08ef3dd51ed2b",tooltip=" "];
  Node9 -> Node10 [dir="back",color="midnightblue",fontsize="10",style="solid",fontname="Helvetica"];
  Node10 [label="setuptools.command.install.install.run",height=0.2,width=0.4,color="black", fillcolor="white", style="filled",URL="$d9/d45/classsetuptools_1_1command_1_1install_1_1install.html#a836001d2333653e5ee3163aa4c805e6e",tooltip=" "];
  Node2 -> Node11 [dir="back",color="midnightblue",fontsize="10",style="solid",fontname="Helvetica"];
  Node11 [label="setuptools.command.develop.develop.install\l_for_development",height=0.2,width=0.4,color="black", fillcolor="white", style="filled",URL="$d0/d3d/classsetuptools_1_1command_1_1develop_1_1develop.html#a0334bc03494f1c1b9361789a1f080b36",tooltip=" "];
  Node2 -> Node12 [dir="back",color="midnightblue",fontsize="10",style="solid",fontname="Helvetica"];
  Node12 [label="setuptools.command.test.test.project\l_on_sys_path",height=0.2,width=0.4,color="black", fillcolor="white", style="filled",URL="$de/d1e/classsetuptools_1_1command_1_1test_1_1test.html#a0b522fa707ccd2575e5db99d32cd5226",tooltip=" "];
  Node12 -> Node13 [dir="back",color="midnightblue",fontsize="10",style="solid",fontname="Helvetica"];
  Node13 [label="setuptools.command.test.test.run",height=0.2,width=0.4,color="black", fillcolor="white", style="filled",URL="$de/d1e/classsetuptools_1_1command_1_1test_1_1test.html#a9db00a1ed286f1957d4dd53fb4612f21",tooltip=" "];
  Node12 -> Node14 [dir="back",color="midnightblue",fontsize="10",style="solid",fontname="Helvetica"];
  Node14 [label="setuptools.command.test.test.with\l_project_on_sys_path",height=0.2,width=0.4,color="black", fillcolor="white", style="filled",URL="$de/d1e/classsetuptools_1_1command_1_1test_1_1test.html#a6031bb41469603a2f2ddc6a0ce6070e6",tooltip=" "];
  Node2 -> Node15 [dir="back",color="midnightblue",fontsize="10",style="solid",fontname="Helvetica"];
  Node15 [label="setuptools._distutils.command.bdist.bdist.run",height=0.2,width=0.4,color="black", fillcolor="white", style="filled",URL="$db/d8c/classsetuptools_1_1__distutils_1_1command_1_1bdist_1_1bdist.html#ae911072daf9a639873de914654353dcb",tooltip=" "];
  Node2 -> Node16 [dir="back",color="midnightblue",fontsize="10",style="solid",fontname="Helvetica"];
  Node16 [label="setuptools._distutils.command.bdist\l_dumb.bdist_dumb.run",height=0.2,width=0.4,color="black", fillcolor="white", style="filled",URL="$de/dfd/classsetuptools_1_1__distutils_1_1command_1_1bdist__dumb_1_1bdist__dumb.html#a2c9f36cb7482612d496d19c2e41b9bec",tooltip=" "];
  Node2 -> Node17 [dir="back",color="midnightblue",fontsize="10",style="solid",fontname="Helvetica"];
  Node17 [label="setuptools._distutils.command.bdist\l_msi.bdist_msi.run",height=0.2,width=0.4,color="black", fillcolor="white", style="filled",URL="$d4/d63/classsetuptools_1_1__distutils_1_1command_1_1bdist__msi_1_1bdist__msi.html#aaf78383d7e076c7f940708682e1ded40",tooltip=" "];
  Node2 -> Node18 [dir="back",color="midnightblue",fontsize="10",style="solid",fontname="Helvetica"];
  Node18 [label="setuptools._distutils.command.bdist\l_rpm.bdist_rpm.run",height=0.2,width=0.4,color="black", fillcolor="white", style="filled",URL="$d7/d13/classsetuptools_1_1__distutils_1_1command_1_1bdist__rpm_1_1bdist__rpm.html#a35e31868300bbdbbf0bf38d2e3abb103",tooltip=" "];
  Node2 -> Node19 [dir="back",color="midnightblue",fontsize="10",style="solid",fontname="Helvetica"];
  Node19 [label="setuptools._distutils.command.bdist\l_wininst.bdist_wininst.run",height=0.2,width=0.4,color="black", fillcolor="white", style="filled",URL="$d5/df2/classsetuptools_1_1__distutils_1_1command_1_1bdist__wininst_1_1bdist__wininst.html#a399b918d1063236ea5e59a7884033fc6",tooltip=" "];
  Node2 -> Node20 [dir="back",color="midnightblue",fontsize="10",style="solid",fontname="Helvetica"];
  Node20 [label="setuptools._distutils.command.build.build.run",height=0.2,width=0.4,color="black", fillcolor="white", style="filled",URL="$d7/d39/classsetuptools_1_1__distutils_1_1command_1_1build_1_1build.html#a8629055596c257f39bad28eb04cc64d7",tooltip=" "];
  Node2 -> Node21 [dir="back",color="midnightblue",fontsize="10",style="solid",fontname="Helvetica"];
  Node21 [label="setuptools._distutils.command.install.install.run",height=0.2,width=0.4,color="black", fillcolor="white", style="filled",URL="$de/df7/classsetuptools_1_1__distutils_1_1command_1_1install_1_1install.html#ae12edd991819be7f8cb0ca36de30c3ed",tooltip=" "];
  Node2 -> Node22 [dir="back",color="midnightblue",fontsize="10",style="solid",fontname="Helvetica"];
  Node22 [label="setuptools._distutils.command.install\l_scripts.install_scripts.run",height=0.2,width=0.4,color="black", fillcolor="white", style="filled",URL="$d9/dcb/classsetuptools_1_1__distutils_1_1command_1_1install__scripts_1_1install__scripts.html#aafd2f192eafa5871a13809b78472b129",tooltip=" "];
  Node2 -> Node23 [dir="back",color="midnightblue",fontsize="10",style="solid",fontname="Helvetica"];
  Node23 [label="setuptools._distutils.command.register.register.run",height=0.2,width=0.4,color="black", fillcolor="white", style="filled",URL="$de/de8/classsetuptools_1_1__distutils_1_1command_1_1register_1_1register.html#abd5bb7740da36e4892bc45621a73d781",tooltip=" "];
  Node2 -> Node8 [dir="back",color="midnightblue",fontsize="10",style="solid",fontname="Helvetica"];
  Node2 -> Node24 [dir="back",color="midnightblue",fontsize="10",style="solid",fontname="Helvetica"];
  Node24 [label="setuptools.command.bdist\l_rpm.bdist_rpm.run",height=0.2,width=0.4,color="black", fillcolor="white", style="filled",URL="$df/dae/classsetuptools_1_1command_1_1bdist__rpm_1_1bdist__rpm.html#af4bf74a4d1fcf5869be29590fd1b4287",tooltip=" "];
  Node2 -> Node25 [dir="back",color="midnightblue",fontsize="10",style="solid",fontname="Helvetica"];
  Node25 [label="setuptools.command.install\l_egg_info.install_egg_info.run",height=0.2,width=0.4,color="black", fillcolor="white", style="filled",URL="$d7/d62/classsetuptools_1_1command_1_1install__egg__info_1_1install__egg__info.html#ab796e0cd113ca97b504d05f167ef3ea3",tooltip=" "];
  Node2 -> Node26 [dir="back",color="midnightblue",fontsize="10",style="solid",fontname="Helvetica"];
  Node26 [label="setuptools.command.install\l_scripts.install_scripts.run",height=0.2,width=0.4,color="black", fillcolor="white", style="filled",URL="$d0/da0/classsetuptools_1_1command_1_1install__scripts_1_1install__scripts.html#a7be3bccb3d044a874127101f8ffd8dc8",tooltip=" "];
  Node2 -> Node27 [dir="back",color="midnightblue",fontsize="10",style="solid",fontname="Helvetica"];
  Node27 [label="setuptools.command.rotate.rotate.run",height=0.2,width=0.4,color="black", fillcolor="white", style="filled",URL="$d3/d6e/classsetuptools_1_1command_1_1rotate_1_1rotate.html#ab616d54a363a536c0201b55dcc2b1110",tooltip=" "];
  Node2 -> Node28 [dir="back",color="midnightblue",fontsize="10",style="solid",fontname="Helvetica"];
  Node28 [label="setuptools.command.sdist.sdist.run",height=0.2,width=0.4,color="black", fillcolor="white", style="filled",URL="$de/d02/classsetuptools_1_1command_1_1sdist_1_1sdist.html#aff1d5d55ae04ff524b1b5ba77818bf58",tooltip=" "];
  Node2 -> Node29 [dir="back",color="midnightblue",fontsize="10",style="solid",fontname="Helvetica"];
  Node29 [label="setuptools.command.upload\l_docs.upload_docs.run",height=0.2,width=0.4,color="black", fillcolor="white", style="filled",URL="$d6/d06/classsetuptools_1_1command_1_1upload__docs_1_1upload__docs.html#a68a4acfc4c983b959a33ef16a9c00f1b",tooltip=" "];
  Node2 -> Node30 [dir="back",color="midnightblue",fontsize="10",style="solid",fontname="Helvetica"];
  Node30 [label="wheel.bdist_wheel.bdist\l_wheel.run",height=0.2,width=0.4,color="black", fillcolor="white", style="filled",URL="$d9/d71/classwheel_1_1bdist__wheel_1_1bdist__wheel.html#a6fcbc2c28940276344c16945fa96daad",tooltip=" "];
  Node2 -> Node31 [dir="back",color="midnightblue",fontsize="10",style="solid",fontname="Helvetica"];
  Node31 [label="setuptools._distutils.dist.\lDistribution.run_commands",height=0.2,width=0.4,color="black", fillcolor="white", style="filled",URL="$d9/d14/classsetuptools_1_1__distutils_1_1dist_1_1_distribution.html#a380bd700672c35b06b2262836c2b1320",tooltip=" "];
}
