digraph "pip._vendor.pyparsing.ParserElement.setDebugActions"
{
 // LATEX_PDF_SIZE
  edge [fontname="Helvetica",fontsize="10",labelfontname="Helvetica",labelfontsize="10"];
  node [fontname="Helvetica",fontsize="10",shape=record];
  rankdir="RL";
  Node1 [label="pip._vendor.pyparsing.Parser\lElement.setDebugActions",height=0.2,width=0.4,color="black", fillcolor="grey75", style="filled", fontcolor="black",tooltip=" "];
  Node1 -> Node2 [dir="back",color="midnightblue",fontsize="10",style="solid",fontname="Helvetica"];
  Node2 [label="pip._vendor.pyparsing.Parser\lElement.setDebug",height=0.2,width=0.4,color="black", fillcolor="white", style="filled",URL="$df/d7f/classpip_1_1__vendor_1_1pyparsing_1_1_parser_element.html#aa57485868018a5815428aca6c4e526b9",tooltip=" "];
  Node1 -> Node3 [dir="back",color="midnightblue",fontsize="10",style="solid",fontname="Helvetica"];
  Node3 [label="pkg_resources._vendor.pyparsing.\lParserElement.setDebug",height=0.2,width=0.4,color="black", fillcolor="white", style="filled",URL="$de/df0/classpkg__resources_1_1__vendor_1_1pyparsing_1_1_parser_element.html#a40898433962bb7ed5fb13e32e924bd0e",tooltip=" "];
  Node1 -> Node4 [dir="back",color="midnightblue",fontsize="10",style="solid",fontname="Helvetica"];
  Node4 [label="setuptools._vendor.pyparsing.\lParserElement.setDebug",height=0.2,width=0.4,color="black", fillcolor="white", style="filled",URL="$d9/d25/classsetuptools_1_1__vendor_1_1pyparsing_1_1_parser_element.html#ae589616c030e7bc76f86c139b60e2bc6",tooltip=" "];
}
