digraph "pip._vendor.msgpack.fallback._is_recursionerror"
{
 // LATEX_PDF_SIZE
  edge [fontname="Helvetica",fontsize="10",labelfontname="Helvetica",labelfontsize="10"];
  node [fontname="Helvetica",fontsize="10",shape=record];
  rankdir="RL";
  Node1 [label="pip._vendor.msgpack.fallback.\l_is_recursionerror",height=0.2,width=0.4,color="black", fillcolor="grey75", style="filled", fontcolor="black",tooltip=" "];
  Node1 -> Node2 [dir="back",color="midnightblue",fontsize="10",style="solid"];
  Node2 [label="pip._vendor.msgpack.fallback.unpackb",height=0.2,width=0.4,color="black", fillcolor="white", style="filled",URL="$d9/d38/namespacepip_1_1__vendor_1_1msgpack_1_1fallback.html#ada2bc9436f17225e14cbe6b1f2d6d95a",tooltip=" "];
  Node2 -> Node3 [dir="back",color="midnightblue",fontsize="10",style="solid"];
  Node3 [label="pip._vendor.msgpack.unpack",height=0.2,width=0.4,color="black", fillcolor="white", style="filled",URL="$dc/d2c/namespacepip_1_1__vendor_1_1msgpack.html#a34faad3da6c20412267615714cf359e4",tooltip=" "];
  Node3 -> Node4 [dir="back",color="midnightblue",fontsize="10",style="solid"];
  Node4 [label="pip._vendor.packaging.tags.\l_ELFFileHeader.__init__",height=0.2,width=0.4,color="black", fillcolor="white", style="filled",URL="$dc/d78/classpip_1_1__vendor_1_1packaging_1_1tags_1_1___e_l_f_file_header.html#a1bd4e9136cf86103a5c84f5159df4649",tooltip=" "];
  Node4 -> Node5 [dir="back",color="midnightblue",fontsize="10",style="solid"];
  Node5 [label="setuptools._vendor.ordered\l_set.OrderedSet.__setstate__",height=0.2,width=0.4,color="black", fillcolor="white", style="filled",URL="$d0/d40/classsetuptools_1_1__vendor_1_1ordered__set_1_1_ordered_set.html#a852740634ccd2e3158b599082cf086de",tooltip=" "];
  Node3 -> Node6 [dir="back",color="midnightblue",fontsize="10",style="solid"];
  Node6 [label="pkg_resources._vendor.packaging.tags.\l_ELFFileHeader.__init__",height=0.2,width=0.4,color="black", fillcolor="white", style="filled",URL="$d2/d08/classpkg__resources_1_1__vendor_1_1packaging_1_1tags_1_1___e_l_f_file_header.html#ae5290ca3e4a0f5722f49ea44b75496b1",tooltip=" "];
  Node6 -> Node5 [dir="back",color="midnightblue",fontsize="10",style="solid"];
  Node3 -> Node7 [dir="back",color="midnightblue",fontsize="10",style="solid"];
  Node7 [label="setuptools._vendor.packaging.tags.\l_ELFFileHeader.__init__",height=0.2,width=0.4,color="black", fillcolor="white", style="filled",URL="$dd/d0a/classsetuptools_1_1__vendor_1_1packaging_1_1tags_1_1___e_l_f_file_header.html#ab2e4bf7b652c02db46a06bf0c7953eeb",tooltip=" "];
  Node3 -> Node8 [dir="back",color="midnightblue",fontsize="10",style="solid"];
  Node8 [label="wheel.vendored.packaging.tags.\l_ELFFileHeader.__init__",height=0.2,width=0.4,color="black", fillcolor="white", style="filled",URL="$df/d80/classwheel_1_1vendored_1_1packaging_1_1tags_1_1___e_l_f_file_header.html#af05e87532a2500cf454aa697332e8e84",tooltip=" "];
}
