digraph "pip._vendor.msgpack.fallback.unpackb"
{
 // LATEX_PDF_SIZE
  edge [fontname="Helvetica",fontsize="10",labelfontname="Helvetica",labelfontsize="10"];
  node [fontname="Helvetica",fontsize="10",shape=record];
  rankdir="LR";
  Node1 [label="pip._vendor.msgpack.fallback.unpackb",height=0.2,width=0.4,color="black", fillcolor="grey75", style="filled", fontcolor="black",tooltip=" "];
  Node1 -> Node2 [color="midnightblue",fontsize="10",style="solid"];
  Node2 [label="pip._vendor.msgpack.fallback.\l_is_recursionerror",height=0.2,width=0.4,color="black", fillcolor="white", style="filled",URL="$d9/d38/namespacepip_1_1__vendor_1_1msgpack_1_1fallback.html#ae0f0396f933f6c5f0745ec5811f3bfa5",tooltip=" "];
}
