digraph "pip._vendor.distlib.resources.ResourceBase"
{
 // LATEX_PDF_SIZE
  edge [fontname="Helvetica",fontsize="10",labelfontname="Helvetica",labelfontsize="10"];
  node [fontname="Helvetica",fontsize="10",shape=record];
  Node1 [label="{pip._vendor.distlib.resources.\lResourceBase\n|+ finder\l+ name\l|+ __init__()\l}",height=0.2,width=0.4,color="black", fillcolor="grey75", style="filled", fontcolor="black",tooltip=" "];
  Node2 -> Node1 [dir="back",color="midnightblue",fontsize="10",style="solid",arrowtail="onormal"];
  Node2 [label="{object\n||}",height=0.2,width=0.4,color="grey75", fillcolor="white", style="filled",tooltip=" "];
  Node1 -> Node3 [dir="back",color="midnightblue",fontsize="10",style="solid",arrowtail="onormal"];
  Node3 [label="{pip._vendor.distlib.resources.\lResource\n|+ is_container\l|+ as_stream()\l+ file_path()\l+ bytes()\l+ size()\l}",height=0.2,width=0.4,color="black", fillcolor="white", style="filled",URL="$d6/d16/classpip_1_1__vendor_1_1distlib_1_1resources_1_1_resource.html",tooltip=" "];
  Node1 -> Node4 [dir="back",color="midnightblue",fontsize="10",style="solid",arrowtail="onormal"];
  Node4 [label="{pip._vendor.distlib.resources.\lResourceContainer\n|+ is_container\l|+ resources()\l}",height=0.2,width=0.4,color="black", fillcolor="white", style="filled",URL="$d1/d5e/classpip_1_1__vendor_1_1distlib_1_1resources_1_1_resource_container.html",tooltip=" "];
}
