digraph "_virtualenv._Finder.load_module"
{
 // LATEX_PDF_SIZE
  edge [fontname="Helvetica",fontsize="10",labelfontname="Helvetica",labelfontsize="10"];
  node [fontname="Helvetica",fontsize="10",shape=record];
  rankdir="LR";
  Node1 [label="_virtualenv._Finder.load\l_module",height=0.2,width=0.4,color="black", fillcolor="grey75", style="filled", fontcolor="black",tooltip=" "];
  Node1 -> Node2 [color="midnightblue",fontsize="10",style="solid",fontname="Helvetica"];
  Node2 [label="_virtualenv.patch_dist",height=0.2,width=0.4,color="black", fillcolor="white", style="filled",URL="$d4/df6/namespace__virtualenv.html#aca7a80d2c0638e3bfefa3fd885099ac7",tooltip=" "];
}
