digraph "pip._internal.utils.wheel.wheel_dist_info_dir"
{
 // LATEX_PDF_SIZE
  edge [fontname="Helvetica",fontsize="10",labelfontname="Helvetica",labelfontsize="10"];
  node [fontname="Helvetica",fontsize="10",shape=record];
  rankdir="RL";
  Node1 [label="pip._internal.utils.wheel.wheel\l_dist_info_dir",height=0.2,width=0.4,color="black", fillcolor="grey75", style="filled", fontcolor="black",tooltip=" "];
  Node1 -> Node2 [dir="back",color="midnightblue",fontsize="10",style="solid",fontname="Helvetica"];
  Node2 [label="pip._internal.utils.wheel.parse\l_wheel",height=0.2,width=0.4,color="black", fillcolor="white", style="filled",URL="$d5/d40/namespacepip_1_1__internal_1_1utils_1_1wheel.html#a5694f73c60d36a304f5b667b0c543f4b",tooltip=" "];
  Node2 -> Node3 [dir="back",color="midnightblue",fontsize="10",style="solid",fontname="Helvetica"];
  Node3 [label="pip._internal.operations.install.wheel.\l_install_wheel",height=0.2,width=0.4,color="black", fillcolor="white", style="filled",URL="$d5/d70/namespacepip_1_1__internal_1_1operations_1_1install_1_1wheel.html#a0ad021df60af9054ff77b91d0074745d",tooltip=" "];
  Node3 -> Node4 [dir="back",color="midnightblue",fontsize="10",style="solid",fontname="Helvetica"];
  Node4 [label="pip._internal.operations.install.wheel.install\l_wheel",height=0.2,width=0.4,color="black", fillcolor="white", style="filled",URL="$d5/d70/namespacepip_1_1__internal_1_1operations_1_1install_1_1wheel.html#a2a206ecfa963eb599bec740849d711da",tooltip=" "];
  Node4 -> Node5 [dir="back",color="midnightblue",fontsize="10",style="solid",fontname="Helvetica"];
  Node5 [label="pip._internal.req.req\l_install.InstallRequirement.install",height=0.2,width=0.4,color="black", fillcolor="white", style="filled",URL="$d2/daa/classpip_1_1__internal_1_1req_1_1req__install_1_1_install_requirement.html#a4c6eb857ba6f6d3a0f82f7672755bc0b",tooltip=" "];
  Node5 -> Node6 [dir="back",color="midnightblue",fontsize="10",style="solid",fontname="Helvetica"];
  Node6 [label="setuptools._distutils.command.install\l_lib.install_lib.run",height=0.2,width=0.4,color="black", fillcolor="white", style="filled",URL="$de/d3b/classsetuptools_1_1__distutils_1_1command_1_1install__lib_1_1install__lib.html#a1c0172f47a7203a3044af96bf632f80e",tooltip=" "];
  Node5 -> Node7 [dir="back",color="midnightblue",fontsize="10",style="solid",fontname="Helvetica"];
  Node7 [label="setuptools.command.install\l_lib.install_lib.run",height=0.2,width=0.4,color="black", fillcolor="white", style="filled",URL="$db/d8e/classsetuptools_1_1command_1_1install__lib_1_1install__lib.html#a72adda63714aa1fdf24bdf6e6a5ca9f3",tooltip=" "];
  Node2 -> Node8 [dir="back",color="midnightblue",fontsize="10",style="solid",fontname="Helvetica"];
  Node8 [label="pip._internal.utils.wheel.pkg\l_resources_distribution_for_wheel",height=0.2,width=0.4,color="black", fillcolor="white", style="filled",URL="$d5/d40/namespacepip_1_1__internal_1_1utils_1_1wheel.html#af34bfda22bc345e6ba61a4f98354ae46",tooltip=" "];
  Node8 -> Node3 [dir="back",color="midnightblue",fontsize="10",style="solid",fontname="Helvetica"];
  Node8 -> Node9 [dir="back",color="midnightblue",fontsize="10",style="solid",fontname="Helvetica"];
  Node9 [label="pip._internal.distributions.wheel.\lWheelDistribution.get_pkg_resources\l_distribution",height=0.2,width=0.4,color="black", fillcolor="white", style="filled",URL="$d2/dd3/classpip_1_1__internal_1_1distributions_1_1wheel_1_1_wheel_distribution.html#a81411c79b4ceeef7081eba6ec4046ec9",tooltip=" "];
}
