digraph "pip._internal.cli.base_command.Command._main"
{
 // LATEX_PDF_SIZE
  edge [fontname="Helvetica",fontsize="10",labelfontname="Helvetica",labelfontsize="10"];
  node [fontname="Helvetica",fontsize="10",shape=record];
  rankdir="LR";
  Node1 [label="pip._internal.cli.base\l_command.Command._main",height=0.2,width=0.4,color="black", fillcolor="grey75", style="filled", fontcolor="black",tooltip=" "];
  Node1 -> Node2 [color="midnightblue",fontsize="10",style="solid",fontname="Helvetica"];
  Node2 [label="pip._internal.cli.command\l_context.CommandContextMixIn.enter\l_context",height=0.2,width=0.4,color="black", fillcolor="white", style="filled",URL="$d4/d41/classpip_1_1__internal_1_1cli_1_1command__context_1_1_command_context_mix_in.html#ae66ea2807c894992943232fed9b0c33e",tooltip=" "];
  Node1 -> Node3 [color="midnightblue",fontsize="10",style="solid",fontname="Helvetica"];
  Node3 [label="pip._internal.utils.temp\l_dir.global_tempdir_manager",height=0.2,width=0.4,color="black", fillcolor="white", style="filled",URL="$d0/dd2/namespacepip_1_1__internal_1_1utils_1_1temp__dir.html#a23b75e869bce0195b7ae8bade9d56a6c",tooltip=" "];
  Node1 -> Node4 [color="midnightblue",fontsize="10",style="solid",fontname="Helvetica"];
  Node4 [label="pip._internal.cli.base\l_command.Command.parse_args",height=0.2,width=0.4,color="black", fillcolor="white", style="filled",URL="$d2/da8/classpip_1_1__internal_1_1cli_1_1base__command_1_1_command.html#aee31e89902c88b1acfe8256491dfd7fa",tooltip=" "];
}
