digraph "pip._internal.req.req_tracker.get_requirement_tracker"
{
 // LATEX_PDF_SIZE
  edge [fontname="Helvetica",fontsize="10",labelfontname="Helvetica",labelfontsize="10"];
  node [fontname="Helvetica",fontsize="10",shape=record];
  rankdir="RL";
  Node1 [label="pip._internal.req.req\l_tracker.get_requirement\l_tracker",height=0.2,width=0.4,color="black", fillcolor="grey75", style="filled", fontcolor="black",tooltip=" "];
  Node1 -> Node2 [dir="back",color="midnightblue",fontsize="10",style="solid"];
  Node2 [label="pip._internal.commands.download.\lDownloadCommand.run",height=0.2,width=0.4,color="black", fillcolor="white", style="filled",URL="$d9/d03/classpip_1_1__internal_1_1commands_1_1download_1_1_download_command.html#a4992cef595bc4f38a1635e91a7557a54",tooltip=" "];
  Node1 -> Node3 [dir="back",color="midnightblue",fontsize="10",style="solid"];
  Node3 [label="pip._internal.commands.install.\lInstallCommand.run",height=0.2,width=0.4,color="black", fillcolor="white", style="filled",URL="$d2/dff/classpip_1_1__internal_1_1commands_1_1install_1_1_install_command.html#aed853149716837d308440b8e2405a75c",tooltip=" "];
  Node1 -> Node4 [dir="back",color="midnightblue",fontsize="10",style="solid"];
  Node4 [label="pip._internal.commands.wheel.\lWheelCommand.run",height=0.2,width=0.4,color="black", fillcolor="white", style="filled",URL="$d7/d9d/classpip_1_1__internal_1_1commands_1_1wheel_1_1_wheel_command.html#a4cb8665d201b720369f174eae955f875",tooltip=" "];
}
