digraph "pip._internal.resolution.resolvelib.base.Candidate.name"
{
 // LATEX_PDF_SIZE
  edge [fontname="Helvetica",fontsize="10",labelfontname="Helvetica",labelfontsize="10"];
  node [fontname="Helvetica",fontsize="10",shape=record];
  rankdir="RL";
  Node1 [label="pip._internal.resolution.resolvelib.base.\lCandidate.name",height=0.2,width=0.4,color="black", fillcolor="grey75", style="filled", fontcolor="black",tooltip=" "];
  Node1 -> Node2 [dir="back",color="midnightblue",fontsize="10",style="solid",fontname="Helvetica"];
  Node2 [label="setuptools._distutils.versionpredicate.\lVersionPredicate.__init__",height=0.2,width=0.4,color="black", fillcolor="white", style="filled",URL="$de/da4/classsetuptools_1_1__distutils_1_1versionpredicate_1_1_version_predicate.html#a50b7ef93717276fd4d7ea45efe206b1f",tooltip=" "];
  Node2 -> Node3 [dir="back",color="midnightblue",fontsize="10",style="solid",fontname="Helvetica"];
  Node3 [label="setuptools._vendor.ordered\l_set.OrderedSet.__setstate__",height=0.2,width=0.4,color="black", fillcolor="white", style="filled",URL="$d0/d40/classsetuptools_1_1__vendor_1_1ordered__set_1_1_ordered_set.html#a852740634ccd2e3158b599082cf086de",tooltip=" "];
  Node1 -> Node4 [dir="back",color="midnightblue",fontsize="10",style="solid",fontname="Helvetica"];
  Node4 [label="pip._vendor.distlib.metadata.\lLegacyMetadata.__repr__",height=0.2,width=0.4,color="black", fillcolor="white", style="filled",URL="$d3/dc5/classpip_1_1__vendor_1_1distlib_1_1metadata_1_1_legacy_metadata.html#a368ff1d11ec3a0476833acdf59541d16",tooltip=" "];
  Node1 -> Node5 [dir="back",color="midnightblue",fontsize="10",style="solid",fontname="Helvetica"];
  Node5 [label="pip._vendor.distlib.metadata.\lMetadata.__repr__",height=0.2,width=0.4,color="black", fillcolor="white", style="filled",URL="$d3/df6/classpip_1_1__vendor_1_1distlib_1_1metadata_1_1_metadata.html#a08105ca0987f9e74cb1341a463d6cbe5",tooltip=" "];
  Node1 -> Node6 [dir="back",color="midnightblue",fontsize="10",style="solid",fontname="Helvetica"];
  Node6 [label="setuptools._distutils.versionpredicate.\lVersionPredicate.__str__",height=0.2,width=0.4,color="black", fillcolor="white", style="filled",URL="$de/da4/classsetuptools_1_1__distutils_1_1versionpredicate_1_1_version_predicate.html#abd1b824f167ab2c1b646159d1d3539f1",tooltip=" "];
  Node1 -> Node7 [dir="back",color="midnightblue",fontsize="10",style="solid",fontname="Helvetica"];
  Node7 [label="pip._internal.resolution.resolvelib.candidates.\l_InstallRequirementBackedCandidate.\l_get_requires_python_dependency",height=0.2,width=0.4,color="black", fillcolor="white", style="filled",URL="$dc/d03/classpip_1_1__internal_1_1resolution_1_1resolvelib_1_1candidates_1_1___install_requirement_backed_candidate.html#af091e0d266b0fdf7eee058bb2f7d7d96",tooltip=" "];
  Node7 -> Node8 [dir="back",color="midnightblue",fontsize="10",style="solid",fontname="Helvetica"];
  Node8 [label="pip._internal.resolution.resolvelib.candidates.\l_InstallRequirementBackedCandidate.iter\l_dependencies",height=0.2,width=0.4,color="black", fillcolor="white", style="filled",URL="$dc/d03/classpip_1_1__internal_1_1resolution_1_1resolvelib_1_1candidates_1_1___install_requirement_backed_candidate.html#a6b60557a552757c829f765f2b7cc2c93",tooltip=" "];
  Node1 -> Node9 [dir="back",color="midnightblue",fontsize="10",style="solid",fontname="Helvetica"];
  Node9 [label="setuptools.command.egg\l_info.egg_info.finalize\l_options",height=0.2,width=0.4,color="black", fillcolor="white", style="filled",URL="$d4/dd5/classsetuptools_1_1command_1_1egg__info_1_1egg__info.html#ab62dc812cd7873e55721c014fcf3207f",tooltip=" "];
  Node1 -> Node10 [dir="back",color="midnightblue",fontsize="10",style="solid",fontname="Helvetica"];
  Node10 [label="pip._internal.resolution.resolvelib.candidates.\l_InstallRequirementBackedCandidate.format_for_error",height=0.2,width=0.4,color="black", fillcolor="white", style="filled",URL="$dc/d03/classpip_1_1__internal_1_1resolution_1_1resolvelib_1_1candidates_1_1___install_requirement_backed_candidate.html#a56b1f0ed616ece3d39c6cb8b12f12692",tooltip=" "];
  Node1 -> Node11 [dir="back",color="midnightblue",fontsize="10",style="solid",fontname="Helvetica"];
  Node11 [label="setuptools.depends.Require.full_name",height=0.2,width=0.4,color="black", fillcolor="white", style="filled",URL="$d2/d91/classsetuptools_1_1depends_1_1_require.html#aafeb6a0853fe7b53c649a90b4860aa1b",tooltip=" "];
  Node1 -> Node12 [dir="back",color="midnightblue",fontsize="10",style="solid",fontname="Helvetica"];
  Node12 [label="pip._vendor.distro.Linux\lDistribution.linux_distribution",height=0.2,width=0.4,color="black", fillcolor="white", style="filled",URL="$db/dc1/classpip_1_1__vendor_1_1distro_1_1_linux_distribution.html#a9deb9d70ba82d370ba5fd4b1ac7473e6",tooltip=" "];
  Node1 -> Node13 [dir="back",color="midnightblue",fontsize="10",style="solid",fontname="Helvetica"];
  Node13 [label="pip._vendor.distlib.metadata.\lMetadata.name_and_version",height=0.2,width=0.4,color="black", fillcolor="white", style="filled",URL="$d3/df6/classpip_1_1__vendor_1_1distlib_1_1metadata_1_1_metadata.html#a958dc84c5959001c3c94c99c262c8268",tooltip=" "];
  Node1 -> Node14 [dir="back",color="midnightblue",fontsize="10",style="solid",fontname="Helvetica"];
  Node14 [label="pip._vendor.distlib.metadata.\lMetadata.provides",height=0.2,width=0.4,color="black", fillcolor="white", style="filled",URL="$d3/df6/classpip_1_1__vendor_1_1distlib_1_1metadata_1_1_metadata.html#a700307186309aa299c50bbe7515cb58d",tooltip=" "];
  Node14 -> Node15 [dir="back",color="midnightblue",fontsize="10",style="solid",fontname="Helvetica"];
  Node15 [label="pip._vendor.distlib.metadata.\lMetadata._from_legacy",height=0.2,width=0.4,color="black", fillcolor="white", style="filled",URL="$d3/df6/classpip_1_1__vendor_1_1distlib_1_1metadata_1_1_metadata.html#a78ae3c1cd2c31e4376d991cba08ba678",tooltip=" "];
  Node15 -> Node16 [dir="back",color="midnightblue",fontsize="10",style="solid",fontname="Helvetica"];
  Node16 [label="pip._vendor.distlib.metadata.\lMetadata.dictionary",height=0.2,width=0.4,color="black", fillcolor="white", style="filled",URL="$d3/df6/classpip_1_1__vendor_1_1distlib_1_1metadata_1_1_metadata.html#a3b22b5416933750ac4e0de8f43ff6e2b",tooltip=" "];
  Node15 -> Node17 [dir="back",color="midnightblue",fontsize="10",style="solid",fontname="Helvetica"];
  Node17 [label="pip._vendor.distlib.metadata.\lMetadata.write",height=0.2,width=0.4,color="black", fillcolor="white", style="filled",URL="$d3/df6/classpip_1_1__vendor_1_1distlib_1_1metadata_1_1_metadata.html#a1765c04d32c8b3e84ad87b6083694569",tooltip=" "];
  Node17 -> Node18 [dir="back",color="midnightblue",fontsize="10",style="solid",fontname="Helvetica"];
  Node18 [label="pip._vendor.progress.counter.\lCounter.update",height=0.2,width=0.4,color="black", fillcolor="white", style="filled",URL="$d6/dbf/classpip_1_1__vendor_1_1progress_1_1counter_1_1_counter.html#a66bd8824561e1565e96015dbddb60366",tooltip=" "];
  Node17 -> Node19 [dir="back",color="midnightblue",fontsize="10",style="solid",fontname="Helvetica"];
  Node19 [label="pip._vendor.progress.counter.\lCountdown.update",height=0.2,width=0.4,color="black", fillcolor="white", style="filled",URL="$dd/d0f/classpip_1_1__vendor_1_1progress_1_1counter_1_1_countdown.html#a3488ef039b3b0f97853fdde0560f2749",tooltip=" "];
  Node17 -> Node20 [dir="back",color="midnightblue",fontsize="10",style="solid",fontname="Helvetica"];
  Node20 [label="pip._vendor.progress.counter.\lStack.update",height=0.2,width=0.4,color="black", fillcolor="white", style="filled",URL="$db/db4/classpip_1_1__vendor_1_1progress_1_1counter_1_1_stack.html#af271659d85b633bbd2954fba09b3371f",tooltip=" "];
  Node17 -> Node21 [dir="back",color="midnightblue",fontsize="10",style="solid",fontname="Helvetica"];
  Node21 [label="pip._vendor.progress.spinner.\lSpinner.update",height=0.2,width=0.4,color="black", fillcolor="white", style="filled",URL="$d0/d7f/classpip_1_1__vendor_1_1progress_1_1spinner_1_1_spinner.html#a5e5421b479c8ef4e38b3e0398eee8595",tooltip=" "];
  Node17 -> Node22 [dir="back",color="midnightblue",fontsize="10",style="solid",fontname="Helvetica"];
  Node22 [label="wheel.wheelfile.WheelFile.write\l_files",height=0.2,width=0.4,color="black", fillcolor="white", style="filled",URL="$dd/da0/classwheel_1_1wheelfile_1_1_wheel_file.html#a69ab05d387028873a52916edac00b2a8",tooltip=" "];
  Node14 -> Node23 [dir="back",color="midnightblue",fontsize="10",style="solid",fontname="Helvetica"];
  Node23 [label="pip._vendor.distlib.metadata.\lMetadata.provides",height=0.2,width=0.4,color="black", fillcolor="white", style="filled",URL="$d3/df6/classpip_1_1__vendor_1_1distlib_1_1metadata_1_1_metadata.html#a058ff05fbfaee325e2adc105f9ff6748",tooltip=" "];
  Node1 -> Node24 [dir="back",color="midnightblue",fontsize="10",style="solid",fontname="Helvetica"];
  Node24 [label="pip._internal.vcs.versioncontrol.\lVcsSupport.register",height=0.2,width=0.4,color="black", fillcolor="white", style="filled",URL="$df/dff/classpip_1_1__internal_1_1vcs_1_1versioncontrol_1_1_vcs_support.html#a69650573cc250eef73d42fa803e8f402",tooltip=" "];
}
