digraph "pip._internal.distributions.make_distribution_for_install_requirement"
{
 // LATEX_PDF_SIZE
  edge [fontname="Helvetica",fontsize="10",labelfontname="Helvetica",labelfontsize="10"];
  node [fontname="Helvetica",fontsize="10",shape=record];
  rankdir="RL";
  Node1 [label="pip._internal.distributions.make\l_distribution_for_install_requirement",height=0.2,width=0.4,color="black", fillcolor="grey75", style="filled", fontcolor="black",tooltip=" "];
  Node1 -> Node2 [dir="back",color="midnightblue",fontsize="10",style="solid"];
  Node2 [label="pip._internal.operations.prepare.\l_get_prepared_distribution",height=0.2,width=0.4,color="black", fillcolor="white", style="filled",URL="$d5/d0e/namespacepip_1_1__internal_1_1operations_1_1prepare.html#afa7ce18f3c34a40106412855fdfda238",tooltip=" "];
  Node2 -> Node3 [dir="back",color="midnightblue",fontsize="10",style="solid"];
  Node3 [label="pip._internal.operations.prepare.\lRequirementPreparer.prepare\l_editable_requirement",height=0.2,width=0.4,color="black", fillcolor="white", style="filled",URL="$d3/dc5/classpip_1_1__internal_1_1operations_1_1prepare_1_1_requirement_preparer.html#a49bae56966abd8173ed34ebf0612a563",tooltip=" "];
  Node2 -> Node4 [dir="back",color="midnightblue",fontsize="10",style="solid"];
  Node4 [label="pip._internal.operations.prepare.\lRequirementPreparer.prepare\l_linked_requirement",height=0.2,width=0.4,color="black", fillcolor="white", style="filled",URL="$d3/dc5/classpip_1_1__internal_1_1operations_1_1prepare_1_1_requirement_preparer.html#a112bf5c78474500ff9c4c6b4101e4a6b",tooltip=" "];
  Node1 -> Node5 [dir="back",color="midnightblue",fontsize="10",style="solid"];
  Node5 [label="pip._internal.operations.check.\l_simulate_installation_of",height=0.2,width=0.4,color="black", fillcolor="white", style="filled",URL="$d0/deb/namespacepip_1_1__internal_1_1operations_1_1check.html#af5ea82bbba5618f7fcca17d91668e4ee",tooltip=" "];
  Node5 -> Node6 [dir="back",color="midnightblue",fontsize="10",style="solid"];
  Node6 [label="pip._internal.operations.check.check\l_install_conflicts",height=0.2,width=0.4,color="black", fillcolor="white", style="filled",URL="$d0/deb/namespacepip_1_1__internal_1_1operations_1_1check.html#a872c01627dab38f37f73bcbf182260f2",tooltip=" "];
  Node6 -> Node7 [dir="back",color="midnightblue",fontsize="10",style="solid"];
  Node7 [label="pip._internal.commands.install.\lInstallCommand._determine\l_conflicts",height=0.2,width=0.4,color="black", fillcolor="white", style="filled",URL="$d2/dff/classpip_1_1__internal_1_1commands_1_1install_1_1_install_command.html#ae26cec259934d5dfd75abec0a5e9f277",tooltip=" "];
  Node7 -> Node8 [dir="back",color="midnightblue",fontsize="10",style="solid"];
  Node8 [label="pip._internal.commands.install.\lInstallCommand.run",height=0.2,width=0.4,color="black", fillcolor="white", style="filled",URL="$d2/dff/classpip_1_1__internal_1_1commands_1_1install_1_1_install_command.html#aed853149716837d308440b8e2405a75c",tooltip=" "];
}
