digraph "pip._internal.models.candidate.InstallationCandidate"
{
 // LATEX_PDF_SIZE
  edge [fontname="Helvetica",fontsize="10",labelfontname="Helvetica",labelfontsize="10"];
  node [fontname="Helvetica",fontsize="10",shape=record];
  Node1 [label="{pip._internal.models.candidate.\lInstallationCandidate\n|+ name\l+ version\l+ link\l- __slots__\l|+ __init__()\l+ __repr__()\l+ __str__()\l}",height=0.2,width=0.4,color="black", fillcolor="grey75", style="filled", fontcolor="black",tooltip=" "];
  Node2 -> Node1 [dir="back",color="midnightblue",fontsize="10",style="solid",arrowtail="onormal",fontname="Helvetica"];
  Node2 [label="{pip._internal.utils.models.\lKeyBasedCompareMixin\n|- _compare_key\l- _defining_class\l- __slots__\l|+ __init__()\l+ __hash__()\l+ __lt__()\l+ __le__()\l+ __gt__()\l+ __ge__()\l+ __eq__()\l+ __ne__()\l- _compare()\l}",height=0.2,width=0.4,color="black", fillcolor="white", style="filled",URL="$d3/d62/classpip_1_1__internal_1_1utils_1_1models_1_1_key_based_compare_mixin.html",tooltip=" "];
  Node3 -> Node2 [dir="back",color="midnightblue",fontsize="10",style="solid",arrowtail="onormal",fontname="Helvetica"];
  Node3 [label="{object\n||}",height=0.2,width=0.4,color="grey75", fillcolor="white", style="filled",tooltip=" "];
}
