digraph "pip._internal.utils.models.KeyBasedCompareMixin.__eq__"
{
 // LATEX_PDF_SIZE
  edge [fontname="Helvetica",fontsize="10",labelfontname="Helvetica",labelfontsize="10"];
  node [fontname="Helvetica",fontsize="10",shape=record];
  rankdir="LR";
  Node1 [label="pip._internal.utils.models.\lKeyBasedCompareMixin.__eq__",height=0.2,width=0.4,color="black", fillcolor="grey75", style="filled", fontcolor="black",tooltip=" "];
  Node1 -> Node2 [color="midnightblue",fontsize="10",style="solid"];
  Node2 [label="pip._internal.utils.models.\lKeyBasedCompareMixin._compare",height=0.2,width=0.4,color="black", fillcolor="white", style="filled",URL="$d3/d62/classpip_1_1__internal_1_1utils_1_1models_1_1_key_based_compare_mixin.html#a1793013f4ae62938e9ad628520e261ec",tooltip=" "];
}
